25905
7100
3330
3714
5532
5408
6534
7899
8568
35870
7664
8779
8638
9526
13415
11261
10420
15826
15253
13525
14827
16893
16095
16596
16888
25003
12390
11019
10949
11459
11633
12985
12475
13413
21292
13261
17030
14370
15686
17563
18141
72994
16700
14411
16069
15761
17997
18009
18844
19669
16977
32422
19634
17930
20294
20523
20008
22650
20331
24845
26736
28129
97786
45159
74046
24132
26002
26362
23769
29477
25757
28407
26974
28976
26469
30524
26556
31170
31386
32013
32163
29501
31122
36159
59398
42590
67422
65366
50571
35012
38863
36958
38822
38830
36930
40117
38600
55098
40826
61123
