1200 1289358008
1158345954
1748601658
1239622717
259301322
484297675
1130164453
597836356
234438646
1109601458
749842308
509687723
1629780386
1601923255
1221177728
439974804
1276434442
1448205282
1923948573
955510550
1472293052
2075688390
1569393852
1847931389
568510947
1754085703
24978389
409484995
404209896
22678905
800548674
2117619367
1210996837
394327266
2090659839
2013988416
1117423192
1180997459
609401037
1147922848
1145264785
1952366605
680095751
2046433369
2028975378
678797288
609702543
1179210262
666600380
853595304
890965326
667370166
2132707636
2005875038
1568712729
333846134
2116922102
2130607701
1910601563
32331335
618645289
1255508524
1800935157
502402063
624890793
1221763446
1895918552
1989619476
1133511574
532567745
2097393389
1264015275
1805038997
1999913918
1024753352
943242317
1027861190
1144162394
743897625
1458336991
1932690514
293671876
1720377859
209324082
159287759
740406520
1520813124
498613947
1939781562
286912954
1292840328
1274298389
2081002821
1929881661
131654589
642250432
412029827
722564691
694953950
1799404721
309310064
1776544410
944046270
1234652815
1499082737
42761156
2088013033
98175347
882425397
841173498
499342715
101346817
1171702077
1414833546
661444449
55504215
1963464104
100360410
1485610684
620362926
1696259948
1276962719
309790673
256340531
2101141134
1857560438
1146458861
2068916456
1654476567
1408765917
1702915309
1021046040
1924419126
1232818888
1714289383
767406146
1714997467
1317096617
2016504714
1304299058
1091432987
451816675
799101362
15853501
328286559
1278653900
1029654170
900972682
1439823875
1382337841
1805227070
1584972493
1297822011
1820709968
243263270
316965615
2052683289
1022609440
1233389972
1453055120
2030361991
990521873
1537188987
1937251991
408465914
150450026
456657684
131825464
524394327
2038282810
1683557340
1627904079
1435199953
1519294823
2048904173
1954065379
1710697424
1725665521
1045342397
1247899621
318970906
293841441
673391113
1855005410
842784
875842523
229035185
68954150
2090290891
19700376
550784219
1666018248
1335686626
2008326443
1946769298
947900230
1962399954
2058961050
1868479974
1839258942
386396815
241035411
1520402158
1061013087
1256269934
712316827
2109202811
958112981
896124880
2096145176
1536530173
1971063135
1139969205
1752876980
831644998
1565445958
183578474
8979005
798939520
1320302677
698776588
1029287571
1267761577
2051166432
1100541802
527266081
603664143
1993907513
619503083
2066572951
490717407
2122124440
1455628714
714021892
1031730640
2120824302
1424445738
1806126948
1246545698
522116233
1647738005
1077704707
1293732432
682802014
759657743
864687620
1770036002
713857560
922589737
8768434
1517375222
352168248
1221538017
739720292
2046619031
2116953542
447234362
1137948248
1758524529
453199497
2087910522
317628793
1094377723
129920841
1869523952
1143978135
995606998
1396092340
396240626
283117919
1179374150
1521319205
1303826700
1237236802
1551571941
1667224487
1578704960
942581106
1054613668
34895226
695970697
183344213
1302171078
1208520995
1745993875
986094637
1652028737
1471915214
1075216985
282045589
1663340720
1933289853
885362525
954503458
949095216
1219659651
719990838
271532639
1905284070
957731711
1548619035
682568985
365721586
268030198
326134942
1204829106
269845748
581484713
1829697996
2000856511
486765336
264205142
623448715
342132797
1429804909
1605379633
558276089
598623765
949624357
296527868
2045471186
179482717
300813550
798540801
960500219
878966285
545869049
1455814530
1561947564
141450603
800406863
978939226
1722254987
127517443
565202249
2136818157
1647646200
1279451835
1983848070
1906184280
1434487902
522020703
2062004052
1939195337
1800904303
1167049613
487558342
851754646
2134793291
672780841
1146490152
351938908
1544212214
1817656690
765694498
36484219
343809885
525250606
1971770142
564429131
1426342846
299814412
1519988510
1482121615
1776498325
305787712
1052968802
1366841940
1967305892
981581079
274276821
425423080
1955955497
498293267
170660531
1441709914
1024278051
825598596
599961394
1865011251
48344767
1786378372
421037995
83116807
1330948319
625012752
593062306
1596242098
2105242227
137609128
1379068665
391710483
1844883730
1118009463
1869937231
327726675
501342256
660538855
1960475496
55755800
761483142
1437660937
1576200190
1898426489
644196758
1387662932
105249354
462475731
2082734360
710777144
1307205557
838201726
1213294665
1753518400
1827173014
996290397
985992840
2008843402
803339444
1558785790
78898854
879707300
1318584678
1752009425
1084282163
1211129972
654807122
329879963
1951164044
707617507
1710661221
1920682340
1242369532
1858985198
132770294
1318370529
51964524
1639199744
597484307
970035045
1818891810
980433818
422879065
1066588231
1275493455
357864653
260494082
1688356928
1284781888
922736322
451793931
876451156
1631811305
38436697
2135073790
1812672217
1949757159
1835706968
951452129
1876507005
1840499956
742298333
1432454582
153605226
1115829967
852417190
730448143
362783949
1007112434
607755118
514484853
716548667
348245150
928464353
1871023953
1541233354
1341259218
327817964
26136118
1003096067
1666611760
625599254
304847113
1616939522
1577467541
1796984717
341933910
605697270
798055846
1086888481
1034649728
381293622
246494804
935411031
1322214945
173371206
1055994184
415464565
1168909877
1758500337
416876625
1005532331
1796885849
17888358
1078039359
2040362107
437743796
1111846731
1620910033
258628545
731228504
1724254343
387731007
1912784254
610800843
1596705624
1723365499
627488208
417685729
1633812406
709664893
1517392956
871980288
1452386286
1963320772
966339263
1837012251
2112373811
831816872
1878290042
1037628109
2035998369
346446744
1153109957
48916681
480665629
525597130
848220939
1419420873
1039018962
2051618187
956280762
894093638
1920599080
1653754498
1474017782
1554919515
288634609
890667006
1727779311
1369519531
128520414
1575573085
1113463929
565643471
90741435
213597837
192889627
1129809777
1019976968
265476082
235109510
291905462
2000481520
454538736
652238098
1435154987
2118647621
148352717
1649962472
5614709
1640875645
1309651499
1580830380
2090316656
1860228359
1814111866
1525619907
2103899374
971623232
503107581
1192813625
1013582570
1909787321
1458323015
1987565339
1478628551
1227535027
1698874295
505515695
1611453082
487711799
727642675
487297851
513263166
559959768
1703256696
153054317
1459445373
1006044247
1530888652
1848146253
2001021212
1624085832
654452919
621580499
750783651
724333826
1863170290
652241456
1534692259
532129400
2122843069
1082707114
792137119
1980411748
637417421
280594494
1455305268
2143737336
647370850
1128478067
2017143664
1041540021
727169724
163626583
264249179
1975104166
2014891044
1658170892
787911384
352567608
2108842381
1447971110
2134629270
99225198
1867140180
1704095314
1971427952
300285551
1150875942
217857570
1500200337
1277429346
1228199493
1405324185
390171359
164487438
1896628686
223286264
1316303408
1196362405
643235781
400326578
747202356
1955890614
627587194
294660645
1717535810
23651961
1055522409
773698065
134001784
640526356
19619217
207245776
1560454439
1280493602
1430908962
606732113
1647591818
621652840
220200500
576214215
41907162
1810909588
855646962
1225670870
1478815717
102867369
610761609
817200747
1152845238
639137534
485448948
238736712
1892186904
1457083454
1458016922
1891639988
642018872
1356388437
1260528714
971974827
2122858555
1036208901
1637459115
1765680950
125339390
394950788
280692557
731331526
1357514590
440063509
2033975125
2113112666
1171765123
1329130971
8840358
312159434
1258211814
195564423
1139090406
232451004
1452916247
1390108915
2058433272
404799153
320044016
1758591303
2113474620
814748732
548107831
2145359481
807028919
473883125
807654287
1338137693
1728087571
1131183495
2058527233
193394088
1204790556
1193491456
160370877
381417573
853693284
383113951
1368633853
160797022
1931884206
1319743359
1569637845
113408184
1543412282
742301712
469339188
483602086
1559667960
1894114271
1659871020
1748270955
1387010178
358124194
1600083245
1776176868
8099597
1142869519
1787571045
167226874
647459050
620308730
723269537
80819636
340917299
482097163
1963565831
196521131
1719955928
1110467160
233909261
842592827
1444631553
1772505335
1364635881
1404121935
317807971
1309736852
714654053
1943955057
591525418
127339731
2020358620
949882999
538718925
749417034
802743482
2044809168
1801411164
735968522
2060461294
136262116
602535030
565779860
412526794
816139936
683958318
655722523
1952064327
843558115
1815081318
1367170324
946605851
1141960374
732141553
1615501666
448428077
45335932
1507790069
1448316493
960483016
278834759
610109862
152445407
457359642
1873999492
2106656195
2071123795
1314856306
448792433
2037316992
724082446
477150528
671349425
301449118
1298296680
26834604
1158837987
360793078
1338483758
1471878824
664982373
279873965
1352673073
517891094
501646542
2048687484
566059265
1612720378
1009307957
1038968718
1324937326
1658668401
1016646724
58450575
171584248
1240910295
20880349
664688894
1276339605
824645842
1195180986
1778650100
1764230228
142676382
2107652656
877961619
1370247839
911360578
1494942783
769342124
695215205
1975591493
691214871
2124812664
1678064858
2057327630
578671284
958635958
296910797
420474903
1152260296
1499876493
251980278
161863278
978626206
626500591
1374638180
1626737022
190024290
2034504507
478800235
1936986102
975565525
810037431
1856150726
616980208
1732067938
1615366558
611261328
197446884
1557425438
222099340
1238483179
1652230958
1891277612
1203273713
1187133919
1806182505
2025199247
1589033402
713750030
1297357565
557874773
1691859769
11296567
1513378534
1300054860
1163104498
1129765434
1639470352
1114336388
84818910
747409123
1622629300
1047765711
274020084
1478228129
1389888128
1100187055
502236823
1573142070
1860892604
830949202
1011436939
1140085257
1183954567
812814542
228846660
1756748507
329927179
1806282350
206808783
1064625076
1947801198
1532756967
1748226665
125129766
1856613417
1660995773
714771669
1743204452
1507828111
2106002489
1312094637
732602937
531658090
527041055
1549076914
670353445
1597995389
1005229585
1767491519
774262422
399819664
1640974654
1979396071
1111805886
1449666974
791368968
1264749984
749206402
1362707002
1791891571
1545101799
1586202868
1930260455
1696320426
200331608
106360050
298644231
1496349878
2101320296
428596076
1784153170
1649300382
566006822
124555124
2106390084
951590505
1369551895
948624201
278421669
1278813627
330013743
1955659975
1556632030
2042317033
214282714
1085624825
1765509463
74211871
1045084981
1181325394
451262974
705950385
1306723956
1391937049
1031918660
492443560
170465084
98135490
573266152
1742783895
996007226
1288012587
1853338204
825248967
261452399
1500766898
1493735232
647505458
367354204
1314464316
1454405017
1128597172
1144877856
1956718891
627172251
2129476728
1874069037
1725763849
809704152
1955877388
1865346015
955567382
2053012073
1644624754
1416744758
1192073934
327749862
1943030327
1069228814
2050374333
356003542
680077641
1312331779
2060054444
1126105250
830677482
62659444
1973110812
764227999
368011092
1413110879
1243065609
430413087
12790573
431741861
750042050
2108938688
146422253
1334411342
35153192
231752574
1828249325
1534965490
1955386886
663776467
804130976
42145664
108079008
1628967588
758572328
1567200276
695719929
443344329
1046761007
1062940222
732170576
769156243
1034165536
2136553032
404130743
1045610070
879644734
2051739830
2061216741
688897151
1199023432
1799849190
1275776178
1231467992
2018146223
1675727687
531154512
208570365
537322247
1046598520
350097272
1137089065
367734937
1475697268
1613868216
1025894118
1197837050
955984206
832170382
1583943448
512752171
230236873
542365712
1677226792
1863821474
1910606394
865245609
1635735194
1085304507
359794947
272068324
1259145427
827696935
697646574
1222873072
383326365
1354320769
1347408417
1188351141
1979944389
1096964194
2044860556
1058927919
885664668
454785355
786903837
686557647
147569341
2104687970
1046135286
782840729
1846696894
2016220031
583932139
485393437
834527622
1789480570
842399298
1599438404
1799828342
979136772
1339683031
744121944
1802876731
1134527227
1611527664
379607508
306168685
792013815
696250425
1393045617
183441940
1644583210
536968522
539698077
537029188
196552950
1222073497
1558855540
778361589
1809129167
12016899
14916134
968137946
1014997082
1740493702
1388205459
1097958614
1284225197
398694846
1700685205
957132333
843326837
228430561
372318745
1794254008
587639429
1441709061
2078514771
415602473
1663020728
441827428
1844693405
1495994788
1818566513
467605784
179132071
93634391
1496423832
2076488254
1648586094
11449631
1417736541
1805916621
853025203
941736889
1192150702
2054436366
1784853604
42357301
880325020
