1300 866354043
1887804316
1551908831
981760491
703060632
193286766
236768915
1741402231
1332264776
145813924
1806406989
640518699
688731673
699240486
862681585
1082656094
2060853922
892693168
2072294336
442062146
2135830208
1794888733
971560426
51025642
339228492
2139549174
701620532
633654479
46482313
770713854
817454725
1909531397
700121791
1520209004
1723892086
1990556814
1410585339
857589574
211964354
299779686
1858162396
747440102
57204388
1954976832
475685900
986750136
1212053499
1882162439
1436414334
408771473
148107499
729280113
1506995639
1998902113
452258534
1355108855
707728548
2021737299
2080581285
17766550
663559920
1393580866
2066865993
1337792363
702250719
445498490
1400515653
1270504356
214738735
786329880
1080126372
486358740
896653822
1822274904
46838892
82166646
9010593
1386030783
1496076469
452147339
1500118127
1827161490
547504069
1852974834
1838295550
1996286860
712425704
1222870102
151531827
1275692449
1272571186
603861103
600837004
1696732030
1268853124
21739724
149061273
1383919493
336075166
813786430
1127064136
1307074500
1955264860
886475704
625471348
969534932
1242855416
1622748525
1285477875
421037840
299329918
1784797753
1896471255
1239573715
1028491672
719838448
634076842
219135171
334775646
1821814867
1764174773
724777281
159419863
610646610
2077912160
1331247542
761442853
764629301
2044307771
2112281077
982729245
495191841
300035967
1589232517
1421998000
153567068
25509590
1725547946
706718227
474089663
662102052
1194145090
2132559705
773932003
235488180
1656821077
462542657
240389795
1138599667
1884686098
653624579
388986863
821281693
1342374508
994554296
721190011
1382073525
115267079
1419513494
466701008
1729545712
1069641659
1160953658
490131465
474339782
558754916
2084275193
1104907147
805279436
1050046712
930868192
783592230
1290153799
1623902673
640782202
403599343
298847771
1703072594
363418133
1278007854
1281949184
1851107973
1982115108
37592388
1710872486
596550906
1623589351
1534876880
1570748278
1425084546
1163719615
2139762623
1801174002
1352383738
151767579
2082041273
193219696
1497189014
618584922
321831556
977331939
971654095
1032781524
1784187642
316241511
252050565
1002964718
408778872
1455567170
2026846968
510411565
1577287043
342687488
222406514
376310534
1773142693
1040803681
69010691
1979207618
1556242837
2088503239
1090728328
448739003
1688840767
1794544138
213773813
1030863766
416722549
733565556
2145218086
1986353907
1909151415
1856454174
1442886235
1370801097
346570324
242583807
439920093
2066387669
1505335123
1499448404
1511458895
1550914454
1671714540
1852409088
1310334416
2116029330
1341434394
1347850677
726017809
375491618
15642873
1805818139
450732297
1845939405
1000506419
1289842611
575229610
654708026
1415872571
688969477
375457663
1970962385
1726667245
562350970
174477498
106904582
510753618
1496799664
69320076
492714051
1566910207
23395881
464787302
1697401970
590800004
2004781853
248270275
67845143
1645786543
1721341404
873672406
1076545649
226791703
447245844
616425299
1572981488
93235155
1407359940
1599621973
1658345401
572780820
1827071332
402122273
316401425
74841712
239066640
1596510959
1043761310
2079660045
1981021134
1107647514
1883380892
928620891
183121503
50947206
403740405
694010983
76295268
206739353
2124564894
2078828438
1848562389
1092509833
927151461
596273148
556444200
1568058406
887645803
542056300
397180331
538865655
1367757924
939601785
451389582
200211140
1517899254
2032440892
1483924742
586616117
523823725
487000756
1452843680
382515559
229606542
1785176195
260301741
111348689
430881841
156677284
793945105
81033994
52035871
1276060117
154585035
1119035507
142615689
1202306005
1408143508
1787803632
838661242
850138330
503159843
1560832195
576445543
1586727219
774859668
936400215
1117032842
1151177610
755789768
1094775728
635093767
86927687
696608
220605887
848942494
1683414746
794991952
1817594182
1859495246
1025151901
59919688
2043058339
1149849571
406283951
1068897277
1559098005
750585541
172962467
2046919698
577106641
1848371670
947180129
331390686
1490813376
2121459953
1631415444
912955838
1904420341
450998011
194447457
57617696
945265310
1478923071
63269379
1351051910
296038671
909022380
436614707
1517492831
123828496
934435681
628973343
1277928222
302690392
319374089
556455967
1354069590
1843165959
1274768730
1338675926
567871484
910910627
1684790247
782221867
640437325
1859659584
1406374630
508323748
888520187
292273334
463913773
200681232
2123492418
797783513
417135696
202990360
1680118211
753032102
552953622
1133224138
964571702
378279766
183502768
709768542
4145318
470786622
2060781503
653408413
593612290
865959442
545458519
946782808
376618859
2091333108
412975070
1600810584
2078510104
13952368
1083446193
924395690
436044676
76253614
349965195
820986271
1847565436
760551819
445955913
764070525
437242420
1570465183
1676677575
945043686
927521712
1111932989
1893200667
2054640758
1347281153
804351593
57273134
217409985
1479285329
310435768
2046929828
682739510
1953787280
1528147552
1588308630
1316585707
1310024988
90400774
502842375
1613200779
1637791110
2124487987
1028384036
1193658922
1872186503
1835252233
1926937966
732771922
967763657
315827918
800750064
1799633049
699674120
986394538
2121369334
1813912250
1398300518
1905866013
245848612
505114130
2045344294
2066195459
1621837263
1900857239
1598813545
1351104145
1101746529
1157153804
563936873
904788889
731127181
1363563652
1359363863
1279797038
565366033
1355567814
795618315
1456384858
1297217491
912743628
935320275
1173460952
1806345376
114751956
450715715
1983660561
279071805
2093155843
1409267454
1927100026
1475273267
1894410117
1324559591
1889791808
1482287262
391907771
1448041020
526734928
184256888
2109415904
539074422
1557662692
1516681447
1437580241
1402022730
1159296970
870277213
2042924461
1243974049
304914845
1054052199
1108546565
460896563
887345238
1290843951
691992281
842910139
247853927
659418137
1902228654
1034224313
899732092
323235889
1806145625
1246138742
781780374
1135461709
1014952890
702332677
396932566
1768261557
1901765790
288796432
1134437713
939478928
2083053921
2011997556
1573584730
2043829308
733957366
1300157668
1068855547
948880742
2141016628
61322554
1010567384
230094444
1082509755
1036706115
1086152673
1618358188
378594496
696876508
1307871569
745345335
1752654464
480585462
1868253936
1731013908
653790108
276457219
16981288
943497560
1113093722
1937486971
1089860546
2040183447
1730286473
221640824
1515179448
1558093257
1113358984
1502059659
1298271562
455670577
1957047633
1272127977
1364302139
1145161679
111946888
1528184410
146850713
324730918
547517549
200180583
607517525
638677661
2038253646
1706331316
1376797587
207917304
1775040355
1542894893
620393661
1719552876
1228726498
901535447
1726890930
658764491
1020706853
1612353392
536351511
415834660
1598767340
1640206336
1829538597
1776136592
866179999
1364816481
476117435
1510977598
499775920
1080924127
1641511577
194668221
734224819
20287156
1462757455
417030445
1291578326
85885341
1624150921
1158054422
753302931
1317547224
2030683176
2113018687
1085755106
269507877
1359937746
1727271328
929920383
402126259
663822264
1256785508
1583987214
239763022
714088002
496929212
871609142
1485912561
850117206
586765484
1278094082
637191383
596771093
1683000368
1545325232
989870759
1044000866
1385630335
829755110
196142324
918421256
1309389196
355501070
267219225
1757492206
1246348792
297683499
2096869029
309933972
1739739220
1427628482
872142379
260400008
558335946
1776631798
1021859435
568924984
406013132
1243097606
300493721
1889053523
340884140
1484708520
1323547827
2749215
53983767
502197669
223363720
190436373
357743433
969511982
1283306968
1178036792
315814070
1287262439
1116554453
1072041022
541139099
1068465383
1385058961
1141314583
1823737764
674419467
675544102
1308389092
700449659
777667815
574433201
1431631238
928629779
1069209205
1057495621
1943243956
470091526
98124525
845846083
581045461
868768046
96151716
463962488
224457495
1988026570
22642009
234558255
1055185149
1346449499
718621304
949390205
882029783
1153310738
1953476917
2072276952
845931048
2021437686
1197881196
452874918
50000298
1092613701
787766011
182264124
594690514
132515969
198930055
2012019070
896360108
398130962
804371945
1158514921
1827023464
1649996538
1348073922
640152156
302960090
1577977923
270789850
1529035891
333541302
1474396619
2084009627
1226852329
290895414
1945164224
747295051
1348881819
743706204
402515243
1573199093
1099490520
1786952779
575077774
965620794
1014010352
1566618638
417477447
720160845
269409280
1140603261
1811187653
120833408
1638329216
1441482772
2000564259
52428629
1991487628
1747960865
630513370
1592206453
1955893397
567898738
1929713202
1796799378
1162452324
2136389702
141787868
55830300
279466740
1887773819
1303862702
1525526975
1569840600
1857207952
356963940
2060559045
1993599272
2095128661
1856931213
385145351
461174094
498816228
992798329
1826747445
1384985988
1741652412
1374345764
737998641
1846343430
29185648
1466577244
2067826309
1639026363
1965704514
1709391490
123035512
223989527
1886159682
1114271793
520428783
2076903221
1006489781
483849119
1126777897
1513588958
1508313303
1048796698
844601596
355972591
2054519518
371286092
1605155259
335452220
715852133
1022984164
1865810874
2058550748
1576670125
1678760447
1100726171
821436715
905847972
231140662
1271698762
566285801
805465183
314141727
1854621804
1172324321
692518736
782505769
1021295833
175837526
2014699313
878223312
529285682
153637032
685296391
231903600
113780920
1329637242
1132517251
1470579913
1654693255
506673146
1454427878
891935130
1702940281
516357052
1664833998
1824274677
595744409
1968286149
598077210
1910906722
1950806660
2098013559
276925380
1022046165
339508412
752120670
1804219508
767102145
1565274336
1202796692
144587834
975600538
236337602
2143469815
2092848513
1302105560
2046460989
438799570
1348954792
174248997
592436111
1857185668
1270300080
182949998
743067242
1314129438
1877790867
1400709067
976345707
1866607704
854955411
1529148690
1504338099
1980062797
383281101
1814182643
703455774
246811685
1072646852
455869985
268043073
1238524915
973140892
909688816
1909578076
339051606
761993255
1375440947
2098527634
702108930
1521387635
122474346
1129114130
1328273986
1271795152
2144764323
24223189
1826690063
1209078748
595449876
927369522
1581933461
937105549
237157236
1179697631
1516009887
1265165376
1869504182
658996999
1538051516
1617201819
344578173
1610604071
1271896717
1331769762
498452003
1123348180
2057266779
2070913909
1205597606
615319253
303501135
857515237
1012144068
442326772
1132946249
726275919
120879686
5043927
1527856383
427024343
648530566
1972879611
980232917
873568244
467722142
773003239
1948884190
619054519
6654958
1916041626
1554553586
1110268908
1619622083
1610320803
1715864452
817578658
2115110725
2130733163
36655551
1647945499
605830017
2095526468
127265521
936989752
1602072136
1855582335
1325725093
1793413734
1022986114
1036628814
1069791257
969543852
549617843
2035810289
21855557
960582637
1625484938
308905310
1527252106
242479069
105108504
654514090
142702363
1073891038
1982594124
1446114769
1755244069
956600935
1211112602
954225757
1917080017
171176811
850198251
2107060748
1092564643
1787644498
1107604532
1284404447
1499243635
1910429500
2096615054
76303797
1899224066
80847481
714318671
271901755
592344557
1797237943
609129852
109792196
1698107431
231204614
2030790682
8699866
2031584597
1680929675
601659410
145696511
1378855265
608939348
998293230
1225515113
126718404
1525053592
1169226966
509597721
2024825353
646077334
1132096136
2136597006
870228694
1746591188
435917950
823156699
2115575878
1517400390
754908088
293022680
280186860
563028550
1460380059
1401867766
951729896
155733851
1688508682
1613625262
7538819
1388063289
1452319031
694569152
1801049223
500711258
1898104726
497376016
287988905
756434594
77402716
181606033
211483596
1992522741
1692807833
684609088
1049838589
809680502
887832108
768123919
1455889380
1020950897
2082894569
1042461941
1723819631
717182166
1927544817
1015647611
2088316850
774679785
201185338
1983276452
1575248949
1400623802
15174896
1649518059
2125139567
1850414220
117649335
714748494
768220555
484806108
1532509375
1989279679
1084535669
205307812
2078641464
2039541670
760937169
31781132
870797575
255784046
374179337
245716725
311038525
1091993051
1020671133
760022159
2040774043
1655712954
694133207
1990042580
741062281
163106794
321133367
2084369790
575336527
26388535
838671997
1237195046
1794969681
2042819651
684482470
2079563269
156997919
292341180
522672088
1406884560
97262489
154803270
1829657253
596971006
1500148266
1345604404
1805137329
1895089603
1814561378
1328325735
295392609
711070065
339281865
1232498113
2071819334
1339357274
1602807112
1624448101
1500696780
2061613667
1846444136
1167186377
2140531645
1038375278
1173988029
1526943495
2002832906
1669130153
1355965536
461552224
2050021403
749576582
449027870
1316309579
681449141
1158401310
2070505142
767607332
579805743
1100243519
27036952
1733977846
1477608511
534084546
1372859304
2058302148
52864568
1614646872
550909368
1220956516
918112231
2139187664
311431789
1226761413
1330085149
1076494636
118505415
879366396
1437021153
1719335586
1169816596
425873443
212026267
1040386017
15464571
924913618
1848836580
2034697909
1517491073
594777029
1295409790
957933699
1665276658
852501383
616537045
1246454668
117937748
1252818392
1444107985
1838377495
1851431068
1041667312
849896444
1183345598
542612375
261133163
797964787
1540644062
245784790
1917921229
63929412
1673824039
1023532278
673782017
995412246
1837900335
1601906992
1617896137
1951272817
1353298684
416316950
124983828
214838713
687879306
1951479135
85547094
