1800 131654775
1032300181
324080070
677709237
1354786783
1908217565
1968021130
836703533
305202073
53657169
766931060
1013501693
1488767378
762942545
1670342390
128566563
588900728
249492255
1337793955
1687160774
697544518
934502252
1558154892
676540731
1086654884
1242175995
1082571874
1773451743
340105191
625112790
1274700959
1205769614
34750542
1372323233
1626192383
627119716
1335512657
515265180
1217930837
821107195
1165629718
599647631
567022915
1218936131
1997287821
531000227
885311186
1000528152
387586124
1943281309
964962355
688686552
991263906
1261749419
2142877627
983689353
1382220339
1269400127
1833659872
1006831173
1600098105
105017539
1924771964
388456795
736699134
868024245
1656179762
158997571
1129591879
668343436
208565987
1950246765
1876334409
1193353958
235657896
2113745989
1368451999
808752496
256419562
1373450764
1635750841
840801597
1909238651
619057672
1388065033
388715120
123828801
1213207424
1217965251
1011010742
68129373
1931532413
1077724206
1645017931
744395071
343310667
1485774751
510608667
772894088
1795297647
1397944573
1373630738
601340357
1297226677
1048779056
88561306
2056056169
28227099
756275028
440325545
1220458593
996652699
1113849471
1084135226
659774568
1318467236
331789232
829101226
1011421075
1785880705
128890035
1079208340
1856464587
763265662
1646536249
1779526213
618383310
770206629
441313642
521962928
2094654326
463605772
1693940521
658533405
528037836
1892840643
337402349
466124947
648583917
945808598
60945264
454103172
137415800
1232366718
1200167905
24073323
350163026
1912446395
805309330
545339293
1578160310
1766366564
2078139657
521529534
968444010
117143147
976274483
1627402753
656029058
567064213
1739019131
256088505
76059323
611996164
1153362542
372066756
1488345656
1453379868
901723304
805945628
1746554880
171164344
900489022
1481132585
1764676660
1433958853
24694563
1274887518
1751170090
1015288153
551509974
164890457
1319581347
744339571
1450125575
346159732
64861282
1829127838
1215417715
283829895
1343806316
918951956
1618301093
784890198
1833926806
1648505305
1868723599
784688759
751872572
972664420
405316752
828200959
706714168
1189900677
1529371099
1710401196
1055842456
155985138
1487215430
388684238
1242789197
1765309349
11007928
2143481852
1567152818
1252507575
1792773054
1141665475
213862384
314352882
2030735637
1633958914
1645009594
334128733
856290429
1578384549
1765462551
1097345373
2063037398
19971607
1476907190
966044417
1289077932
1528997329
211297837
705377258
883900985
1823435305
2003641056
1196086235
42476405
1131401742
60584123
217114353
59324991
1875279262
843085302
984080705
736901144
1233597966
1681571809
84632500
626163214
228591259
931230823
954373987
558854618
2016746440
1800457345
439472813
537877594
465595596
1891210947
398755129
254005295
1457924709
589676898
2129685406
1017026456
1875835083
512486440
846400673
381954764
83422762
1194001275
40533255
280931965
814767196
1489428858
579496775
1222277496
1820418086
964622729
1590588644
888480697
2056469061
1450707385
369803669
635968471
1291742967
2125583593
752609304
1658308140
688828079
42067440
446110399
1903174197
2122417668
1414289659
1694210779
1480063259
863164063
20164024
1451652508
1145279608
1841829449
379101862
1986627621
2075130765
808147028
1801655913
1212599327
1785707220
1908874563
1244459524
485550778
1595027680
756280144
596122528
1150425795
961439170
992521780
1035497585
1035617198
1547331737
773775349
1230685969
200632808
708326861
1044084944
1485961645
866870192
683746804
1118676932
1886582903
1881789628
643359603
399790750
1250485176
333017766
1561389256
1109089735
1584016893
566202731
270894957
228703670
1903674987
311228237
190674205
1610173862
889146237
1587214679
922018474
1785819534
1763263532
1364713337
587012704
1753054340
213672747
1505988868
20555294
384295629
1503580421
2126350434
2091121949
363016337
614366638
1426395183
970898154
1865009934
965311339
1340917343
201415987
226326722
1799315732
81947013
222661194
1979167043
1464120287
2097933483
1396629255
976991659
1174493749
2002441000
1650869631
633041229
520295731
144102838
1424085762
1281368306
448594872
1442893285
1553083972
1074250773
828189676
978250520
1619951043
1470649590
1081151047
2078486028
1918361105
470403072
2133999381
1446849953
925720571
455595370
460589333
2009604820
638160523
342657103
1061885868
944127256
586317359
622106474
1235757324
859455132
207970743
1429112182
842975408
483418208
1069984143
583370982
1664160096
384270053
1843374478
1776893168
1226405815
2130415049
1351796521
1298340081
1949014940
617763983
1863266327
218804591
1665475547
350974566
502077442
63553500
1944559342
550808341
1287356277
1484845797
2016702088
312703628
2057863576
1109296867
505657604
2146759060
1477257777
408397360
558851018
2079644125
717608193
1200984263
852170162
1997349404
2137002718
533171543
413286690
1845400243
155654205
1525326077
1085617842
558090666
1345827782
557322112
1624129179
1757380345
1768213666
1040950312
1072151533
1456935094
2127915020
699580725
1790727686
1094342467
1336227874
24459379
1608133475
1824113278
535867957
4778907
764545982
78363636
1062579385
130102420
238795141
897734018
1628538238
1240143227
1164457423
894581728
2028326963
703017179
1522208938
1009513367
739019950
1915914833
1296286887
1766350150
631563497
212799134
2085624049
1361674639
1109488473
2040324905
1221626625
1945150835
224465207
1473609697
1552400717
575317769
2067475620
1773768155
308151638
1651745032
308848495
526553209
760333862
905107267
1976712267
1338594685
1637753453
869264231
1349348905
1873947885
768637586
1109547136
602996144
1045424666
530975534
1425815424
1523181583
212773662
1655345002
2010205141
1104800941
1981245748
1555098302
161175303
917019617
347951493
643750836
2065479083
1657793799
1998972171
1545909788
163726090
1301109911
1474093211
370812076
1623557562
1619038880
1512369504
1264120938
1028662181
885035343
1400248657
2140071338
696360564
428894745
1924863692
1470072668
492328935
1176272129
1667122636
340727843
1402920411
197738232
1532461878
2014278194
1679720000
649889579
1485554075
1193802718
997729421
1986684432
720333136
1603379928
1411677271
2014216999
1174176005
1476386350
591159005
1360724945
892181875
732936362
2127201902
264632508
1951308269
850780930
1518832547
66999456
1435768992
77909526
318843009
858876681
210422523
1703136394
508413304
1835660701
1712292186
53493416
1552764233
1920049765
715195359
325173933
1771587988
1639852851
561820376
1353347255
1012811485
1611854446
672591352
1726749614
261390488
1910516380
1386235347
366713989
41276950
25723748
258503479
709567467
393545258
1691771117
1343231943
1830065291
836907886
1963563332
1218070186
1218241971
1923395829
1896266590
1703859153
738823482
1464473122
1766907030
796814578
492892592
1170971395
1637281603
1801025961
2045699351
982170798
599630207
1680524168
375793309
489040210
1953415714
1810294372
1180167412
1407710380
1901539490
1176602870
1287289127
78517272
1566331309
1486445644
1431810017
223224531
2133987011
715908353
1495055468
479555179
2061130650
1843530422
895728330
2015775460
917980334
2129031322
1215326621
1653845748
1761117618
123114986
326689986
1077680144
1515038532
637517226
884172720
142915353
1055237569
1144561543
33691455
1144382554
1055203200
69787539
653644816
1356454792
1671170660
2096057969
1728124243
1545519318
518255272
1186460223
114543177
157084699
103792997
703780352
1710834890
1988263395
586549767
435987211
2079402961
1556429707
1715396958
2091515870
974943525
1419490053
1564359445
491174101
1173842015
1402906643
956551352
179941725
356100179
1309918993
325685028
94280432
798311889
2097324703
394890736
205944323
938334701
617936739
1411681334
2142231072
1627432979
1470314455
42072063
1302857267
395757605
292446490
1953659854
23443590
1987729754
866653889
675157352
353292100
109558622
1351223267
828814329
1538896091
1599328642
1709021727
961043898
1553693646
1929399620
435478321
1388306096
2100559686
704053119
1152765874
941686639
1634237284
1902457566
163107060
1256538697
1973299530
24121088
127631352
1352411704
671451908
1715143219
600360604
1892026607
1801946356
1090073385
1092040477
1667388711
920992957
1147337763
985575605
270174476
1396425197
570977412
1279675345
303204353
1732017953
1947849622
573279917
747081033
1514893551
694112738
639887532
948347440
1288971984
389575940
888764226
1948490797
331778933
396154960
1260655274
1606001531
1431074038
2134298614
1482662041
2111717546
436796577
1104222919
1369485880
1456468919
1599250431
1232117022
1139304284
273240469
1945708629
1452483179
429431553
1052879559
709385073
908863470
1997100990
1296316917
790131630
874032801
172004269
1965480235
517824573
1860376043
1691170021
1057571080
1053150441
332397843
1978031574
1789251257
286979029
273493602
2114978138
1662833175
1362244506
1878757659
1554366087
293823485
1013018953
1823286023
1657603620
1872675993
1787248651
667941952
1718584767
819282262
1507315950
450844613
587127930
796763131
918531023
110339766
216176323
148252544
1372401539
111848010
395408306
1913386977
582080993
1916835423
225898436
1423718187
680286173
1456683712
2078677682
712477767
1825332733
640169746
1551544874
1467038010
1730234597
493826894
275351413
2074261762
2114225443
2115576615
1902193262
1024255629
1620098958
1727893548
784064278
215984693
2071387549
1988553513
1692653647
1106325626
1409400153
1556014994
1475001763
604874748
557432398
640933183
2037741192
665356269
207163651
1322267211
1698512594
563633782
383897577
366792207
1183253287
648423054
1036443348
445092580
605160691
450438722
238588914
2053562484
1595852518
680023479
29763479
26418711
1162821995
1868188692
480570578
1980714239
1816223315
930920170
1913540970
643408604
686079313
1434212396
1606788717
622668534
1403830339
793152554
49721303
35484170
769646593
2063423392
498990488
1519728419
593840010
1550253842
1573653299
1231103733
1334950118
1977754467
833890378
292527349
445954435
1441229229
462956827
1393454788
2017920524
1648470129
889314780
919584186
1211846346
2118491729
1624986650
920572137
303184999
695349221
1972821598
297662598
1479719733
939667183
2058871855
2005301005
2116522087
253273891
1779268359
753103731
1191392688
2052109805
1041221152
757134471
994770345
1083828104
1945181872
1187504658
1426751570
308944375
152306750
1147146049
600854201
1131282103
1622594748
1829850614
829747230
2113988972
1741049171
117213018
1269638441
1054176828
971493893
122019648
1971877202
1800895299
2079096325
1105780328
656212504
1030790142
352189563
898606139
683778968
192437825
1760962512
2110136571
1113017658
590924227
863138539
134371505
641907028
51416444
609491194
1578806526
1926716832
878423489
1669207426
853749543
1544857623
1718336435
717350265
1540029158
179732957
695767589
839650770
74618936
2092571848
1293065355
989949388
794060151
915932897
1841276203
509498837
12061220
1536460635
696986406
1451780155
1598681348
1319584130
1131626789
535052608
667929119
1285235386
834335541
1755310006
127079613
52925707
726349024
1858274483
188396152
2145647874
1147885612
343270470
233603301
1830190203
188353259
529546707
1991244871
1904148409
1483726255
1252049785
405465381
727683438
823415276
1119779698
284231417
639825679
569274328
1721032588
952093235
1428329715
1838802188
1480312283
2032082754
221026968
977906321
881594461
1711289216
697005833
610349856
130164217
85149918
7312650
925704644
1616851497
1890422411
96231215
1294239636
777661933
1698170100
2052688955
1027320304
1842458421
1312843434
1229566827
49369452
1905230184
308615981
988227825
987733843
2060387865
729100666
1908941180
1572432989
685202621
171794811
871046962
398274162
739922719
1536890596
1441572299
1925605309
229186967
2123268970
891762255
1162255305
1156568926
1495578827
146707471
2022625073
1120455324
1009961758
1891061857
1022528577
169378062
737868573
224108335
711815848
1665375186
771024992
273576724
412372181
820999106
705809396
600695134
683322913
1771995655
2146810334
868601498
290855426
987336734
650046397
393470757
835170691
1605808047
135533418
1367197397
1372940667
1034877845
1163048133
393913682
809224465
1741955006
936806356
286325383
669069319
966175029
1131602818
1105831664
995337469
1332616871
2086088595
1490635675
1113205584
1020518614
800546513
700509797
1166189009
2082591237
280064327
1724311285
1203054756
906348414
554237728
1084821903
1442189285
593150050
1735510501
1829326026
832523699
1968760658
591550380
750075131
1232763965
1563253122
1871156344
1258969226
2051301410
2099951557
764575019
850869380
927135582
1122205263
423154143
456870045
1203179027
1654596939
388091660
2107999031
907173417
1773865128
530051400
1848886852
1643853108
514332993
511229554
731067138
1581687283
710300642
989567030
732098175
1613900734
1342112407
942184081
683287892
88477630
1163838496
16280038
831674539
426313700
244342007
2033599800
18281055
1322162386
366562985
1448923189
1786454060
92858388
282671438
298263017
1897331073
1353128633
564986456
2007941798
850193110
1525234379
62309795
1821357668
500722052
624076454
2027654726
1017876277
92729762
1426327198
354932071
662996662
2105296980
1768278726
1944832922
1531552157
184748307
818688579
1384147113
978114729
403339844
1117640890
33965081
247221263
1041410183
187026592
445592838
1056406683
1768410021
685387311
1464056486
653889213
72217225
1845515440
70593772
1903269006
1289615248
1373076861
1806545839
625074170
796179624
2022900112
971966493
440360197
2058727431
965547149
1534131243
707392605
21075906
792398463
1792068429
955708588
1080207031
1686906340
1489121938
430343733
1779357650
528215774
292769948
1660756981
1002541986
415305719
2146717262
2040143462
1523424167
614579689
1901317883
1795433949
31997661
1763091711
2118199336
795139008
583980472
965042108
1260741261
97283829
973571775
276526083
465830351
1626749763
1910395656
1676860301
1754567875
1084716666
1423927676
952700894
1495666203
1575018496
925877275
1714528653
1073538059
1044151677
692390870
1779259151
1904015637
351296276
899531895
53399996
277892071
1309628219
1580909002
2125839592
819687418
985723860
1169875678
1103725546
2003881216
323563825
723130033
421302429
806594721
1708748751
1580509382
1002508454
507245899
256072417
374330618
922240338
640412430
80140951
453551007
616912980
1133012920
72617451
2066353644
523025031
537204540
851070371
470510283
1445530385
2111136792
1163736591
1060643392
108954615
246624030
254327050
859941391
1270215113
963399621
647838000
1069337045
1739075868
1023925529
1559014105
2072717138
505623810
297024796
1682030408
531766052
726767027
1557069149
1298798296
270519358
665691631
1182233457
1933343404
1054839927
1550389713
2084381902
2083790694
1029614849
525468969
765130618
1356459865
1115824807
1163843947
1410345345
1068817624
594481573
388582415
566760100
93993960
939928115
1925332135
2128718586
324478367
1664318631
1785131958
243784704
801890507
2052296244
935391241
1244371280
2142393867
235844662
1199127953
1515241365
174622908
573290824
1896371132
1904131592
87562572
821741856
583760676
252052999
78893150
1780065525
1653128297
879444938
769929213
1936859062
2125092331
1097424406
521932436
242475542
748337829
1469791840
174995691
1655338751
348788678
1476289178
1641880719
1374724164
1963352933
1100952278
2138929530
564261280
233763462
1910514692
1642405162
1867232957
7116664
65838834
1734255762
1451105612
339167247
1309192263
1752909327
1618914112
412240866
1083081156
750494671
1304230436
747106975
864721361
1915266623
67812192
1007538718
2097669075
584408698
1807221871
1671072875
2067562613
1499656079
1221911407
869670628
317218351
2143257107
620313340
2066593756
2069272888
561593702
689170092
1261704242
244491186
2099137126
1440884623
1675061054
897725966
1984093582
1557157840
110479175
1823803323
1139165515
1915021210
1878599005
1205554764
353376310
1282842772
1438894573
1190397716
1738419910
613364531
1280728281
1097074235
1935472352
1811614148
1576563186
541511570
1436717294
396846533
1791795356
443168518
398855742
1192215413
408494361
562415680
1022079938
1067157022
732820352
828307336
968836135
653061287
558992770
917182840
315970012
503467446
842862833
1285563287
1552718172
1512741789
894503316
491074620
2036884323
401486134
1892398040
1102308239
972877804
1194124695
2003422012
345725666
1806100291
382888099
419094463
41301408
1902564591
295823146
1045574944
272675
878291449
1287255829
1016932402
1891136745
258426612
999410655
1145576927
1810766694
1407192660
340832943
196802732
2027086262
585268950
1249957507
911611863
102373296
427939198
87968946
1010359537
329787637
868661158
421751005
1065007651
965211274
1422059040
1968396661
1201653975
1889201482
269547167
505678797
1278338964
1049952822
590943726
1057511560
1267163259
670387788
60019413
276527017
1658853166
265064873
2137255908
1171176657
2032287648
1984065734
788545006
1910152093
228564001
1407876443
1426488763
1353970599
543965982
555353666
1387285304
665232815
1911549405
1838133373
2139295434
1943432820
58379959
1172166131
28571730
1795623840
1388769137
19443605
918094058
1630316756
1047467831
1927889868
1369437479
2022019638
1501837533
1636180038
249857995
421409305
814377251
196270341
1000237961
130045089
575036782
1940345166
1342207377
326022286
1927573828
408931311
54642570
867028572
673330493
976667300
153748041
419102089
155419787
1095337938
395935577
468902082
1304175588
1496886607
1686541283
650642904
429320130
1458910614
50912001
667606372
1589862862
40602454
1613465394
1390672057
378738732
1727873674
509590845
1929481281
114246376
1524277226
814216762
1268333880
1777341177
2121066935
1538615825
226440408
1511948189
170033040
818971061
695434530
1254727022
1510849293
495276220
1441178946
750287926
1139251115
1710037063
1821814204
211914024
1697063832
781046171
1472543678
342921563
1006548760
946388729
501749445
1401163723
120583521
250677145
903146567
306926520
365401391
702765201
747199447
969798375
1626468352
1796706263
1221610299
2143673370
2134465328
1787129395
1076200246
336915603
966739884
819286383
995660657
2088701783
1210133184
1391851243
1485831838
531751566
2086284824
1464878500
191737585
952297089
1712498543
1733435514
859157098
141374241
1185831371
237584361
2046312170
427275991
1972010292
665261534
249560718
1372388480
679251654
677819862
283485124
1374517679
1757604223
309184725
105498095
1350919405
1440228846
933332694
139855110
806294623
884622031
1569241387
1510373022
9102094
727094589
1811137749
1935432000
2004197491
1827373267
172211336
574296490
608601465
89192432
1831435148
1020292661
1205711758
1580778541
416663330
11088739
963394268
177706576
28539206
481489062
729720765
1502076611
1071952576
193731450
1878202853
722955726
2010912226
1319335069
163832451
2123422672
747309036
1237824482
1873783272
854702352
1706949620
1911061772
1525161524
2002683665
1868547233
954833604
1494231509
1921349578
1954344815
461997130
418558200
889255472
1526736302
1971071178
226154707
468383376
188782419
1123746780
177657113
1576144679
949710147
1043036577
1808678516
375478146
1316045802
1373404145
611643626
1051464145
1459661923
708605106
