200 721215398
1520060542
854279384
42470848
626007502
380794534
919026797
1999736629
1171499451
1730506977
1068897812
1842399535
273576550
987239505
924783431
1621606569
1665916713
1354009253
72756266
1676444379
1836977450
191124217
1077670167
1764978846
324113993
950735212
496989403
985584468
911990571
78850041
1234911046
2064955750
2087513457
717035058
1430669151
1079777788
1143850473
1371709930
741471660
1914847609
1767133959
1690224389
827207136
1665762670
1385550596
460025974
1441554959
956449211
2141244892
1365636937
1555737610
181345160
1837601796
919301168
2091905113
1186303658
740574328
1451075313
1040320500
1205584140
1730108113
1667374867
895414996
888446849
1902233030
923503551
801247703
654000601
299599171
1767853109
1935567205
1205769961
1688719538
1776785427
1882647476
199121197
465028451
144930704
354273948
1601849995
1179425938
1699054522
2079576629
519354685
111831429
1223847546
1109445336
1804159772
1099718752
2142262100
677241770
1972966205
1526965211
1540869924
2131436722
439151744
9018271
653779199
1919477993
1028595618
1345245906
1623036279
2083414242
433933794
1626299811
1301308361
370547873
1385408055
1213581503
2075430349
1125752352
1731354973
901090911
249821173
590672819
1270777264
459674817
1332676035
128670134
1056896013
579286319
722871946
1676010806
544652220
1308117347
183315596
19215949
1832760965
1028309535
448360015
157233700
909667695
1889093012
1532735006
1338099026
1364214890
1112298801
452381320
863219142
980217592
66419836
849622857
323767797
269495342
1200227946
849820730
123438543
1385483083
1583758623
1932525188
2000328170
204601239
2074226214
1356812504
708774255
1258540268
794884789
828132174
415803531
1568289717
484682882
1164749698
335770232
212796793
1565037821
1528888800
1268162433
524581000
1962947143
1942326390
1322888301
1116525869
438345519
912857089
1632135942
249327915
1172342766
1089099905
1477385613
923202571
732080454
1184711846
950507698
304669690
874174008
1555636808
1990225305
301889779
53839572
1239441242
2026314879
1596504615
1535831529
657666345
2081312476
1071767947
1648793569
511573298
2091456797
482478200
