2200 1169441491
305435584
328753799
1942813498
346965094
1885103603
1107852373
886384771
361985199
770771457
2104443115
251512837
1169764170
1442883508
1032650135
302040570
761377112
676395222
1273247493
825045999
858916875
1208779288
1157119026
264750482
1285523009
927371929
24362954
2078708732
264094598
140971230
691043149
1625893521
1861624186
1605301860
406378608
500030363
257022608
338088128
1207739383
314923886
908040289
2020063509
487704532
1686480361
987599332
282087471
1274678606
1660758456
1047605597
1037462443
2105993035
874986755
550847177
642158029
1972651193
1524816389
1250404953
1986143561
1022585455
1825350207
1595908679
1441633831
830395812
1228745764
1385529742
1214187967
1701848694
1722586613
585435591
2139031183
1630605753
1390174971
601046379
32231815
687889218
1296605044
1522581140
1678808447
1508104322
1921076381
1553052767
859919145
1199602325
1110250842
2010397271
399284893
1049714694
1620462141
829314348
468978091
1842802687
1338189164
977040042
1927059044
2037840916
2067421170
136932988
195534184
1659300360
1421139091
627646794
839236389
966321878
1730024788
345929457
1991535559
1992630391
811806394
1490422848
393704372
2026375284
1102236892
1147033050
524226401
1219403181
418250482
698764727
2085350436
782876447
1563130941
1701554742
1396828141
406947329
592324454
2040634258
1664784857
1967237052
516938760
345576215
1611178512
1987567652
637632919
1746112586
1023197939
58549359
941713517
537491459
2073935866
1256479889
1053355517
420278873
786695965
37905941
324167805
710037634
78258316
1102126606
1677220851
1871117335
1277355756
1618850686
1804531225
2059398199
424052707
1457553767
165204591
921216107
1380404264
1790292359
697829025
121354941
624895911
1397745145
77362993
1483597284
426185176
178121603
1026585253
1683264484
675882465
805074053
1868863283
1492191147
142511031
858577531
1272708483
1743323075
346695300
1946806422
14265964
2073420966
2122387185
498314688
762338839
1794342537
1188155904
1108039550
1440051326
97989640
1083931118
477631221
1324893682
922275912
912612905
1762523266
1520357195
1098240313
505986019
1733295471
879258098
1268268439
557651473
1843785143
456655992
2026505078
450387346
1723821820
1906739817
1220402853
282321317
557648480
1665046718
1240909438
260507717
572014453
325220897
1777787969
984141358
1994628343
903703461
1300173266
1380519684
354149578
272705480
526901037
1544721907
1927492892
1179696148
750592347
371651994
1369389851
2061083793
1894058029
1376069750
550726888
964440091
1690025198
1393293544
1907379346
1292119284
2007795772
1296642581
703639805
420666536
301039779
644257602
2126387556
1157312691
1531101335
598058167
1047856970
13717048
1096688803
1023088584
306339911
1825462936
1576047186
1585135364
649255092
776572883
1669973336
1986532048
342713766
78092416
627287753
1196561693
1886500795
1002517544
501623556
316471807
492026949
677520252
200325053
1389959131
1292708067
1856068774
1460802114
1535287260
488508655
687048613
1727518324
1792515464
1423272848
569950782
2055107545
1444265995
263904934
841395294
1324004552
932243840
70402148
1972354176
267766899
875792293
546463331
1965612028
359984314
689550397
1728557782
168708775
1669686549
1322785955
1119627130
812174354
910575672
555725590
115138525
850664106
440965794
512697864
1647774521
222799136
788465932
1034100980
1346682613
623022547
815146594
1087788078
1923274979
1813777202
1253978607
1696744862
1141434778
1337513073
2114938334
993126492
1073489494
1460086033
231853293
1421278676
1754686357
520211914
2081530344
1282620703
98178841
1947968699
235484324
279331837
271344252
448018668
722032815
1018252856
1907238147
1867960155
606690236
937539325
676140612
1657054977
321356673
1014186015
1418061869
1961592154
50533556
1526407970
1727033631
889817469
2096685161
59566322
1758387844
1952401894
1621842593
386533926
1241050874
1139881929
509557001
2971563
815543363
83446695
2119538792
1426270827
2104122911
1187641682
409775035
111107159
284068842
1677945956
2068836688
771884969
1558357763
1276906580
1117844044
305926183
1853736376
626870448
2141292627
352613046
1691653171
1989520885
1611180904
1208966569
814008383
1323384983
1791674592
110629220
134519377
1829315259
2059313491
195987497
772753481
924548880
1395109555
519694066
2110234620
1711062610
1112478396
381727889
709464224
533922376
1114901786
388488001
1032046137
1464658753
1769798114
599355476
609372771
618963868
1005705159
1231307790
2079535103
1918907333
535385616
1548040843
1594770590
938483546
951151331
2108386203
514378384
896354433
1679585794
1541933836
629029942
22486289
1719390807
1587222867
978785542
2052262313
175189181
927849216
1880532139
521025357
366940702
390863375
1348004080
193105548
1969373555
416099545
798584758
1505756186
1675390572
983418754
536625571
1736125774
465145712
580621221
569496674
146938915
1270395870
879988946
984305
2069398414
421618220
1731476516
898767088
2103190411
1835957906
627343810
1429064302
1022524876
630700293
1752200168
533944556
1843450252
1967293340
693947344
1498719281
755982305
1883475944
768749993
1792495226
2031679577
821679916
699485459
154265148
1780993179
2049713820
578854229
1600919902
2055245147
2133997205
2066028832
733671029
473746885
760367358
192321493
1332873208
131444975
1700548281
677445771
142798180
574610638
212571840
107168593
1698913922
276412188
953681011
1767708867
22261076
160229798
2038418591
566004484
1016995791
925118062
1739767117
1748780310
1669880535
2012636080
715655870
1048816509
697291784
510126294
226993783
337231101
1705659511
1357070736
305143114
205240814
836981272
9044823
553778576
1648924043
1708116727
2113865893
232375576
261238094
1569752782
187362837
646010896
2122664267
490527051
1677448648
1593966241
1144612102
581844228
390165610
1952443341
177815383
499514519
736519372
107498212
175452736
1365632496
1978123475
895145629
770724874
225772482
697047247
1079506611
819551989
74014899
712669330
1973184098
1436573988
888131662
1198719872
2108908256
179975695
980075139
176790673
652763497
627230026
354491752
14937752
1449217290
600771552
1561730852
1545320604
678055367
973073470
1487095979
310796808
295441988
1099351519
437080037
717412203
2124790271
2108479185
359471562
705605022
10685417
42885807
308657312
738430721
134775923
1859822402
1933609593
2105405366
139308975
218726836
86516533
730728642
446636986
1509430517
1801162381
1383341579
1442905877
1543302073
961699656
399051001
392883856
648354740
1978326054
504630660
1552333797
1550523020
198914907
1731131100
534406113
2027445598
431928216
100235822
1430697031
715309400
641208147
788325572
971207357
108444741
1925293752
717295377
576850478
1614763057
31775131
1672714490
1329578475
568123428
1672569356
1151495754
238058417
56332410
2104342182
1542099874
340457756
433765909
1201239117
983316833
77572875
1198916661
1736102204
1307908359
50530125
799088525
395318805
2092046503
49571583
1887934270
73277856
551106572
917138517
52505616
422900222
163365868
443412901
1221333490
849557268
152621818
344751974
1985867630
1248980228
692849053
38488603
968664663
1931542102
164406987
1315158147
674227035
1593699892
35313623
1437758154
951875333
957188743
311514192
1793193886
1190819282
1143056001
1435845452
972667621
1475813415
110353619
314992345
551210109
466850501
1061050753
1223725132
1238566209
1810972391
2053876915
2057264353
1905245990
1318922960
1536599149
1146436073
1104744776
1447754096
317927290
1116123277
245274648
59816842
2077836995
278592188
184468014
640976675
189456554
827514534
940681093
314366009
65923635
2081870823
1600153423
1595193500
1458784779
969764664
1595018770
972337322
797174391
1861949012
1710687305
1440841537
1617742739
1745616178
2042364993
1236376115
1239621004
2009688469
1101895854
900363792
1331258116
1998274323
345318107
1835439878
461282117
2018956399
811100277
1540712637
983594123
1199312469
1311025792
1338367650
29984281
1004651747
1980646255
1552735328
1259639422
250769241
153996437
2071487915
1171116528
1589254184
1902366101
534812428
1931166934
975608277
1108079076
2026333638
1711607144
268116592
1426638646
672671793
2144784988
412614765
330367938
1220011479
670247156
1440200433
591877259
834105313
1750206304
190994754
415609781
2115518857
1711488815
486027304
669337121
2109024205
1596849918
257205619
1969996513
1426043446
774266084
2070575089
1290231925
912485015
1263659403
450508994
1981958957
1228920281
1706314036
799280804
1186374656
2139765747
1813829235
1748353755
1347159647
1279801314
1192119486
68555900
875009494
1647579309
228162148
1687049673
819434996
1526454486
763624142
1607684097
1860404950
1689016055
1362360533
474902384
1703529516
1408808458
1140455646
1825060818
1756617689
1060109766
795978519
492109915
225047388
248599162
1255327217
1543829684
305092162
1037041012
1999300717
1735947325
1557140786
1421360547
1234797509
1889107718
1732860763
384861
784780950
601602569
563430534
2065538230
552517133
428048018
1581464691
1719289338
1543047481
2073381825
1407574953
12497282
288830106
53377503
360677123
528315588
1451334189
103298695
540405044
765944713
1787599076
688245340
1018635540
1655822572
1785635190
1750016718
1993817061
1453704989
980446058
261662969
1443951619
208179182
778052870
1536777202
1303499453
78619962
1807789576
1875916255
194690574
1764749520
307091796
2002376793
1620976725
1622803674
1835972413
1001881627
1973725475
571741158
1263462479
862470583
1558273063
1686286730
343406387
89492920
1316910954
1511086684
1625537199
1026817241
72066410
1892402235
228638853
1880712246
806801224
758707861
1078050564
1470706084
1954050897
159984318
1399918540
1968705564
402424596
1644655597
1512124907
510120785
1588644209
411054051
1022579718
1683795139
239196509
1030569776
1871505003
617392056
485458783
920192096
1505048001
646606141
1807865003
168373755
1379142968
155996237
814193860
505562451
1871339612
1880138467
1548188684
51709785
2092826009
899699081
1458338216
21398778
244402351
632342342
1494688320
1938033440
127925399
608574158
18623997
770954012
1341781526
1612087809
2019143307
2043902595
519374254
600837855
439076315
1995785295
1947126300
356627119
233432028
17637361
1037537837
814254944
695569729
134118003
872368110
276985665
973318555
528209524
331178445
484897125
2095667449
1667837050
1005378955
25638296
576017170
730993322
408240695
1633070335
671010109
1784983122
1639557777
184328734
838002713
2005035640
1919342391
198196497
1137288842
1880586571
1293502673
1497352262
1554738147
1141513270
1983144637
1740913715
2091909608
2016588732
1701024886
1772229472
37758669
451778529
534678725
383281029
440574983
1635236064
2041148299
1254053182
771615848
1638336198
239741949
1928767471
1303855622
1555014064
931896950
1046859461
255354107
348574393
587729942
841881761
864340216
815057803
626222944
1167079541
656888903
1015426845
197048256
1692799174
346138085
1798201693
1942848267
1056033140
1218831128
1259053070
429277154
115550774
333712984
1092477671
476499986
1620328505
643032467
887194481
1797653202
2073971148
335824858
2069802345
1611341578
1963453038
1268327500
874420139
224687469
1852680096
1119940601
1945600802
1531312867
1688579327
2097849314
1187021955
1478027982
788518762
1436894281
1109267286
69562609
862128973
481422662
414737142
1783585774
1118359338
619801309
1447854677
106878962
1001926846
1320572286
707347657
1263415311
50393269
1898232219
1724445144
305502540
253228847
988300611
576240959
1418593410
1112936532
1068105380
757008459
1386477721
75100146
1739489776
1607559370
691238067
242122276
1529202724
353073612
1598413568
494300030
1255503090
1983345762
529195593
1243483361
602320057
492408664
512069743
175407339
1287680876
1783572217
554056916
1982667430
2096599675
1261612703
747281029
912922378
444401436
481650630
624740947
571578546
1112799311
811590441
2070574418
1655565254
1127757202
1942636536
208465589
486150931
1421753564
620586265
18570905
2069601194
1033226416
1968015641
1040184292
531282265
1740105465
1965040122
1739136673
1825155798
292132468
539829814
261083722
1202480668
1578888579
1659716658
1412157394
1653705822
38979767
1996872559
418314257
1548592838
568000507
2107882404
2030085713
2024385132
934880714
1272294912
967971276
1979040831
56216877
1847051534
1204074667
118582872
2125223933
2103473296
884724191
1078577831
1290882253
2032169591
932300709
1351567542
1646605743
1992711790
1716173169
799248595
1460733452
410464936
872220163
2097199328
1982400887
1640791058
956882629
576372959
159602880
713644582
1767366825
1740396030
1380899283
475481973
513652519
106946580
1448330384
1505470999
1119012509
1787155819
1478930898
563555171
1883364796
1000953625
1524052300
2074073283
237105327
1838421150
33744967
929500125
1003805526
200440083
1935030041
1218189876
1539582642
623451960
379807798
1348259354
569700258
810323174
769222118
1820632724
1275828615
87832759
1044576456
856416256
161011725
2097271930
681020919
279397387
566789417
330687312
361137478
385466747
229349378
1816826976
143001536
533253446
209067722
1639835795
2060346698
130321067
690635079
1616125185
1418394529
613726892
1061767831
345727246
1919525930
2130408768
1178844115
354013529
567388775
1123985702
159475242
111590521
506153425
1160340483
1962577260
1519398790
499168410
1830150971
1148916141
684575168
1692508595
1251044088
768123426
1336006946
571630392
332064794
201652002
1831452352
103777301
1209882349
616895612
1988008640
529461020
874968172
1433834250
589775027
2001181868
419313160
1372320831
448558066
1273547120
1098222101
436796307
1304456119
84521973
1568595873
1915228279
566927200
523952994
216004509
1760667996
474536731
1476523526
394820612
1748942158
2117507922
1302918793
1794826516
1438596844
1313583476
382352242
291048666
2109578685
507719794
161598549
2009450379
1467502858
1794875462
55398579
2129392743
751463018
1313962773
2068022810
2040303958
1291595473
1421144135
258752088
1788116719
884259422
664531522
2036458958
60494179
2066065664
1628539236
92639604
491415756
1588185744
1136881874
816747851
401772694
2033179394
1041169064
22979249
1395157106
1995064957
229522462
92499563
716264505
534573553
214335973
367976224
748467383
520228611
674827429
483312540
92022531
803140904
976688283
479006755
1825279438
1031930903
54138450
413247143
750379220
67276342
1050765025
1241424632
899925351
1874578154
1465258011
887108169
112258721
1134285020
200668273
1172893948
304432591
33527693
1629961194
278122709
622254712
699728547
332728258
556042132
1062836899
316404632
1412853502
274695367
831640416
360670142
1839252100
661811339
1149139115
635406064
507910540
1721119030
497825277
948303325
1159800236
689142271
182601213
173858752
862932753
1836245168
1455035260
1461863769
1513756943
2025946426
1173528882
447756865
999345686
536022610
1580251757
800272474
2050192363
2055907527
469559988
2022131927
428869667
500362550
1190149782
1024831357
2064843870
1074710185
539020197
178977762
1693198899
1194045580
939458767
685743343
1636341670
1319011630
1307885178
550193641
237183996
473158613
892810998
1641840013
2045510294
1270660823
1465685672
1103951809
107524251
765551197
241595441
1800161317
1288513645
1820443151
890374348
1226399792
1664048671
170803161
1969172648
425995666
2006320129
610310550
174011045
393231413
369333796
901672933
1534873990
261185721
297709395
802051105
210445101
1002138280
1899537605
1453874824
1461105051
1962794741
1729325834
927681713
1048076872
409254197
1374142907
1704929191
1902946278
1943484222
1871488898
1733194340
1895135547
699247266
1740707686
1287577485
1568379326
936858419
221842429
2039648335
406813199
831078625
858704856
37411390
944461944
1083129436
951680636
1279628709
657885254
762823471
1917454278
1261302834
321649447
2079583833
1691298997
1134157335
1086611559
451184483
1428291441
1930222023
677713378
1034750654
24875857
1379498264
804577272
780515697
1909782989
1681543101
987195883
1202042266
657622520
622555653
926977481
1128145699
284907821
775781066
1091593575
945771233
312358722
255531327
1737040325
1694561411
182756122
639248314
474983401
1401311439
963985847
1907444230
1330121957
2084015091
237406193
1833636763
1006542349
961081279
1625468389
2091889935
1919877430
1042890148
1207823214
1272853350
773448004
1089472950
1040186461
1172186635
461011456
652549137
117566578
1781726363
1024256164
1262082951
1222716459
1352256924
909525961
1630388182
279506095
383429706
1535081482
16174028
179487722
1150715860
78906352
552013754
35625283
1696239654
1049968735
308818723
1332336994
794961285
519291159
344328266
888271513
277892558
656359482
736175283
1132861710
1296675674
1304324892
839025881
1074156415
846736072
2050978416
1948857664
644206309
1981858278
1899127438
1137378871
1298823889
1964332331
1778271167
153175092
1504439748
1785376378
1132593607
976911273
494047705
297544429
240262514
254427784
909645799
1566960051
1751393202
1712327299
799683879
100565489
1863904927
130939842
791717501
947470608
1505143990
1617483370
706182362
209318073
528724655
1143594361
1805562308
881010055
1641222702
79415479
927990672
96998779
729021147
1738260256
521935180
92992759
1947525733
22501680
870313849
504422070
927692036
254847706
169053106
1968455816
1410485551
585192893
595786137
465490668
1387099284
1381344268
705859214
1767118367
470199131
525904419
112162389
1674926377
515013016
1900704000
1118668532
1887979398
1391396494
1159276724
1223908623
1617494036
135117239
634806754
125157512
363901575
1658364444
308367706
547573825
364496545
1973724999
717166840
1333884600
1382713696
1608614308
1507465897
1482401245
1383031835
1813543513
780227212
1527110529
531470852
812315379
950057222
450063908
125276007
1187100503
97234239
1401102441
1076598500
1191056431
1112696552
2038529377
1946568787
1184741457
305885582
1325563326
17915540
1046633640
1738157370
110326434
1916280338
1471034478
1910200923
1055275828
1303003941
1214653788
1002482344
2058797049
1356232785
223004653
736386160
1389082473
308630494
2144939986
1572723774
2134094482
1186848439
1977908212
792751857
2013229119
196911844
1312370376
1766647009
1423604423
744898901
112938727
391074582
1040386785
1031704510
898649789
1954665955
809645200
1208827895
375942
1265458150
145054516
1861815584
1862646820
1046574801
1138355718
419590826
1242187147
767309541
405564512
679930457
1855991255
1392184515
273396069
781562384
1806366620
766358413
269584637
1325341363
2092591852
159654790
867273597
925326851
1524823459
852528037
1154433590
428211581
900322287
1626756284
270308375
333096811
129368026
1952393948
960592113
1044424261
1612114535
1605308456
1106114181
1567217322
571603807
1913681639
1410819212
1382687988
713546052
982606820
2122447130
1721537643
992115325
1655347245
1977064541
2051722539
10288213
673825788
330106152
1759523272
43402371
215466120
938876368
630292184
1216309385
1683214983
1619701586
662826943
5693022
515699781
1031558737
881782255
2030138408
149039074
1075756846
1980450570
1261572466
953340413
499329581
47377085
418463305
2143820455
2118662019
775958860
1559590043
8411591
297729132
1940629894
1478309744
1933936473
260464210
1111453615
1148974046
787986105
744339405
1023871703
311077097
1083480204
1678754961
927257529
372070432
819266896
108451280
1295377127
777928074
295276382
1320898134
1972209411
460312526
184491196
1724737288
1209090758
1693878521
1645513285
406534931
2044613477
1636529699
1498043777
245636025
939638541
666406915
1423265471
1999252745
355199679
1753209716
1532842871
1935886939
795392173
1896763619
1567690763
1164587462
115683019
1380683105
609733417
1305540941
921412779
1914129057
1660565308
1800784392
1583315433
321232601
565922924
123397545
86070353
764085602
540683213
423817604
803530289
1126772525
1310066880
770870240
471940316
810392229
636296089
131606349
1239717388
1374876584
66034598
922431338
158646162
943078614
58704377
397636915
918879256
2091957878
91738861
2043273958
619344447
965197704
986657009
1222867041
2010653349
119735910
1836545633
1782026208
1254843991
1402675114
1131059318
582117754
99742884
1477472245
1577259083
1002766202
770863561
1698433810
30871177
1145250650
1142981867
967529659
1634710670
902881663
2118481541
288843956
928339839
1988111594
822498918
510216983
302631307
559928537
1074834060
597418140
246001054
937213878
1129751654
1791798952
1024315314
1492545552
1355014145
1747739675
174426428
1516753045
2113120751
1688217758
1432562021
587548746
898747728
579122584
959670546
1823545160
1747905131
136590969
714662770
526842419
1886475447
2020601992
883202476
1174411026
917207378
598651784
2024045679
812658980
939576544
1055986090
251723322
777856482
291652167
977035249
81964409
1745989658
248203423
981302932
1956173618
988575020
55070994
1299474707
484061510
562845883
1450171979
48860755
1696107547
387651883
1075255709
1335750950
1799392545
272053275
455799125
1535578300
157184451
320737708
213303180
503814172
935385232
735541796
1950447736
1878382329
1246925791
1883459865
919232364
73466415
1174701184
51026465
1976452850
103168865
1832942521
60081473
668882241
1770414485
679355647
474104490
1349604369
1443735890
439548106
1733123927
1085834649
1715338520
2071344917
768764181
1533084485
1468867871
1355933942
329259754
1229628574
644331666
484043493
361845183
1700621368
1997132962
1883373537
1464928138
1640398593
354327965
357296757
411670661
1225106009
1094157978
377917345
1218465621
22299046
1951162931
116859241
322844780
1628372381
915749536
1004884074
1728528284
787136887
539947542
379815483
1660982111
417227241
387689023
248260653
1179078925
1086964537
1599075680
1670177004
1893235212
1979942748
379440879
884536133
994783070
253117473
1064196662
1115395101
1719547216
387334624
173763666
883117160
593084690
639156576
534371111
278881303
904301574
1148570169
1078302391
1869108196
2115711061
614301801
700483677
313278398
1004588277
1332347969
1349860258
716732556
854585861
318166734
384716421
1958283149
1715918175
472303844
1498655136
1392983882
2048511595
522285542
1199472720
526407295
1715411562
1395731649
922032287
956107512
37152960
1250598797
1191140538
916670962
386969479
1453770939
1713713533
787145877
177129359
905483710
25663509
923682975
1644777495
937886050
1671796209
180372331
1253137435
1477753412
155051074
1168100332
133522894
169758778
2015258944
822269144
535300905
186116960
1825732546
1727080232
1487540785
238258729
21026781
1833452620
418952359
2115553116
1063949974
1914785821
18953551
1419192446
1755029219
2092041034
414890832
914093135
310253926
872523284
950499034
292851884
413242593
1324028334
1744702794
1845913831
1109849757
1459927839
899435890
2143640642
1617047988
573031731
792996777
974238676
342018319
1148132063
1917060763
1338417378
1450448356
1051169188
1892364985
140657575
1271290169
1397363620
1781256024
1028667531
1804702548
909693300
996860394
505392979
1847796886
966294861
413121402
177080554
2103915779
742296716
1858315221
1701772751
530507148
1414365778
548589094
1000033312
1511278368
1253589366
155162084
1982787144
314383348
2055562975
660144580
260036715
1155358461
684436564
409309502
1716928465
769299604
813715918
135483281
1393518600
747692743
122720269
66990452
242481655
647688569
786371425
749582332
1244324217
1679659565
1742634290
210427309
248624153
1942499683
1386344108
1888438927
199466796
1306201514
584882877
1972293631
