2500
294991700
1564411933
1160552042
1373519461
211125176
1445505969
1304826030
700712632
1905737793
1402117470
260838441
323345448
1593494360
673457072
121895505
1800772664
610240509
1213520806
977645556
299584977
414862694
1374581046
1944244248
2008161573
1358126282
1987387014
390446464
1110483231
494198686
1669854548
1237435847
526214635
959638955
896134667
1605192418
1225835223
2094406559
1963245960
1073673682
1550120371
886149454
467044310
1627844727
368412463
1766696831
358293793
314386484
848230190
2062552777
916612661
20813844
655339791
1873444175
702816286
875272994
425412586
651748665
1426245856
1305822844
2137062070
1813525258
1326322641
1863306107
139886786
73307080
167132401
1793450495
2003312014
1493058363
1791042171
1599159109
1581186435
1348198900
598877197
1448606561
819911172
876696581
1089850281
1158101928
2071717235
970336025
2038578528
333682042
369754050
1466335273
2063429653
1451799383
140915339
272732844
278539565
1985014978
1830516067
1058577996
838654319
1442703182
2145630746
728200410
945358001
1518026974
673595611
1586465085
756597380
1324630635
919876757
963544366
1585367645
1217763944
975474452
995715011
601120655
7609909
953173318
1065692084
2077491642
271684846
1502592006
772142372
1965155673
404261300
1924825931
967690399
432223134
327689641
956980008
1144244334
1671762554
44634763
1134723090
1714224099
291796358
377775173
1587297961
1618975990
128431601
917867610
746180754
1763307079
1148908217
101732982
1644199957
1423284763
1195391157
2108938389
1998263515
345020437
820278047
1277404108
2055571445
1403296624
1160389628
1612689246
1294139424
1107691965
1593500666
1695843903
1694438916
879982763
1456515777
2031904343
1461412007
1228846128
1265098637
178940363
1246382384
676875674
839594191
370719209
477636562
1097248855
216675634
1769130178
1860413307
449954298
587977519
653562883
2095477308
1489766165
378368441
1960308511
336537002
461525505
989851652
589878600
997035857
800782699
382953108
242860947
319959106
1296930300
132296379
678501358
870451751
1123829951
340767438
1430818414
1526706854
2002225679
100763424
930581661
1932177553
309690004
137710107
283230823
429268796
1952831135
464702335
318937557
181902186
1349202919
1465253305
1303299115
2007988065
1562581032
264121811
1713687761
411776776
98917079
705954725
1581626056
1908626438
1774462907
183978556
1978567733
431311527
951420102
1137016698
378285878
1962601753
663708040
1435118929
1126294819
1142948022
1067396093
436865404
891036809
156705131
1053159182
544857431
543707902
1003417255
287439345
210908944
258641948
1902673717
628034822
1271980371
1636468469
514858280
2036732138
1037640529
892356877
1209617260
998593700
973326699
1747595375
2124353571
1137333090
760214974
1603586378
1158253241
1829110621
1627764515
1920845075
37342837
76852100
1400597320
547025958
1878853712
375538279
1770972427
814631040
84404749
1329878000
545480234
1733287839
735797007
131231640
1293233844
1148654786
796100647
1174806292
1572097395
222010243
566362215
604726337
49715364
1915199907
521431306
248168375
309519764
1100216781
883440992
919977592
1834342671
1663520089
1473048584
1518276801
757172222
1186027181
1175801344
1074210821
1445519044
47915991
1446587332
1256611117
1350030049
373645380
879253797
257793780
1828280833
399353748
1005575671
597075972
1171008112
550756158
456293710
767344004
1440170978
1584961814
773161762
1385624780
885997383
2095939013
2116212613
810353151
2046650110
168869604
515988324
2099220109
1631164241
2058129656
654609553
838670028
1789388440
802401753
1504997868
1560039626
1324029322
804511491
525258699
1340414574
1184679789
1096257658
1289921681
1527836486
1291616851
837773638
1304882188
621537180
853964621
1516040139
625847499
1937718745
138613493
1347891872
1622428450
1645108524
390092035
1185053501
2024941307
267352040
1707471287
1190398009
1294368297
1026074100
1857370296
1144704918
1418107525
612010471
94750254
2045135148
1271743770
388071650
485489443
652492870
718045772
2075547600
1861631283
1898884834
1541576478
1368885633
1488846615
551722761
892556281
1046742486
84512924
1744377138
1957079658
1932558063
1547941753
366674706
118327401
1665155138
112070402
1680425340
770571499
1445629061
727920887
2083623497
647472064
1400210336
2011014381
1789504388
1212242673
1037013440
1624545622
1902725277
638663991
808477866
1985962845
83641671
487581746
1330277019
309380888
1174781866
1428686588
1171642386
433784915
1821196965
527640418
173946510
2100150872
1701771250
1127536220
1499167376
534677435
1346888208
906298090
2122293686
1229802462
509026115
1791667198
474077477
1146458605
1223504736
1447547789
416295955
1463641577
1881299514
2132261733
867219758
1190337671
816636245
1780509072
125530587
631954363
567315221
1939370927
1597333404
1041033829
847247435
669127758
1324774200
21350816
115939979
1989969562
1805834729
2003375029
96841455
627878476
1302387895
1320690988
1994964845
924709108
1049904516
1199410467
1789013487
249336121
172510934
1598965008
464602704
1852441396
1729173564
1201778989
463427671
156026228
1242408499
1624336620
1534810710
1176266866
1070819207
598853402
152015645
1781195568
170673119
420757937
1120554102
1391210297
1336947045
933530386
1387433303
194850092
438522976
1035041115
1927404516
2093666577
883008495
1569896178
337381419
645567959
851515658
1484536575
960364052
1289042533
99837205
1823508853
945594193
978634238
110112512
1227012853
344761969
966185797
974183197
163139075
694980667
739517997
1747376044
344112794
195661415
706643598
1014330447
156034560
1339589165
1671816651
1121468458
1378886730
1528561137
140888636
4124513
1153388398
1999654765
1362887554
1112001058
682453956
496407194
1535747962
2078384848
1641688382
1270336397
1654609213
626938768
1758871034
871958659
39174770
444515672
772820942
1171885242
286494553
1495367123
2029778040
1364459973
1184981687
1331475892
1302543573
2010886906
1347243560
401405716
1614029397
795790954
570325663
402735876
523941506
1381413014
1190796451
1770897697
1650006947
273626379
742043705
1500378254
1416512716
334369306
1499102517
12548737
1027374564
1363360229
1278370782
620646725
1606466664
952845757
778957033
311141750
931903312
1944905613
1668659646
292038817
2022557503
1582982240
2016477306
1678438401
1374064464
567285471
1296015516
1952307761
359230565
801700045
1735213860
1795718457
178761407
1323447918
691985150
1767021921
1567725645
264685514
1402693684
2114399087
1155475220
1067193190
179373502
836815406
823239619
1409849478
1062681842
807984516
50264902
1460510974
1146069397
475144260
179821996
118291438
31831738
360170137
1169794957
829669389
697244173
1019875272
402461042
1151538550
2118973783
1276222811
2140317893
802162709
1034931626
1704067240
197005238
1706254941
1887330345
1186270505
765527416
956468880
1763776054
1795660587
1235695196
1338671623
2031256975
1966134641
1174656162
350596895
1840664735
1605177306
733083714
1558576796
806832910
120923502
1284032263
1709953851
1915610425
349921015
1108632973
1879249734
661643544
637984964
2114236011
1707031278
495603334
1284940076
237155153
1794078297
1699139433
563406608
584975662
694404157
1522344803
688148346
1487062044
1507598212
2131885321
762272804
961116026
1364898535
2099518722
100895301
1678880485
1228018006
497596326
1780543470
1203268155
709392762
509091863
157770469
1532709064
1512644520
1391180964
392832668
1207534439
1654423592
768492518
1448288842
2105781043
1252047163
1233076249
1809752083
998978189
431680872
1254808457
1882755521
650296559
1153084972
1997993293
778330334
429930438
757624274
556170436
2046313152
2006039067
1790441829
433329872
1310005539
1733700829
1211628560
560269509
497276587
2049620857
865568672
1765109287
1426157013
1788742678
1522182384
211727287
157435650
1190805369
1291255775
51993600
844513099
139901335
993092466
1824197767
234237406
1216524618
1454738166
1028776077
2019816086
2115602904
1493221557
830342661
191237260
1597108636
1826135051
608870986
1258797124
1211681577
52872177
1256652222
2017891697
1168694708
338868382
255915951
1526126010
611339412
1743955523
962708466
1881600682
905238594
1045184425
1385033121
1785457691
1103619662
306093924
743023807
1436487213
1882935645
957231873
948064506
2008432758
1311244709
1219210434
1732144880
880794291
1666665897
2125397595
156546183
1244333135
840966468
1398757935
1187740839
816159350
1474883432
2053193524
178355066
1039703422
1801414853
1287883106
1558231775
1844193305
509017514
1984204180
2130501376
1264315717
375334139
1103641185
1033744914
2110078571
1614965989
119030661
1310128253
1706531233
1472156520
103240528
888049034
2129707042
1441523311
1781548322
502384523
1863144585
1976904599
1093298221
1031480304
1003946133
1074483407
1781254364
1168718689
475603959
317433121
1467122574
828898996
872745604
647583696
2129534676
575486537
1196337718
414581134
1984032189
1298752219
491448663
2097869899
2103015842
1984801121
1241017667
91509595
617084203
1051219974
150728772
1820259338
1263253014
469267815
549003242
1800013260
1609479929
335131025
2043740932
610107964
744301239
1938397662
791603332
306603411
1697310096
182916454
1458363694
837398267
1541490800
357378403
611887561
1302276218
1892520508
1359611134
1216502325
2135226252
1219080803
1884509686
459098757
882701646
1415050162
1916331152
714915391
979685020
1728755114
506886241
852819367
263842865
1766928267
1275462618
1653210384
75113368
765606309
1416829143
2071235155
1785867818
85860547
2131797342
57082632
1783294746
1902149519
2077357738
909808486
1514562948
844833048
1990723275
1313733670
1174251236
1968368409
375656436
20897937
728780206
339202037
1061185839
983997674
1255599677
582011279
1016113790
784573682
1137261316
2018827037
70916261
1394108860
459863294
2108300055
431315613
589875255
744661843
1000588874
762999895
1402928969
1790252083
192436588
1893207065
910241302
1381016843
1187558289
894891589
356538945
1220498019
2117157008
1374357953
881458769
791056492
108931833
1867660344
1944395671
1528032001
450598584
1210254785
1019473107
698707533
1685775020
405474897
2060641303
1639896716
1850078200
1776230663
1450082688
521963727
1700366127
666724481
1145599257
154489522
85953261
1386410950
1034248431
637268781
805470885
2100658608
414982064
699492944
2077421598
799184242
14652133
974721489
1662502387
504681323
2050750808
880770366
1520624135
660644960
756075610
589636149
1021480837
1619600101
1752180558
800966804
1384714634
81677922
1689040226
97895143
977482887
2039842895
1237264255
1091432071
257354087
786257922
1577857784
809466839
1898112942
126711531
101980034
1740144266
1939363553
330573116
1706339796
1373783515
182944286
1365361967
2143747385
650280154
850956521
1379123376
553736870
1877480109
1667844857
322942080
925306506
2138368783
1575543006
136307957
1840153339
102061518
1894432669
1359083953
86440411
1020678125
407464458
1320747723
1522977643
1693158211
965892970
1190380652
2041261297
815152985
1188295140
232278781
1467121073
2105393309
988176467
828753791
167386771
569041381
814262378
1847440531
1411960579
1802968125
1204460950
1133855044
1540265202
1323335207
593293034
1387267720
851650856
768828801
25180491
1181024939
428601057
10157810
1382818222
1661918802
32665985
516525491
807892840
2003335179
1544841993
1393130657
1105878629
1299626216
546722331
1533556301
1598259681
1623240923
1455517786
1888208088
895044999
173472333
91652236
1801730711
1119891692
38496121
301847937
571073020
880732455
156890490
131991389
429471331
150590229
1151601054
553789960
872260525
1537099188
1350497444
630754340
230428478
1581708386
1316405265
1597177055
1357784803
1265785236
902185309
1657903566
1472166706
109324276
1957000896
1637950847
299720095
761972114
2079271872
5629519
1030392338
287428119
499049676
1764494227
623351479
1621793916
986190796
1689689197
983641152
1278467500
289903699
1103490642
206898808
71904001
462450656
885957299
1155447743
990096348
1263856266
458894753
291327490
861192262
300734012
942269468
40010532
1956885392
217722828
148214192
870122533
1729590671
1508705147
1171167072
1166952114
1862622737
34052060
1909494250
1857895494
337507825
597943220
367560625
1022806884
1527827074
1956333876
1666948841
1456279318
914376428
1959893577
1960205343
1755733902
1446942375
654599565
1282238593
852304461
569151485
1763674547
1947787271
85025389
1446225398
209195521
1383278465
1299001582
166978224
426662685
1436830452
1010617526
1390340595
957906573
176350221
1639682845
1461256957
313919315
236161081
227981290
1402546871
30273064
61849309
579257824
2099326577
1693965812
1513979776
2097211076
600231448
1685176187
788543672
2100360124
656860530
1925352936
78404848
965561651
326869000
1892381537
1367767621
1484094458
770617848
1237855507
393664542
208443432
1218484975
182433510
1293589721
799046428
1828581457
1829126323
1459322154
9352703
1159442237
2131847571
741798217
179852018
720606923
419415240
33420351
1400200607
1719241494
9741847
2104903935
1947808328
1772289550
713635049
1940277688
1605932940
1134125884
1253296734
724843849
738368807
309373101
1889964918
1675769335
1371358557
1826273859
1030127439
466581401
2056713318
326175579
1375433241
581461377
387819914
860694839
1840955727
118356329
550305392
566842640
1313667382
1251852602
423882740
996288192
1116727219
220423360
148074102
1976710848
76935436
127710600
1941353849
1067503705
1445178496
1004094320
1986424004
1971104719
103598191
765361078
1989644315
131838185
1961964961
1314475839
395779932
1635303732
1601936711
2089181337
1708365557
963152330
845290422
337230441
1988440165
966680134
1590314289
223284586
92662315
1155144337
735146587
191592224
1821005851
756550885
1100633139
85577629
604781385
1438378193
845205644
1546289130
1465377546
181387379
286598629
1251991677
1917670564
1221593103
874469464
2131762955
1887845300
1184734912
369878243
444968292
447849006
1297015378
1560460996
2116499245
1209430286
1203292109
1829343956
1997545545
659404892
1974009679
137516114
1524796220
40222531
1424629106
1660358842
263972576
1740561665
474664305
975440953
1179977154
437458971
318835690
1657874005
1563867941
658083659
551708868
2081129774
2014052892
106342901
705319269
1559268041
1312467711
592056186
581395329
286986400
269194005
1179347058
1170785945
811854921
30105804
1405544061
2082770501
504806281
275565586
1907004539
1173366156
1054603370
727018184
880111317
1694744491
2075743684
454953046
259605478
312595247
1940480882
1563394878
1625316369
1046191157
208370303
1078276962
321382901
699115097
642576643
368957660
1927299781
771710716
231511904
1237586186
10739386
419999676
1629060057
225924670
878059694
1297129600
2123232849
274629852
1473963880
992215647
879230386
1561127479
1419240668
1343430777
1361036153
117627522
137412286
693992287
1591580585
1089654663
1913583340
667061135
1135613490
1219759706
1281792995
2035321425
860068300
1309398435
1753792590
1206535506
1442576713
362157147
1869921269
2036136005
1148291918
423012196
1958294355
1342123861
1970434720
1268523149
450226282
1089581284
2143892112
1820136504
1567576855
2134601939
405375763
123269031
1858404461
152668631
2126814477
1185240958
1929100335
1996242893
522540723
963710458
1156349954
1640631000
2014717775
27615411
1430858843
1881253900
2020670567
489627641
503842889
2020881852
1490715920
477633450
287771191
670061426
428457683
481962632
1526196149
1146572400
777832798
1154791427
1162210781
1760907810
177996564
1332599455
29794679
219521909
686583221
1564996075
526788583
879485509
1527929285
1591004474
1864398448
1611355312
541416359
1546606890
574114526
816134189
2012645074
1053087551
1958538239
686234808
571077423
1481274
1148170674
552748661
2091157695
1159548415
87708979
1107630085
852431778
1979106541
428280074
1267697001
911188351
1302810332
770398685
1896582477
171582416
769103392
1421268523
1376959469
853106190
915933002
1058438943
1682552121
850467014
978501178
379453428
551208657
1400544956
573897956
589803271
1700299453
354189240
930687444
370955772
973168907
2076089994
169498015
89374977
360540879
423330860
1436174785
1423907067
1078913956
357563476
1352867590
137232817
676277407
587856214
1148017454
807371570
1185953267
1092075835
485726064
1823455816
823957893
1438146853
1528606406
1041453020
145638689
774793735
1847948431
707901877
932535504
615904463
2041770487
143606470
1349000374
790556298
1914055906
400022407
1748288487
1531751646
1080718844
1432072660
1854834246
1174129118
1280786125
1743687951
1424918188
1666140304
1499363388
1287326481
1222760818
2143682972
432044208
1438279701
1520275113
861492864
824076862
1856134762
598852646
396767012
488915228
104436689
1605681121
1830894766
446904749
1730405561
1793004127
2054653642
564518632
1012364454
1085390947
1415331765
2066126963
1921746792
1591703045
1663360995
1060225271
554835993
1590804553
1723108239
979125320
565012982
709054364
1750580535
1301792276
1173633
1703428548
2102475600
1401769841
1860595748
71136551
1945719827
1925678490
2033378761
2067259750
7364951
68511770
877578082
615316266
1023776095
1487836854
1199602876
833428869
1435700955
868360262
866020909
1848179815
2083534110
926472319
1579345633
719003362
1354456172
1402222258
4438984
1385062752
870036017
2129836778
1002355697
106594342
289173916
258137531
1009510669
378513672
65167098
281904457
1959163825
1277826627
1385991420
1323369505
935171998
952545366
565274744
260415302
356385637
691124315
1510542474
579116207
629496373
1623751232
758505279
1999296792
443563482
1913063287
1222407503
1490019943
840187107
1522202656
991674067
1196077657
1695973964
7616188
1018592032
410825761
1888505104
1139593506
215938510
742171459
611463552
541119404
1168509347
2081010980
746004697
753871590
254701057
873489456
1524119913
1606192609
1524976332
1261026505
1360158578
363950318
1461785715
1000224089
1009687755
948698873
380088409
244648578
924731760
1209998538
1992089864
1614358349
1188821981
624390828
561642156
1522307536
1226981532
901742222
558882553
1652777606
396958623
1476112093
1437876610
1306477140
251350891
483886093
941306988
115634190
420769401
1734130543
1132329958
1577144274
1360572933
1502445894
2010131194
539066509
1318558711
1694149325
1575225249
860191298
602561905
1737423006
526333711
278377698
475990142
1932026131
964735427
1797805525
1275168669
951607881
144244801
781739639
200498625
230972597
1698021070
1092457118
191049632
624882890
1260480927
409431634
777327298
1523809805
91779537
957301947
143435338
1507617956
573872321
609971671
1544155997
2002636768
2058327373
138357982
531240162
1216140471
1841168096
966792855
865904772
1426935570
2065924833
420085628
243205638
1072582037
1195466796
2115662320
1460551801
1561244270
687876969
638364944
192998796
1863505472
1125505996
1710172666
146388637
750006987
1290346162
153856702
2023993428
940839974
376632377
1361760331
1747548974
1616532374
2107610010
2063350060
39332925
1478040094
2060424956
67905298
794754051
17738230
490369072
521121178
456966271
134099304
1192436926
1718642752
1896623009
1232643384
879776222
1503705371
1694487842
1519296966
1461221644
383880766
2017397236
377771755
1416860835
186822907
921986074
1019246792
2047013676
2110167843
167717793
2018458317
1205886062
1848825473
316178246
477254118
1072004381
758505922
1767719719
2010578581
2067569562
1953210245
2018368127
1512775457
523998165
2045332575
510961509
1172982331
629808072
513408415
662983384
1247539308
179589008
1507108389
551476450
668698474
1500153339
1825875555
60192178
715373523
802122766
886956430
639180018
376810179
1196780038
586505198
1696074308
261432687
919359343
1949786538
1952177666
598932050
425740082
1039414350
1297520840
1870546854
2087392169
1021067680
979655702
1538643546
1897436052
379904445
181137994
246577981
1577028963
1638833358
212869031
1971552661
804242565
1314257476
2135079278
836116009
1347835050
968349289
1219135215
1208019073
1387878045
1104298149
1479338359
447503794
434883673
655024639
1045187776
397503003
1220203856
1598286653
699162379
1944517703
687155841
986221337
548213096
1907859221
1322115930
1534717113
2093834254
1886919475
498827473
46513527
1577509458
1754800709
1997816507
1661942719
24322904
48628004
1103676243
760466700
531349956
658397525
633199664
66329525
880171205
824239026
1147589028
1336589785
1382887289
1858288419
1801504753
735666979
1786098109
693808653
888176259
997559231
938848246
863377712
1164137781
939378078
1339582482
1549846923
1400149943
1879077673
563369235
765945571
1828196939
853350921
243451788
33023473
1881861634
1401501834
351946195
1387627053
2100024520
2084676660
1773974653
196722906
842751410
20017190
996820572
1255897749
1485160739
943151977
1086993547
720694798
1045878193
403883717
467287947
406968804
1454986054
23147365
146142867
772710278
1436704887
401951006
1082574857
1137798291
1659528644
2066768910
1842207277
434531710
628370225
2015865838
142125846
71829568
1392720598
8237390
1834055863
62660092
543329942
1157207117
92041556
1947161973
1620869961
1258599179
1473424377
1343712617
1495602741
811065154
1728833655
173381248
1274505147
272702863
1288181612
456250923
2009565407
571140692
313109286
736653324
1367969578
808323331
1607577459
794974441
28242058
1947654769
707701125
1213313209
983246896
845625856
942621033
235619427
1290838584
666756428
1619636409
397809930
1903620198
1848404285
451476487
797572433
393954824
2141493379
493941423
771105794
564935818
1506183871
1881798407
1051248289
1519509318
194519492
277188307
932237039
216203379
500111388
1951185732
873630103
320394351
1383503649
1953044870
1422418065
1556207379
685331926
1696189132
1447599421
1463088867
1723416144
1648698512
663302729
1516636810
536714484
465053893
1117425363
834440071
1377883523
910476905
1217558443
334339040
684106403
600826231
1134553625
1543131623
1694751497
629154555
2019624462
412306375
687915082
6197790
1504968796
239242500
364827947
1171911464
6036746
333226393
954940281
1857941809
2046013822
1071254262
1019648636
1750011140
1489251988
811201486
608931189
408704611
675099438
1320103094
433887589
1178069969
1206101577
1249407020
1994566649
1135035057
816961915
660926123
786768099
570177479
1325511323
468067221
818172128
883419061
1698291324
640675932
484419502
465063549
1503071028
671613418
1594901043
231845995
1669999170
151354368
1333859545
441764440
1128577719
1375858256
1972214229
562219319
137108306
1805422496
1676674883
1234176788
1762452819
617661192
1705512429
1152820991
1392987677
1707140054
1461919376
1299823991
441291189
1979079069
256850151
1399492726
569206017
74970263
677462489
1809867653
1576890432
725062171
1211621693
926164179
1168625906
1987578017
1013180550
204528723
548054031
200039518
1442791741
1619649790
369596545
1685142153
1838899833
239594501
2142996913
643940104
1471172524
1128118891
1232543971
229146469
1444224827
414565354
108101738
1909317657
992675694
111771735
1955460403
1633988511
2139354763
519277187
1361949012
1968573525
2062397285
973965932
908496510
1840090846
1172992222
713598
729274267
1554431975
12591790
2107715055
880155617
467456926
1499925920
1043298102
1564936382
43888150
700520561
819284282
799427399
1400975267
1805815244
1875540874
2081192984
444975414
139815885
1447611260
242290714
1007900695
895498534
712522667
872436582
1080380071
544826452
2112830796
1765698517
1979518119
548415639
1215799172
506487445
1490926355
2062810517
636045394
943994509
1131552983
71535721
151762000
1473312573
1226701398
200027915
579813197
1764222503
966492825
2086860163
743388229
793747870
795232002
157299915
1043179012
1084380837
848577414
235314391
1257901833
1537735590
1688094549
1845417631
1626585527
212177515
1488494656
1620093745
1251537148
1383756273
796725282
81965231
831780921
1266981270
1137117275
2057929129
1857473500
1902447254
834874832
2058320630
1058449638
211626685
1079191163
247333304
662199913
1327377961
939961288
277959147
1683907675
1862503004
2047535250
60806301
1579793575
684814189
881925212
765328831
903781303
1118849854
1632471002
96973743
540923836
4084455
1305452820
723008380
1778655693
1890588163
1150586924
230273192
692061610
521738198
148173537
1477772088
1288680001
1859482139
909044027
1745583428
1815579079
1412267765
946694502
1359139332
1864530483
594316317
1993202953
1804383076
1560091869
1589875596
2034566103
1737683159
1648140099
1030815569
1029972291
705764621
1510110192
482767553
597651485
2005187769
1877854493
633707845
1423367839
140311638
923519495
808260663
992088947
617803458
1610065763
1307456858
671135985
1236489078
156985066
1881477392
87036499
532866113
2065857483
1087069429
1954993919
998649019
1976510312
444558677
240670735
727049938
478388459
2044213217
2097146650
1305010865
1634731455
1507810931
123051867
1117549512
1098256946
661274660
854407671
73689068
83075351
1428886679
35682761
1500218591
683996262
477302174
1896195097
1313705769
61851009
482247080
932403273
1425266659
831004022
1447304754
2119347430
1857901402
1182790860
1776296374
505451244
2025535199
1244830829
450141740
849314537
1158356846
2065493333
1157088063
974811348
611827631
1616068940
1409888261
884606955
1604916855
946221790
1191661135
806170620
1598893225
1636246900
1820177429
1795545228
1724013512
1746769412
1256558008
1101729215
1290542102
2115908397
307302607
1457607847
184244905
915717367
45807124
2110410456
1226004514
2112990708
1685257017
861710185
1154748032
1758243507
104885751
200623780
99819451
401390224
787725767
1338166998
1361857313
428296038
239081076
470573082
703753540
1556539015
2060845528
1047831663
2003436630
2110449788
836244112
578430113
156647331
1701884145
1440912940
278258754
1170314687
1901582392
436162384
695813545
944431579
363991516
1459501070
1997289036
270535496
730848808
1070353427
535601961
1372533449
1669005839
58809046
1095775463
506947921
491767575
1778246179
776557622
1879174595
862323735
1511125001
1385199093
355267555
406514892
1044778286
974303029
1917907470
2062330662
1736388372
1168544310
1231648620
2147008083
1524019895
1617449380
1309313764
2026775544
1780440522
408825331
1158385807
1709459382
212888166
1344677980
1171306553
1948761060
674207772
1452146692
1870394272
263043565
1462978164
202798739
74347866
314534368
1035311051
1568856841
1654896031
158200678
561093297
1035329416
932119076
1996510658
1180925155
1883026520
440701780
61605825
2110047547
1628007679
1725377200
1982423190
1744672200
1962781765
1240676761
1574225756
539227774
839292980
1675661033
1462611022
1640113827
1420498605
1177783724
1571047399
935131285
1678594374
1335290631
717694023
1699951155
343966270
221705381
872508493
5175369
1274283940
