2600 1173492408
1481575684
1692155200
786455634
394711173
2058949409
1005441777
1389783828
1807183196
2103358543
691272653
1780016451
952260777
1479569237
590331663
1798343249
746507155
291719522
2121743015
1257499354
1335371311
1517876574
1067492927
469881904
1325323805
1888273522
875781475
201655699
431473812
1219911336
441970907
1671572386
1028869458
2054374103
2099266077
152118607
192199591
1193807434
1835050088
612536151
385044985
250252937
1697843336
1754437881
2134759224
2011535376
1851600214
673849398
1288285448
113747766
301128477
1313805882
1366716152
1674397879
699213209
2072324877
334436247
152586598
1636808166
2139079267
1160884022
472166050
311762321
486944640
461800033
1028421339
490418055
17512870
776986598
627777819
216556460
353953864
305880855
2060582412
323174487
1481742183
2105388443
1541294121
1421135001
828855140
669116064
916587374
225381105
923434467
1788178585
573613497
1215331057
997243340
1471767233
255887289
941466667
2058690333
434271554
1257380909
975808428
586332065
1741714723
2007888146
782686946
135938924
952517782
1294628675
205023671
883180633
705388394
566924053
25034786
727732935
775940864
1957032990
2113043959
365083187
726420337
1756116458
714518311
1160862784
466960869
1584646256
752947160
1559289508
490574626
459644787
76256542
762519019
190723560
840346473
1861779556
1088940657
1732118722
683678217
2030516561
1410403544
1177686134
669474147
1246900117
1970966903
1794063989
1281818005
988726640
1213750625
1916190403
220803010
1860715122
1869220474
686149258
2114271029
13552909
1868958558
827464237
374377706
919825674
1737299858
301704096
47501498
1409947108
1378279636
532492411
1878753426
1368045853
365497824
1908686922
572553601
692740070
191463405
767134488
521944943
1587891826
1012719048
2124613415
490147280
380841271
2122475861
1898477527
1624616829
1553873748
1006508674
1006863145
726736645
475433405
520226019
730091693
1518989156
1880767468
155714262
2066984784
1508408283
325833692
838642178
1622918097
177921990
674202270
2080147492
1734360759
1375844291
2026406870
291808985
2070879036
173844890
70221708
278353761
691201211
585610197
1729819750
435570807
454002006
1371162378
527608229
1421009054
1318231123
1389962688
895953423
204858249
1214274665
1292635153
128337280
1455382158
1124462959
371728577
1313184673
1224727491
1826254626
899689734
1646013977
294379378
1161250657
759930083
1952709129
1915399092
158418988
1031096226
614243349
1814121658
1713054239
174260133
1221064781
398126399
1228568144
1051126503
1178201756
107967120
1043885371
2125177714
122950541
975790376
745985124
1057758965
1822847755
726403246
630375669
1349017514
235821798
171636705
679334324
948432009
982265017
1615051168
1521925464
968560952
1672034293
1860884627
957004056
915138095
57056478
733817713
627583629
1894785443
298726937
2045143418
2137782804
2035068704
1230932780
1240336044
561146092
2059145278
1202375441
320559107
739536887
1864926231
161992065
690093958
2115675429
652933290
1497308798
1138204917
252619374
1958724210
2078347157
634641719
515122079
939662450
1341051513
704354253
1272067312
1816097037
150313789
521699822
685148476
1448307146
1624492737
1002303345
1291509648
1549649880
1577132193
467399443
750133947
251855876
1028847023
612483614
878839312
1737013174
531987991
1500537127
874392857
1065274357
1383273356
591304841
605673615
197554896
1656915920
1005531145
613227894
1843914505
729120440
1929016096
1556783886
1002959996
767545423
954990131
15919402
787367973
1278276481
1708511608
1307710977
28150009
1763209242
1962519999
932269415
1503541059
2007914717
2066332059
1417973215
2080200165
1098436091
1820421062
1216223184
1772083604
2005370688
1496826144
74472248
625730014
557737625
543930409
826764777
275298589
411570643
854332719
2038631034
1997970587
90805551
1595633301
708449693
366955804
823135597
1110540630
1278258345
407922383
311515807
1648020757
1640610937
1223721489
632871248
525826150
1723670146
1746934478
1851336193
433749312
43729048
1620525497
12314284
1577721067
390549870
1431376797
32021790
493001752
1890646057
1305868912
1352368411
2019313582
1530303047
318092613
1776640737
1523958010
1245247869
522332287
579704250
811831616
9032306
1522267538
2020532542
1021707999
1484612273
901897288
220757105
820402460
1502146369
225698436
1302073250
542905364
1031185031
765150280
1607581467
1436274135
1599601269
575155236
721108061
290464136
1249886027
2012623745
728686915
595457267
1072464264
1965599500
1184092831
1756693377
212639752
1236249213
2027432297
430814089
1944376973
619112712
32122207
45429126
994202522
492789328
562915149
594072935
415323915
1367648591
159724568
1717685821
1423005874
703545818
1596767603
328340986
1811920230
724856798
24540486
1463004864
1467082382
1311050867
1177249780
843786004
1670922141
1653344717
56860084
1759405201
547501204
295551808
5277118
86030902
6105098
711529948
1385326502
1307919113
558285283
2075869185
997318429
440960984
381406467
470256438
1249270800
971139477
843882015
553892370
1626517209
1064392559
1784676687
1841971860
742431095
1320143368
1986900204
1735609646
1250191892
749012991
423187318
221609429
267492628
790770193
1435959806
574587667
1219069845
1270650682
1919047204
1285255096
1567427036
1839616415
1047593191
1166858710
1870284960
1692805649
1969875052
1962591287
1376743678
814728320
2055851554
311840088
1043038343
415044786
1451130212
747579548
927340982
69867874
27361684
1019665925
1440177296
812900919
66806803
1116984032
245942700
1931205127
1486386005
675617235
336079953
1821400316
1238896618
280496845
404065414
496735043
679445494
40936355
92612982
448370325
1333354569
1120252059
911113137
670489918
1514824645
349289402
1172389822
1528295280
1281681583
1962526190
1452902203
2028692191
597941122
1392166652
4969678
499588975
1884698836
965670297
534920426
1615981248
291771384
1138481089
1713606940
14302563
456533120
905583473
1306366223
1587240507
1009311176
117978548
264971877
1467074358
561253300
676908138
1018144189
1704972716
1938815507
1450042708
1547704618
1113827852
2034311783
1167187652
1234408241
188714194
1284727314
83832836
66291650
1660242461
1294842059
11006372
1292185592
1180045949
528977619
449719556
862253765
1344768676
279479051
1807611265
317511838
1853827170
574341564
1327122455
570361004
387241567
1390404077
55423942
1431123937
1462624224
1790725199
1087359528
968252010
786507397
746924442
1410357024
1576210047
2123734287
1194776613
1845060013
65686202
1757154342
1156705019
202961771
329710523
1759846158
2004922127
178497961
805809847
74757900
187644624
664866133
1465992232
1616087130
1958675190
2008199918
678275479
840957422
1600059883
168239858
905943905
1920951899
330380690
975801005
1242853470
1766876967
151461232
1937716093
318565039
597670381
1847402785
1935918037
1937117885
509620219
1992226459
1677018907
279648600
1879506607
534601728
2059468278
1060717054
2118997110
1673427595
463599390
443471131
1417163679
68260980
1497525826
1595808250
2041026605
533695217
164689405
360536440
902685431
1055961328
127559358
732751907
118525412
1445018883
442079107
1553741925
544418167
12402699
1865277033
489092298
634232665
1333600931
1917409380
1264787972
2016329649
240888989
1317534145
37308854
1223431427
1281266107
1279288985
1031777340
1354760436
1007323507
1103073860
1760656158
1937186629
862710768
1157638393
108731138
1204679589
649910630
1330560631
1316253454
1849679123
1892804506
145475496
109193504
1487426013
412506094
2044484065
1240933924
532112538
50386561
1899672546
548327165
1113231335
621395941
2004323719
125403896
777702148
1363930955
1184706592
2001996481
949020157
689509627
1321555800
113447401
909192504
149591122
1897060342
1925949798
936335089
2084039279
983568915
857854456
2044442267
1557896197
238233558
927337978
1970977050
1045408753
1420361304
141229024
397912509
623548724
2032665995
1310456070
70499745
1332077865
659278139
431868640
1804757120
2048336527
1989822466
1730302439
1694759138
493128248
1739855105
1854424018
1701805101
127802087
1422933801
914353576
1574759085
344211141
942997948
1246625325
1038130307
1977940400
1887321178
327505881
233375086
517513003
1940042674
330361671
275757292
1661407668
784931179
486971826
1479456486
1065256857
572382409
792469162
77266866
180673118
486195754
1203176143
1560637496
1978424392
1473332254
1114674668
1306715741
1486173985
107526871
1527181538
1524411683
904155615
1579240819
1939079363
1802121541
1083752336
1896655166
17012705
1859452148
1619571935
667779621
1522633036
799538292
1542391614
290380741
767085008
1303054850
1259483683
813963415
2025626431
950780567
1693312537
1703072418
1117044368
762618257
2141724273
140999716
671460636
561210792
1337638899
1234552552
1917705294
951041106
81444520
1812321656
481363711
1423128278
1539689664
1936667232
164265874
52659669
406818860
1765970415
662670089
175111735
447176932
1753438393
1653260930
420701425
1756336113
833744061
280591885
374014788
148845758
488099283
1662273055
1631847285
2091352986
1525052808
2135641778
1398805619
1962257495
230293387
299890890
710039153
290078797
1831901627
10771861
299208523
293544068
1130871906
1598676880
1541187106
1585771539
1095772947
1708639673
289302681
780215792
1391049787
1795349823
1677563350
1289055318
1301801289
1249846302
795751393
918148473
132130738
696548080
429468615
1228037873
587401363
970940349
341781682
759763879
201400562
1845931980
1811667385
60142080
2059188855
114258462
1135230151
138140144
2064206610
2104994126
1481344030
78169014
1419359707
182529644
470877534
1685683555
1943949922
1861587672
1028295360
655536666
1191427668
558631489
1838802637
798160710
1466135628
1045061073
1173147818
552117171
1087843570
1377428804
1857947825
66333962
92276520
350849573
1128186876
1774194393
498235350
1108726128
2032755065
334968865
148374184
1844440481
1847485837
1776484917
221755908
469555789
378322669
542748264
1102481300
1504017479
692474344
2133224602
1841314832
1198575089
100781550
378792311
1084909519
1157697559
2083178613
65168579
1526856511
1647117492
42017362
328355711
559197787
1236152631
522761116
613183946
1361523188
268249277
854212471
659593778
1441343321
722787841
294039776
1886638805
1691869232
1442184810
1277009749
1440161794
1944119238
1155748617
1372068233
840943336
817189517
1433414703
229161821
1914313506
845076091
1335481036
1892813070
1003476357
952609569
1531249385
1636045794
255521310
1791373957
2140696077
1482843792
1956517420
610101497
1473070392
123943115
1688960834
201530606
590269291
1029237854
314800243
1323102250
1948381165
1410781350
565401965
285548339
70119481
1448226708
259918896
1342706199
421462587
763404588
1289165689
720090174
1903953678
253012135
18434307
1009882367
1554531588
194615176
1805757456
1868877832
1965697447
290437938
664295175
2095365357
1773147117
1728696285
1330611838
2076010437
1535911664
455916991
411194998
1115607552
394273800
500342024
47972801
488896976
1339182231
1009910319
374384496
792373900
79973622
1988792774
1995479366
782046550
1923427880
821550408
1073689170
2083402043
718753870
179013453
674641025
2099897055
1866689845
909094735
1698606989
2025450976
2110890482
7513717
478703345
580955184
866222507
1266477891
1808330737
1693093425
1306144680
483552955
864739359
1740071889
269189567
2124423037
1381442542
1196190765
1043933617
1442234139
1730176022
1572875743
583592161
2004090181
2109351056
2125535054
1185728983
786095478
944005763
9955120
339894782
490496323
479509199
1885789261
1400904841
1148288720
616961954
1363586543
1210682620
1304910654
238544849
1398951049
954452047
350146472
577100711
2043832688
1210239061
1054881198
1495346364
953796413
1309201762
692353844
1003776708
717443555
1282472108
1117028022
1570427640
315817966
612202154
1788851137
202648954
47872268
1730367719
1187712831
285094897
421693424
1884016840
171522868
1958510612
1903841659
1984240014
145560450
773325120
224220499
1432011445
103246351
194968466
608253600
563050958
341906132
1731103998
2117880711
1854975296
1919039570
1548663951
810939859
1209876095
1234696081
1177161831
1257358051
54016994
1323910350
973712390
1206277298
1654694699
1030494001
123663878
1190203678
2133273549
1400626582
2122565398
1817680532
2124093668
1913797232
1534730153
2124943487
1646728245
962791423
840197847
766056351
387387183
2094834950
487534496
1034594669
2065706625
734890131
969246877
663268689
795065272
1393565184
642306121
382752895
1669734083
658369097
1204098465
211375647
877847057
369817434
322632791
1321449418
1334229649
814385211
1790454734
812363156
1215863824
1463686658
1566000625
696518292
1736102333
1810863039
946889884
547911809
1072505249
1819802246
1552097323
995668252
2132342354
1018371574
813899230
2112695505
806392066
218220615
1515201965
2109135061
518669420
903552674
323141984
1692039580
399554161
269372838
64381361
144235596
1954622057
1148550417
161090937
1473564338
1156633579
1157303393
649107263
1892147005
1576153255
468850517
441015300
972481904
986933833
2112045421
1167755629
1805079146
1695465885
219073245
151382940
196495481
2135293929
84208738
825312161
2022865872
518124021
265649136
1543186006
968481538
1372514690
1433917587
1901420951
1906048657
66013300
1764499070
1680730890
1851941321
1912410593
263627741
1806653069
33514184
1974699517
1953938644
1161942096
1988430468
960086564
1115277225
1406514842
620010943
1172794771
969638203
421560528
1775760427
1822189907
1080336523
295009617
1813354996
872713299
423148623
1812126634
1737537213
1262511241
1527018974
1776047817
1850064638
1972109726
1939664460
1834771419
1471474470
2107426618
2074182238
1455744832
1602976072
2106541766
1502662239
1378382948
1100788729
710812302
845282199
457511624
1918616350
1476065093
1759728391
85560517
1747403865
356667007
1950292697
1056851417
1121430272
220436689
556251573
1630181487
2082564311
1282814104
1615602639
1051704542
746315079
571761451
399871682
1393702614
1432227579
150307984
80702951
1573571655
180497159
1780484176
343586343
1578632080
1124126122
107783285
1017998124
631843134
87364224
2117303318
1031762652
550231736
595225796
924602480
1571139934
1055207509
661997383
1315617938
503082599
371143618
347565389
1480554124
266469531
1901342328
632371708
1650956869
1830994470
1868579642
755011910
192084811
1196903632
925018338
1309581326
2095742865
532020818
60254442
1292723175
966754570
2004403364
1871881470
1199963244
1999452367
1813525075
1892050285
1003012563
602222686
968677939
1574694878
1588602652
1216330919
157807733
730440949
1548181614
654934013
1064585797
1085171482
1090901216
1319564304
305162853
1503365142
1852855855
1441201320
124986687
1859534899
655433806
192774571
321605876
1941547907
1792516856
794759529
1879823933
92426508
235999366
743869113
1855259584
1265381412
709539728
1414385486
1574710148
1420580749
1099899397
1336049185
1553106435
825164542
697237024
1107277232
1340890890
1445151106
359059070
492166516
1898547649
394077366
1506959809
900299142
1503665463
465007925
1354699834
1720845291
810186757
792588982
239982242
2103561910
452562354
1091115227
1786117967
554692323
1483503988
437546579
932831783
454897302
1873697717
225991335
1467887817
852297326
742096215
1863353554
1026892490
1043046609
764329205
314030389
1269720683
578413529
601375311
1849841654
1706874966
934839131
1790868186
880823098
1837302715
1630214985
237657574
1605338442
1582787420
785142294
1681914208
635963185
491886796
30147245
1254376780
975859347
298907059
2018537218
1028735092
148507694
275671867
1389591073
1691964494
1317765604
535415403
395635351
1880818199
2083580196
549715283
1857729571
2009454095
1405911328
1700199902
198724335
1748083752
83027224
1365022494
2008415480
1705577640
1350945422
620031204
793859228
1600669567
1596999548
677235989
1395622650
143735171
2119016555
44811824
205181451
896913425
1661181762
519440729
1501830881
649700701
1668903214
545657142
744578061
451669168
1244925035
129766120
243407777
307930974
2143362887
1316566625
129180037
134225842
1123649072
1811977774
388627952
2106306115
138693011
1566574533
1448193906
396805682
1550001288
9546787
1093750004
716654671
1332843208
1168590840
715503750
2139103394
2027906851
1919968097
281500092
1109469746
357558720
1915499321
1475665514
2098682579
325484069
1811433403
1763444594
889075743
480891322
533530194
1241086020
821269261
1137086863
1392044355
69768080
916360461
26913168
1647019994
301751193
2147148645
244451751
1614898779
238706087
1948877733
1845359836
2116128516
233874418
866609292
758109911
1360916905
1505734504
1399569739
1749066490
1785171049
772897480
831408772
445495706
323443558
1071023212
557263509
420763437
1726812546
2105663567
1119405265
1358203464
1808046239
1646088915
936710941
75805072
996366663
846099068
55520604
1165918734
960383910
575001202
1175068107
1391367587
1299828631
707867895
857079185
1303347590
306465852
1139393898
2133612708
1717138322
1598855476
1442273863
1060952616
1001347496
537210472
1294057486
483082439
414355263
1719999555
1013516996
2113903291
497423291
905432111
1516105937
980011604
527059144
212633667
1423125701
882463257
750401723
1190579310
973137977
868903074
821257362
154164626
542321950
537482767
405871152
2018388673
1144807584
1313674875
681857809
630781280
92587548
1495943088
2033260986
859488419
61867857
366959845
91912372
1550977707
322029755
211491616
1537601672
895208511
1665811160
1979604245
1077900846
593838349
1854137343
519708638
1757870294
1083603041
904592388
927651498
361787504
285650251
1362652451
1978796026
1606382641
720070164
206071450
707735730
4675661
785603955
475408127
1050210593
687396008
784216721
1838532434
1729593655
1086730946
1742856389
602213207
698444858
1887896646
2081357951
661405115
750491002
1839489284
616877923
2015891800
903709825
1412869484
723910661
158698338
83556773
708700305
1159680726
282654304
1100204432
1371374194
1362163152
22600697
2026570115
1067760286
1198239097
1592133291
992367817
1099728309
391300070
728337683
1001836443
1953758376
259244743
1764877244
1770771407
1254380002
1420095924
211285727
1467047285
537219205
1543217089
953503096
1696239293
1556832704
1269510982
1243886353
2147058689
361241568
471728718
2036525578
2032496831
1527142453
1270411866
1402136082
1490027345
595251427
1960501537
1370295743
1189810392
1194477575
382260538
325322226
331319873
67515745
1733817553
428704492
576108626
1457585284
205932420
1527489342
1907801922
985312143
676544045
825184718
1091791900
9912564
961086076
1588375642
1312049074
2083486155
1497862082
1582991663
1953559558
755837080
247632773
890620418
2110050248
1543770753
1942164788
876742055
1184555817
1494243028
505275964
1887436533
1746080625
499342379
1466948343
710097450
1939972011
344475492
1557187160
76519426
1711924531
623442288
189683364
646444953
1456827120
1797035532
257916269
1310122055
210253512
575181151
1654779803
1606038755
83061044
1660765840
475148736
823848186
740761959
907482720
1443857755
477747060
1805953542
1582107910
664573739
1637508411
1855057157
1809190931
23984426
1927576199
1859072058
1269667197
1995923997
194398833
435165452
65069405
1455994261
1308571561
473495923
846056487
1068225657
786219018
585196437
744231291
924071316
487747148
771557006
1188701567
508642610
588633066
1435226663
1682346968
1091866061
830966833
877814689
1395582428
419211351
1485981140
2117843318
1701646374
1190523892
1875432764
1596272612
1638689265
744625940
173821791
437634340
297740804
2065122982
396569426
107916
877489777
73947059
906652869
945487900
8833350
75929068
145348225
2094080553
916412511
548300214
1305748538
1421794362
1744921084
1269803716
119295246
199831053
909933690
1166211469
963169757
323959461
1071332266
1874628403
634256192
837584102
1315465194
969806141
1510497323
1718514580
420264706
1965561462
428870589
436084130
323889163
1919711038
1717445509
1197432420
1201252399
1577215252
1520250531
12988957
694194721
1803373445
312320709
1239636356
447903676
2087155801
411525923
180963136
358386655
270633801
425806479
1936347837
2142736834
1873260294
623361491
2123445626
829248147
825071805
1506493916
1582616196
211721087
1554141393
454046161
2066231216
1408418831
726450964
1600668058
1372057812
238665009
298981039
603936757
1667615875
1416210003
2098646727
1213478085
378766465
1457581108
1737208459
1674983304
1452150146
989196063
764902764
505489674
1906967530
704459130
1290688403
747638280
784492401
118426854
63444444
1442840976
1286250505
1089860111
302400010
1069291215
499435976
432942506
796584848
1286292443
889014615
100677478
530661168
33117049
546088874
1885243336
607709096
848551829
2046867253
1095759565
1834300840
619991954
573439744
2064622031
110170179
2094003822
1388998700
355162617
641248519
1818688795
1183998222
2106169937
744099953
256615531
335073832
1163920964
214783512
1385845738
1971583509
77819881
1348845736
1958463378
504830443
1721394644
1318884010
1894400571
1586141596
509299117
975613497
416466937
1293118310
840887927
403045830
818634767
1310374340
544259726
969384908
423059392
1363597784
1516595768
1488974731
1775418352
1284933803
1780555136
2033529083
1639801746
2056220473
1561739069
1233787171
826253884
530640595
763737608
1117336203
1751157204
503067921
1860810718
1670505789
1065837927
1715640351
1830035234
2093505209
2105619208
1586183091
1038699122
436807419
1885546070
677444602
2042659002
1042397230
1155740231
1098490563
1720902028
1181650711
31431637
1376216075
1581373959
1986019158
200184879
379953446
408822763
1476933494
1458494111
855766523
1140345620
1339969892
1370646486
1568836748
103005268
1997548246
570170938
994753013
2113231718
147539174
1965655624
1864294880
1592172961
1813179719
2080477053
1288217534
111559508
617803117
507599594
1438403955
729767658
1006633975
211815887
450927016
1554002651
2008490916
371370806
1517924953
229202825
158104820
129562303
811105708
1259248156
693849417
1664900760
1905210057
2096243315
1804040143
1695149511
1410086082
1245933977
1942087021
495994501
1302083683
1040886596
188787938
1447732365
620015339
1156153786
2071725039
264365854
42433458
1895473596
1998648837
541893428
1711337302
777562870
1124787766
1499938302
1081150600
850767158
1045747190
463277917
306254896
1988898384
1504933489
1729858384
1328961956
1855109522
57213021
1093170436
1910726372
138081427
105108506
886315292
319306008
472202931
1463345703
1197510347
142818363
496096930
1313528741
1861682090
43184084
1173915870
1284450762
1952713923
1430932328
1477436855
1514254048
649331097
389560888
1437401058
1425559104
1772641651
2103666566
671396606
1462189236
1847536408
1608209247
1106735209
390535228
1302689140
423603813
808490915
370002155
1351467753
2126446082
1526878923
273361151
1476630336
2100136228
1913060742
1243247805
1001717232
2062912476
296817533
1849262850
1691032588
1975628794
789751291
1702282775
235588337
1843586354
910514956
927404644
1393965672
278021573
201061086
901001327
518560499
894472741
1256609419
1811231731
331665350
700692833
565259790
2202706
888154427
1922286004
646577855
1972387192
1823614764
384300110
1227936073
2123558716
2134000378
1061507536
1153458336
1365247533
351060443
1739542250
242601741
1025151926
1167560567
537647045
1054926215
151678532
1852841854
1424727339
1460001120
2033517006
621500491
1576511491
186227367
682092401
1105233234
375731726
1755425469
1122387523
1273516340
250666490
1038121357
50985950
13158247
2013395865
479677779
1078561602
1260871638
901211149
709275556
884201219
853151599
650011317
741762055
336764931
818963481
32832568
1571677830
1980026414
1387111805
1308130261
585527695
125927629
1076690911
1491158815
325028936
1830086361
2122889027
1032649328
576659665
944234232
1010655180
1861733615
1552292484
1338204166
27402585
1900428549
1166183560
719366446
1492058514
1530922123
1493720971
1182218775
1516910071
1914524983
240748574
1104777995
127237617
749165668
2110178643
538033641
39093647
701304773
1806821028
982424966
1931824985
703414692
79338059
127075927
1537451695
1630993580
48153468
1876401782
548444710
77670595
1131894983
200312434
1236729360
1109030636
169527867
1126680822
1218835848
1739756929
1150152552
1788711706
408585847
1419619490
537689678
748631321
491860561
1779638942
542247114
759556578
1989712120
287876953
753697664
311322663
1394484006
233474469
830559184
1262107125
1770894466
1058165521
2043536872
686546145
1595762109
350006233
1649199937
521054994
1002325647
2023720818
1250451783
960203423
4925645
299997470
1849949794
552298063
225342002
1288965964
1724164528
1399352860
1209529865
1093638358
362960987
1980702248
1249630405
395685968
514503567
135270646
1991473407
1320628540
1585342493
100898281
1782145581
1218524029
2008152867
1824526955
530138923
1404121051
542845311
1711548915
2110587910
1909550233
1309920508
1252372093
719300709
1941877076
916147119
186013723
831490565
356008718
1465879937
2016364049
1741184668
572205364
1448508091
1398032075
99507800
1267317003
313590219
2116020167
85159346
929065627
605070883
384388690
609177769
2069427214
1393071724
1217713924
1670636519
542945069
1171474955
289439604
1417043898
2041005207
809871464
1149047905
1468440972
242917449
1311290980
317008936
921534273
205860395
1262669023
1778574716
220930294
842751463
2088326999
211120134
149840474
1720020899
1905531227
1416060163
1696480916
675448766
1867185450
604419927
1447969061
1489111839
1298623160
667935535
1022820636
1635009516
81929339
584861533
501981808
187911492
1845931691
629521605
950362454
1856325678
1187331459
810534637
220078896
1016649403
360458979
1864864826
1091768847
945611063
1554117970
1712047596
380124707
489988700
1473824061
424476833
210126949
1260976870
588545101
1891124473
1235948713
2123894436
949766959
1310461600
625378229
17049657
584110013
213466640
1830565305
818079031
314555163
1615906732
50549954
1884138302
1152254047
1335831707
71132832
85222085
937528015
1328986737
1803364185
684948764
1058241414
1321833579
9857821
260980451
1393815733
1544848090
1861224651
1735284258
1497911953
1404799807
99667019
1592374489
1003301658
1904824750
1958768836
145733150
1092911861
1856126889
1154851449
67013191
91867237
1029469473
1827277107
589425487
1336163821
1468891379
269310717
1627134100
942731128
2101272658
1521513904
1369054084
954020211
786057217
1906409967
1492407290
1057662668
520008614
219290725
1444694968
1138085687
1297039031
601917794
406377394
949493111
1957479539
2038230437
1574004653
1186895157
1953187900
1927516575
1309268637
1979576889
1563698526
1296378736
1318013617
1141724519
1332086856
722874637
1343708712
355499045
1642311187
1784558161
645056252
620396021
1432513674
1497381856
1079250727
1121063626
1768522571
601178332
369864087
769679710
1028862767
1083280626
1838834063
1345541460
1086365464
781074281
496686941
1761377712
1410429869
187681977
1201902686
1777693478
1519409254
1522698474
367143837
1678951876
623191746
1506163248
1590737336
1540256771
1165880198
1254208097
755411236
1030940767
113225269
1989636646
138788551
1844412328
2045772240
2071220926
290298
484415459
963140814
277952488
1591112774
143468019
1069824411
320916242
422887115
1423430532
1809514134
48381086
2034603409
1779017395
209104502
183635633
1013321726
146943595
328753296
1301407606
1314246991
1547778619
1513849123
1740663572
151391365
1417287582
715708724
60431868
1596772654
1970821277
411721574
1453084551
450731751
297738842
51433434
318966742
1619542598
292291156
1989938229
563811787
1910438030
2013679089
7816376
1803610738
994368662
1325664196
1750722442
291883459
159750673
1932348994
679369183
672385548
1555524358
2133283251
1715435214
1879699776
675830584
764400330
441309574
2709574
1868026966
