2900 1868425306
1226081136
1992940486
1421027715
1688282797
168395470
1876224848
239956196
439534213
977963549
1248299310
2119392880
23980511
1186735910
309609836
1492668578
1579006799
744059064
2101097345
25517475
2011000201
1377973503
836973725
1913800368
1988033709
1241969536
971721055
122729719
12673277
1606654976
1013968175
1969929557
1958694098
1773803485
1226471226
1779805451
899642198
1627232515
1038648761
1662655943
305092110
1524610025
1023242104
129126883
875666422
393231871
903331494
1581242557
1481174735
1971386146
929280762
117013154
1116234304
1037957580
377735989
928148895
2077385089
1552675449
1858623590
150720811
1615799838
1207771355
556734402
1249997608
1734587699
55451494
920900810
1587731229
1370646241
1505457223
1947931562
1521065762
298710067
648079590
1900004192
2065563802
1348996261
913549996
1053620255
828034783
1558476205
172503799
1783409971
2074187061
794406811
143980446
823431155
1819282968
1495803068
1795351211
1199165830
1022877617
1567678314
37524374
1498743070
28942367
1792329796
902653525
1255075304
392438188
1409641620
2000766090
1183814293
557385566
1825590249
886455601
1351091723
2035785794
493727585
825288036
1655731817
1047465246
234620656
44335084
187902832
964209492
1076940912
1572859467
429756463
691784240
1164444926
871393326
584074738
410756649
2069565483
405470303
25640399
1053863481
1508396425
1219352733
2071124893
189665055
1618218863
772430316
1492852602
1530169351
428616862
348710160
132503673
101943085
2006390547
1612154434
1329127143
1406766475
2104982006
1897159307
751916711
544529245
976052197
2137308740
726202602
1673880590
379445689
619333426
1491232422
197200642
1355438963
1736868725
106267512
298526645
1071655927
419332677
376755941
1935692070
548010643
1982801049
1841624897
962032574
839615805
65221697
2067725271
1649540
1431369402
1086080425
1637283575
2119068297
909821314
1623154360
2055174229
1453810526
852433251
1748395942
1132664608
343653882
1394194891
548889579
1043137771
170202239
488866892
205680873
1801037591
1662301829
1904896686
663195601
1269315817
449164882
1631779075
2105881778
891713365
751582259
355230925
1137745752
1483690305
962798453
1816142251
1878588282
2106958665
83418615
1699086598
1939228780
1398012206
677159231
1024841722
229968528
555374678
2051856840
1653583025
1701823067
1186140646
843573335
2106813965
1789340918
844602767
2141201671
1180774597
1189760259
1479441162
1324625038
1324021281
2042575449
1011555495
994866159
666958475
278772256
1248385523
792667381
1986104057
1141677991
79292736
94061083
584409987
544404521
88302227
138154837
916559487
1112401673
1667189036
2126895606
1597503828
312247954
1226677933
372034793
1110383520
1500659613
1650293848
1158110506
1907017067
1774265913
1368864271
1875689998
1400765725
445449639
2087748765
1933626619
900699570
920140006
1280554721
1651377681
388646288
112937653
1835200014
816779516
1535198241
288906698
675306909
795367356
886206527
930831691
692361002
976420938
116326085
1331164352
1641798690
593111111
1662234687
1811304714
786659419
1839950164
2073661353
280995671
285221725
532391130
321403069
465274566
168192996
2145458488
1930601803
1236201422
481175935
1329839402
1621591274
1332622466
2045376146
629466273
1499339235
552771940
425440067
1570712701
300458132
535096655
1350504280
398438165
1280654399
275607849
1984109530
720994466
361131790
1547381083
1055647411
2094297948
1517033172
1490189490
1043667921
332931877
159773733
2002046430
1674489833
1565805340
492353634
2031211209
1349292670
96952407
2023660535
2102637913
264398882
1852077938
1830583341
2046229352
367283440
962162648
438600224
1904162638
1420140189
429287534
133124311
2121891783
1471073932
167214111
18135821
354267293
337853625
1255261531
730661334
692023892
2060458193
67414800
1187224262
935332578
1643990470
751858800
1013218882
131200512
102331182
1641227657
1571618248
1367295271
781830091
481076047
925442499
1409533877
1988572059
1340809142
1491505269
1202453373
1313952332
1023463009
1229323205
2081015022
111183233
1898176692
347346839
1550839578
301993780
823773591
213063674
29717586
760820564
990825134
1287501696
1776389693
1163420325
683329412
61654532
1640074708
955608258
1664377605
1281899904
688487482
125287100
83059322
281862661
1382056548
175083601
899897993
97478275
1700403676
306009966
2122818389
1208359945
1270678626
366998037
1297192079
2078418799
488180943
618861459
1449789988
352403460
1757187802
1818666135
1187983380
203486648
792381373
1717054361
952604319
1398570676
1372843549
873939016
634097399
1149111922
1462768265
870188497
455462659
357348381
33408974
308718644
1173118504
299876202
1462080131
1885797214
2115160339
1965076676
1449337471
765125884
1333173730
868527629
1362448836
154607348
451359044
1848017285
2033577446
163366244
1212787090
25829418
1879721902
71763354
639259551
1500690254
1480428314
629919486
2041331538
768885638
527818857
216567399
1856512805
1258925771
2006275015
1542713466
57379043
1419277917
897025473
321759976
1124680148
736811309
287122284
780488559
348922617
1078562416
204875380
848373286
607979761
226362253
287038962
1030623091
1674388754
1923490391
762035758
878800356
1868927193
1390583611
546568444
1366694324
456993346
497602560
1338170844
577591712
1182120186
1822493089
231342809
2088560195
404838608
1494910533
111555511
2121462609
544288733
54383703
58534700
1962492638
1861118358
21416903
620892854
1389379234
163478349
221187337
525454040
1895504731
1360244959
1263666947
1937242944
1895170509
1024131113
1823704438
401468331
1697595861
190326291
1001506551
2055480058
1377602722
1564543595
1376525187
1128779913
744830654
1971940327
1262946956
1091894313
783974857
957338908
1050083704
1839627746
1008136212
1274861561
664439058
1359537
20815204
545624678
625804576
299122853
712155757
191003377
448461199
1801776973
1216708145
1966830563
1159780638
587413375
1785104504
124397778
1195203443
1355540467
2124442763
1033089494
2042649515
954456449
1110354640
347766924
81739321
1834246030
1481253727
596218838
1597497188
242057144
551856213
1052374093
1246431637
2040459929
28088200
1737717929
1157067537
1675160509
395410890
564777323
813581578
228960808
753057840
1880546836
213526856
1951191156
1514229434
563300460
1011998891
477201602
1723686469
1039034671
835674403
1337743788
1301883850
1451652238
983858245
1749155302
1179239717
780267022
1430654364
158840009
1164893356
648766681
463908944
1873188470
731554396
334526430
1266286067
1273927681
954377906
648356535
1506366623
1946835990
1649591572
1271681250
1199777057
35965620
1350243711
2026289974
416139700
1513189791
477226788
485034705
1627841299
1733864744
1388495560
60442218
1232617483
1160288097
1508078714
1153140231
1357597469
1834729817
333979209
2017062756
1046741114
1814475399
1901023915
1020000838
1634495652
169685443
752825873
1090190475
1048163151
1272993074
246196732
1622802074
773037047
484858489
1585806906
283825953
1099409844
1942832874
471247947
1028821170
1880144043
1003049019
625449166
1822299127
595338381
1340083238
694378032
1899503009
863336187
1505847645
566828623
617708120
985767182
1865379519
117202398
664570382
1909630685
1443218708
453928247
1532824925
1581059156
1746011519
1752804302
1435318501
783776927
621663148
2124958144
1257837231
124662751
439073865
58618556
38868165
1385355494
1674043081
1667364659
710220661
1563550957
787307590
1062719346
56137598
544641064
1166119156
854633961
587271114
329664858
1493570461
702388437
876597592
1128051470
1828879868
1059425556
1957176087
766585546
1934032208
102049754
1398960742
244242039
1633200787
656497055
2099119003
1286093590
1064872538
1763057582
1266799005
810507034
1859589379
285886172
2109586162
1520131149
631416788
2041656728
1392309558
786740794
1690713182
1556332043
379242937
2076239984
1950681262
123271422
1763351067
820426949
1078372487
338175683
268708827
1401158110
1107553466
1288477491
1508195577
716036219
1961194366
2101653120
718888989
1236579003
826607823
1392818220
286859550
776238647
593678127
1394020588
1345417346
475694511
1983852297
149036413
614750479
976889854
791318389
1229807630
416545379
715685235
536598144
1142854424
523816613
64552728
1123987756
528993174
1157903810
93553774
1154130855
2147459847
862997158
1497158065
1968431629
681339347
1562246780
1921691100
1386672106
1313563000
537034032
1473020255
1558186295
1247608531
1401215634
751926376
1678725616
251606138
764216639
1402291349
98225826
442418411
543491025
1375480686
433005866
591961277
1315797218
1812458778
1483744216
1547973775
1875275603
101578210
440013458
1883241580
153972176
1788359031
551865027
1174981787
443667595
2075746197
1985583108
635789435
1979744322
666760184
166518644
248437071
1109898969
759331731
1435275441
1591691158
936664014
1389923128
2041863696
1823423966
162098240
847459730
1746451637
1299933844
2037564243
427035102
1645849755
1175141088
18097689
1083283838
1093552466
1248953469
389388404
1248888503
882516418
2061514697
2131622086
2139626222
1490901252
971512477
1036837965
831218867
1248890308
1251838372
1061479380
49274383
377326451
1530610677
1721163535
130718462
828752308
2063350743
1052760533
1364000485
1678214456
939880937
973731750
1967783021
1842550657
72931214
1853999262
122477039
1793095684
116013122
11590831
1089110186
1649867532
672083140
1962844416
1125536556
983018253
1990399166
1798865794
1784908524
767258754
1968707831
1457676103
607919941
974520887
1976448650
437268691
188101358
1871617410
1630097424
2141852258
1288768199
1673496260
738150425
1830518870
2063764516
65884438
899097574
1116660923
1881031301
1829170914
2022847795
1140223140
1405021818
1728023221
1027099811
205726639
461085506
435365444
1807741924
2001426436
307314123
279380916
789295217
503400368
97114678
488035655
1316310207
1941640072
805974594
954185235
2137009058
1248656484
1376713781
75098558
1835770345
2128013115
830644220
357721355
1514035408
1288055005
1370783383
1408572962
2080618522
1319934618
1197129523
1083778282
735336558
1928197768
1927784108
226460407
56786339
1013218277
1029403746
464905068
996383017
1925044970
664521198
133039268
1917834166
2054252808
343513120
440069893
2100338677
1664130513
833525307
346355185
39277776
1456658074
1144733484
161841066
1609879439
1910334148
1622038761
347837912
1185619492
837343346
1073676827
74071543
2052206925
222605318
1841448981
1041340653
1497929425
1918511463
2091206125
1630784490
482950201
1550808866
1110755784
1893118115
987707424
1586246565
1394312107
248728815
1823514021
2086673619
354401261
503583707
435770778
1680677018
1011454126
1835199757
1286537513
466976992
1824177345
1598555656
1441195143
1984936009
48293391
1427794337
2000083024
769656326
801862368
14901405
837436558
1251588725
663611712
458594636
1334059701
197696190
330814635
1576605999
1294403504
1577293214
1410020372
105706420
228341340
2127150977
1404727427
265276214
332577182
1235916593
1503058888
1073748291
164595446
1243255094
1035515263
277167870
2116528210
271903885
1464449640
2027052122
205352626
1842073318
1094400574
297005519
295283714
742893902
1154528746
173623200
618264054
2063000414
1292371391
1737137776
952954684
1217319049
1040713778
182265669
813013706
1908337666
1742657349
148227177
651081176
701979845
200836998
1644925105
1330059733
1101251029
282553855
1148924034
437266080
1941653256
129429037
257681934
829896075
614924472
333566217
1827112161
1940066922
274698221
329589407
1923478272
1043234525
767758212
518559808
1508753565
926464935
600065840
127237993
124406821
967122001
53749889
68498200
1100531559
677552009
321295139
206576401
592248618
783586032
1561551113
901132608
141486892
1502952657
1223997958
49942665
1749157625
7048687
12824931
675777188
1235710492
560782519
2111056039
887015113
988534718
673425035
296811831
1729947479
2010259355
179591827
1866038059
672872623
766240314
1150888942
803281693
1210967860
376487059
1940777892
202540249
363543960
1894068452
1048898461
2094456026
1266969278
755146435
824043441
1073895376
492359845
2029045561
1731721513
1061623598
1389156912
872558889
697798658
632245667
1947031871
709120391
364475993
2116004505
2106093035
1549040600
2106317008
144903923
1761932103
2085263749
1726372557
190876106
375486153
833268681
1889152925
1060936598
1046722075
594416158
1695759538
390513464
505521474
945134464
1755530371
87315006
1907162519
1926586089
2075138056
71927889
550130324
1191926413
1998442936
523368648
815575431
1179770080
997070622
1416181163
558810948
2099164473
19751787
804570244
1457688115
1694509725
325540362
676354771
141591744
1437121880
989536296
1200447930
1899981727
1830465215
1137229723
1757856388
591236134
2015646114
1255182457
1428814698
1652852298
2038309375
1853729773
1391885007
1571858144
117155387
141846187
1140081756
1727317628
1365251614
1247662650
1073929376
99856003
1283967982
1833519046
729906695
1384646844
314015003
492632818
544314443
79942769
1191328053
1773048532
475300129
110126509
1742156596
1111280951
1139124429
393734789
870863164
1948461159
821151150
994146871
2025489664
507549157
632063192
942189233
1532030040
1185559582
738552434
1503244068
1753462957
191041672
379387319
8060612
2075385892
1592914676
203111837
1110278620
1336710498
1536044627
1019763806
1938573558
1453557638
1975286875
493405251
2102709008
1130949468
961863330
24994860
998288229
2130201147
1107986898
841564933
1899628611
448469926
1252972332
639458415
120803511
686695709
2089303820
1242285361
1514906338
1102750046
439770007
1480791782
1418244893
1555313169
935064045
288564574
1653553325
193763229
1801979281
1035729172
333636942
200159374
1098314259
1061688626
1414980335
328090452
1046777153
282264270
825743891
715656420
1644712372
2132616601
81297320
1580309098
1739886773
91084766
793357359
205219951
1840360652
660917899
858192092
168545239
1083071505
1333511804
562095798
1688674740
1021178316
754546518
940412009
26593210
337490340
1127665811
1894304928
1859705976
1067067654
1463254475
55383187
1042204502
239964703
666284736
2026742118
1483245930
13647127
1592344475
45830046
1282463002
278135740
1951788303
662499388
860221102
230933119
1078272287
801384417
1671910517
1900010309
1365822078
1873269936
1306013489
1448132603
679318959
533527592
2125957616
1237877718
1422289161
1994867250
1913606913
980186776
123938913
335144682
153822100
413124100
312721964
232934570
736612313
426256679
1838711576
617940760
1334624238
453349691
994095698
513175559
1474301887
1467344097
2144892541
1180157786
67532626
1667089019
501678324
1564596241
1507850880
1844398401
1741554365
14034703
1202872982
1351085340
163276939
678406426
2098363600
987647852
1258184508
1531707695
1226646534
716776066
618700591
614876940
489754692
1682445059
1883570693
327963904
679112496
1247263344
1919704506
1077386930
1505838088
1136236947
1549904118
1624411716
1913360490
1297685131
1605265407
1806920736
868500506
1855363868
1310220414
490064958
523761003
2141290115
1363776839
1937474622
374890888
262818075
576949274
1384000145
785888502
988135555
1218369515
117054393
1791793910
1719277504
1228402405
1188825374
87037637
579805320
1510622556
435818280
2024153997
1624933749
324711120
1174492111
1679957018
1075907780
1282547189
1822501880
1914170328
1665524286
1103720658
52218543
1812661955
614525326
1520948595
646739683
762063288
1953831018
1597258072
272058860
903275073
1400887647
790305426
294548862
736092122
549090497
201956228
124981733
918883102
1535542408
1381949250
546272500
779118169
161377724
93629926
581766919
1046394452
574808633
1694523551
252695226
958067184
910060568
1353520716
503325110
2132769480
108527357
489697014
97272913
84811067
1491964625
276369673
1638557375
844093545
504350173
549270841
1359224784
38629171
1586988751
834763306
265584364
126992376
1947125676
1944175052
1424073422
692511855
1013266242
861394092
851105541
815733547
1258947596
1432522377
209992525
2094691973
270771624
1947095737
1740173419
2042254727
144617498
8374268
2936694
1028891705
1206693121
247586123
62302204
2136007505
241958712
1832392157
1057752450
1825896724
630311716
1828068587
1299676939
827312536
1695476489
1197318938
154307553
1706399296
306767788
1485013252
172745513
1957308185
1033894741
1962747284
1982030081
1666234831
1461394483
1960265794
967079361
1402059596
1848839660
613869237
76028830
2110211798
1855290519
675645516
2080855208
1289842462
769203886
2074725036
528953881
959663541
1144774417
502085100
1105682819
1933171774
1956908979
504387808
1178354620
1758303181
1446880166
682503502
2128448085
743429596
70021467
1722794995
567435013
1183128483
1307344006
1873885476
1036259643
15527932
1025067448
1241051485
1992313789
1065921825
1131755095
1828854837
305386521
237111258
103406939
2059108845
2108084337
373447950
22708086
1723570007
65246573
1210829777
692156111
164288955
1347484917
440734989
1009889405
725971782
812204961
1602831243
720711394
1492461450
928411790
1454120068
1394709561
2032437120
2145206641
952391614
1092334691
1506569669
1155506883
929865589
1302540175
450675451
1759489357
124541355
752817204
817990047
1225534377
1176057691
1795459483
1600467771
1618979307
1019382973
1557168492
1964063637
1283132103
1050112637
942502730
934153552
847554174
446213282
1534991713
1711484638
1567944803
1548180543
1076252679
1639495012
513385951
1524725420
789233472
234553966
473465931
1612514776
199286080
700565209
920291156
2087923946
1850195086
1809534962
317239021
1881934993
1170406008
1778195374
474172978
1702638323
1875947717
1530573938
94167201
287646651
1970499896
291755393
1434544568
740912391
396969468
334157769
118708730
440769324
1751694685
437544202
480705935
1979642118
1742535524
961639740
1048933152
607709229
2075776141
2009371124
541075830
2120382853
413200244
303260436
1797121399
325856527
464580413
650478332
1414156581
1960309404
477603341
546413210
1368461684
2119418176
1839222599
605668889
260924565
57671910
349622627
1958232173
1616332839
1344452950
947456230
924670065
1373054905
1843956468
1540299239
798993482
1997083302
678719202
1084476126
356494920
798522060
1509900197
1731585554
1367306490
1566407248
409471194
1805362473
139442935
2137301514
1903566753
1775313495
175334452
373968986
2108556079
533385914
1608120574
97685017
776602700
923076933
1720887046
1539733079
1544009425
1965654084
370700752
2084578120
1100687466
226749446
1306045898
799942055
901308909
1797166294
821347888
1861714558
633843554
226490721
1885358017
239679604
57356295
2015525157
127677976
255217698
205008526
1054803611
1467000622
1861447754
201572735
1738793130
891660360
899087772
2002662280
737171098
1943824805
1600569158
2095756207
447647855
550089499
1901858687
1902431674
891577037
573743075
640126858
1128573334
1607739370
606905263
555575141
1880298776
1648796324
1027724709
2022902601
1184781001
920053899
2017101343
827820639
375436080
364467182
2003638751
1896834258
1166668884
1956019759
823471687
1029499364
607939200
640893479
1397950097
299769482
883880008
1539229282
831798947
1864969103
84188843
58691381
877054155
1091588948
550194650
1589156136
517419206
446066933
221371534
717191967
521873641
1243413945
874987812
1599901802
2087280038
812949493
397631939
1320037293
1673499229
295256229
536523748
1625804922
964166947
1174579837
1400743322
946238842
137304986
1200795422
1246022811
1085460324
395990645
222942833
835379153
86680217
1831964267
84644881
1083537092
707403192
1940617158
987432504
93164057
95304583
1164865387
1629043438
273214317
445197765
423005807
1970143204
76877412
593612533
391251636
707016464
1152727128
1758928009
1760872176
199407116
2061762694
1346419066
574908191
264940537
1808386218
1722120296
987585725
1311018822
548992287
631303678
531789555
702846208
564194473
1309739677
71803583
91205160
600367534
1988410727
2020145016
1764363809
1132683660
1367645671
1788807840
678967662
338406731
971939537
650218725
503028555
182311329
1102956445
187248002
133407798
91928539
1370945398
505530171
1640788011
1890092238
1586736835
1616761729
1342436682
1419862669
1382277763
810297477
1336850736
1505793929
117429533
1297152986
1527058447
585078657
277019014
151203599
411165293
749982643
485023181
2007950478
1916533686
914248304
1476729925
2021546870
524476507
293474347
288315061
952767338
954739617
297150306
1377581094
1697724887
1778284323
1001963800
746356610
238771471
506906524
810011764
1041961298
1566861659
1407550426
1069318016
1230180915
311684352
1385689853
2085003260
1104611697
1629529183
218317505
322212361
1407322795
648105508
1559631305
714420723
906750129
485214241
336959783
2040820672
68775706
331575965
206513105
1335085972
1933681960
1842863428
1996970972
1029660032
1719736265
265599810
573564222
478213802
1135881085
660873098
1183619052
896650484
1750169359
723779740
848379412
1443628752
1052583386
867173764
1231084167
956107951
994992520
1358993848
1435989705
882483250
1916781795
1182812455
463960408
1082440917
98817478
592995623
1739817903
2126135341
1586923374
2073423778
116250997
363747921
1946469566
434622604
883314041
1314047400
1770193447
1490505997
2135931062
301123475
1565251823
1836834966
166066312
284620867
211789842
1288380597
1379759281
214029219
1423851445
2009479465
1290087910
1945506016
601068119
1642427612
862213014
966247214
395341826
1346577721
1371300477
211370395
1615349777
2133249832
1949879017
1451546535
1825370937
246521540
1320492837
756301152
73500303
781001791
1386400041
732354522
784149682
1000167210
1765230918
1990705285
758581584
30860261
1800141922
2081724239
1312039444
393920197
2023254588
1500911758
235950571
1310195975
2081430299
683376416
1188774620
13962481
994899757
1384754140
576876558
379648440
1125067710
1705973137
404828343
1645103195
1526438333
1485668873
2060437890
532143891
1726074026
40535453
2003470242
791760520
1005746110
129485786
1772741221
1101225293
1953463504
1703159680
268740065
475389070
880704221
1030122287
1937056980
881312794
518447906
2085816554
1163555668
1427543669
1755617503
1944943366
133081252
764808602
240653961
2131129400
199961151
496570120
649927737
1326962568
672398465
1175250878
695264774
162494780
226696982
1705496739
1097919158
1775871514
1034743022
1150008120
1725636863
716993666
1832290376
1985897687
60346071
364174542
148327469
20427752
1388109504
661035110
530466439
48716721
2055126768
1548733268
672447269
1026738372
349882055
1452372914
1809231051
80500001
1929455022
868065871
1599762585
1709491266
1675385017
312244897
1237338029
1817708479
639117706
1979251558
1654849939
1553353597
1915892784
1655082627
1912776260
1300908413
826078578
1276141963
142747912
2061362854
18768178
465798638
340861411
1377703736
389218375
1568987348
1765445732
744425888
1717475230
1520677950
1215407543
1495375094
632509728
878339635
248878784
375069412
1895335820
1445818942
1854240510
1285570031
1014618960
1717213187
2059213236
1704229951
967319918
730375562
1393818973
1440652490
305438161
873008572
1700215993
2063831736
191880539
1679575418
190286410
950575803
869602346
1841954734
1009004982
1339936289
818611169
368965060
508305909
1043433545
449014286
263899036
48103483
158249417
302118353
525559747
788545993
939908468
1450428163
616327222
1545227858
1430445041
824210380
489032098
2091362841
1133482179
1709020910
556799317
502147132
1176833504
806217347
1579711265
753935605
380369019
2102710693
98941950
1997785071
174929022
759670555
837687453
1964527249
1037293929
356860751
1002211913
1225940451
1948348155
1673348776
353665960
1447583082
1414885419
1045419002
947222446
2078791847
1802049639
441374307
1524575009
1101851153
1595963325
1464455188
490196065
800369826
64081557
258813869
348443455
416528099
312750755
1637756881
524790222
1357487251
216431256
761019397
409935019
516585725
1816097437
1351671827
728666838
863469901
379082906
1939291417
615255532
243244809
667066462
1340344610
1419113208
2038501835
33161169
567743646
1171364360
719657477
964936599
509564976
1041475382
705604403
1456237223
1362791483
974334369
1028990288
361007959
951666147
1378387324
2084837506
912129730
1209048584
910762571
381226519
740971991
828530545
892396775
2073582415
1681626315
1959050303
195718846
1207040916
621295644
833785284
101131768
1234137810
2100527186
476911915
1324877461
1711519626
3868290
1090018956
471349696
1635132611
355113069
1769664254
1100641988
1317107057
1725390013
233458402
329919206
1654637820
339951414
655149118
1563519422
12360459
317302056
385482904
416589063
94764317
1272342972
358795119
34942527
1077250112
1468539294
772385043
28015843
19567844
1539221522
1676996499
1766473908
1422810964
1903620808
1946366497
1746614339
1117469417
544550379
2108386081
442946193
1564462139
1759387862
147953168
334992960
2138524443
41998802
1941493120
1172984462
1213189390
1821483715
1279009416
633083676
1134008254
532102469
1939243453
75953217
692746874
795567860
740540893
310281169
1090007339
1724884261
1419952802
467482754
1010618051
1882675815
480395866
563312375
1166290531
1573396855
1776366607
153711910
242314932
1957786104
1988861514
1013244878
1533244359
1805421814
1683816771
845372772
1605333287
1612034279
416367766
16424792
944405593
500143607
850210289
1045399930
1891313353
1841443375
1229414254
666167016
1078730973
38127046
1780145574
872611407
328786632
946548618
1900813839
1824057786
11362426
1307740372
1709808781
576239300
1913766467
1449200124
1926298367
1301237648
658188385
685192855
1765910120
802761307
519730306
862474635
1917191608
192201122
446831646
399776177
809250677
328455533
649855680
816041350
300361996
48001624
2018008282
483096564
2089921513
392872496
1939773636
856720426
988509289
145007833
1546211898
1167497821
1248466926
1682968425
2052475894
1762902786
823550757
494744997
1999860227
38589646
2043625550
2029353260
1129440289
798697176
1294673173
1744839279
413665308
995921565
1497434493
1265492146
88843111
525247248
1522656651
100405785
1862073919
1073105374
501987370
910218288
630984089
1783925410
905909405
1701895256
1690346691
1162456085
1979726144
1903171408
315535554
1395103634
1705815576
1975390760
503282116
1326745039
28207611
2012162640
234417509
620688109
238387684
562267586
984347038
2047072952
524377835
1510789937
391298522
910703856
973241439
565432949
579354270
1080486288
383626713
491693203
1385266806
498308351
330952136
1515775080
1058150775
1907635235
1382134733
1782482551
1468315153
1649516917
1323356810
294289739
670075072
895518682
1843912270
1755987412
57990479
256088034
459152166
1897320365
1717807505
294126716
225112863
1255470355
2143561514
863847757
543159415
1667030876
339113626
233383240
67917767
672842581
1381058714
1981355353
455282425
2077831455
984781073
733071603
2038192761
1736848657
1813790942
129899228
1578887147
1004814101
1981155339
178141398
1510242502
450352083
1252860149
1503139869
218239005
606274634
34283792
870986134
2108926222
1249881713
1622987914
576816678
306017477
589923609
1940004719
596896534
321692021
1393090690
446687514
1509924255
1781901177
298800827
88935623
1215373373
2056659060
343350077
1928549902
1949326794
16983337
230041565
2036170993
1402345198
1563243612
1410739322
738936186
1120572744
2130878417
578963400
931424633
1334749287
1845068743
1362855801
1654905628
135260663
13255880
1380265907
1775489638
401164553
1612944813
762956930
1314127042
1636884543
1459684911
765069646
2109910550
1771311160
1064114377
1757827331
608312088
1411572887
177725865
1274296175
229809235
1686880367
2001415196
1376823246
815462375
1634226672
31795578
346021488
1467462570
2002571043
1965205170
1825318946
1531604941
795507267
1126288257
1760848760
73549959
1291218328
1915117510
1810593627
1819689302
1791340377
1892194892
1614355664
659207604
1968148276
290944732
47058627
87741682
736577857
1012372567
1706789431
1964974964
559805217
505912146
1822410209
1630143901
1205710834
737356787
697838601
1551061227
1793010630
1480414373
715806957
353101819
356147655
795578354
1958011951
1083333399
1081321051
1490701003
437842171
526488393
1300626624
556004101
275613085
1016235200
780907292
1046711690
565030014
1059711144
1405502999
1868289106
309484571
1928003473
1571196348
1787550954
1474897707
627596129
1217802597
1247430318
2102965481
235647604
1046701187
1067446522
572785027
904771769
1951394388
1408973150
1180526155
913769187
2078564812
1769259501
1830447548
736292957
801692409
1830731662
1893291954
1658690735
1828958778
1584910395
1063887409
378919867
337622221
1568299210
266865006
112998805
1557826998
1700883514
109022061
1124599440
1511815354
843856040
515906860
1140549891
588922755
201916050
511453797
1186952966
1906474512
1349553853
1077796308
1678858576
615984623
467357728
897921413
5862677
2041871308
1448660679
371181375
2099617390
1969611377
947048881
1259046966
39801543
1636470761
174389495
7671331
1203174079
1919553921
1959912492
729993975
2094871623
456804278
840884508
901654765
1229137439
1329046221
1270816981
1762327453
1513805892
1752213252
1322743623
1145001671
410031981
744864027
130261174
1904982175
1674993416
1774072216
1545998339
755312689
523914038
1903409712
1196115267
46274154
1658917677
955576712
1288285099
1763378794
1604160495
1105221455
1768357904
1556086237
1375613351
1998094491
577519307
1232321624
1598667450
101880947
1337006765
861781247
1411625310
1449136011
482867771
1107557777
2127697493
546623772
30637744
2132643649
1161628443
1221226027
481202756
1351544568
551650274
136433495
1596980773
1845568825
1494221361
465834882
2003994719
1336192663
636507834
520338712
724212450
1422994483
1558408130
1767843200
389181768
642964333
1627133948
1078278818
1620430641
559339236
1348990828
1738375596
1686519417
1694965277
1237405499
456418313
1489032492
1845978489
711128712
1045218315
370050263
2338657
1358383604
364369978
1923608399
2007084128
1033577649
737431608
577095180
2026234474
1527636988
234209524
113684456
1430101515
1384607707
1649760477
821278628
1681828448
99438329
1942805415
336347601
1934479743
708820909
586999650
102927162
1656562752
2117589773
1386184817
846311295
1913850664
1060093510
1147659520
125187771
900406755
1217248828
66104030
2008165364
671204454
940285935
1748574636
335920074
1178312266
55762091
1666384180
447044133
681161664
562490077
1258380376
232157394
212561269
1165398224
2083118447
1102812497
1345279212
592265017
907627293
278480826
1756601560
1589474072
1237079047
152844406
1965519065
79503299
1007526794
1917458163
464391829
1577918953
1109015845
1827006268
2133108001
1977923867
136126977
1244717274
887881308
1647970864
72563655
1678824651
1151790408
826321388
692621859
1522867167
1623099520
1507274417
578799129
410193125
798828844
717015850
1635047102
1525873403
716256069
1988620352
538717500
1214692191
1231595083
544667642
555676029
994227384
1668707621
945018436
1563796924
2123527176
1859299055
29611316
2015497080
593611803
2064006763
360469899
1189695261
