3100 601555167
149602502
37966255
1189212724
1618764574
1675080625
1326036309
1647873285
1566977673
1693774926
812007424
1475389576
70021876
2073035127
1828372093
616129898
1362045910
747780719
903898872
1327611923
787939185
49899505
359283822
1160338712
378766364
1564543990
1685682307
537304535
816058093
705526224
1939668419
344128495
517212763
1065989845
592761297
1634643574
1706284014
369697371
1492295521
1556911380
586621536
1335748107
330318158
1400335728
1413608651
460664354
1605719013
1176587931
1858930637
753543634
48549869
699297151
1749734517
727765815
23833669
806103466
362157638
823754644
2116651188
1103454385
1808980370
609105958
86794158
934611677
1019941273
1862982056
2090352875
257433527
2003810048
1464925461
1249121117
1130348991
1233612238
2050533294
871653299
625259199
934523888
836682533
352133732
196939953
1561696030
1997692501
1286841962
1695897898
66777952
483505336
504981149
999142879
756890009
348651341
1237907639
2096926985
1662696662
1092422855
1343094615
1578594788
1676904867
822583731
414262298
2095259673
980599709
45326422
804330053
1961627881
1435339738
103610732
1581361276
1795693276
65040219
572548225
445233996
763523598
1972657328
1684201457
884572050
1622338787
118760301
357628039
414286964
1327599520
454785288
372693796
798221706
1467441472
852002795
1209150486
800619958
429754143
1048118710
824092407
429727888
1871423952
1381748931
348030963
843767118
1835442421
2109740939
846183311
29968545
397436852
2085291517
1704908422
911789965
896161988
1415379954
1766381244
1263341705
522892051
906972034
259828458
1954561787
726033778
307462100
1307411306
360221839
1515201362
1776101898
367454629
1970838528
776847560
1067399365
118727024
1876163404
572839648
1791350215
698896443
302032281
98545637
943049759
2107829740
1862176173
395017078
1673164578
1374682367
1775120477
126929663
1831548841
2137426669
1456418428
847730094
770798348
1353447443
369094494
967181607
1467488532
288393216
775375529
1175472476
724415025
1922415121
2073115528
711046394
1222768152
820996454
828873101
1090052511
1617422733
460371232
1112529982
1419942886
1736803526
1748349150
917955667
342251601
760865304
2130369599
349425343
173338301
1082323789
800285882
986369607
1213898451
493600995
386870263
1845038747
2100649189
2118922189
1143052581
1753390398
1724933529
1854099355
125448520
1482382626
510007742
1863659739
757069536
287572074
99165131
171262813
1073779423
609487439
760603400
669400204
1451508770
692705728
1504518210
1306035618
1293391990
955890683
1853426186
818950594
1016851459
2132084074
1440577707
503020660
1741664936
1151481283
575961836
1187172165
1272940274
2115969283
139995635
1639665997
1970340717
828776963
1968883029
1602550767
882401832
1974424800
1955469273
578632255
1196025273
1646713106
1092297587
1011814018
318244967
1974541151
1485510043
747225401
187659667
1553344764
390234921
2005341763
1814153548
1995245732
1678765427
755633273
2100303979
616570404
787385694
438248070
547766673
587436948
171862194
1776756318
184026259
781634459
1825746364
1695910533
351331152
816438368
911693788
1342915918
963103116
1778389399
1588534095
462894550
1881636219
1755870719
1275763270
881136547
1021106152
233137942
580509819
977527828
1912325202
136064369
2077828878
1158477911
1420560765
1724227854
1385816610
672429258
2146359556
1417204137
336139232
1147952662
441329906
222870156
756279555
224604168
713478722
1439562716
380345760
1330052000
348027548
156605635
1384753326
496373170
183911308
1271781095
2100637850
96869451
9126781
103409455
288016282
1072365044
2041955669
303425749
841445314
379971390
1561874833
1542698811
1454892986
602288394
1049591225
1211750561
1766669767
1210361698
1871938732
1399681063
20426170
1843552093
2057086845
839923761
520668098
995366020
203117821
670794796
1727908318
1212354878
750066367
1690389320
657685137
1179425320
362241089
1825323704
243531539
1170794306
1355863168
1964494772
1410347480
1640144887
1153621296
427391482
781528017
562553467
987463541
2073281931
1573853249
1182650789
1726565337
581733852
793399653
150973285
1836710574
1656698599
1394852898
1999791933
1691669703
591655041
72981640
1020648274
1296163589
340066308
2070755912
322727041
40822447
981144201
1496804558
1957839650
820189693
961124198
854587144
1857882622
1737668708
1670652488
663313603
314389548
1858293372
1652938139
1772221898
211405760
579981944
730059845
1886079667
1396688843
680232027
212057342
218675429
920513137
1961530967
1226779440
1896243020
1155934056
891788488
358433391
1168724490
301830728
1521534642
1011564518
1257903866
1982059692
699915730
1440552218
277506506
662383703
1562906406
950995314
957827294
1681518929
569670389
920741285
1565018206
74360074
1628474568
1080501442
149761857
1482655570
142810229
857780070
2033900597
678344054
1092965747
1933286716
833122330
2139869307
1069443042
1550876580
808305629
559688395
625803379
920105995
12854180
694320870
728729638
405683618
724194352
1351560693
654061016
2089003160
1963777527
985793815
1006220528
1734996737
903061980
1978043506
1934233330
148930714
7714208
7593277
997702409
793973633
852789271
1027145610
993455762
1109774263
155143444
780063151
1028359364
375866528
668971454
715683041
1654962192
694255556
586209550
2023441697
815767849
719529605
1774297132
1649890859
2122416165
1127848128
396569148
1346992760
911920264
653597468
285521078
1744818466
1386482958
1420822692
2048766890
1963580540
2063956073
1194462784
2141664986
317530071
534404470
2020109254
423990328
590824983
1965118301
1204567737
1617124861
316067850
850014623
821023849
1298046302
1308838501
141742320
1024197782
671701015
35523612
1128501966
1015452424
933125112
1897168036
784118294
462068323
1097552606
569172559
1462065973
250347097
747708347
642168918
1718455440
1689183516
744194684
2092404023
1962131078
1974221483
567346139
1275947222
1203721136
200030958
2017208970
1268759309
453038416
191890208
395245191
687329721
1086906244
1229139229
581019107
456775383
151458165
1053716651
376291605
416765638
419525984
763645608
42364525
1278496524
227929474
1361101418
2049904558
1879557087
2092322734
1825897634
143729933
744546028
665865688
1373119866
1639086616
1633260820
1894917636
1945511507
1022138788
77583686
1830624092
987069710
1019644635
1394490979
810988851
2093815096
53597144
405626209
1172949079
1917004482
273401782
802583571
292046558
1991128194
1290017212
835765906
765384749
376493606
690600367
1593995885
919288293
921295449
50264284
2070793260
1252419445
405878033
378926276
848578022
1777568403
102436397
253119887
2088230358
1281668001
1211749166
1680678990
897848164
549870070
1052266965
210258931
1002923803
545432501
470080123
744357438
1745248107
1319990905
1365666202
1245808315
558962652
803884893
246733567
1000764420
367285956
1100800840
596452164
1704130512
1413426196
1945470872
578458334
488804965
326506174
1804230986
1554915180
1721370708
1911337889
1414422171
654096038
149789978
1304359933
416740865
1459460169
1723504758
440589054
1577168783
155302057
1289032288
975946776
875197506
129837694
1772816283
1844982299
71542520
295408028
1742582985
1383277656
1480655871
1406704783
831667241
993129885
996559394
336955370
823824666
1763164730
271231584
1698998108
1991748593
889673198
1585577998
937687222
39192359
1124901668
1182585192
899661233
189096790
845594606
1884297218
441851556
2131546842
50031921
66441370
580179134
328994422
282928208
1740067676
835312438
809177622
313306638
1041396799
8399694
465109054
2009022458
1485466532
1965129033
1299926661
1460806541
370509293
1070994188
1915632257
1479861232
1761123413
1815841372
737641736
460522553
151082107
1506522909
1361868499
648428906
607136121
1844217271
1806445871
1077560789
822295392
1489102096
2115972455
1779113408
1521674341
1878702354
461193696
1508304646
1490103289
1894896810
677027252
1570521711
1625081837
1838939196
748505437
211695162
1098462220
1037823884
1868289623
23501984
471619416
150305971
767974519
283122178
455280405
1492687269
421182723
373332623
1868386191
740132550
1724198833
1843222818
1363379433
506132766
552474274
564227465
925178519
236932179
215358098
368042644
1791116159
309706174
1736544016
903500778
635525914
545303981
1750343499
833950981
1586566410
24242700
1818083679
1529995084
1894282602
164233478
1681519572
105515004
1563791697
101161631
427966481
375471699
1588336348
1905253099
536152242
53072467
801414492
1390988663
1234279485
687047362
1721613743
41866752
1007325666
606983092
1825567403
793652141
1359965783
1208413075
860176725
652827387
974032558
1949301579
1673898194
1014353858
1932549639
636496647
1997101747
609708154
1751961852
483332351
1061272454
946081474
1253845531
1262464989
606743329
1519934323
1921254934
265616491
2127664246
308690863
1333899353
1537797307
946718179
181843786
1301462644
1992232309
145330672
1171751821
1088222609
55287998
1828632316
724430066
1526101411
887637023
869044072
262639036
1573858862
1759452872
989629212
1799496640
943495765
1758828608
1260744133
857959315
1932051747
557815341
1161713891
777650535
1434818074
2032419467
705862363
578833563
1749378299
1088248381
1472677788
1601859874
179951109
1503265536
853776685
2141735574
316276510
1200499258
1298995119
604269827
68211295
1423403594
2143848779
164180250
978637822
1128298948
1278257894
290768001
2120881619
1194074380
1320398894
740640277
1397717882
638630057
1757973484
702932471
1811433174
1460481992
1219297322
44437899
462613599
1816173192
1641903787
108242186
968765173
1470973869
1696047283
1219569076
1596818597
1318084476
1131995165
799081510
241025696
574032227
1231648355
1186916040
1327174024
1568283463
1663401547
1285553087
2058955161
1378438733
634694367
1932743458
1912526593
30342733
1161941141
1801142805
887473775
1901424490
795030781
452512656
1466931370
2134285512
470067029
1185027008
368131886
1073712735
2013552780
106748458
1448452314
890255172
817081322
248904584
855147772
1705041019
84694734
783219760
1054525718
2050359859
663480611
1503304285
168877001
1993073471
614835693
958490704
141328899
270691886
786191060
2097639189
1535304457
1555221661
582273293
191616928
609213416
1240952876
1238519184
987471517
1742183670
1255123496
497922246
1857047887
1028099420
602392843
125319053
1077132411
1798797124
254721601
1541098170
1428282975
1288436878
662850994
375779316
507613610
1318802068
702202564
563677550
1995274904
240469706
425668505
1168334551
8775154
659524272
938160699
687762624
451195707
2033666127
212812706
591199657
84690610
1028193894
1588891251
2071759278
2137686989
160408715
422398910
151674628
992530355
1892423645
60467779
233673259
2015500901
1086705239
267468063
136754791
1832383154
2011550721
1023733862
529948034
1960812236
1713180453
732268900
1134256293
2044739546
204917654
150252395
2090463294
1180367633
802721771
1486775963
1790733222
559295730
1099970960
1975340601
1683948340
354722597
493969561
1364399775
599203424
1260510860
1575158934
157203391
1952943455
526146964
1801355346
1807298376
1456636171
1759964835
721471081
1409388317
404376199
1906969196
686744918
335667936
1793189030
984495596
1521406922
974480286
503202646
1878551707
414549237
288966629
594111430
1496421059
898319489
579935358
854087053
577892441
604461964
1346871438
1895076332
178893326
1833171919
1440034135
597343369
1530885283
1242264774
299148147
605991864
111007374
178237355
2041569727
1700173939
1770590831
316470136
2005713750
332240596
1832231250
265875818
922985856
98530902
775480504
792664394
222852818
1730015758
1452071227
130758044
898583665
1131469026
117428330
224612195
177570041
1401025962
2122920837
1517411204
978868849
757448637
605834534
1262562763
690108636
1066521279
833756081
1597584923
1429687257
1280454462
2103651334
251691942
210424206
1527661364
1066040075
1168216772
705027201
2001647975
990535851
1844797304
1476960867
1553273528
1458340186
213140138
32461146
238421328
112576688
716052099
780365521
898082241
1357343744
1640669665
1902296665
34887363
1497756670
848514442
2038738550
748913120
245321491
1596399495
2133282859
654907173
2045307955
1671036984
1938609367
1875695097
783211640
1121994206
1494389716
1910136028
49085840
1116178755
306878922
1300955606
2123050041
1453179429
1122024973
1635414781
1624604197
1783081680
221528403
1723276887
745112714
1621585178
196015058
1962893903
1613862435
483694105
1560470399
1222411692
1579622875
382095959
1989644853
780957799
2125793313
2117137133
814724161
30104393
1907555957
729266342
586184305
1135464527
1410529415
569633019
1939033142
1557992263
1266260762
770845174
548095465
1000724940
119191024
870786700
600240008
443218794
928171613
360479540
2102900263
1546445316
1670807841
607578466
1357371104
301384235
7431451
1888933051
910677154
1696766744
1164727559
1605633568
1142716150
1334116143
81082968
1349892488
475418490
1001497675
763408056
1017639098
1799080080
1554627476
683585280
693047348
1439611925
1164251682
1960531257
1689961430
1148620955
96926033
782539411
2147035721
1257758864
1404040769
848175568
611011064
652388381
201145157
405539350
1566297188
1774189314
543614767
148752371
681116640
1684554783
1414401528
1419905300
540227181
1292569073
2074839253
774675760
1386230377
1636908597
1148227248
561473838
1705323308
1948455792
1808405539
640114958
1804065989
1606048656
500691954
557746722
1630009508
1456107026
529063720
1068762475
516020619
1445369318
1198265666
1303060924
473661468
1114638410
862577927
203585049
1157420689
1450468051
376697774
152306640
913587621
218476850
1784565256
606036246
663249000
418708509
1194475685
871819957
1582846169
1241014086
443283412
787021475
80407411
1835378598
1974724497
1258176123
1536066613
1305115084
767884457
1078319340
1045027468
1821048752
122721379
839441732
585061741
1825578937
953236636
1102943343
952338396
1731082794
358431812
1890837464
210238772
26046512
1168761870
999536532
383470826
788296075
160474566
1155953827
1700755317
1731646152
361166172
1912894210
383224351
1976036379
1016721486
266305629
860719930
886259441
949931826
1799580089
2079436499
531326074
124329100
1111854544
630444725
629179404
2096608737
314341428
196624957
76501336
1470731304
196641310
1231602472
978948642
1420516102
1310096831
1208150471
1032924514
2012131848
845506620
996455647
1115603186
1948017852
2021139299
771256984
986496964
1544702536
387725600
776006565
364910691
144569994
1485743250
1655101647
2114413396
1648701935
174564510
1063820816
1852414159
135084394
1171691119
1437421469
1992118131
424789849
925292480
836500896
1857126967
970777334
1369878705
41437517
470867720
1016101291
120145498
1206206373
2118687988
974306851
1752995048
412057414
18602464
906908047
105673237
337617908
1284276665
1454846767
759531
1937111649
1076018072
392525992
1755034262
978353536
1675354343
1211551469
109937773
1788615224
959052644
432521674
2012347931
949107464
1519176556
1698024476
1742040508
568565088
1080907141
1438331069
1302179960
1901161874
1308948971
307599850
480537763
590719553
2033783255
50889300
1552307175
1318834634
1953764781
1315726568
1489005990
699061722
967134237
828093686
1884580082
2000770922
833617805
1538170563
206370611
650456069
1941126324
169250762
1713057276
776415538
1001593068
642418321
216396219
708589719
1078755323
1272261427
50620260
355251436
2067565334
687189988
1526493093
1960512945
1218731597
1344567463
1836984361
696431541
1964150642
804031504
401962501
519064868
1786451006
199936713
1835702522
1985229258
677820360
2061758749
1636484035
1523593062
331553359
453139829
936493223
299996744
1859925470
1584177734
1726847437
2078837940
1915252083
126213473
714427539
539864017
179315520
625530951
741049142
182903734
855234215
491712735
2091276197
853321653
797166160
305383569
274013522
1332765332
804532937
975617674
121451380
2128949925
1917381855
43724231
1256644457
1475079784
91208514
724072173
1821585237
9662608
751832407
1389023169
888398686
668871662
779046181
1205197723
10379465
1180567585
24688101
1141508969
1385344079
1431799344
1662104040
459130530
2018470842
990718898
1266925865
1160469192
822866009
2113157121
367322950
211072023
64047545
1739825189
1753719261
504225077
1313562438
468603683
211510992
354371676
407573227
1173997035
1736878701
512810690
1578265390
1673644114
816016950
944691591
1302578557
1530568822
1244091916
293167422
1634537507
1927442334
1411401588
170915486
1422396737
1962073624
613322605
1405723342
619224173
939790307
1204129978
927657886
720506100
2130829443
140245458
285910874
1510766707
494167999
1041531903
496393658
1316168908
205309137
1195915362
1158135725
546631336
503788582
410730381
656124809
1501543278
1238592146
971323071
1132204475
1945105357
219429334
1523977750
919444579
125633969
906460379
1459646439
640819338
293334665
2047298622
567455213
403756328
1230032421
313883121
136787945
571823169
201883643
939677233
414554619
24535874
758332925
741325596
1204617797
1672839786
1629047517
839999866
184635560
1529365983
2122490938
753630378
898870031
867988785
74103911
1416666892
1316986161
428340396
572079578
1451222560
1832238593
1138062408
1983435779
1935961875
1647107690
478079236
1403321998
410456654
210943838
612813935
415754986
941844653
1048924117
604054790
142694279
493950703
1969058634
75323190
430931146
1012032081
1941196886
172080200
1553137789
119082188
1995187777
2043282391
1667690274
479361382
1378200505
337206053
228966171
829167665
749401254
898719266
731142602
1788942994
2046353721
1209978688
701247275
1976725480
2108691259
581769108
1386041022
126486891
1305898165
1559334741
893487785
109733531
1240602208
264212021
1761190336
241920238
1705446887
1865827145
743272895
451244365
1906326369
624514457
1321742647
407618314
1034752181
1338330151
1705620074
1154953464
52211474
131120707
36023611
1099043013
2122290522
1519078408
2045382954
1750497472
2082002532
669736476
1355112483
2033173138
1516754888
1721478657
1952845936
1829787630
710121204
1585026933
1095497407
1129105255
480278612
2146774725
841267394
1659707433
1484365246
398729906
686573421
902141476
653706116
997745586
1934254329
1910992518
329754694
1823184088
29760273
422261774
978188772
361775948
1133016504
229978933
1980681315
718923721
914814096
896876043
109352966
1812770191
2114929170
96647534
54181851
1818624816
936171754
1935011809
507223795
1135538967
1367455515
704622466
1115299882
2137604932
1338709808
446704807
184539986
703094288
1214985168
1560162139
1676196741
2114388405
1219563730
373261950
1582640688
592099695
2058833349
199476505
1553717282
392568122
441647383
1178748471
1008981227
925555123
749443229
615282928
108035107
706511229
1939129712
141915289
2064101566
1224025104
1071869302
1128256900
1878767084
1888268144
337028498
1074979069
385978091
263460644
2060301344
1842868504
689759200
531973450
178527053
1157704139
1393193264
474534495
1261218496
1497003187
2024930503
2029159991
216308370
1126548761
101242159
2127929037
1209511195
1296278697
133027660
1865540161
1020156250
843646820
799538358
1004172809
1476328763
1648584767
802189872
538410833
1348147118
789327074
294729125
1636010785
2133953328
1873564223
893467800
26591121
805234670
493969586
696721925
766104179
2070199728
613722145
1615551873
1148635844
1080096354
494257370
149094451
1426426103
1891514578
1653172920
2063334442
207099411
735465946
2050849461
636744268
470990098
215983940
322133500
1684178946
1033366248
538882714
1548856025
1673545405
304600674
611615230
1364070611
70451328
1102377124
350438292
661687515
749256706
1597906321
1874974590
1567679877
193609045
1117762426
1333225903
208629628
476962018
887899185
716707012
1999247680
257177108
2105420988
2019265513
2007941229
1444356161
320007499
2097597744
1391185052
685001397
1835092617
922868601
614470844
1111251219
817575123
783450522
88804068
1758432015
778860756
1750408088
1054748817
305195548
2041001951
1303144828
1544606460
165216116
435103792
612460945
425135897
76616370
823434461
149699150
1033707108
1849683945
1005606476
1753154800
604498594
129054208
1781603019
629927820
1193011783
371207432
1655445049
1474238333
1758151875
1986995161
650183323
308646717
34356899
1511282482
679680008
727350472
2008608241
1273323380
209175962
1051919550
697906845
1460283131
2027696356
10652386
1268256255
1249929330
1099071166
2016395866
407177296
397980953
813163271
1609816556
1323510731
854983330
549747149
893169652
375786841
674808420
431351334
1810566058
1239299329
1201569370
373668820
1334173646
1643498045
1614741487
625782412
1343984807
574523189
2024800025
341019344
1403673175
1748104855
1350063841
1609758191
585663292
1961162306
903595332
835909154
711321057
1234142476
1602760824
1165706027
253708263
841602490
30242115
574971480
2143080233
1618979805
1126743500
836858449
970227015
87752668
67919743
1476328580
1823060172
596044705
569196706
1355430977
2030219285
1863048785
1975437384
1091529646
130890654
1529223402
1244025501
200589122
258680696
492270087
1708077166
794570579
564133495
1142252237
174599477
421398226
1111010323
640965264
1895013618
476920936
279326347
1448172464
1479733899
1742115587
1021595983
1891294997
706141795
426475783
304443140
158990628
289207411
1338630548
1474051137
859633039
262396438
1540451371
1675401561
251904978
1138687236
2146956616
1986817173
261114690
171102476
2001565262
1530758336
448434075
186816128
1331748318
1349092241
1978289286
286828727
1968613476
1588121365
1914098471
720524185
799162463
471698678
382610685
827863656
452142455
1160487876
451184862
954996260
570875525
754370175
1284304636
1400206241
1295036575
1094681847
565984617
1045780807
797450229
997746676
81226841
1017835056
617559817
453775936
281942417
1605466030
71407767
720202616
1390566877
1744889810
1637701237
514511341
1333717091
913961969
1859555876
1096635691
1922851714
1942401658
235333026
1122826283
1129783486
695779674
608801581
1715665766
628493491
2146300978
1129676066
757280582
717482989
809798330
1220929335
478498440
1899749162
2043145985
522386932
1449615301
1244278516
241105812
1574643515
204611820
1770152039
1906624878
444471918
921204815
600543658
846530316
1454031095
276492136
1277435188
919918042
323018282
2075669833
318605075
104935605
847740849
1584638143
1498525884
378264214
2014918068
1805314526
1127372108
462410788
512168819
2031318427
1874054632
975592084
667121393
1062815447
458497478
1122331983
1048942997
1190625594
354371218
1095818393
871819406
1377051434
1441916101
944168901
1578837166
1046986885
878384038
1418802024
1485064902
773473367
515807728
849592232
1778598941
1008581390
2021154148
212977200
388390541
448800110
769794009
1113757975
846630057
961368606
1312588488
730781708
142896683
1874444304
2040288292
193935422
385228861
896502078
874324574
1120260222
317117727
309744576
918165523
137032006
1544107374
1213156826
558768483
80118400
1461553075
570306130
6051690
522119463
191668390
1893220333
1818342578
482768390
1142463404
1976726348
529600875
2085641263
1597266687
1428650321
972711914
169225904
1639108561
877585655
188637300
911664948
1482623697
1214141963
470754775
458781711
53351430
1695394605
1491042731
1851051768
1096518501
179780676
708919422
1176214108
836899109
63773789
1989402055
913393775
2097182063
1482449968
2076473543
928303425
1084010850
945259675
654315616
729071871
578135736
2072027207
190383942
423445877
406104076
2012016271
1468067948
1309091197
110086620
909780227
769106751
722581171
1842215277
1957620382
154179463
1209019268
1931337397
2023706897
1674545876
1731424728
860914468
1603164076
624782095
1790548124
1822999204
2007332133
1857457125
338411277
848331698
557525604
890446543
1368623699
119846827
1497472034
841681720
1024533349
1672028895
1318467036
383111793
928693799
1779756334
1246450479
164105326
768518013
789117353
1025831683
1722740758
685824626
1151403910
1923182936
1544239795
801972235
1806735859
1007110492
1970036040
1654043851
303867980
1544609740
1389162502
1669232226
170071775
368006607
1156673238
1161337720
796980778
8217151
1103773089
860549083
2089323665
547042341
586806383
1847368850
1649943829
1405902249
1673589753
2086696265
209889461
1045480918
447693071
530763413
295370202
1041343034
916302373
702798962
1865625952
1440447076
361706170
1179097113
285238926
444477802
1597753163
520367804
133467813
1703680017
606419584
114816881
2134829678
1871775526
490178756
1819275702
1782862081
1975157351
118842569
1648872335
1472217516
889840036
2001865627
1840017254
1264564893
1330217919
821649632
464132898
2017909227
471730370
1759990665
181337536
873612817
2058130467
428837244
751525270
2063949208
1852774154
2029409253
2065188526
1664495544
737124876
1522265091
904773985
1705524299
943964299
1127937748
82939979
1902574771
1614862827
802902399
1965520475
1305555741
310549566
467281292
1472988448
1717961622
293367339
266880389
1910698857
864342972
15657558
371183827
1013054330
280032165
70934437
988946334
687947897
1913261401
2032623017
1456404473
2010791340
264920493
1423852851
862325107
639515838
1203483691
1189536614
981709221
1582125790
565459814
136909734
1000999054
376891405
357304678
570911299
2024223766
825017691
1679587254
63759967
277480779
32615035
351945600
1791404975
192273389
101477489
1505457786
1937950229
955700024
1992858587
1782191666
550302369
1167537519
307081969
610573538
1059222137
1670854899
341167141
172833264
1232463016
499647429
1479335952
71883107
1446783226
1789589577
25267141
508490916
433801548
1494632776
1370513230
1290480405
901016829
918541885
2069017391
523346294
1495388726
1546604361
1442449364
541534908
736219232
1488495254
1210116771
204355612
260563684
205500079
360342867
1621725627
2142026466
1403404469
2078864153
1009112549
917920163
1206212353
696647523
1773847238
1060188850
787656357
440593607
1786070348
1070814795
548640563
1405919756
1094406683
442672015
157158959
1115332832
1069188486
1675035368
499721499
707962103
267553873
1311877070
88976310
843696238
923554640
1386372059
1878533595
193737791
1397686209
1152634854
116197055
196367472
1612951596
1968699243
536884622
1505400816
1480131493
785213963
1554045444
1787213342
519531275
410439236
1599762407
363560116
798441586
2078100242
172762042
1979066048
692692974
1916207849
1142388493
431635123
1829058462
871011732
266808495
987951108
581396444
430484018
1481604258
1324555895
540789639
1490322001
602444056
993833851
1465520319
588550936
94652860
1505276105
430688320
319039581
2046838866
1057534660
919270982
908004962
89474448
1514864227
717908639
236995765
1319414944
327817155
1306058957
304920436
493191059
2108743774
848291982
172163718
267486134
84688060
564106713
361315199
324253124
998458214
1722284309
1177666386
475596350
2144269125
1798397938
2077237704
1558469967
1025143064
1775525047
118941309
799467455
1687473683
1422038795
672633826
930982515
178083449
1610704008
574460278
919953236
1028876095
2026317884
1868375452
1855297740
980602084
1351383892
223311887
1664364279
512076123
58858833
2008325252
967963378
2140463655
1195158665
429171761
1969335234
564139791
2005345725
1622718622
981097092
323362766
1148005619
515194287
1486210631
86446816
900603273
163445722
1130123397
380162999
753525374
2038256269
1186927015
518465550
150509137
1783067253
792804547
683169665
167635977
1663213399
1307692143
1825526085
384392869
289241741
852915820
220486091
171190764
1166824941
799598704
820855254
885918259
2137427121
803687354
1619928119
1397343525
1360848668
844698150
621522107
1115322825
832701264
860424693
1990714710
1439873133
947767584
500545993
1920109921
1257661250
1332011807
1708721575
515241872
1930450662
384647474
990386766
977891220
1268570563
301507282
1494000235
720513359
1702483324
630073789
1333281241
454801062
573429179
419165016
932403905
928056695
2088161726
70892466
757602732
1073669725
1112652794
10848152
42649841
1277762236
1540086428
2052281940
255880707
635103909
1930356537
776527067
600092052
423379927
255391724
874399433
470808258
1666473841
1957768987
1738342988
1033828561
631435284
1657418527
555061379
81550955
1608046801
262369303
1766154566
1089327644
1897491088
274341480
935703751
1543850684
105720596
750457913
1360823695
1903664994
590291637
1925602539
61373243
1509516390
534622863
930454058
1354818700
562237056
81261445
257305450
25344413
1769824235
594582494
715660870
1021552145
217521182
551513353
1708320597
1858345913
1942291470
1715088237
1210114475
769223695
1552751485
129899212
399677343
1349053296
81671028
972228094
465228427
99424886
2039791522
1397804129
397702082
366860524
15594268
623933585
174265459
1374986141
2060067572
653385197
802123095
1550172776
1119843291
39763937
1301317580
413645675
314428917
141852519
1381152248
2004974649
472193321
1910329725
1538085498
1295566991
139378994
243399986
1113082147
47814833
1353417211
733815343
1576167222
967803767
1639349223
14223165
1185510207
1646932102
1126076443
1570828178
1949634019
1434833611
178717833
653195795
917854640
867215979
778072209
1631553307
656829367
486969158
1576726721
561194614
1379500836
1503363898
1645388718
940052001
159713976
502156285
460811605
1261705413
1948016487
1593578975
462488704
1483229911
683696721
231611821
1914717704
1038541341
1358548822
481977182
868143503
2033511128
227434191
1588618114
1738403274
928014107
300002553
587913978
2049291369
666094598
754117102
1719635714
87393996
995131638
1002984229
199631358
904317364
348669100
1245278833
1303309160
1389554219
1867486407
1948853893
2063784903
1694345516
633432850
1784706020
430270015
1218752600
1267567627
1398479955
802255393
1918201278
1967807820
427229024
1198151414
2143959212
1590903775
353845997
771349726
992984435
284985914
1651262198
185878438
177451498
17157684
397494799
551250281
1549652332
1611921444
2043744728
1752808465
2094277027
1897642088
981600901
1049527264
1607171606
1069911525
1007381547
2040789523
1288006877
2062832714
1275334177
250117730
47987390
28793462
1065093022
1468256778
1425956701
1636892662
1478629360
453073238
1847208358
421190808
1528157854
963143200
1610265673
1781558621
1194830843
700156607
1454842130
1659456396
568824059
2142761699
1169497569
80472757
1581487999
1305331515
576696651
365026944
1947679562
2120914560
1137921467
779528746
1355577601
701417766
1172319844
99226894
1708109744
2076645888
1491336129
1243548247
888621039
1858279808
924563307
166723142
1553999147
2011281397
187625488
1278336398
1246747888
967628551
1792360078
1819181618
1674426359
1901913395
597100848
899658425
600013237
345865896
1992986856
2004068386
1477898585
2079070408
84821238
2059672694
1699565859
2143925122
279011125
1174986827
728321969
488149997
1763428449
313457098
1708461891
119473842
1109804196
677202567
554225338
63449578
1777592207
189775313
633299249
148619164
1264439317
118619910
44658407
1325795310
1654795676
520271779
716209443
1906877373
1256688474
1378375124
1861926478
948796895
1304782068
1744853631
1895869066
1387576954
1697841921
672280455
36003778
395756793
1801297681
1848542692
1130547679
1448290763
1124519809
23346276
951751513
1348847929
371997854
1809042807
1765596370
932894041
1608096733
1303004505
227917320
1696264295
1361442105
1168949421
1009946087
25710371
1081945667
232616634
1932522136
2084954804
896982957
1390621561
1432467829
2049018693
1251700768
419206582
1759868944
1371165219
160987659
828868008
584119267
1042000866
361068091
1464233748
212685628
640074526
1777971575
53209940
1435505660
830654851
752125928
1620441095
700632462
1642943415
196667911
281130202
957003843
165919309
1566386219
174107096
1690369558
1069450442
1106249528
1842910762
604819926
1450695433
1156848833
299287999
1169182906
1937113297
236090217
1545596937
1408838075
181589609
2105898711
782605725
8785475
1639539857
601696289
1225397979
582085262
814902564
1543346797
2061228647
2090198340
483985144
1767421542
1660001093
666052726
76562010
1535395577
1013958270
997552356
2071118063
460148176
1646301705
1960798183
1679134442
1837735635
1021809477
1607582143
1029092808
1602798929
1111088194
1065232130
244388387
119877493
2074321636
884401436
1395530399
718709506
1216638704
1709991182
1615770011
1682373012
659214271
902393262
2103705363
126493781
1402510101
1652501036
1253135415
423262447
1792586645
955382625
382735462
1622820209
284120626
1545080785
1852745745
721136749
986575116
2046477142
2141419107
491768259
1423147403
619432019
1548544159
115220029
1862433437
1755256642
1024946880
1921336338
1899311828
402302821
551724950
1376119630
362404551
965537456
39735669
1987649004
132053917
1706764776
1608029493
691194899
194608254
1524133262
2002132072
458334285
1955410323
7765400
1663911795
157096954
127988305
207711668
830302146
1534262023
191313660
2027358614
586875515
967106909
1665417076
2091582793
1940527604
2135379298
140165510
992540115
1782546566
789763580
260579056
1789202506
1761751809
85503348
735650713
1036825510
1562753627
44789377
1090538509
1827125126
800495082
1400713364
