3200 561419131
1364952424
1162980900
844358457
1034755
518060231
671076082
2127885144
1827369840
1660815048
682502415
84489938
1774922883
343158573
467459346
173678883
972528193
561296419
1329368461
183058298
234676017
344693487
1947466013
759364838
195533413
357725070
2087099559
1368239771
1993043352
991684963
1324703238
1148577887
1736182476
1558780822
1079131564
87627934
109169545
1125760245
1835012390
961506400
955436640
1550318676
1706509696
1465253066
2012847441
1491154185
176728465
1174028656
1240620071
1387030252
548880293
583519769
1848082083
1972336264
1392646321
534337144
1284966182
1665414572
1127691669
1720580659
524897322
1674457936
1334342158
813947303
316819167
1176654818
1530623694
1329132021
1211525614
781267467
940422004
634601675
818675408
1837450793
1069900060
665923967
877792406
1514526469
1133022306
1099124846
1698023000
311407127
817047577
701515771
1184858303
1760865092
688203489
1893999636
1178611988
957539925
1310825964
1196154729
276329204
1238689118
645394191
1428043484
1300371175
1527472862
1271921323
594724285
577058898
1959915644
30563068
76049023
10607576
206528619
1694868637
373027565
1670845865
310572339
416920246
1838157866
315668425
116349326
897185791
824677141
1552189475
823419242
876599525
1672671272
2074607376
818450765
1002311450
1584532639
19369240
648245182
1920864776
2131448273
535325121
1254726693
1772653240
1394149816
660466085
1636544560
1056033973
384697204
1218141321
443082607
1195596146
741506905
1978364825
119967686
1773889981
1075471073
1159081922
2110603728
1287356448
806729089
949901382
1635573969
350159818
1459381430
878671967
2066244372
936567280
1272336336
638936464
1013604972
1260861484
1048616129
309743275
2076406835
1096026038
93410388
1135104337
1924352331
894037476
469386754
1174116382
54368003
923265175
1007432892
871498085
193709773
30350974
2023443119
180178294
1400663772
514699813
740677041
1551684652
1762759084
876190939
1358842829
899924977
231647144
645173160
1419351791
1863378874
674721243
804380377
994224585
1853945056
29392652
1199010513
1888770955
52716096
1923265549
1936901114
1815776300
474072502
2049067895
515562313
1637585237
200129126
586865266
406347239
69921163
1610698726
2025915522
556572361
21379467
395837159
1009450062
1274067193
731746192
461252907
1901120282
1864741270
1934094445
1679367804
1410687431
393126577
684010302
527543110
873033920
737013067
810415460
1982476204
842598509
1742631804
905138230
1044986963
1484062968
1572985489
573453092
2128722392
46738121
1857869207
27296195
532780585
418400106
2061137784
1239959345
2087713727
515295364
219123024
1619409467
1373900574
794646919
1744240767
133728812
578630909
153890461
509624616
1514861277
870703441
1669864869
1290319951
1065162841
917105831
1660583586
402211309
1497377794
2003399460
465359718
1134604169
749525104
766589561
880359450
283398721
1706194279
346136421
1611701077
104828184
1730184367
1974275524
240631500
1730899735
1967879642
769064100
1625030454
1621579226
678277777
2046588528
568386645
1457231711
1996878566
2127504804
820476367
1242510532
261347882
223079540
288386804
2001310789
1681119738
345375094
63569725
723075955
968580912
104830875
1473946179
857260343
1058424509
707332862
1626965138
1961513166
684103758
2067765216
1283835675
1870910306
126323809
646224192
1544390657
1304668818
271898441
702959115
1542828806
929538670
1312243142
1486039020
45324563
933159959
1087861049
915448307
1040798001
1586491381
788018174
763272744
1356193855
894148433
198755744
277892176
86649238
835071885
446732176
1038325675
460564238
311383005
362104882
1736449466
145615213
1747079021
2029774956
778480626
44818509
331814874
818317039
1044006586
1252649726
706576202
1263469915
2864870
460959727
1904961337
2055222084
1206952062
431537586
585562503
401486901
229580947
564327119
617999436
259992058
1541862361
1328655904
813353584
124070457
276898988
576243480
673793880
1397389888
1817133534
710037007
1727699003
1001460627
744692645
805966899
1916458689
1638297462
214436805
1759116346
1002990428
168598449
474399211
1340609059
245268287
1658427132
888970009
1570204798
1289975468
1607333074
1034911629
1906103013
1492415356
457427485
199706936
1701326849
1493622516
987160771
1458942283
1639172294
2132343855
784807147
674613134
992623877
487228116
1041676366
351006670
1194610582
248922230
813915851
1380935736
1260353235
1795539869
178156311
1550211053
1559114824
1939344714
929182213
1954374876
1178809788
1874086966
633778202
740545150
922238171
1755422235
1341588565
95758191
1444007780
983357953
1424473470
1805212816
81834020
71656415
1143971338
1535414836
1900158601
1031406737
1998823579
589254484
1628430042
547278376
1364673352
1872774996
1911622372
392496411
96607627
973121556
1574742547
105779895
82557663
1167323392
767496588
541228916
60735468
1995198548
550702198
1572205828
415520434
1024756198
1885326460
1223772460
1143530070
524838283
2091688298
188452668
1191902196
1031054505
1494973112
79377009
309704319
837255510
444280322
990386393
780610309
1186640876
1002604741
277335298
1625574718
1503658399
1652893663
13414494
2142963544
349786766
1167267843
206648633
1238605470
1413828679
1968455192
268968370
1263689566
562662328
1183876885
2069551447
1240109426
713239408
628482270
827240279
1784919209
1900487222
533526915
1604993421
1014105159
890957063
40749370
957602232
419644452
938400097
1998905449
1161943186
1111544913
201511866
626688421
1685464936
2074611116
25083100
1894547831
832418534
1538909721
468142466
265022918
546106634
1742920775
729311145
1343192994
200431483
509357312
1049505117
223072822
1622676864
1759989305
459623882
2099405679
850233090
241480712
1385961859
672685194
1215425019
409394343
1056768754
350626275
314115265
1157801195
1866181934
1636871086
220387596
71164955
40731316
1052616112
889150858
731730048
1881592589
2127779778
343359575
2037558246
155547972
731207224
1454551282
883701538
915540546
1510930892
1941386007
755396321
377522890
1035771994
1087731761
446762990
460959228
1225045038
346047115
1528324816
808819560
2050063759
864374481
1298387230
802241895
1228716545
1681999458
349880471
728176508
64879896
1502067316
1457567803
118793235
1114429440
274211993
366595122
1819622241
21482223
1486418649
522736103
1757118869
1334901745
2008127673
420797633
1219648537
1831974944
855419388
413237734
1695445374
523615287
302709931
1181312174
362360339
1924088660
1322308524
2093845272
1776178035
460644548
871764128
1892677979
304418347
355082148
396521027
1646139188
329094068
706996952
859751152
2112576318
1993099633
81378763
1321486889
324878222
391868972
1974770800
273872807
1869184487
412902652
539808630
1055379833
824677444
1109478155
1330086066
1764512122
649498723
737699339
1118102356
662163629
1173890258
707911320
1517319219
440137945
461505661
1400445411
564381079
1412775597
356943761
1319803159
1395469345
299394184
1570084669
1198480951
397094673
1972765726
238477836
34003806
1586347920
2058166594
1518229660
42494052
1586379265
1852163030
1784410424
470106612
1989094907
28088845
2139599904
1314427
1494543836
1797825248
554373265
258928004
564652094
470016000
1887991857
946671098
747751156
935334044
2009219960
541117273
1183209563
1368420965
738319913
671307038
183058113
1741786576
404765629
381082674
209807718
811075168
353407701
1300777425
764105791
107968069
871260807
1807318332
1497042902
763514801
2075114983
733811309
568267469
562284395
1606213733
187477967
469029093
1481951112
1540229751
2070076766
664804307
628943077
1821418724
1755406720
924207925
1672508870
733261402
1506617577
28192020
498889824
690187898
1122546604
2019933738
714193019
843084468
1620446184
969845229
239599083
322294445
319374347
812815022
1947339554
2104277999
854883597
2011177617
993778541
561202845
1125545059
431088298
1533792334
833655143
758422287
754965605
1384115475
1852319287
1768534727
1607270664
1619007460
179152289
47314204
1931565606
205415680
755612769
1690157325
933364218
1163814994
95510126
934531616
563602303
1989971930
1867533223
1437334939
410403488
2102298114
1317526612
17529186
923929857
1094032354
1734546705
302754442
1188753822
299645828
656474954
978614901
1502036216
2094490100
1809211737
1320367707
29595154
40182205
579306124
989262987
1284982287
1677798583
662407155
1545307028
1112447196
1118332717
732552212
2030821231
1591462106
1621393691
2101540746
1919234297
515885995
483957011
1886743853
96686812
1856758397
598206005
1219509772
692052286
19722594
1538222673
1774417474
267177611
1188143434
1118547184
1130369151
1479770929
39601721
1090747463
1486365421
958497413
867274996
1888532661
2015384300
1003199014
1498744559
1835017769
825463247
705730309
1365525082
88164077
1276780697
1545897227
1881274887
2099199390
208985233
1919775812
859951818
691779366
1183699873
1364903796
1313208000
1065672144
1477386317
1627392610
627013055
425677541
1604390360
576475265
694316474
207433967
504399094
542579249
1753152271
393942536
1052688314
446415842
210759780
1553741425
1547388343
77364261
1760581596
1008629372
1896427685
321241465
652786125
1786743946
61913302
386623738
283455096
2116824086
1079904260
1268264087
1908749698
1035089720
1500403608
193511806
1991661153
1689188651
1936479078
259749248
2133493948
670197944
270321353
1826444953
1201366069
2003857915
1599901753
75358270
1626020214
1454983478
330358240
1813131699
1867788691
584172733
1401598527
504417473
955848467
1046789963
526299079
1601100749
491021646
1667662337
131214650
1390935968
594215360
1130575757
1449038426
496608839
1736506217
768697550
1441528699
1356523823
1253192530
635530375
939796102
22672074
1817169099
660805988
643737219
195554791
377710108
1417293654
1739022490
41712325
1922635712
1677395695
427839300
588885657
99696108
1785212611
1625264058
1884919856
701171621
2108298833
353023345
1024348100
1698222036
1035583485
1351640693
2055048343
1236221136
2056747729
2126594046
266388138
801122712
33990136
1799946833
1408420357
1924289789
363297165
212403481
2041842766
247913068
606591531
963965914
1571699408
1327329951
509882884
861065689
555781553
88636085
594629677
1910458062
1688045829
365020574
1151886791
1521955500
1002654777
2039559048
1290654076
453479006
534210306
781587169
1150042209
572816189
925841725
1828997029
1562156469
1271453734
997054323
1506163844
118759345
465489343
549485176
1385470650
749820608
64150947
1549956278
1505020391
1814125427
135406640
1221701979
342833501
752208039
880075571
708622774
1080979218
304418248
976639820
1037255643
2035802459
393055568
842716110
180504834
554669440
269802185
1829054237
1539613642
976718273
1474034976
1742489203
1548826116
94102539
908179675
1910653630
1284478842
945613556
1355539017
1123910777
459033475
700958217
162576437
1100304462
1975877801
1693386216
1132021070
1933742809
2139706651
456389747
1360382797
397800737
1883153913
168930581
1023227041
875837790
1022453152
2140863790
596676363
1630133731
1176205741
1178340350
236686680
2054621954
906174704
1634782018
302715405
1714734600
1403511420
708915019
1913831890
2094296619
176620192
57945860
488283427
949649474
1201701569
176852136
686662457
831890409
273000002
1538418098
1287814023
240320140
1599734191
872712990
1775708339
2024853670
1641025519
1987879357
1584972340
1364220365
457855442
1430063741
837826382
1263010875
1340732269
567251614
502077587
1289148910
1215560323
204729310
338127458
1761231080
571866348
1638722828
487686083
15138429
1530093254
694000045
1318247297
461800611
851712189
1306981098
535108506
1144620417
938345983
1482133323
164358730
1228984394
329366297
433978144
813758841
2102228173
639886214
2127487264
1187841089
785985565
109848731
649066994
1877399893
1527259282
1247977187
1108919506
533818709
955564761
933543353
542771258
1477571865
359085267
597351397
1140660525
548865908
370721540
1158100801
1179380859
1137297548
1589951571
676823615
1194520063
459414219
963087910
1084357171
535667187
817289724
1311582487
1079444928
202312796
2091064672
649047194
2024823626
2107040125
1345946016
726096909
1996926652
1441037909
1176402874
5036556
1935075319
1182312597
461550085
609136007
1667227941
697767720
1907777543
1868238169
702655748
871940643
1064222592
379516138
1638360385
1977613121
586578741
515604555
807698523
989810206
1419913438
844271779
1536077764
1975789616
721537976
560707608
343754523
62277984
2020105895
1634889298
2067212571
1035795553
58877559
1018072285
1693990595
1882920569
2060749819
2067272352
1167553964
68337628
85671545
780612021
1712735594
1388446789
1990483399
1809949082
952286862
1424567096
1037823160
688274688
666181815
330028935
1197787954
429385170
714209462
41808054
1815509089
1525199037
1150928559
671961549
1918426486
1860590021
1143942372
1108951851
1123491571
2114519312
958178682
1495841206
916617212
323300991
386056347
103833404
985537460
69344783
1568140083
2103010074
422387789
2050315347
1736621282
1178210798
1434153075
442792555
808963686
1659975338
1624950298
292455102
1784944497
78987780
1483517058
1549603938
1028445562
1300773622
393382667
1990148174
1353578885
65107708
555529778
783187212
239083293
104733372
1137806105
1027533537
523176192
967401874
1508217096
1511776392
805939670
527281764
836609057
1827782431
1842655159
859792314
1920214882
526782081
2064161934
743605145
1018838707
16703822
1264870252
954996809
1624117609
477790577
1771933322
1293968557
801051793
1364747324
571928116
579787692
1331256651
2071226075
1776733850
269279597
1924201080
1840599600
429241896
1833980648
2087081876
66037635
924756996
1204475530
1438426824
322811011
316278252
1124529266
800805613
1194192772
1729871455
402126369
1907587643
88644566
2054050713
1137545127
1252159459
1066251716
2020814077
402411355
822757200
833365868
1301383627
38524272
385443189
1540572290
1304229719
215733728
907680595
689933936
1320963901
1127276409
432228465
247709935
578436433
1517939620
1931674847
338634321
101207716
811579464
1304187871
462566303
639469263
1825498845
1754324367
1833069631
1241087748
1347282007
1248833860
2006880180
162859968
2039454423
503451738
1748241499
757689210
840165535
2085568425
973519952
1823931470
449241243
177234623
268167608
1297382157
1588581160
843930800
831101682
896518308
1658920387
1088142361
1122707156
541669660
1073333131
1702407083
1497108625
26372392
715771247
1398205956
1442458868
2067373341
1305113175
1058660009
76549454
2070586962
2042300299
89554110
1202238684
820925043
1909700850
30637348
992842842
3236010
165611849
2103535008
183488056
1130103024
850074180
440642929
1562231723
604166450
98811147
1296296172
314959866
1159369821
1451641428
1000864594
1204280545
1073150079
1147159132
1147424974
1723127765
658408581
1311356351
218308920
1413500070
1457231768
1592554876
551139729
687989564
1343495626
1485376224
189058873
661238404
1024509870
642414661
1405409642
384288259
2000472035
1872347404
1693676530
1818749250
268900833
335690157
761972972
727890919
1672368030
785883289
869794806
837095092
702539724
2045705589
1704053490
755926843
1209281770
66800351
422298059
1118342149
1571789483
1346299098
346035215
261519718
437439669
442679938
1623721663
1912610125
1759638600
577009116
1375507222
825719648
1626134339
296481640
1876429113
1954208192
641750575
997860273
1278327099
483661044
403339718
805386849
1670162067
2104900592
790235760
1385682732
1330790806
421164313
1642245382
1620569471
1683106277
2046634315
923699930
395998623
1310718254
1832679862
1741061686
1860232131
1376261303
1635318407
251251080
551381421
578062294
1673115718
1661883918
250281369
230352463
884245358
1535277284
1516645185
1500264120
867927312
1814643265
1668787251
1163912256
1672551112
734679871
922863427
2144516514
428014482
1276001325
1380022804
1175642735
1926079181
1019241230
64251883
55703129
107546166
747598193
385127164
2035681927
1472172174
1435847386
1591401528
1558367397
1894803196
604998519
626609024
1372824725
652080220
1238470000
1893605505
1493163687
1835646575
957937710
187738584
203546263
1228833159
1301140916
727246418
1914329226
1470731461
441921904
574811310
1208521908
337942181
1749892763
1791958035
1372633193
1984979185
1735525760
52433963
516495700
977421684
1928960822
2115466641
761763519
539267400
122347090
1225943459
2062023904
793467539
763477670
857142155
1376022053
201233215
672926312
1472399246
368629288
911894030
412730541
695102479
1428841302
331799287
637141993
1930453334
552339860
1940374236
1612535888
1268388369
2113473715
1392897067
876001696
429312864
996053510
2048040747
1116994955
1862467003
464337767
696672696
1176950326
845874147
2120992944
1828455495
39278570
998421620
501465700
1250489697
1405683746
1049016681
2139171919
1861475989
215708494
450408635
1662926585
554338319
919554759
1583813655
1337207377
901252501
614009785
277998076
1376378938
1906059751
2089430258
475872520
471459319
1006978044
2048513364
2061655274
1913139082
1112351273
691411396
202434159
866189530
700080031
1084671009
1559270270
1467603054
824637233
153788580
1874121647
1458397756
718086454
1796756686
1930636411
1481339061
29062762
1282129162
862806343
1454768143
227630304
1565053859
1904239626
491012125
1246018660
1226645105
795413736
623158827
550631906
2124981569
1844419414
1150748764
1222065377
1633120396
1093336391
515358328
1782315665
980717196
346873996
1781845366
153471697
685744907
1820822090
1864767731
1838908439
437124170
1771992955
174169530
592945137
121647588
1423099132
381989878
1567287090
1173703500
1975279681
1393252706
2087740860
851733840
2126577495
888046502
758359891
1508249843
1635377382
409107145
281689083
14008682
1803113640
1542339294
507609982
412443209
480316444
1093983847
1898037820
674954820
1029321106
1391071652
2133294446
730995904
1411402159
529173272
984882935
834248862
921688876
1246859033
1989599791
1002909172
373939936
1241807195
1928267723
1939413206
77396075
659378137
1376277000
1327487797
637892083
712858681
1328728441
344462234
1635064026
716230368
1891027036
2009991834
494118389
376203426
287723431
845398457
1204370800
1475226978
57451325
28477844
545487724
1703550452
1075654014
1767972875
2112249901
546044528
2040704080
1785157245
2147090458
456592658
672113924
404242383
1871051838
2023553928
342958204
275507023
1298907749
1462018493
648327011
1559334435
1685099943
414839791
936556324
636711485
11034187
1639967010
1858995516
1769282609
1154630206
1375563075
851028886
332740024
1863845076
1222531913
192292231
1744562052
1002516457
2021752684
1450623896
421445685
1972044766
556573094
163602276
1346576827
678833875
148871175
1441945723
331888677
1425755784
551510082
1398462496
660699174
1857501024
1295139599
87514700
2131403935
1656751486
1747320106
1633850612
1201560860
1458828240
1712911018
835742935
1406678086
1286798789
1809803367
274301321
1823165953
1318340266
1010681569
1819723311
402032154
1372080700
386982986
2108586259
1623137610
2029573221
2128434798
1016291416
138080546
1872216695
1470025027
2002210252
1192442120
565021253
1943041356
1444015069
1785253058
626559828
1791451575
637325568
541258620
1078863466
2107113082
168156382
858896503
214867603
1574931050
976804684
1158466280
1587331231
1542101580
1252094504
1289216858
699028375
1473356297
90592310
871739903
1363824959
1262782406
989773324
1794266437
1876551262
1608400278
109263425
776886171
1408318002
1207526394
1664789965
2010330597
558694429
1981740026
329558952
1092251228
952225369
1497887149
1096946119
1209013574
1135230846
1917527626
1753017651
1985606939
2086721979
1760551529
263234984
1621898026
242663360
1027524608
41120461
187989752
779626842
1271504210
950147061
1013237693
1378853403
432219759
1389291541
663124759
1064899454
1071646715
290787962
480201524
2027262946
1360638179
1869690611
860912853
1678835605
1150045620
314589696
309968353
1617582157
935903612
178622764
109609907
1590685190
1360242828
1782144732
209514638
1876971321
522871659
444626749
1338852099
545325216
239544327
1506685932
1433455456
1727790601
1748835572
944881887
779840146
1337262615
1470462575
15706030
282236805
161978081
204912102
1621665011
480570955
1744760368
1753133955
1173275499
1634551221
1731756360
257491126
1550434685
1701465562
1096972785
966399430
952875992
110343845
505864669
1921556810
997663560
70638972
1886690181
870177091
1742141524
1551696859
481763896
1478874680
1768574747
1767443788
263066158
2088301738
1050942425
1279444536
2132113725
816267251
81807316
1082896771
577760836
1057940579
667880520
1476484978
1264808611
1668720990
1104648207
1976388287
1647974767
2053469008
1242757808
261767330
1815574481
143642318
1067473270
1428704613
1720966675
1947501083
1496542012
1519924159
1779324611
1734420348
1524513956
1104636497
942043141
397922232
322387199
599106113
70175480
258911282
605852061
558683671
2139714609
639811909
578138793
310697542
1769931916
2134286404
1131695915
916165020
541165697
957753886
1022720400
532310438
1909207364
1842895134
834935687
1254273567
812698705
1073222467
2040378014
1889091190
1476658172
1811744185
1341805543
509257914
1572431754
973964443
1941502267
100734744
367017002
813856709
82908309
1092913845
1876038592
313936746
1967811714
1805563312
562310887
90696444
710689006
201021811
961323932
606782329
11843239
868101320
1837911656
1769786650
826903498
430393968
1729006176
87793251
842208406
742336295
739226031
458327575
112361165
991104922
1056662810
1720953985
295984807
1496002389
1964219657
1642741686
1621131947
56827527
2119270763
1677435849
220729436
1634596976
284232201
129216095
1013114779
678361423
674784898
1310713922
1963806722
976200994
1194077986
473552950
1985408127
337409477
889281692
291001459
1905522539
2102464729
842926139
824237500
63031196
589104695
848950405
2113011933
184523626
2005538450
953146816
1725940045
2000465488
764215547
112234803
1450904481
2088539111
447338916
1827196385
1035808646
405986590
368371791
587918783
680550880
710345688
544804326
831345627
1066288993
1978769276
992785171
479110873
346916486
872669532
1253981834
659607438
917987802
2127190099
1235293056
897303103
1233017406
981204398
1290016658
5836403
1190058344
1137084753
142262502
190396185
389211185
325651812
197242058
2085868268
1547817943
829283213
1596440014
957576425
525670801
1101312011
311836
1826511990
81463289
639510276
1875288415
1573711197
1168156080
730429492
666768316
1121906662
1779140436
1853192960
1123278585
417372705
643609118
664138629
328179123
1162895119
1024820608
1347298808
561581463
731285282
1991749209
400667432
1006429357
838832328
205070341
1825357116
1482567879
285890711
1403328515
1826902785
1801272551
683346234
344139456
1644176727
1138556950
2093208623
599606018
135168582
686822206
1635021187
1155392431
882088450
498478913
1350658207
1352606091
380963626
831730698
1305747427
1189339800
705869406
728282626
968144323
1012140872
500030257
714806424
1723768822
32815510
1547664400
147527758
1194398888
1999996606
251595457
1531779480
105658932
755749181
1845124185
1803988514
1737236382
1523912673
1602217400
1501290544
1320320082
601435055
1782333297
1542777801
1622161784
1315299718
961278612
902137251
1050657049
1402744207
1973587098
2145298802
1897993968
422100004
2133326749
1408495474
864598113
876635506
453849726
865954712
1802650989
1197059689
2079921520
1006572282
979890058
1648120870
466529881
1310632625
1013953404
1176493390
904767596
1345404371
795826319
229782678
1273894201
206117780
1819818213
2063551352
2113435661
1961713068
1294717628
324191197
586881733
1078195962
1284120283
994877995
1948101198
1452755076
1805300336
864159963
1240734256
18891189
528590535
673380540
1494339843
438174840
1337018714
2084445421
247340412
929305853
805934138
324770869
631959796
1688735550
198602281
440923026
1169089931
49800662
1673376594
839374915
10717585
1189193541
298714284
1712202325
1101591349
385207704
2080334196
15515251
1261411794
946672383
915834363
551135398
726240698
1205522906
1425806611
1602285153
484686830
1878321404
146311130
1992079517
531155871
681192414
325445075
99376637
661521686
73422724
2038973834
2042854825
522951332
856854916
1365120157
445260074
446772530
1672048057
2044274570
1793517140
1961347025
409304214
2064749303
1265381902
1095871507
1272275477
1252215565
1161914949
1595541221
1974498033
730303525
1885419700
797209602
311352260
1645939450
537252914
1630403343
1235766952
2049043574
1509708713
2054179559
669137396
1706722992
465045567
1205354133
664176106
1229973667
304013098
315664721
1620827043
1505569538
791137495
130181826
1144550146
1190299549
1921269251
2047527731
885549202
1183660587
1219334869
1061756953
419470423
1861429405
365928655
715437998
1054283762
883118820
1479097577
1137446423
2050620556
9178149
1201393216
747522247
1742600558
2136471971
1984096231
1125120891
479021604
1992481837
940370845
1841050568
1300249813
522657670
2104341261
556977709
644366363
882193268
1466188672
395645262
234256832
736471845
153913172
1538364218
164029742
894903827
1578504122
967861423
1186527371
2003369961
1880678381
1509983885
48157795
834914566
635518739
1114088614
843839804
1092650657
1831572031
875895667
942441795
1245690571
409550684
1572422423
1907227592
589378817
1288148489
406979679
409113301
1724754567
399623105
1929229467
770181363
2032342571
302435548
373635680
851117181
490004705
1708953227
435059070
1581250751
569430541
684247633
1013450411
1714066876
232376187
772355895
2139038924
529316937
466171327
1493408852
181471391
1677065853
1204318451
2000090001
1393059042
690791453
473086924
1339462405
1747468048
573127263
1685135656
1632133104
1950681869
203270398
1673597811
853477518
1596788738
2054213925
731305268
860440199
983634956
146256884
776776008
1380919594
232673456
1372921665
804244288
1586915230
1314565951
1737025043
1075588903
776387363
1320439055
1171758241
1962412654
998719886
737494914
1641275571
813704143
602793753
1147981985
2071078352
1316350785
1679415557
176065311
1177554186
845175577
919732127
283717120
1282949848
1244700465
824213706
2099606122
634119385
993756701
184830370
530466441
802844783
341358771
2121376133
1218660905
1993423220
152615663
1148896220
202806040
1498113872
1730327459
2056880713
83278145
946568382
669711649
540208981
1292249936
751264833
907246861
1720586290
1139853944
1156581473
921093395
999724874
1819332222
1115517017
1702820564
1239721538
353628914
514352812
1313441844
513972475
895609440
1469753381
2126025697
1074386486
1598364563
599693726
101925213
1028631433
1605805191
678921573
1903540438
586886922
684632083
902521645
1043462201
1153247465
1652154657
1353131271
316828322
2013464200
104169338
25595411
1755269547
681432180
894585759
1835569316
719832126
586563681
140514199
857289913
904916989
90612755
1770151574
1593443770
2392289
74716806
579824033
59902357
617957940
197101409
586836939
625884671
1930921379
1202184401
548020739
737910634
353428647
1236676848
435987497
1956886332
1492936786
1141693731
1717141548
1788129580
509214972
1177738317
1842552718
1048443684
1725560746
2008283142
1333293668
1722444264
196418931
53418046
823649539
192997427
490914826
1049334729
710187704
1603579036
2076016104
456035490
940503802
581826618
1162323629
187257015
1682003326
861166715
1180742442
1316602976
1368540803
444828081
790383082
93705562
553435868
1767089395
1754014489
1956312065
856679498
276702947
49131821
345675401
359058880
231227798
1447858389
1721549422
1695708
1669058180
342540580
1980866308
503985289
1245169091
870294682
378212404
1980261350
1837185830
1233045449
716658660
704090191
1201530218
372732769
682999980
1680718412
1499540413
1153303456
436097042
846355863
112508006
191891488
53838034
958157854
1355131635
604253429
1919222982
401605561
2061440656
1270278688
1748144104
226414918
1595627522
1136983219
1791863150
1558764939
1412741182
321168922
1332578133
889325847
98479668
395228475
693628830
1459306682
87074169
1158174155
1401561765
2110853575
516639843
1212066240
876400235
249595481
813787821
421865551
664536971
1730365724
1215118990
1751631642
1898728453
666112562
1266377817
862054795
695569876
928799566
966018032
795548267
1470972971
1175215027
1638729476
644516564
1161332485
2050903147
2015959061
1271028469
452931761
258340069
102049720
29600363
2125006759
263028494
266648341
2096918609
805171615
2053149531
511394539
735058855
348269970
327597391
90814645
1173093268
864523634
1213077384
1432995288
1749577558
1410132260
117915691
1648324889
663215828
1441013833
546542911
524965242
195328710
1278788777
1145485317
1445945439
1962788161
263148685
1717328615
1596200745
2079777083
1031187629
1682134042
176449187
1903602540
79985400
18807505
1467742263
1069193807
840284142
1610599156
1672220819
135095989
430713356
1886671309
869725742
2064808795
1491201852
1429430784
230284985
242691502
1611402948
599822364
392062622
1543159352
1422202115
1997272636
1347194300
584982611
513324095
774783204
1025916684
367823483
1445555946
1401029424
1179999825
1433259828
1493781286
259740324
1452629413
762543212
1922993092
901688329
910253397
1846658187
1552773912
1779965722
1953484915
1949642182
1329597692
236176086
1728359454
1055263614
1967456530
521695875
1728257345
904576293
1381920132
1745211606
1854392216
333035548
288999644
1752601827
569674380
919361108
820628374
384310874
368496923
1879273431
895181733
707285313
1345414799
1139718703
1277079086
1636481749
275961375
1764225335
1224538498
1384512892
1686196221
907200249
1945423743
360350957
1621432356
301112298
1549076508
1115914932
322600202
1734803360
1120920414
173224524
1773425896
56621235
780086129
1446733120
1100481755
1018893530
1727160174
1034115029
1209798193
903496001
1467999584
1179372682
389162470
44395421
1311917127
1340240229
786813421
2055727351
449472148
981830450
2115538827
2132453076
1215292474
1257826877
633635339
88875893
113792247
107816632
2114889941
938946031
1431218998
987374736
613522657
402222681
635671862
671997937
2137643188
251311618
1907353621
1085309321
682394833
2134251492
630329768
1100921549
571592401
1941293264
1500484437
1763404225
12306428
831702956
2011398986
1719240277
1965214366
199839083
1373837309
771708133
726690073
22218275
336673003
870573202
2075255724
1389891618
832182929
745001382
1156261587
1902626090
445636433
1311396615
187912613
1342851622
2044805700
922455491
568574966
1578887102
1092831624
2056073704
805483633
637741586
1988558915
226647645
1353863001
1240648084
192166150
780127484
1686985780
1500011320
2019710958
570246993
1629121574
1060685837
1957176545
213475990
127832284
1360760410
1595647607
1943045113
1824037264
1455802713
1316684505
1754803367
508418717
801505662
1186425687
696225466
2104589018
343000275
979045900
139880529
235882986
1196820294
1298337883
830155004
239279936
1773882084
1090949284
2123455795
459652943
116297703
100905308
1384211293
49826449
1327500632
757836375
329410270
431436620
1674096818
1275519975
873440610
322813019
78079694
1837766859
1464466227
1489174186
1569139658
1291157589
124171866
1167685758
706667354
1662451811
321696710
2084184697
1585182899
1011378352
429966291
918818481
2139670450
530756452
1990350168
167350048
1482673141
1174360378
928606988
165929813
1044158991
964721150
1951848283
459697779
503029590
1954121777
1785184331
2116712016
456763886
2024823452
1782410364
1047292219
440678774
1578155589
975853275
1179888659
590059349
1108009432
1280674505
849211630
627553896
250990153
920996124
1585911013
1084283928
1156508273
717353819
1324779267
1481445198
1137673393
951206105
1025193361
1559450253
267478333
196196924
2092893502
1594204762
698050684
1518501514
1522192021
744668815
1359946012
832261814
1410589957
1789967004
2001765004
1504895579
778839223
1440830725
635474723
105481025
109938834
55646380
1438918233
582087397
1509574936
1192379415
5218008
54170988
1686798805
437549629
709933290
1933043328
1665163376
620378796
1146051840
265368993
1771821739
1552753095
2025748902
445688440
1993796650
1776414992
1662379417
1842843672
1553161592
1767726906
820922925
7858886
1352864142
1625993394
1482167761
1825854306
800316591
651499413
1556510238
990321496
113762817
1339349987
235362717
1018280331
1837333152
469847216
1122073351
473267835
326738718
1064859324
1259434670
1479970812
515895816
1286448636
847171844
1063923183
439555687
1936698746
1906458897
533806758
905239961
953677727
1295364664
1067459259
80527825
1098079796
1902611146
1563742495
758382630
1075170060
1122624100
1587297430
888551221
417964027
1918288902
138935818
577735876
1231808197
344094756
95767201
647060669
723929759
1551161124
1172713209
1593208439
806868681
300065712
682496860
2138027074
1155366855
18869418
955418779
1452445826
365654955
1738831776
857824202
686924911
155726244
1247490851
1581052646
1254696525
1524263761
823505080
1224732851
805814161
1601874880
1956423456
1270423815
1589441359
484034813
586579327
1117826414
1209404462
40704726
2006768573
1267177701
137532167
1009876105
58345170
1826784428
1832471800
1144394868
1655226797
1800453127
1781973356
153084856
1141536755
903907464
1114523829
888610682
284520470
946982586
1172742668
1487884426
827016695
246936029
1746604614
2113616898
980806741
24903779
1306134875
1646105326
1306687464
1793075348
662327515
1636264745
95613307
361067497
1219478241
1698004838
209727336
1704250410
1869121416
1876768570
1596242194
432817933
255580996
974813125
1034530784
902937306
1058233756
569326479
2056176321
774609543
316139216
184939263
633743155
962664969
990570104
709340295
48077894
954374792
945113554
410453263
1340962010
2138791571
1228204484
1822482403
486975839
1378715171
1947304239
139716422
1375269561
1534677981
807545606
749720691
40496143
1748023234
866937179
1618837488
1448492259
672670940
1447408220
614513158
389401690
1404415145
1105233786
1834281621
1612446135
63923118
1569592152
1405450624
21815406
909774193
1895649339
1957887863
1575002423
1857622331
2011215361
1979071791
1680716966
433108401
2021880034
902945945
1070810575
1384883672
1895243501
874772537
106730376
1800715339
308483799
1453878413
1704352796
489035995
