3300 169752053
1050472195
1154436528
124681007
73152284
2134372221
1482457748
908978332
1683460050
562249482
1490747854
854234918
1644222325
55280188
1707559481
943661778
1432139007
1140156190
354673807
1994590389
1943623006
455714560
1342701015
1982753830
604269052
577293984
1578043669
2033853159
1344974476
1270336882
1740794438
1960642729
1217001380
1958104768
1110845521
166173747
1373554972
1049614781
70362871
572449548
1832284985
274250095
928868739
1033344519
974043791
1787276639
1846467832
825398629
200017230
2002608565
543894021
236692824
1756303766
220901157
1908019118
625701164
622015356
612803534
1625408844
422435223
954080251
363156196
1831134399
850233005
745154215
1159753047
1650154756
906347979
760492099
1101177225
1308584904
1054584099
1748366468
822527123
277323961
977242116
964031725
1285275963
346482312
1750567745
525723280
291393836
1881904727
1721028985
327723148
840531184
274108659
510893795
314098280
1182721012
363028904
333966944
478702085
594005255
689596625
1907836100
1588859359
1032847046
1600523544
1495322165
169902058
1899716391
738457235
1700053267
12413709
106388652
2030784663
39586647
524657052
1237917091
773919801
707872374
1577433018
431585727
1263753845
1374417820
1609711026
1271904374
984921693
1275002760
1198947881
1634474755
498112321
598445982
1283769292
252914692
556905322
2028541310
395389090
828036935
1305704846
723757944
1363143516
1657424562
1467452430
743553236
649088439
54369758
565723654
620879364
913111906
578700093
80818940
622995735
1915418576
1692483392
1488373683
1952551317
2107642851
568076758
1781912868
808238351
1926884748
698479986
1075068723
1147603802
949908641
1341685740
2085331380
1864428180
1065286127
261614344
798426042
1722577849
107398489
1384430607
598511995
1687244424
932066212
687195195
1922850433
1191239207
47930845
2037830038
938291192
764130614
316229142
2048468517
1110462201
1828278684
361664149
195213629
1776640646
1900224954
1386002411
1556954876
346509951
601083787
741402483
214300869
1908093087
793499219
812594414
1497320975
658123900
19684626
220299580
1032137568
1966050329
887708818
1200804904
1160063993
1176743673
587467306
245384170
903579915
984422494
569281810
1428709785
429249113
2009104788
496630253
522334329
444362420
1570304924
95393661
197436537
269738979
1328605752
831941272
726116232
229041917
1483046311
1015417503
384280759
927609991
1258067215
50838968
234140149
468398342
1491542231
1449581730
181798480
1341804861
1144544368
699498459
1460357296
90327463
1936398666
1862955647
492054902
1654458397
313397372
321745001
1430756578
1675063950
1762671984
2533511
600021489
506785907
713441187
1331595888
1874747358
1315158607
1440859562
1446697491
1931625567
819131021
401866427
2142637021
2071792320
989562120
993268983
1886251355
1584120098
1783418881
1566748709
1103789427
1506551644
2121143233
2059632588
872302636
802987218
430287733
1487260906
230734695
1267963674
1800866988
1997870340
2076442422
429367292
900239513
1940564970
554106203
107010972
813826852
765027815
742700628
976033619
20249649
86788680
769776974
932142833
926941032
1058098571
349813880
1904483319
2076009617
1709773646
676028672
1108523796
1647249233
2058664218
107483054
1655036620
242729102
1591388183
681836811
593691123
754165114
547057628
673867093
518708529
113250422
888121393
2092282168
202049015
1298428257
803724189
856502714
386551886
237823446
919042340
529066105
1482203506
380082289
892587955
1545383990
244010382
1893067518
1357909740
1888200921
900660936
2126668944
767513123
1451551585
1847075467
575433594
1294316259
579503966
1627054248
1192936608
870408905
1973667125
1899206941
298179654
18140536
2063316078
180939255
1751831934
1228587932
397213276
1271938696
2113430332
1360899180
438043493
226354499
44460066
858439870
559955633
71937358
422141743
194661391
610136795
1110511062
827493222
2114320467
1934695811
1581241180
1844310127
1093017273
1168815224
1621644939
1154421456
1536107245
1631660256
1389640322
354254883
1583863034
653604080
1995879089
17964871
825350937
1410068034
852054372
1836468408
1809655067
245310503
624713165
576038571
1249863038
1587872315
788771404
628350335
2015925250
70253897
1778983718
137821240
1148024988
782764033
602762226
131576717
1365326995
1876823659
1809884779
130570186
1708590488
1627044519
607865036
459515963
1373935499
1315537115
1281403769
85221146
968818501
1661006788
1603540897
1179028072
623526981
835281123
831086063
345222183
1607803675
685946029
563737507
1169859108
152686534
1730848343
1369938440
85219010
666681346
560213248
1171622833
1784035529
811760999
985742234
1851863986
1385397207
731217842
1875887230
486763253
697180263
173346526
1911228019
1264795433
579388635
1044786550
343023856
1615020253
887766139
1421839157
874835961
1295145247
170127534
571047666
1277702183
1856579717
1735133496
2085292187
995224548
211611029
2130467774
465361912
259993307
833679810
2040997004
1876652731
1137967574
1263501636
1924302588
393291374
971419712
622028855
218879241
728847220
1425494957
1443559715
973316267
851280499
24422351
511548348
1055101655
1594727166
439297812
16572934
2144275573
559160826
129724181
296364001
327126706
907503481
631565423
179943612
613280459
5831004
1815203651
761036079
706296492
1673776453
345589602
1381577316
180134220
1291497219
1756170419
1304307646
1239732824
956276437
773265147
1832158319
1891001056
1389181796
544004737
1620973426
2027282899
677065889
880311458
1220979734
411219865
107398485
1782156098
2014439716
1821757087
1014510983
1111352796
623818433
504693818
1623090530
2115236007
1744383263
1177313171
628711020
716640896
1423182406
2088637214
1875701394
251098981
1793241156
685392948
569657835
1996365316
1303161894
1653578641
1894757813
2033068856
1792262977
1554357612
669333870
935626426
950372980
393333260
1770871330
1303822119
712082230
1293452652
1378147357
74593855
1269613296
1336592400
1383894307
591172900
722215116
1420924690
920655673
538347787
1524493254
1930970237
179100172
891406042
1275865462
1703311063
1804717583
1554732842
760240995
1952119487
1704029778
2031823898
1078054514
1066949097
452897380
1965685600
1107783708
2050243628
1238229409
1943954578
362163494
89820908
833807385
921852880
1367660552
995456642
1956969942
895606524
731813673
518718868
1166149801
1929638254
2021448264
220314953
380208804
86958298
361880065
2088556156
2089337909
1334366372
405577054
1172394128
506528348
1732611855
69175262
1752484711
1479583960
842182907
416444442
854009322
604537043
1108538819
1940471347
968353682
1756755617
468317354
1523061128
52981700
250307694
234426360
2069753668
1454108411
229598223
1850651026
1119811775
650520077
574368142
384356274
968304999
426372839
135783810
864794747
1839111432
1141411142
1283403475
2022581906
2061000376
1168295374
1113224584
553360681
948223427
38584199
706182346
495848645
1431317905
1622518573
1390402800
757055208
1768401508
191116275
1355124259
710314576
431728779
1551415184
1570667121
828985248
1692043901
1139164801
409475066
1543552398
298557082
624127155
422316812
810835129
2104731071
1525924045
897503516
63235190
724296206
1129004422
1540452851
2018825864
156544061
1911316749
435108547
1736467447
1254920764
1629623821
891322411
2081790130
173342117
1016488729
814442534
1875759166
621634030
631694153
948681984
1485402590
1431171691
439879464
668649158
741274734
390783108
1947737005
1031810594
558771084
1158226584
1210260323
547677728
1439226591
525189438
1098401376
2038505211
736203545
626044516
1848804037
884883422
422696252
756818764
1345618991
2026236248
841515062
581011079
1706671399
1788280723
265389010
732748442
1115494016
433700068
1153949197
721400744
996569083
1242286954
1901256330
1023194767
332392472
1354590140
634368812
1282186870
211021104
1727564598
631782457
1174784798
708121852
369827312
1144531122
1031755650
9485457
1443705130
2185902
119060509
1336766961
110903686
816878459
1553915985
1045832324
543457685
202598227
488108431
72553786
1479617305
71334572
308179343
1597090019
1784470196
1939015198
1746208703
967564814
1738207473
1362796940
595313847
2128651841
573766944
683694660
1943006961
665713856
1156001720
1459752413
520051436
698205915
719246287
438636222
513296271
200702770
1108202002
1361121418
889112007
144741209
397556494
1520721067
1527817763
1135723365
681629888
1513246147
1652616972
1301215825
758761964
1165825276
156490571
1354115514
1526604564
2065417454
2130993234
2103498454
2078251387
1188931447
66862071
2052092561
1166226872
521918578
1478986623
1530231139
147852486
294267674
495773920
1514298387
608371680
1160271290
670241347
1402679185
429955396
705979927
1790777168
1181951372
1102952251
1730116989
1380323150
1757989919
1463324219
1344656738
1445288000
668079882
1931114208
793447272
1977900142
1078537926
477879567
1851504062
432988429
1860897270
912470215
884293284
2108087347
312003733
1698161044
1496648253
1529140028
1991045352
2000838739
382722304
2119024926
1563768697
1909598589
1167238552
1170703395
1172463469
516085618
1894600644
1299502442
1470015139
1413037184
2135503267
566347187
1071387219
848397794
1040941861
1579795550
1271627420
983000336
138753838
27274646
1959622465
1749107260
1701910196
262430831
311285866
1816622841
1757488644
1156210083
1650144683
823169076
1218203817
983624931
342559496
227252352
420306303
1266568214
349943126
1655794275
1258564325
1776051361
1332031996
1585842761
225063855
1447922385
969516954
1100155188
1814780504
1244840732
37139985
1240723133
208928241
838635622
1407749831
1361947396
746935944
2128563032
1031787825
942281267
413210829
1742995280
1637566104
1859149043
363684518
643748154
996551281
986952663
1431433163
1374940633
1710000972
1534116209
1584370974
2087976975
2116433459
1173572726
1878197665
234434241
1690927875
2029836729
1126424277
634233785
1444341105
1252349683
900791369
1824823519
49169527
531549330
1255871596
1372516328
262085341
673519739
507419802
431247180
436494226
266514282
1373500746
2130299116
698168802
127101030
875355808
1461651636
829646209
619597229
1375614037
1316686472
348167006
1459583007
1666511297
1277253791
1818456269
226160777
20545261
1935200585
475348210
942775032
1439974451
5043722
493988985
1843472327
2133755517
1774371146
956375453
1471680192
672828262
1102709951
1352064273
1896255753
1776551566
1124355915
770960766
1085653853
1552534590
1375362016
1002432607
1815978026
1382141587
1922631597
1896376741
1643323980
388522498
1450102644
647519471
1520920345
698075348
685954852
2119699610
414242787
1239746544
679376667
2047277764
345464283
1580139195
1744982740
1472233855
901552722
434954166
1110439643
1205615351
1199123106
57717916
525401979
282800430
289927614
1720941214
598001311
993187695
1387817469
2052016714
972921377
1743178019
1644232814
2051858601
771127941
33706885
1311405627
881158809
759849023
203605102
736971536
238655870
267782922
1617134505
511324104
1251934015
854415141
1377628885
998670375
1757721433
21830815
1040651597
471188883
1028668829
2081592391
913375565
1100562594
2144586687
679561118
509482815
1897823296
1520348518
1233159501
796525111
1147529084
654907307
676946125
334790876
1926919955
1599877714
1969108989
1853224137
981684545
1922525935
1898234111
1602075468
1529380554
225710689
454795746
1352355205
1141089693
388513874
308579623
185804935
1718995669
260702081
704375108
1621130728
375070058
794018325
1767308868
1915005870
2058733631
577445402
1321315423
1765113002
1334365284
1865077112
686074248
1184575729
467395305
483462661
1090341150
955207095
83978203
1850936982
1466943577
1135424941
307711006
234287675
545072614
1478855104
47976334
1362419996
2131066821
1592086671
1209058204
1266710706
794818930
289531675
1338053908
968589183
1819355614
1742387462
6971187
1731388008
1430852133
1275183297
706397336
136771531
2041682905
656134126
801198797
620760072
2016845525
1546231584
1393044439
342898282
5271503
751478544
1458682024
702772388
1467610742
69910471
462545724
683610031
807095176
527141249
1734105336
1007765265
894558155
205167900
1218499777
628246123
650062112
2070250362
1408135634
217538750
1000790553
1851553446
37160204
1463391465
1153801926
1404365298
330006521
630217334
677995632
937220492
577395320
667006143
1551115997
1146086287
2050557355
763924512
1846691453
1623140235
1486972346
1903322641
1997367193
1723658173
1793872865
1706371320
348444537
2040340429
898771354
1589541018
217348995
962293484
182079845
1314725575
1217611534
813196913
1417863925
1569051392
758266255
165554982
912868136
299124516
560260381
1291717833
1984745632
1326021473
819756101
326623032
518296668
1810389637
1358850348
1690048837
44104749
1022467688
920611543
557432567
345153001
1721760837
61619123
667488154
68092062
2078644343
1151909906
623116220
567045957
1691075330
1611578439
1180530752
1397609302
1144388693
137696051
1416126351
999790080
317276350
847809469
266299700
1179028442
1763220701
1476337536
2036248075
1816257921
1993869833
1892602312
199232808
1465986008
1995871004
760286343
1269519261
2088714197
1994440528
1645971300
1837837427
1502832382
558647242
1970779611
1058527710
1065966718
1351488379
1484897561
1644737578
1840343887
144407246
911733472
1503490937
1187090754
400020693
132375393
1515208373
226535622
15682248
585490354
1092715628
1632934599
1998582985
655102846
284072739
554473880
561135098
1543382011
1365518765
1818256073
142708741
661018136
742217373
851282397
93735191
975256559
715178366
404474307
1089599028
1876749391
2106344018
1991335994
1213126810
479248325
1231057622
1719692866
95662536
659986309
2109537658
2044093639
1641863121
1515105197
1476310604
1207334083
614174991
995549440
1204845448
1833437885
816625961
293513239
174054741
1518489606
128429251
1866490480
1910935039
577615475
365329965
833180058
1952029345
1878296789
476606801
1622740257
1160735455
1817937612
760201155
1029800174
1800243669
530286115
129738205
229667614
1968125340
989142314
1268757928
1607176878
594917360
1207391509
1582920870
143134180
397641313
1683121233
124075764
310816770
1499671250
82800811
984839054
652052419
995816161
820402595
962521458
813176313
2016307605
1057655445
681945868
393675459
562992646
1592251583
2049243817
1912102253
1289356474
405295614
2138676962
1808884012
940414798
1903972000
1183151833
1860355101
2003246407
440220777
1656444431
1104186675
355120095
1076145036
317860186
1661367008
1780215299
747654595
1113612899
1511113055
1448854919
1525416146
914402523
293193702
1736200811
1945821168
1388374390
123719751
1639664559
2010668675
905736999
1129290881
259280764
1655335606
350399287
63532276
721154740
1042126512
394972442
2116980365
741644961
1541688378
664144653
1473868223
1011751903
1670514046
123794017
793397268
255927101
1884000402
971315116
544287292
1672963523
820336870
906758798
658425589
1865521491
1462286887
391418555
532977897
89928754
555309533
2026582936
1666032975
1453585967
1764985226
1719072979
637059452
859518974
1891414598
1417382561
1081958835
1424032794
22988107
1381075485
2112089881
1255864021
292009791
999699607
1427809858
1085466242
1210450430
1997754696
711982413
2036945918
368783180
1740661929
1293652436
2112725571
232614539
178138315
1629396923
650975110
1277238112
1466787277
1172635357
1445569817
2021885913
1499583977
1311746555
1747547921
1469021847
403874245
1173474388
355487126
1771374872
1342761212
1323915291
978558134
1133323772
627943864
215753962
966423566
543329117
1786244474
1854051810
1689923613
523792588
1180450167
407422972
706802058
1030250990
10378777
305088447
88006132
1494227075
1875268647
1513377875
2041893
1797807747
161067198
1624150410
1703010356
775813310
1444553877
1025670539
398953352
285579361
229269005
314253259
1512015250
572774085
1977232378
850361109
915023869
346174870
528149076
1983737641
207600214
313141921
2075997856
688072763
942484254
1312764346
1429793931
354423809
785878933
500229706
350251227
1671848146
1394043848
1956521661
1509955345
132514652
1031586662
755121578
1334527253
1413104812
609022422
1692734664
1343700810
589486519
162220470
447180482
1426437481
798064544
1402830406
1258564098
1551853016
1265968160
1922880195
109021717
1694503665
464228854
1082463013
1327336140
1414839888
1554163685
1255298129
221788642
453848533
1930565531
1212054504
208607624
612480849
810986075
183472408
935889589
648959334
974655700
1434965173
910049003
742654722
1895970925
310944048
386773806
1047617629
41626144
177804084
1866838455
1661181533
90075145
1466005908
539614254
916501474
434570278
1976339958
2015706743
1107024254
17876631
60781683
2116348004
1141198134
2145024887
1635353774
2035519563
171335598
653349342
594336057
760167677
322619336
1064235261
1870702684
1293023321
525877076
695406465
579757057
1424394503
2098554535
1770099055
1359651530
1306670525
1338044916
1974349282
2053820098
1937542652
1083841538
197041671
184065866
1308507575
41641007
1972130552
285497393
312469221
1258852645
554611671
1468453436
2085749730
1669398008
1435952332
1768180641
1447481736
913780284
400954434
1436614826
460800469
1187949084
2061980147
1710787224
1551627661
1199645376
720759983
1449724244
255016741
449568387
1975081176
2103644889
30223506
1384541561
1757388426
963603377
1693882814
1652794558
1562333201
1648068471
1056721563
285074391
1720322015
1746784404
467602825
1345298574
542666340
1044560104
1953621396
257506036
993577470
550736368
280706236
949295525
2051609290
1099443404
401743273
2080050841
2122683165
1647592121
311457584
934544023
1402276871
1711383931
1494443298
1069476382
689661197
1730688754
1143112633
2135425260
2145116516
1746184859
1895254147
1754484562
1377033821
1141836826
251487823
1738241380
1654069744
345116930
1908749863
245743587
1716945154
1436823622
209791482
2066514976
672826699
748913351
174540476
2090910784
374995848
1377135416
1768924953
1436818451
1597407927
1076561622
1393100045
58455048
1455911039
1825269108
1752976530
1319042861
1610369488
2132052376
1457010175
39714253
1887420070
493105322
1214113663
147376865
203698812
572089316
797417582
1259384730
1015204010
979357636
1910663872
499711914
362151037
729146551
655611313
730267139
1211678100
939441903
1921300424
1065486579
395515833
1611716445
1951004939
83168694
1050501198
2077391657
1745118652
1193428348
1862462586
2039811188
1183877086
2029664633
315445275
1434454668
562006558
1250365179
1583424255
838656503
1970413979
1432165298
141905942
1295287461
1519288394
1886503502
701361013
1762642628
1214926785
114923038
1453559806
407607812
350335598
1544472448
2009089641
1146214124
1802784362
2072041713
1098576690
614997033
887185418
676239868
1658473620
1239759754
1155257171
2099997747
659052881
1262388731
634349343
194039711
1230993048
383638314
13620894
746403475
494528088
1515291411
1777011649
1545675292
114091340
1904659696
1194809877
1694205492
1509444086
1205893278
454475812
1309046255
1679010241
404350379
810037834
1924470757
1164052591
2093485259
8383690
1654907577
720702756
1281965820
744476073
570171462
849920461
1226092202
2110306264
581679906
1761663118
1023066000
865991817
1370640965
1485863549
839327480
1077136947
1524929859
246783352
202744705
834779606
1353115820
1234231977
1783297696
777136702
876630563
927137067
1430389705
1120399844
1854319852
1184407350
1692348660
1051909389
533014010
91091312
834297525
1959545834
1222508507
1764921498
321958198
2048185700
784900022
571937790
1548689253
1672212730
2091704598
1099766700
2129054843
228239495
268218894
149087919
893134475
585782242
84735960
618885461
266457230
1904236950
164543127
1870928766
108024207
173537825
795449886
147379885
1860930782
1221796338
1788381618
875027578
147260167
435897130
768201982
1742073043
362404219
1051408616
119761773
1602491366
1253288674
1237004409
1873573114
1278736664
1004740548
1164418080
2147298927
1728558134
954158642
961293707
167120287
1017261306
1944379993
1013700463
639577361
2074935239
691539653
1423890504
376504617
1746988481
1683768502
551537821
2003260449
1374540159
1760736249
588302515
325028310
223288716
844141469
233929569
1264790588
1868161923
1845375498
278878305
1805631506
963469777
1248840961
1897450024
1760354453
709826899
1818833504
777808926
1877058587
467364996
1520248823
1994214640
1562003395
676578710
809081788
1977956744
695149780
1249068009
1815190644
1419644465
201190264
1200812891
1010178461
1234899269
252061812
1934002661
795765706
870012475
330961005
2147134994
1310827759
73279002
1145345162
406701296
681683071
595751809
979746462
1752975589
149490580
227169358
740709748
286893933
259833276
331055925
1061406950
753837967
625113246
95808219
924149411
810964989
1360853063
12138426
130799012
1628603773
691993642
1085436534
1963711269
124827920
1162219054
285909559
1090872885
1027128955
1196299187
1632597587
340255886
1728950698
1196336610
200210841
766828222
1896519248
624112011
190794636
353491907
1468232878
54452129
741040958
2044366507
1492386062
1802323275
1081989462
454314285
1715783976
1738595458
1944238706
201570568
45083357
495993820
471425340
1690692558
1152274985
1283671756
1173313671
1827511158
225869790
1544597145
1128089192
291881489
1421203253
3004842
691985745
2113566404
307065953
1342250174
2090784488
2114523492
1610320735
168290801
984610385
1459132174
1627016489
557957720
90968642
574320238
1438471834
338750740
1911695204
1136352151
2115413657
2007103591
1465676383
1957741769
204217419
206242268
2112328328
2047229540
1858502000
661898652
881046376
9002875
564331625
737638427
487112645
1078582578
2123396738
1242653955
1835441012
1940385839
977322702
965040317
1984587124
1572012112
1272456990
584372090
1976681148
244947020
1986191200
1901194755
386215898
1275831132
125459427
1359037034
2096257941
2123362327
511901348
677071703
1516210481
1139670359
1946903135
1864288487
1563490960
1240272537
553003185
1485100243
515465817
1539934190
1362579421
1615315627
1481530960
400659056
504238540
1728956443
1301936577
305793114
2143570379
736652534
876754850
1000122718
1595695816
364495802
1520411816
1009817253
1253494217
1752197570
1834742147
193861579
886571053
791367560
2112984470
1869522491
1645738424
1433815171
1378187461
758792610
1503941345
519070787
246654425
567479595
870175575
1707937246
2106066085
505426480
339382205
1170273320
33299602
1442385257
1869975687
436976353
1135795831
1647420222
1999962062
2054124080
852195105
1302944632
544202644
738645692
1178872196
1616709128
972834869
1208703617
931541232
1520248604
1825517239
733738237
70495095
363432719
1201058423
431340208
695241652
101917484
595063808
1311719019
1509921699
1734683014
1071215539
614971671
1655461597
1740017059
1732441710
1320876441
110838826
2095360093
1199306123
15408487
1463335037
609761268
1664193569
1666257202
1772099744
693478663
596450760
21289059
1299444840
754552353
340003881
1680776641
1329606508
237149331
1019909664
2060553186
1520383146
1990827992
1433519431
1736535243
1048260671
1047065261
1197085836
1288966883
669274527
62138193
2051249799
830441688
1578440136
1275132617
1801757488
422971809
610113956
916623954
1687162574
2037432683
617542694
1184366329
1796466694
1044010333
1755289843
126814628
567917952
606745497
694272537
1432111206
1651600739
1105308727
809820761
1414101338
1020230196
880529672
112926703
867903453
1571285466
2139168241
1845220957
600741953
258911202
1376774429
1761353874
2041642160
572950477
134912787
513174475
1435562135
38245032
1732030387
2008682761
942357922
656813571
1166507368
530315215
1427367842
1164152299
1984415277
1912684634
301760716
1511048991
306515897
1843197303
173590007
793601453
1721484076
1889126256
434275031
1800047224
338892337
1351142847
1604173523
247173614
711965231
1661882787
1579036694
2145206932
1291081127
356884516
1424947428
1532789438
1029751771
2079646831
706587532
1149605604
1864441015
566889001
973706820
1380247616
477988342
1626974039
649615308
2124567204
691784325
1064890169
1192278938
713030399
2017704829
321629174
561831442
1468378493
920082347
629096739
1821677806
776061828
17808504
604747275
1670461224
1051234966
678419903
1710475217
1399550330
624648747
1316881961
1809646467
547664559
1598024179
1920278396
41478380
618439583
479287254
37667537
364385394
645136234
1169415964
1946620115
216035570
1402843247
955501942
1725649400
1977578176
358560657
1903766016
1172594357
1481726377
1042367736
1599658962
1793970158
1054243566
177329152
801920785
1108014890
1601147848
582500441
551081009
2034933420
1236935532
1144839448
1003425296
1418367411
604360093
2114239905
1982629797
1318841599
1180419190
1751304721
1082612568
1175008913
1823554442
205462227
2001571796
217005756
1201529078
917871968
2034300770
1350158128
1695506584
1171062973
1538823698
1840575695
1083370899
235333837
1288736479
1854178897
1156437326
1336568752
802266068
313644470
652089650
1305072895
1614350957
1981915050
1123815636
2015670997
1273643801
375559308
248911068
1009199543
1026741929
786804751
931082300
2020053139
963253626
475093461
904518547
958617055
1226124473
880823694
1938276019
1398549173
1385745703
1105021743
264731338
659978144
1755404665
367824679
1898544490
1247418772
160078890
1878266656
180672998
313943164
1294992950
1104385351
557132808
2781460
1655600343
775776695
1611301444
1039315034
130056254
1889603919
989089803
48023555
1333678444
943233950
1677748171
1591916266
510263536
1556729274
308739416
351158432
902921314
885789440
1803333610
1921360587
11466187
969160182
428055901
776114204
273733791
281468761
2050259671
823424397
1462913178
2050154237
1358477400
1299121778
881666144
483671151
250522222
1252397139
1263445768
364973710
217103447
1373083486
1798788846
794893333
33073839
887438004
51366689
523322326
307742073
924705046
653967121
720612572
173881907
1918413851
772653840
454934187
824403510
711079269
1182364665
1769267765
509423882
1539117699
531249316
669714589
538734282
299278643
1844086954
753663245
61491681
334568327
321895020
661421006
2125116932
1059320910
618289400
1445729132
65268119
1861450597
1448280738
985320427
19062899
622905815
76337141
1106483284
1507190383
879949253
915816501
12357013
1813391584
156929987
1669443916
1291707372
200888764
1181771149
772693361
669040225
589572228
1240502138
177922296
528923545
146226769
1416807492
1812613464
59460957
802070111
1883305318
543468221
12573109
2028833118
1674392382
1981562549
1974706811
1154430809
1760024842
385878620
314078669
1563795979
360120881
1040518273
490022579
1651463917
1502627121
154072112
2000080032
711807436
838187163
687955515
1498532969
1617026774
756498252
318938200
2114168861
973177949
601431206
620298948
1390843662
1100936754
243323052
1386987318
489154296
41619200
692665354
135280097
1540498214
1455543060
725552413
1575807308
328992096
751663591
623276855
387639084
353185331
1399357735
894114742
414105435
921281667
988268208
406549976
796000740
1811226363
454404713
1032863480
2033599951
205460181
336017762
1795249858
816494162
524848460
705978135
522771468
1719478711
1836372855
1800151098
1349881905
1655685100
475384386
517856515
1408074709
2100037644
444933956
353409885
713165537
884780819
618358822
142694611
718666113
666285555
938841006
2139186509
2021074810
1371221992
1310376428
1049478390
2024553541
370837648
1521642447
586717798
2014823646
646075015
161252356
654154182
2073136624
1103011146
1641830229
1587184031
1102531004
376951729
136786997
1856282150
1238727543
1240867231
2131221345
1437881185
1206496173
991126403
1734850736
1486860015
1151263968
363109207
1835983425
39650008
1128626037
717483806
986440079
1766229762
652674508
1183068104
2022982452
1373111516
850909383
1672931096
537849738
1361020811
1766227011
713944367
316230308
1060771946
954901207
385976355
804789438
475365302
1393840662
2013532506
1552237099
13635389
1060919139
816587709
1003168787
1261401256
827786189
1084117623
465500255
2093454400
1724526608
421488344
1743440367
403335725
1275562321
676865713
1173899568
1503262022
1879844091
1282646672
1412260820
1330981262
1378245978
207686734
1531684252
515435006
1635972479
69342382
576938014
1041107639
354584063
1722733072
1951112062
2046647259
1442328682
1335373451
1267715652
1531099977
202546291
1521606260
46423552
1582837511
2060467054
405593586
1414719314
1897006934
926930164
2007726091
1710181837
1346701692
1726896980
754439311
285644040
699375861
478349060
1562775012
311984130
1417616170
313179133
319475797
1242364495
82438216
888386842
235896576
800474992
360179348
1499101355
1988944730
819002254
1521595322
1147737292
1593139818
670219138
1947207664
216638354
959953863
905495999
790894527
860690200
199446365
1353138512
1477574122
1141329404
985066464
1900697421
1016475353
591490979
576922920
1724519012
888074558
727945309
392770107
1807878083
941810079
387358094
203379555
1112393308
1463647306
1115656792
973324577
1012600791
1966780196
647295796
648487327
1081268453
796554317
210735799
1016563568
134877488
750089279
1452776862
1960114079
93008795
1854648387
1575939880
897087437
359243437
1273377824
1308208434
374777091
1454355669
1753534772
245771484
747032947
1150862435
1345380299
1070931367
1373088338
1810348066
1378749026
2055405467
358246148
1540067183
1403133631
60022174
508395285
994221650
231532866
1463964357
1255139297
957191658
252253813
1934808741
937810892
1566790911
1538202954
155996384
678963099
431390571
907227707
1226241513
1830224099
1274928991
1660371038
1065511763
2120836377
1209044065
837413892
1398027119
1884421802
1522982179
657169882
1050632820
1005753386
531701317
1590858666
2034670123
450297331
1800737730
520551384
1688817243
1303422110
2030256161
290461423
664621201
757827419
2088039827
1091265148
217425255
1267059189
746859963
1195821618
1576509424
968018832
1433283040
2052514687
490685964
854770775
2117196747
161623892
900988134
99085303
767235407
607806372
609123632
173156286
1638629578
586989282
1519456057
1320829254
1370644886
756179258
313724688
1769317451
662969342
1875488578
228637016
2089526530
1688372590
1222753384
907034354
69553784
1145503084
746634516
1796022651
1934669920
14634202
506363970
1065015107
1929438785
28200650
1179382527
1261418601
1263742185
373383414
60860758
1030304218
390275269
176921333
1387753898
930759275
1595280466
127389618
48426614
297090862
367455819
1642222928
1927493713
196206332
987496511
663458989
1967491268
204508998
112116682
1974756040
112651247
2080116809
441424485
1433739321
782433127
1917475084
328065592
503357825
882352090
1480442839
1087216919
446947296
1258740629
1548190344
1693687411
2020831410
1780456734
88889981
416367116
1217906300
1402378405
1888266468
1467525568
826882149
441985866
1148235721
654476263
950850437
255607899
628762839
393107864
1776480788
502618162
29106893
2103862475
1840815158
1939036686
1381639519
1590685456
227323938
974372642
28286316
2066822974
2014958226
1251444686
2011206003
840294397
83240571
1912099422
1723112708
1169876438
481938867
1100313889
1220359794
409673153
1490891117
1750212985
652753345
118831941
1602228756
903711852
448773532
1808031360
1953128253
880681624
716713758
516172447
834132206
867746193
151893650
2103010271
1472165565
810351138
1825694582
286791349
619157750
1008687865
803905690
1795179595
725090322
1657455186
333672596
564796042
580554197
95533307
177336780
569028963
1138478209
1284035457
514763553
628773271
1234976837
225648143
463675324
725959164
1233354344
2045349015
1525558071
959454996
824577643
1808168664
681551508
2134423583
1328484703
1609439740
2139902909
670856828
1920906028
36512315
1895502373
986532485
1309565424
671497836
1655462636
1872634727
2039205543
910670111
1765606670
892333054
331068884
794958619
1678070244
1846022585
1020620398
244897375
582304046
282694394
1411924977
507901723
1141845330
1697223992
494638299
629792529
675393430
85492385
800767031
467666784
1082248333
559460768
1335738696
120703710
950429787
1014731286
505401324
1126184887
1856373323
786326412
1270118578
777906848
1727511161
1151300688
1313651018
487715096
1811455101
723838714
1767689380
1969009261
1234580575
735969464
741589897
87548740
496987058
1577582619
1679156318
1862958950
3976152
157252256
1554699107
2087308287
1462782983
1741112221
712016814
1017143713
2040546584
1275976134
537128533
246693676
1632251119
1880776210
2016449489
348447496
19037203
1290408361
735560480
280653464
2021660827
1659329614
1541450543
1348390758
1024797563
1094933042
746729926
421130832
2098609208
1729819389
1750570254
1906965774
1712362815
1230010186
1053872899
978358459
739307616
1545783117
1924127263
974001185
534473391
2007695596
1382252882
564397582
1511375097
1250539066
1563510821
53958449
2086982640
1311550300
88006572
1602997435
1218344064
1412832504
262961609
804350595
1364228130
1286508201
688972402
1042081104
1308497179
1355423986
1573412610
692329714
680822327
1311403909
1118263129
704093860
683145122
1655044060
1002554638
2085760824
883538734
280888985
1947757769
1379360112
1990771803
1896623865
1109188079
1299848234
1355639881
1695565859
1646082738
1139041443
1753317010
333968400
550029537
1966661838
903187720
563653948
1159612904
1701289341
1779731589
498425150
1110776448
995017801
739686548
373848797
1987189836
1451253493
401915897
269201481
2128176243
1151737878
584857811
1561725404
1783477547
1497118306
2061917518
1732881233
1638841655
1752966945
905056053
65671039
652681344
141602715
564274304
1239665842
505104522
1095479137
1237384180
745465064
1766456342
1077353405
1365923970
1205115591
2010103732
1845098578
108824196
1581371361
1214119446
1021991598
636602181
1991175140
2098657396
398816178
451085700
1745242584
1184857678
354853446
420794862
1456615119
337079832
1903594866
1326425797
1272662050
1661599047
1397442148
182744258
239120924
2072430836
72512368
266237712
1404208399
1505013033
318669125
42159953
630713541
2135910002
1062198814
996305475
168412705
1688271093
657668881
5549079
329958826
1101521195
1561188172
384656300
1938171297
1832586344
1831916013
1509787774
71162934
421304526
1426883557
1999256920
99703212
1057774894
287105680
951557520
1717948206
604715529
749201923
1120456892
2031680643
1814049149
679939954
1920362264
1862764126
1376798490
475314845
406584862
772789431
865740976
662096180
375270417
1543141609
1139187380
496965689
2131342632
156310681
1526645693
1417352893
621610749
1682765480
37291353
376135630
757923017
1011206879
179170361
3955966
221637782
1646948179
736472075
1979248717
151648941
447470243
1578073310
1695557375
621655470
1659091629
1546893707
942076687
812907474
945787513
2012334545
856616466
2030708183
1771659437
695914834
1669014317
1833270324
738643357
194652230
1831592350
1752363856
1359470983
1018993663
912954933
537538375
1931363114
1795651143
1540271808
675598417
1492516213
581979950
1482982262
1228605259
334024305
1256629121
2037336389
1692823964
197459144
381695548
52366508
2039233923
968931024
213465151
1572057859
1529845533
1218639899
679033062
950404539
298670820
676001786
2142101034
1267712942
1631720458
1591680974
1005347989
984333390
1524317979
34376018
682289142
652669233
2008340187
1189086419
92435303
396083328
505686152
2128717568
1108007355
909121416
462483604
