3500 1676170281
800541739
346102080
2075415034
99651456
1372066784
133363186
1185492795
269108630
2012935764
1857326843
1436350650
1060095850
849266271
266201188
1816830804
728261399
83033117
1682966894
1171885217
1996927233
214191506
201453000
1036211947
663382797
560729694
377585822
1853951355
370067952
415455256
1648467441
748720204
1498311700
1102773016
1817058817
402868585
1667613586
157890010
606004880
338110586
1235029142
679359913
895681962
1400563336
1285737398
607149874
1002230705
1088328585
1002427274
1590779460
2055740808
1972464030
900584454
1767702088
2095273797
284027222
366571445
1081264738
1884607964
846544489
217635464
474707477
512037299
97184744
2013265946
2086341810
547811489
1130479683
10170690
477162130
1095178527
1069224269
1853447098
172391612
2136689339
507068736
1355728532
529385752
1200275991
2074511934
1268341222
900775773
1053336102
1739657937
1548708979
2106740741
1668900655
1270696561
1438783981
2126663277
1484546044
1754238278
589046126
1588926189
1603416327
1668157723
369511273
833618192
1589206680
1853626509
471488562
1010538090
1178197641
1865379921
871200238
890016645
1262007099
551629561
1511735073
1148497958
751602904
278582598
1792688445
797716286
531395741
1918925464
482543985
1382364938
112295575
928616625
1167244527
1169814084
1283752929
2002302023
164771239
1235646240
82896205
795073981
1818929499
1344239771
1920292023
167629915
1800460079
1190575496
650881117
1561455437
1922023020
173957782
859878431
1149437361
1864096976
905699476
1070935242
1065280284
788001912
1539038751
1715507619
2044113661
72636980
2092418921
1477385900
1908273661
1299303373
2040409679
624150325
1970310512
321965684
221180587
1787246464
56709137
1683395813
1148990231
1171054651
1790023104
1806724477
1304495107
653723424
550717548
2069805128
1606349189
1954734803
475407276
1739613841
1756579415
2061876105
604062077
270008048
622140498
1159993026
1685712406
1558392235
862795064
1187768491
1171833985
1149098369
867736170
766168712
1705906895
455721685
2112292281
1136218339
1226212873
70494526
2082869447
2144611880
1302404893
1406073330
986328581
1039969423
384265703
216073937
1220962535
368636989
836310812
1713685326
281275796
1766683121
1708891815
1714424782
1678399930
128467171
788495874
771978028
92918906
855088552
598441574
1978505584
477622014
1518624583
322920085
279644656
319835205
378108552
2051980802
2093719894
120197607
1138854877
2083869245
612793366
393420726
428042560
1759863249
1749380349
21106851
799456626
1894877658
1884355198
806355555
847882520
150128892
103147037
281749147
1626369358
546034911
1578973608
810752354
9969327
946517493
1177542280
1703937019
552951404
231320284
515816131
79004314
1454906722
17847862
1449678968
1516394105
279799353
274084206
1511330517
1919802628
1085812432
900155981
109235660
2002014427
1371157455
873219612
683225843
1146278196
1164302869
1568058967
2129623245
358888190
1527912689
517113109
1938600046
359635027
1254714622
647897312
2014026731
1679413610
1844236635
1166627291
1974144186
164267203
551797477
935119947
1039387050
831921845
1064454774
1485496048
1027407179
1709017665
1466830363
1500147078
1836592282
1972679098
195783744
1883059764
665695261
356566476
589012533
268590304
1991429981
1071599342
1714741512
573980763
1975658095
1359414507
920496499
1581290962
297788617
1253273521
1026809041
1198640505
873617076
910970622
363402210
154189519
1914179643
295291528
588047793
1545182368
1415879328
1031170972
20854840
1441739135
621587541
1831852899
324836414
23028740
1953162408
581397610
1249029741
1505493711
669389968
1415801554
129139379
1239996690
1851919085
1877095380
1736250748
350227084
1646521425
60823257
1351468550
424523786
1880297447
2036399387
1422055896
820243389
1348429567
1785649771
1193018629
2133314779
1958111789
1016980714
1688731222
1519983734
1280282687
1611109870
205133906
372570566
507071573
848130398
1122034716
1349840428
2121241564
1062508181
691460883
269173055
174386450
1166743748
264638991
1572705569
633800034
719855323
114815597
903793592
1617416085
997706624
405405032
453587209
39070021
1499721247
1327535528
1188688237
1933642406
76184216
1311822235
1821299839
1318599534
1792199022
1851414045
1015497165
1972212153
2136121438
1202337806
1456049450
1422243867
1735656018
132114251
500009707
1530362830
1651296282
644685900
1642949637
1276158826
679018462
1395254987
687727217
629623936
476649044
1865779209
1689161007
1252053568
188007945
1973265560
1030991052
1981234026
442749083
1938047781
786046882
950415628
1866300957
228452976
222733800
1697152053
97510859
318817170
742485488
1359940711
536870477
1130218575
1066330233
937068127
703821260
953999718
947316027
1549818213
1782927922
1408583780
1270543995
851729966
1368807798
431661778
2078088724
1915747573
1042956832
725114628
1987559702
1701829536
224570134
1452540951
1250419769
767628343
1577638925
1087343258
2024452197
1798763200
1937198545
1227145160
493829735
1648507958
986970765
219328410
2029890512
1040382975
145520155
1582700148
1584690862
2066602636
1046793691
170253413
545071606
1466825650
604647772
53253826
1605968327
1431069842
1681547934
1440223789
851972128
2093345371
1022422590
1220011412
1992828969
2094573562
556477254
683936696
844237646
846331050
880018532
59016651
1410387189
1564873322
982026052
1999832514
959924000
1933175705
1248214280
1259315340
1328789173
254343624
1295272671
809601016
1327668958
1743731673
244865488
1572654357
10614442
281076776
1697138586
801516319
616930395
2079884959
1053400583
231594163
554570160
1436864352
636474408
393896663
1029865689
1262403871
566908399
2078052047
1194264505
974223933
613635198
1675969673
786975905
100435053
273702595
56000737
1012226906
106539629
863355261
831016937
1092667232
116348425
2080223015
1568329468
1079122600
1324906193
10760457
1187919581
1416660920
2020274108
1696128734
525987470
892331745
499486195
118972092
389784840
413727507
80643826
1333243449
1465349077
1262353521
1892384414
1936142963
341969084
1013739103
786175373
1729859430
783145100
1710045838
994049915
1013991889
1091852709
1571034570
242327930
620768657
326387014
301935603
891172770
1349222215
459137679
596120641
1311016098
1687942246
262559812
92737006
1709377123
1459057345
297469848
179930115
1715385716
2056427920
296611296
1111284143
1995131604
680792333
1477709646
200179350
832441878
2098832213
183429316
312625857
2046045236
1007688695
284813902
1706042379
418747618
244248819
1758787970
981067904
1883071004
1785246352
1604647804
1907008579
821085349
448873282
216229661
1393560819
2127395869
161143022
389406617
235881987
1203295184
392872983
138860117
1809182028
1549281764
2129068193
1538799030
1133014787
2119957792
2019397171
2137592428
667853312
625378176
151425055
694642411
1883221084
714524618
669136272
973526172
810430170
1650544844
584280718
1454730887
1618328033
1568624296
1942507387
71797781
1972013581
782062072
2128705807
1167303172
1563200309
194152720
2141780474
626468386
1434363303
143230724
1015689548
410876110
1499681361
1923322368
1826317414
1342297792
1637840484
2078242998
384441889
1606767757
107251917
2049765663
144398230
298966931
467860658
1874165553
1850763205
1403210014
933623595
1787027987
1893842117
1697601587
597248854
97717051
748706683
1334174767
515554668
2003672134
1081026334
721548976
1788317873
396815765
623178554
1663366624
131553828
982948782
1921538593
1884608275
724901410
2103418617
810966656
1842763888
1600631672
1517021242
1323619090
75252667
2006610010
1806010440
1678871128
1487190016
1765219929
970350026
1313820627
71138506
1524774602
1417104133
1757521915
598235914
833251086
760739015
142104537
511213779
613178487
1470629924
201045585
455207425
1636554985
1376454993
1534772088
1993593928
381882147
1870637351
1359743314
685193133
1021920902
1124312033
496124940
719997451
1341245417
637347682
1609945629
1446119585
897847615
160612623
1233382496
511363794
1747866325
1060820121
1399105235
866180090
424882731
1156290947
909686827
1394220464
1525929820
1702142551
101714636
2042212961
93798584
631958009
168432731
803647371
1974460322
53504648
537982573
1486804841
1728085040
2042641277
977299148
1035885519
597778790
403191650
1151950709
170240029
1869009522
624503533
121869985
2088121219
260687211
1956023002
1627242556
1530878920
160688347
74363308
100504664
362038883
867168057
1778689786
1010868435
19123229
1939809205
1410624732
1726931223
1359702538
280315329
431674990
164634147
784219327
1213967984
1537861108
1265964904
1350107621
1673313085
833794947
1573220943
2128356172
1616413608
919460496
432239351
895797254
1415828640
32207079
74873942
1738403797
317879607
972260446
1611487334
1996657738
856535619
2004885850
1567180936
195679294
2146972637
251257119
2002968005
1274422474
6059
702545846
2050594971
1570802874
710956919
1176828580
918508024
748217820
332559194
1185461990
1643145970
710158219
1284597555
939077399
650757429
306297195
1638852273
1218619906
2035122998
1044434190
1857806700
880310461
1187483784
940490849
1810190044
106904712
813888044
2059896821
1741046620
474068415
323018394
1102127373
592464762
1157175706
920821220
1336609932
290132296
538046575
517419670
1287311427
168576936
460749959
352176497
760119800
388554541
52930495
768471393
284055798
302023124
323844456
766942411
607537365
1797543820
1560810952
1690626252
1410376607
1337594568
311051137
1187229055
105563225
85738535
1999010286
992270207
364691444
974714704
1008170775
1495631385
2120032607
944739910
49110700
29226364
2008656570
1330583204
313024473
168701406
846077838
104164776
78242630
1847098371
122820460
397495236
1254441466
1287303575
624351237
2003247554
1876493027
989277527
741226366
517631055
1484366242
1304341266
728991331
589056193
290905296
244047035
556761723
463491368
1696893817
1749141825
1768968277
767082587
66059391
1994258102
2077130256
526048877
2045434799
95377524
1834487186
653047014
198484260
1826818272
1719305762
1157434123
1263240940
1750583650
449122280
1340516926
1433274113
1858685474
1383830726
2021648801
844489216
25443034
1007938432
1914143529
873835933
1643389528
97913283
253734720
125395
326893516
771243631
252217779
489595065
220901979
162558850
149601498
1999276873
2147232060
970160384
1371764470
1008779392
460872791
498816610
1948427708
1504308065
1134627983
1397597584
1246526231
464914781
943672235
1964700876
183449804
353873832
1052888241
229650599
464405839
22666040
1962736792
559093541
1138984950
1000949071
205382074
1031975161
1696074870
918176418
1228981405
800379976
768929830
364128679
1186766914
1525264165
1317901765
508248155
492067428
500062507
260317611
944911012
1021231889
1497853497
1101610562
254546128
1880513977
1767682188
1670916042
765973965
887222555
1218360076
1995440521
351171836
1216798579
541035400
1768648939
1531736288
3557101
892832993
540508854
1337981320
1132849565
1961822569
590010008
1934922278
1065737709
1510350106
413012933
1366638545
776210228
2079555484
969319766
1551777686
1471042837
1515413206
580173323
1945584858
1038404740
1457471791
1597351177
503267157
942430225
1462235056
1551583685
1167239620
349396785
826959910
1737105578
2071289826
863578016
1425594232
877545107
1202257019
1716059500
340827160
1901653525
226017199
1239032382
102125527
1122439913
1547959824
679839485
890297012
368211632
1129321846
1730300620
777817244
390980762
1594551377
1715078248
45039615
971882094
1514600373
870699450
1957069764
446550121
102353197
1604661214
1482214931
914713881
1998988664
983538758
377664979
1425723994
1195024968
1273101352
1472804145
877057277
776850838
1095290145
313128086
2082067815
503372309
719854998
282237857
798161881
1727125316
1474448446
2125999268
1406843895
793144944
952013111
979854838
1064411715
637020630
1013992969
1554459779
158623562
1720402368
845161884
1638268526
1463176306
1828254844
1424481427
1686858972
1370669024
1236689543
1020396050
325492266
1534544174
2044786363
529424154
1460852854
851885378
1605980970
1592536900
617288622
47626968
1404422226
441131401
222663690
36204100
647320181
508829480
1599114250
454925972
821829846
1097522497
436782826
1057685679
893559573
1881748597
1961056889
1797837994
1681924140
1716863214
1910727146
300075369
1174000648
1306741561
1081393123
170404078
457152101
1052014557
763685011
1501383858
90114166
1591951431
2006102992
615471591
1563839389
747549406
462305300
1311458739
588201801
1194687082
293710759
1209606473
1422673889
1607577507
1981567004
1669115567
1074764804
1275490477
1213752094
1824275506
304487380
298860867
815077949
823052597
2006887950
508113797
949855139
393376354
295118756
993122264
1916154392
1256990151
1592244457
1007678673
1139281239
183607093
1937105960
1154746454
1910877610
301902921
2014837802
2031521553
2063588837
561428721
1905404458
1411257639
130344245
622044031
894827477
1593773659
1946335636
121821424
1053653594
1933997512
1761950336
988920120
1209714609
901789545
285831835
778716069
492127650
1980391154
578740737
1308691137
426591197
616960163
1540346158
1953853640
402601323
458705408
109685294
570764328
1736405056
2101635378
987651009
307499854
1799844521
208043511
1654113108
1281962246
623751564
1580949869
1689657107
253894896
1248915176
2043320004
1897039937
127775672
1474304001
44954339
360609199
239000271
1296542616
921636201
469321123
973659549
1347266611
713717817
733270112
1899353330
1929708123
1418313757
1153565307
956854180
983671484
784676126
1885240947
1710882478
1188424871
1518238259
1711032223
1887816122
578997374
1898241623
1866232973
435333777
1384336577
1639218206
53864544
932967060
662484539
2017534496
1669404202
1784321535
733754478
1851655007
2074200605
986685541
1045103909
674443122
1569193061
175174046
142749160
187814569
1946201042
72958138
2072427125
678969009
1712307970
939288878
1731691344
1175894501
743173989
1258356551
70613874
663099675
58047309
916466626
1993311990
1321278997
899833931
1343017010
1622858083
1284612395
628350239
1786966861
195091323
398622951
485948496
885028230
246127089
1208441484
467691061
180882669
223984504
2055932444
1057078127
1341098325
1308819137
322302526
1559213736
73031931
1788232076
2128416113
435312520
740394070
1178209700
262849970
2138575967
1166637757
1050194102
103978144
291837133
1992803955
1069602976
1455451197
1840739262
1257804010
1973664693
999614024
957974940
1225105140
1314506135
702496194
1964719849
1717538051
1551289842
1214647822
1525376571
1384797143
1758910174
334486447
2005540463
1469977573
661410433
1855743159
210582835
251472517
179892890
1820309569
581943531
1889570202
498728139
1223694356
1233472308
1316712375
472984362
219651904
835363570
479669499
894636110
293254003
636239599
2041085615
2097416028
692337938
1585174430
1124005938
200059051
1867032291
1315832183
433048141
785303957
1506846586
1159253902
519884952
1235485083
1801244630
705461655
1301865570
992917715
196273460
553591294
1133148790
432455388
1302724763
304375948
1926071804
306866163
589985419
1701467170
620078447
104674403
1114015928
892602766
1840355093
1044184599
1133567116
1464574273
540079177
571911839
1217248473
1491337762
376256229
1742962269
1281106266
1822671634
410453174
263698817
159612668
1339168173
1963508690
1233915886
1003708541
1440659673
1673492342
254437785
1525007843
396227066
343597909
1275545161
1207258684
900829275
1585838248
1628480302
1253582320
867694224
1430817308
714828091
504414312
737815911
526600121
1790468882
914708466
2037513608
1211564981
442088457
1502557616
2015433228
1660436067
668075466
234013273
567419588
965737211
290834089
1651596801
394077813
1756027582
373854290
21364899
363302020
897024535
1782488369
66953793
1681490055
414532770
1757149104
2086431613
140587778
1842616813
1088038813
740338888
1497181416
1812387926
1813866740
1855234081
371632294
172538568
65169913
1677717639
1066726855
779562038
753766724
2755074
968024595
180411415
1489292434
842936881
702491634
1405819463
144500271
1971480766
242285983
84835359
230908913
930221849
1111059971
940296104
2005789958
552425765
1935346725
639248564
1995978894
1968080347
254832836
1135586409
2084143988
1666571763
1125832926
2133132868
851087131
1358790190
1949419336
202742728
1140139835
1550181904
1978445945
1201461522
1910911074
19681561
1375709877
684837988
635125298
177985054
566503940
1543637940
8696190
944394364
1269219816
374136716
1280663109
1003622276
1832054540
1650440297
1800977163
2071547792
1417013874
506784286
1976079832
1320712488
697402094
483766391
1053512365
917514856
1266155480
1581284286
1491317416
1707083446
1760168733
313820211
2075861366
1049579179
149922693
633579301
1494190985
1274560830
69539600
1487637243
2125315320
275202724
1649739055
43453110
1468090050
1818152596
637036775
1619585902
904064620
1089547818
1230351061
1976620903
225354488
1545665024
253213757
1493934919
583662539
708403633
1247164495
1758452136
2078555887
407845873
1747423035
1179094879
1129901784
154918731
1324758964
454590639
498983293
931316179
368175593
454783973
533060974
1538449890
689299758
1636034364
675332450
1878324789
610084525
1010369455
1495413152
1855415741
182313783
792779428
1188548138
1921583284
2091170259
1967057128
894955939
768847849
810101260
19325943
1584527073
994539013
995359196
140823863
1158219694
1705498363
514893910
1675317012
84046542
399216753
444786571
557408467
1607502428
1178618431
2128158438
1833448172
2040727943
1143146173
81065373
317875044
1399194609
436099708
906159213
568687048
165173906
513764658
96063680
1791929260
1109572400
1056096577
41659895
1582557389
1886922175
320455945
1802512428
2131373929
1298725647
336210399
3298963
2110400625
1521586933
2116551930
256537858
1122241468
1215126119
711702492
432842615
366201938
1605859867
1757716532
1488306865
1211534505
1340212300
730435711
180297677
1071799027
1468836694
484970424
797079103
1998665049
1124335556
73622037
921091397
154162724
494024405
865360143
837752676
608487494
982153252
108719094
1009042283
1098269435
1786230007
1557305210
586487747
1309757146
972555534
1325041312
1115456502
15839563
346918472
1109557973
626498364
1772495252
2009985527
1687006145
791881366
1581139027
528040769
64747594
2012495730
1204023380
958498381
476806702
2138140999
1820375631
697021675
1912767069
131458194
978373080
1561546285
1997754762
786927649
979629262
1694067696
1091231777
1284076726
1122903074
1420321101
1161507567
787668375
711458823
1710547245
454201016
53783613
857793620
1669704680
91254974
314943928
486743043
883607017
235491105
2096030037
1183540864
638400017
183116234
890307302
85246802
784354157
2001514699
1423690924
1605994059
2036165648
504213161
1001422314
522892264
1693674227
758486862
42488037
805217728
28468810
1730500838
2111307125
605550277
1096625653
1192739782
1560888019
853915386
732508524
331924243
1900247636
1868425275
1658189343
70474888
1130115362
95634013
618993157
1199012109
1659423578
837238603
972801362
1914205352
1049242901
1132031932
1754718449
132478865
1605070246
1771378313
341476655
318543074
302813610
775818753
476457756
1970910335
1368542373
1981674371
1647726511
1686258318
1324600361
229809066
440181131
1082042198
1979681162
1136578279
595048232
1198688351
508568601
1274957206
594759030
1803866139
1902789563
608050243
138022317
1760067111
391938776
2031753251
1507974157
192364578
1696227491
247517889
1903930803
1835979023
367737850
2101262076
995092206
1440883231
191255664
519140465
510673305
1049578189
630510957
1659155603
2076719969
1844134248
2129848462
1274615363
1928662041
2069125833
908644118
1087795854
994976624
8164120
1903494405
1875536037
1671901128
742169941
1843423987
1825845727
863284358
1612758206
913668099
1463729912
874248110
2065720261
231961858
1061821104
425193688
1896979817
647413174
864360359
1404772010
1334394067
2100235185
1352156081
276323898
1442370966
2145175655
1700996222
1169889283
1341881374
799958891
946649957
720895772
1843547629
125225116
986206813
549410502
1756480090
1003856535
2007994121
330940779
1407238468
1368061136
1462948050
1385731648
407537005
359563765
1434506042
518176748
820265727
864309696
526818097
1957110314
1659345078
13057045
399027025
490572041
1346553788
90339922
553025454
492772865
1816114214
1932739103
534336042
1862231922
124955939
1988847483
236922688
997117322
1495399708
894306038
329458097
1919920629
561463847
1520384054
108273353
654761122
954961439
998229928
1543150273
183561062
511659714
1926101417
81714516
902080302
1466891919
1229214673
1617980806
485251809
943037498
1479503726
1802489341
1035895148
2009983809
330552442
154894616
2065630149
994278545
1268570799
1166104086
338821005
415530509
936219953
800390115
1640568068
1720013644
1334625055
2024595160
877936081
48690619
2030357419
1172720516
1010772546
544283872
275824257
1024580644
1522804957
22097561
1552900056
497626178
291345185
1932457700
1075132597
1433326925
35570979
1162357135
1442231126
1473884724
324901679
1608755268
679689107
529296511
1295349650
357405953
1500146239
605704178
1871499778
967649473
1524905731
897214224
191253731
136664199
1213543124
430563183
442913761
1490102638
2129119657
2015278526
597049892
743246009
1286835533
298559984
1955467435
379427912
1730905974
2073459738
1380813929
476419845
1470927869
205615009
1160647869
578501796
790938388
1843992735
1198907663
554611309
401392486
1180135376
641060888
1622284004
1191990516
814558670
1346026785
548692694
1547878982
1292005623
519790380
593498270
1917608936
2101323824
1502326368
1036946741
1996368242
1922025602
1237242576
773943375
1559243966
246204458
935369342
605191144
1452297092
812082052
9402236
350971303
211143243
1701521661
1071646414
622224943
669973966
492817796
773004827
647532966
291634648
1640548634
1594319242
1692858489
2000248654
1092893127
2125423436
866618983
2071328372
183112157
2088061095
1997462602
1662951767
757893667
1318385810
564885231
963058048
2075844605
313905678
1821392980
394710847
1674008556
1361898156
1542352745
607701636
238127960
208720936
1934647444
1677563538
901118869
241691448
1371942217
492319469
2103701209
291122499
1198853562
1650396926
1591383113
1919915899
1394245426
1125780115
1458466931
264506344
1463039472
1111917071
1249382631
1278853369
1000199299
1614438187
875366772
1867724469
429223014
1841247207
126105390
930985340
2100807183
1524522192
1405505013
2035635284
950366584
1538730657
361474995
244025004
975281644
127407471
1275622773
590951299
1335605909
78902835
1386740412
545608364
1060429521
1693206877
781738604
128521112
494008900
239696085
1929879317
142248787
1324076293
1675243212
368224940
2059856713
745383982
1641197312
176687917
568671986
1301542347
31799865
893296336
1175106100
253462876
49051480
1356968011
923361185
2134030177
421586507
586371804
943892311
1933391686
439507524
1759905527
632687659
664521109
1790868390
919512522
1446353515
1797826932
1220367021
323982987
1458099884
2100937914
144496977
1939753424
409416454
1847180269
2028246420
1436810769
97717807
2131274418
1650080738
358272047
1115568374
804632559
12605885
1034419014
1925252440
1581411909
1516766934
2081725789
13425632
285269014
183410810
166032141
1046698742
1279097756
1738574612
1278417061
410713072
101049254
1511652606
532904363
1241137703
486358943
1742655471
1015385364
382890276
2037354426
465722527
1471175204
417516115
1324658899
1746426641
715539489
204297162
1171533246
516411105
1205706473
1342580337
679138913
1182332915
774867705
2131117087
175317202
1647791495
1443764599
262862386
997282038
855670870
54704450
1672131317
975464682
282690659
2029382265
69766370
1067246047
857908196
1155611270
84879517
1698311021
503552288
833390954
704395880
1412428888
1827188952
261592300
1799720408
1590966918
1479144464
1706085704
1640010380
1493640185
504716053
1157263819
1813345166
2116394447
1706362648
1644098612
277263627
806864287
1137345706
1215669670
842423000
1546394000
1083709036
1874373373
689018393
1469083603
389088842
770521182
665582734
240760720
1697251510
48174583
443762135
1831567724
597849653
1924164722
1338282537
2125483733
146802212
731830420
1082931355
1261677311
1523904758
2034157544
1027153141
567216912
1284149720
313400639
317492926
263878171
730390857
543103972
1894755962
1802630518
20185098
1765580130
1855413447
2122370346
1060685886
1846054022
232763436
31685663
801204227
1425386006
1999106916
1309770771
592118854
1721604341
1855466471
1356855917
1010131612
9712346
735651734
277733320
1111857934
1224287136
1223168911
1013661905
376754923
428396248
1827576328
145497655
830734166
130906688
740854047
1410866367
233680504
590463985
1308622868
1533541972
2012142259
2027248980
1185490582
121757961
2088748140
673517490
832989845
786778267
305517692
1381435531
2126399061
2058874260
489129546
1913417256
1259048698
1728337494
420174420
796474115
200362653
1079719688
48943054
278094580
1104875138
1344838172
232941534
1944731300
1557325262
1361956825
1149742778
401031329
1427488511
682698590
1924026081
123269314
904880860
1247047390
291842812
524890344
2034692636
430127875
1898217343
20957547
375712842
227145834
71700085
674381019
245087604
1325843136
1979731911
2105664564
245093612
92603933
675130711
914969586
1801208606
7661025
1154008055
1918502785
1436606409
1859087973
1147579933
40588732
390527202
1515752556
681072131
1813780
161581088
630181156
584831182
1275402302
877523279
1482745726
107396850
1397098939
671762697
415566598
661829652
2046783661
825631369
1101396323
894745794
1365841193
1774642684
594798070
716746923
1258109912
43560658
385818084
561634481
1767674539
1344582233
742816009
766605690
44786951
1053175020
1678479749
1572094300
2135496778
1322703271
203277421
450366202
451080015
420212607
57473548
1761241985
218306379
530360279
1544893850
1759600743
559742009
1490767121
112455201
196018800
792192035
1812582563
1803038375
331431695
175690943
156428518
310279735
1366727520
2012003944
435206190
1042911115
7405065
1637085459
1034549749
524860157
1141866890
2127550613
653179478
335363265
2146979512
1601437801
1727894338
795819721
732659355
1205559437
530215814
428058665
1178076351
256045370
1476390005
719566175
961257935
952797019
1590954034
46618759
1224138118
1251801304
856270993
823354022
530450690
1977649316
1639410825
1887203888
464537880
1966119890
520953674
1367321774
1054713907
511816719
481340810
539115049
2091200826
7386603
1072407646
998810136
674500882
35550084
1580349327
127316721
1739506114
1608024602
246206358
367624917
1562196989
99636407
1804410796
479984563
592654651
910270989
1310180532
1315391409
1330466518
336138220
611019461
684720427
1553762193
617359164
2016312328
1378953978
1167615525
204706018
426530340
714469599
103901023
1138268596
554371486
1064513507
1784437850
1327955566
576888532
1668400623
1328534793
1855193256
1805575575
1083878109
1743557126
478921340
548719173
1414909971
642383657
697690837
1288975530
1640810821
394245590
475173358
979332589
140655689
1571096249
219182483
2039549732
1359944139
1730120894
199062841
2048489336
781622543
603571830
991057363
2082261483
430052435
991607145
662359871
1629123722
586510699
662150006
173727567
224869821
185442705
796427580
145909432
386063134
664382958
1458121912
775949573
1857163121
476029825
1039050553
1373924616
73814301
775832592
1436234663
1143376148
538703886
1008500073
1826163927
532317941
1148712069
850897591
1451574157
1326167169
1888357593
492936067
1270063478
1491784766
2052629452
1189045625
859083289
1235333119
59442948
851049257
563484315
348977027
914834747
275877214
855162584
394093301
157322280
656716454
1378987007
1900093278
955453252
425482365
382901113
1037468599
104494504
1171093995
500234168
1349061733
2083508371
1929486836
514126847
1817812996
613947722
1626812837
14265716
380836686
374093779
1290433049
1546081852
2123113753
799248555
1754819469
391145293
565660471
466230220
1064076912
1209719430
1044539036
1911226890
19526347
148794760
1348880079
1362674612
717347185
776006452
1336387459
1425794850
187126651
567901813
353004500
401682079
722610938
613682287
1331176061
1046500937
734094027
1573754525
698012380
578050966
1106151313
1648534780
1259147361
1182681538
121816866
1208531044
518019015
485200402
1975439697
1793836346
1566224908
98101249
2108063765
917025955
518824412
373991831
1201751904
580775950
1426085599
1429457851
1507880472
78312023
1533225739
378818978
3935686
2132271721
1883923890
2098744098
72866581
259929627
1075071160
1858099766
1946203634
717970270
1426482269
1899807104
1762918887
1553361707
577385279
1858337530
2137114198
237102018
227082172
1414387082
1645909606
1803709123
1177030227
1312562123
460997198
1401132861
1933972418
546947658
377507307
1493419046
804974675
876191025
195506861
446687986
259699730
1914543855
1588291241
396920041
1583147859
1789894386
1150496107
796423830
443101912
242525922
1581789177
577175691
558502896
1778633136
1295244605
967687065
1638345039
1730773367
611291679
767269082
1766296161
155227595
2050591309
2022567377
2113765477
1927907889
1115658039
2076738941
104628714
1063883772
74490306
1080408880
1633318831
1511659738
1780871613
402103397
1855801480
41006301
445988343
227742644
1700113902
323995920
1125942652
1587419634
1198018557
1884524879
790146658
567931252
583412052
740803308
1226305404
1428318199
91567218
248230521
1649999757
1081811154
2062180045
453182076
577244670
1998841612
546686378
238344529
164266762
1032652814
1520581262
371433433
2143979570
1025815942
1896418984
470173469
1955813344
890662874
1614489601
212604719
904877678
1094023177
1874877755
1903428924
773386704
1584089769
743315899
2113966373
1630489165
102965594
838224428
1789996309
520069638
273382758
1177522443
201992766
66360898
94812728
412598808
324284492
219946712
709076729
477210362
1155283718
810899025
1243031966
1275005910
878518461
450300713
936372274
1240994584
1077649525
1835013924
2015165540
1015075311
274593837
109215696
1103146094
1746809987
1300759375
681205471
1290284573
4925958
440721567
169972280
1650553029
1450121584
243736767
607204474
896004073
118922457
323517462
1545723125
1356958921
7309016
2073170345
1918609501
1124364635
1009331684
477506808
1904674830
947845625
1241121118
1839502280
779049900
1650108399
1328243827
1751276911
1107841114
1341332430
1789711364
1791905879
1143408933
1484396376
2085573166
1501218868
1855983563
1168214068
552212966
294003918
899353700
723818850
1279892589
2038087642
1259161030
889769721
1156170894
526346977
1886120470
948971068
1687978872
1451325139
1791434380
2046116359
1683858611
799096966
1654577204
1663736780
548727441
1917470786
1910668190
1442168278
791114344
1849675633
531383694
1440712223
1280925809
268893956
174685018
2089971835
497079504
465016282
104882791
90171390
2011899610
1297882743
2124743011
986030650
1492478448
1581952471
1999480802
854327621
2130262562
318712196
416825073
238452164
235851646
2099254705
1309761700
1428101388
2040879794
158788525
149830021
548788128
1938991492
1103427582
1814704098
1799177167
1901794101
1585299552
815355008
1014822618
1802677263
1552937719
1172347513
1602432080
1364771347
1199954758
1449449460
1840143356
1217306990
1214669185
58822143
1022876578
730505326
1306497075
1614313764
630753829
1625846697
1248043627
1705699668
490766564
171428523
285317828
1439556226
1413140103
887763913
1239572670
1038746764
1391868194
654395531
1265854240
194526169
210503788
339616219
1567087402
1812740300
1962792952
2142442608
114907515
1990046065
1745056050
1220064493
150023455
1889626200
258059880
1634149441
195237333
1237515646
2112054349
1876206474
1243780589
1160808049
1580029039
578449656
953927862
487124624
1657153421
1262545702
785957062
1251876762
382431142
1674837627
278687363
2134634751
1156362857
1895880783
1385958805
1044701578
1684372432
1375593454
1704991739
1922405906
1506768680
1671302832
1064687532
1178608396
1539674824
2123387851
913982910
1959795663
1903241602
988582184
1319616307
1164471237
1262105818
175022940
1659832477
1395389928
603162553
635488713
1170534309
1199701249
1794904101
2035700522
133001660
719803576
770580995
771199383
212691321
1981634763
311806194
658511567
1856751085
380087776
805774045
1152399581
2028685459
648661552
936231368
2014502186
459655881
693453962
642651828
1134071479
1257377098
842657229
462545712
2049497134
675089823
1994961011
198751271
661318099
432006185
1736063247
694510576
1411810515
951790475
195716769
1059169325
1857957834
157347285
123306633
768643249
1990439725
1920342692
1382302034
1537821025
617078095
1221887628
1558415878
676500639
707169931
123105403
168101826
1566083332
1085279789
1943310214
550338708
492126391
837854600
2113907368
188085874
36016673
569869642
352236977
2033487830
1822610443
1545466231
81426331
1046628111
2121967117
309310729
618641841
101606207
1356710965
2006310668
1010892087
1118877716
954130440
1447347828
39893275
181120723
1283097690
1213093378
72163737
1718556028
1633746371
1922671021
18248962
1705818130
1757105744
845201760
2059981634
829407257
1497638620
1932916382
1240636166
625466742
1261300149
1953568594
1975537826
1641625102
2137961684
398869355
1792478320
750919310
1177252932
1776738487
1731620962
1541905035
370867185
1898831407
294332196
2000266334
685386292
1836597718
914024803
757087686
373952992
392887185
244518081
719472766
858860864
344392232
1000512033
1668752751
1702401821
1082963845
1550379899
1280581104
847138302
466588788
698470937
417764301
34962875
557522215
127419664
42727701
1793970758
2112495113
1401460718
871927986
1530581481
525414080
1950037980
2082338558
311705345
1277001680
1499525907
2109894928
673743546
2131291577
492422660
639239673
1115299490
33840605
1764700892
1305632408
872491048
1396269686
178986551
86142380
1646905817
746858211
1620326052
747561065
843632013
421962870
1496900258
557078199
843001703
1553341781
999405152
1820877519
1353037673
140763766
1399091783
346182311
981048406
2120375922
1559267716
1530707737
1516449054
1061644917
885927903
1858135212
2144306079
1294789231
1556672539
1238156192
1647722324
342929745
1453247042
985991313
117720752
1016376555
699193853
1310964752
113545661
1977637636
548570209
458537839
1212152965
1336181954
1760833326
1024522492
107815297
1579303692
1009155546
189367202
1479097073
1983269782
581638187
2111002677
1993543214
134841272
600308085
1948579983
721476944
690478633
1705133367
2006371542
346710416
696155724
1323673283
1790397115
1983892859
501359789
807483087
2036590269
1078384468
501146480
1392699801
41405345
1429654278
162667075
163218791
486628143
1533846826
141540110
2028806443
1208972818
1966093343
225695059
1522674184
1162316937
1558397799
392260531
1639117245
328562190
764660966
34574113
770032983
2019955245
239743999
803586956
2013104891
50180207
143427401
2118691901
677832778
1989886117
145738584
1809317822
172749037
221858653
1622166515
241091677
628579375
232632752
610924449
1903612984
177226692
1049179675
1479131422
906013202
20408850
1257753604
816908696
1303409792
263129081
1317187869
233051005
1964077967
1070998372
1217743809
1736211405
427858756
1432382931
1615189426
356040065
666861990
1565764056
2093140454
841071344
1390449102
385063374
1566973605
1419726912
980256919
845510295
90129554
1932848647
1909012727
1098116287
2080698290
266287827
1240307615
2063377330
335521547
707509727
1640435813
430984002
547233208
37982706
1754145111
720253654
969167337
1698831877
681590644
312764043
1812362934
223402242
1618543376
1564300858
1939907237
371266395
579640294
818152305
1713129915
545048920
1810140559
1250408370
2006219772
2110225775
1551872826
1990738699
1437200150
510139000
2073463920
1393803688
1666698657
70573485
889508213
2006903504
1979338813
605702570
1144606408
1224795796
217586861
1884692430
204278338
1285270572
1520398178
918512404
1795337915
1192880298
1441270539
347365792
1796161605
1208708280
1911222426
2087176239
1244469558
13181655
16834581
627423982
727330103
1695124990
915972177
1145698567
1707251301
397332371
737546210
197133776
1199073722
242693564
1093336192
1124490196
1228526100
593056177
750437385
743286383
465991145
2054460950
158972966
124585106
644162198
933198958
861496114
864310001
22724849
1992045781
1223841681
1279622598
775131540
1444731586
817699021
498981840
1256173814
576730238
235573156
1805160403
1002693595
1464858649
585981435
1324544907
1275046736
829004556
828700441
1476135233
172597576
2010818436
121339985
783808223
870521975
1993972509
2099738908
543196912
1313086690
1449413804
1390553879
1559999574
591429649
294443781
1996743309
585186185
713522426
1318986509
1922494086
872953093
108947618
947961256
1567779089
857061352
429376164
1038714519
1905117140
1816495086
1550289018
1123723760
144585662
409318262
64344683
1579170541
141470052
1446934077
837859356
689001056
2139349546
1759433519
1526627295
50246728
1958544145
1063744284
999358376
1494744671
834803145
1695314497
863732083
649092736
422660406
908540867
346791555
1584124146
1721497821
424766094
1946591490
1375594023
126123457
27374655
1301025549
1982009724
296601257
692312914
1411292075
211648349
875411364
1103407532
276046510
1310618458
1574130608
1233842782
30293312
572862084
881961753
1276550152
1178329573
1258053096
1589679488
213824359
1732601091
673124468
136589576
2043118938
1124318341
