3600 1366177076
2043423497
1204404414
683937079
1371513317
217829357
998482269
595099032
795844820
913040385
1917657592
324490032
1035863950
1616331570
1736980056
589911715
1642058928
1189300635
126225814
1424523140
181294745
194315084
1450859648
1416620301
318560490
967058866
204845026
1981681134
524147706
2115817021
58705520
1114262812
1312870818
1675692990
2114646899
781104427
808543464
1958424165
68782211
629610970
102844208
902946799
286148766
1271295754
889554685
250545147
1279320391
1931701748
674262509
1227513862
1066364452
60653790
324069218
1923681282
1397096875
817559322
471887478
440576615
1360345323
711033412
1879606252
2130536611
1307628703
321518044
707308901
2087831296
483351537
1699768072
843446896
776415542
1382270708
310467103
1699550110
2048536212
1812607011
300254564
1680855150
1748881956
1514180558
988586717
1443321335
1894273849
19168519
980983543
1048820831
612164873
932116646
589958705
1104297364
1522739196
1736916892
279898195
1262676931
1576888502
820356261
286559566
202829696
1408149763
1361015651
104730940
738217333
2013360315
424991147
1958727810
1291597117
249586709
1708775992
1015106716
810604407
1425122822
1486046958
44453712
1519895530
105250654
161530720
593516655
148754522
2142031553
2012008058
1432965240
553747827
1572717121
1029428483
1074300396
60364439
1741248079
1752386578
530772343
1170792223
29433389
1601295088
871874936
1569941797
1363727543
1458658753
373960510
860617472
927020153
810313538
1020893762
1458876115
943560583
35597245
1546186149
1215368984
1802854474
526248537
95832844
1435909745
149039438
664350752
1457782776
155297057
878427603
86583875
1106493793
46081862
748870072
1008271267
1981100095
1290265481
309047842
248198067
715695627
1887598754
211371408
1131417701
351750205
93181026
603616201
1065818381
381773033
1933543840
1241112266
1019511663
1059329986
1587457644
449942090
215202578
108475684
2076459541
217281664
932178722
1088716518
233446383
1685552704
963350705
446243032
1586585924
1786821349
1172313253
194147402
1412006847
363467089
870215348
270994734
348178190
28037971
542756596
378342838
1231507575
1233852002
1562726473
2025767596
588102497
281269274
1887286034
87984155
835205380
1157550520
1001922225
140178631
1937716796
1661227223
1437527120
2058637166
926320863
1320978461
1067809036
1894009435
238298999
388948544
1501298748
591988550
74409661
1284573133
1546419478
1679058122
1037156245
1603710502
665425409
484479446
1576148496
1448292475
1532530215
1948969337
1276360424
2082336610
2122268587
104208479
1968268864
252344914
1881087520
737445905
587109839
1319468639
1809203419
498865078
1399237363
885489465
729773258
1453589500
1060371725
175003559
191518557
2022593432
1441223627
2007925172
421820420
268254017
2145971542
518858272
451707741
2046166661
1557924961
1219753426
1745384449
1431449499
16650064
512739601
1482149559
1409270515
1685720332
1888159849
597353169
1876036905
1270479954
32824570
1057494509
2040761776
1742627209
1598433241
568866041
816460789
1252361519
1209353069
1477627740
184476424
153825808
1160350478
1799592100
393821846
218757974
333425533
1919013743
1679867457
461834988
623884986
2146616018
462686973
110196720
130423035
923804895
384279024
1266558081
834672678
6010304
1889321506
394863744
1069378773
780712089
946970545
1111862175
1679255047
1546947203
1055645782
1246069480
1781460369
1793539387
178151431
1080101004
1591889959
1295333438
1749761227
1378399407
542887469
739959763
706947862
1277765720
1284109146
30104455
293802469
2026554275
1051899695
1917527980
162590597
817218553
162686340
2085617684
1228473636
1170467297
496455262
318674406
581716920
698918967
208354840
1262446298
1151414108
1301862751
723238400
92509708
1677169845
945487489
412228833
1592971162
1249977374
877200549
103562848
991637906
122609348
1055691796
1910977453
1633435524
84212351
268363225
1538038828
2003164166
364250538
498410024
1548995781
340019921
317084739
2019706711
1711784297
1032993609
58241992
798463669
1524814825
1518983919
1348822800
789351418
263273795
114159395
1815898849
565664511
1038835130
820246520
1888748209
1839134297
1494797399
376986044
396659691
1125096732
820850707
2057670638
527604430
100331869
1116725156
1620535064
252206771
141334203
413092358
654524221
90131929
555505641
446768698
386815368
750459467
558290415
833645533
1398478799
609676681
152419682
827986770
303463830
761654542
436241715
12164723
788425344
663226008
179221716
285632524
1752832371
1811153983
671396453
1138932857
83725789
1572333801
455350624
2094905917
739315201
277910642
1548261443
918092150
1886758444
922333099
243947284
371391700
1593815578
456581433
414115158
414673344
1608543945
1043810555
1263644914
674629682
1446483546
1381254443
1154286603
117541727
736493670
655130097
124554019
1008148907
1572490703
1039940137
1586652020
1506790686
640719407
678689593
999797073
870089610
320746982
2016305499
592559685
1443763939
616720692
2093373490
423927696
1318708596
181747106
984517256
766272478
598495738
776818934
2139823978
1873136114
356123703
1958063759
854506829
81755897
421589151
202158768
26990309
207414422
1355426124
340063256
1149976484
972250913
211645938
631322160
202966943
1145777168
1253553146
21259254
47750996
1330429903
2071264962
728666404
1790002480
1896066225
931110966
1157629374
1241757862
1193283730
2016725123
872107861
1975138094
1331661622
1280315183
148855667
4439983
1430699226
1877916192
282237571
882614191
1270107186
538693408
716712251
664684269
1358329017
2000022336
1063781152
286024717
1747721405
413131681
727923979
146622598
584741887
1867328806
2055030572
1939969292
163584407
1138429243
202585934
1599548853
202295951
1946653097
277486342
1110406706
408197091
511136121
1324175928
279500413
1115530483
584774730
1134948634
1484555816
2121755959
1738900308
1868835449
344039960
2132710191
1805943075
393462278
868648730
893400695
1122683542
1188333212
1499559748
983028132
1000291865
294638697
697927121
684892482
140520605
1910775669
204000155
1958842658
1930203499
285181258
578347681
1644344160
1139020605
1797416909
1272621958
59457096
906939143
19074925
1893357731
26940038
62772693
795563209
1911604013
96651699
1228254144
1286165478
2096301703
969231484
926105869
1619797392
935421292
910028920
1245506981
352690703
500594080
303308560
2106596934
2057972561
561484904
2078638970
897371122
1390903096
409445025
1655685296
1713355859
1357615491
924649820
857911297
1217170051
607415979
1553728842
321136499
1100510974
635577747
875969642
1294878571
1922498342
738441734
965777574
1230066106
1165573894
1412964157
1987079510
29493008
585177124
152844593
1626399390
1425903075
1641620152
471787566
333556347
1873535095
1711432993
125049295
842005613
1149878991
1244190000
1241506879
559602092
683884890
1649385228
1362274292
1712560679
793229057
1365653166
183450020
1363918833
1170234213
1677143936
62133650
1393628041
1643272572
1514265778
1667274897
867764460
1047882945
1229961641
755974905
586967796
969410833
1001822673
1553859300
2143571926
1659504451
1071161756
1453164145
1921603063
449240312
445842900
494966137
1866868497
1910004052
1651283099
1627681900
1931363695
227208292
1484064071
1122717279
1425678266
1762424059
1764102368
373401492
1199140163
827233996
1488409181
1820841658
901567078
1277532361
997584427
1983416443
1940376717
1317850003
2077295581
306530537
1297868466
1043953461
1424745733
1648498186
1489909088
1992643161
1369904716
1461254646
125311813
1792638740
221320995
1816046905
1430541568
1038291622
592442035
763445468
351882774
1526342414
1941215071
766103815
1099021314
969170129
348714934
1112161989
1721009138
1916543518
260698594
724562628
576513447
342175851
1058930903
1108649749
1961095428
1897385792
1945744307
1766209982
152846560
489391562
1132654292
773752573
1586561173
2020235689
977531656
1984187214
970536795
1708496158
2011115342
349048326
84958441
719656133
286578496
1317016380
1354053114
394927777
1833649484
578704915
1886386050
685686758
841687314
518753046
1046525057
1284158211
822104289
521022084
1656164607
1124519554
783331783
179602109
343162540
1527249607
1211733856
212914623
592986381
1618653298
583341160
946235414
974879311
496500391
126356200
1015075629
724926080
884808051
12190901
185470785
1100099867
1708027790
102224658
1297400163
2041980805
34556252
1149368199
199195275
921917276
1702293118
224908372
693502127
2070874349
1152144446
2144379748
685613568
1624904889
2062636097
99825751
920227637
182216445
1130785370
1332578107
218381421
190106661
1831860866
21820913
284872057
867042593
572923876
1782084506
1987282516
363471748
1138229863
573397277
1014515269
19213760
852211056
442503630
253626913
460327898
134454670
1123126002
1834120792
1074051775
1626496863
290090115
1819830510
829737261
1512461669
1527585156
296522888
1016273994
890605202
649033642
2058035615
1325005563
1771262911
1139638350
1987008995
623796904
194525080
862296075
935745883
465675145
2049288854
500150205
2049821062
1509049527
1009654627
1482697655
1131914028
2070753386
1149934543
889689374
1657534685
300951669
237440809
576721301
1740753037
1320059467
497934713
1748607814
174577390
1584999212
1981563924
450245124
1597411536
46855394
1908929969
805722691
939783582
888809802
964661085
1987577448
1026722211
670066491
1066294036
145215152
410275962
1206502974
881635959
839262538
2090520244
1725711135
1610998799
503395037
1812796679
390624381
521970398
230995523
1503449551
1314162204
125238073
983588308
496200585
1093828048
1289409076
2015765024
988816107
284346370
201583397
439440323
384843230
990120741
89945720
405238432
253376560
1807828118
509683475
1608765056
1210384372
999238766
815386995
1205792529
573846997
237625897
1093636507
289588292
1963096147
1055121584
877230376
1874632486
280147479
2075605642
1803077150
368963826
2116126555
740957760
2124259310
1392301162
464490839
2597488
1657626500
1562729812
2040393584
1175313010
1524849682
2110566659
1127589443
1850880451
2038776193
1750525749
269688131
775754142
1283714987
631288000
722379177
39701428
2107760531
492685731
844820438
1685573501
1290277298
1815949333
1855112763
1607083544
1154647316
1589912847
1552842632
1236416182
1757230217
368112811
670741751
1137365600
1645911518
198608533
986245111
1338542367
1495060275
1669445024
263402722
611599632
832175562
681144505
606866910
507850707
1427481713
1615504080
942865247
356179386
116861166
238084873
10971246
347652791
2014776147
353168718
181564305
1766059693
1793825608
607773224
1308674403
858001722
968767257
804409195
1243973398
738772456
1953632573
1133903847
413082635
284436857
327515900
1380029538
2119656776
684438687
1779879647
53011284
1553421862
722493702
282437261
1413816598
1342721045
1499403862
2011818227
1325912186
1669001113
1903844524
637084969
1877179087
1982680867
884890233
1720945647
1251684468
1399388637
486545374
1248947850
1651101803
2071077037
1979255619
1611285690
506599785
1138803016
1971318163
1932409517
906527171
1067243616
334485044
1852524530
1887950638
1289133036
1363058592
690408766
58828784
963886298
1113822139
24427190
1824223747
613069339
902782828
416628325
478780631
497355314
1960202131
1730279979
1429813239
10601986
588109008
387170905
794395638
791722723
2076069990
1139401570
1142309712
251657350
816457569
937161018
334746006
500453255
1955274802
924785672
1499333753
2061870077
1187448245
862457765
328913729
1996003065
1694274587
2012371265
936495144
315489626
1512680714
1983272509
452540295
1302427057
2051789842
1469491482
1352286431
1133511478
880538180
1483618637
1736218151
1574940389
78013299
889698495
510332307
1027683054
1897941354
422031866
1617033257
272935884
1736124635
250748518
278414106
911889277
1998048555
1511294191
1811177310
1641562959
1461286257
4038651
111014586
1637760572
1484408785
2014022542
830295802
1427145468
1545735734
330922895
1553576743
1262659176
536885878
1022753468
1483166507
810251765
894055096
2070589322
691415123
1910170019
891217273
127839178
1964149094
1850404402
1341171191
1476149781
1837665058
260353951
523653197
635659352
1943742549
1697794850
805615091
1557236133
392180129
668402166
273764793
1036524975
1926367025
1216758473
1069499372
1027241265
1451759396
252888254
1073190697
1106005401
447162112
1252960528
531483677
1867109125
1702519764
1058383309
1049734591
232926708
658913724
1115305978
797928939
1892522556
101053719
1854856557
165611863
1726481567
1889872420
1495553959
679736273
1525232049
308667806
2130048462
1258163434
1032022959
1682220190
1700587170
1091361682
819050659
592123128
1975751499
1183191761
746494248
2145558040
936509773
1935695307
1982615131
1800908829
1433156750
657683564
1372039068
2111757585
1035717133
512652970
965630455
143440079
1251811869
1806012958
1035066685
64061747
2112500205
1526197526
1604309774
740920900
1111156392
1605294981
1427698868
1137937151
349486962
2056739590
459245907
427652271
480405311
699848517
585524380
553214996
1949063126
1302083082
537488491
472587577
1386971899
346958733
897099735
125790083
1248790013
1675089534
958321756
912141931
15590077
1595188470
1147962662
1227385178
385729295
595361749
353421551
1735576555
1841807854
2006007730
2068338633
1850621588
255082090
766404793
789334610
193928768
1051112930
798764828
1703499512
203703667
419603895
694600442
1684576471
1957616487
823293476
213574988
412278186
1353444708
1065970755
757646192
1647803526
2107690534
1274651765
13507578
1476375471
349912820
641143822
537438776
930582120
2004246200
499160176
1911675803
282416208
1702192024
518517947
176474765
2020114101
1910839869
999429134
443515854
672741184
320155194
663225378
1873842784
2139184677
2132425426
1450324829
1765921696
961026159
2045354664
867606183
1731302324
2022237645
864038974
1519586417
732623143
19873706
1369734633
1189891673
1351518817
38780547
1106650819
762022812
1750888743
1369950488
1981464086
60986194
407922330
1401735578
888770630
1058027274
1957781532
179563723
957819545
1946004592
662000374
1868261367
1698802573
1129183125
1819953407
897468167
1843321723
1886936564
901102892
366723900
1850543216
117890987
1423654617
2109415529
2129117845
689027764
1461411468
1031083183
23143435
1985016879
1388045003
1709946216
2118201948
1971121053
1030374206
20573724
393988256
131527656
2101964200
855867039
1093559933
819132223
1172034137
284066108
582401432
1643847697
1963636606
737114318
930286581
88509263
195810880
1328605110
2141010741
775684991
134627060
1769958681
1322371272
744079978
1475839191
1782803365
116618988
794508191
1266299507
321992770
1396491296
1209396825
1735296592
1543032674
1081093024
1321615345
866547434
90051546
1547185706
432365106
508952278
1564644604
1458053422
1975593391
1378398447
2101992666
2012137535
2058299351
1667077386
2044806788
241939570
651394256
57297870
127163571
1685613807
458550958
2043050777
280411880
483811175
1811345142
1939898941
227315994
1204983805
766684357
1398568510
758804618
1699758418
1309159417
64906708
2112222104
1997204955
1056995879
1925244518
1183821400
927049344
704229876
934864790
760201733
2098971782
628511924
377999213
280883945
1362661494
1481142504
1945952071
728647261
838511380
110225559
94822334
747317587
138427785
993180496
1995904092
1756765837
1381560751
442390593
1974892753
578286793
338342321
1748040023
315507869
698975473
680931690
1883112491
595900294
895350918
558644651
1093694909
1383017907
1677170611
2003096769
431379169
1450867655
959455191
1747519307
1913660620
1368036300
1107140952
1990238030
1069381936
659714213
979166770
731156922
1725918629
807750363
690642988
1389835675
1191854546
44176479
1649581883
499336476
1868493062
708459862
1069764392
1073915170
1206244798
2142552071
631619261
1288566433
1682133504
2079225129
244051188
1341517142
1040155592
1144565815
1750671483
1462202653
1119485355
1524048726
2060387468
1559987634
1958906283
1295912019
1690849404
1216609214
1387262840
1825679345
1967781114
2032527294
1420679794
369618714
1102303935
531817283
207260788
1156422206
1517943135
1926370647
1445848944
892300850
1676635111
501875133
293749838
250138717
550203641
517743127
2121820261
681091748
674392038
537085399
789545121
834496509
288040772
956676759
1793729339
683257952
1367991133
1647066061
2069453169
1371655611
1719245802
1259252773
258388802
2075381456
418190068
780637356
1169580108
987415851
1348487799
721382859
1815761629
1623085070
1785957211
390115053
735013244
1530884384
1980297889
1092986704
536715760
1281599823
2091747676
2089885182
1228165885
391076844
892788903
1715648941
1509650100
1309703028
245250591
1060647464
364039451
1593474615
2051159122
1248610086
1368948102
393517559
953680510
535069032
653206043
221988975
762653135
1964948173
121458907
1043731377
1580910588
1812950650
700382908
975350249
1380671847
251777304
859959620
1886796398
1758738392
952807745
130431341
1207310627
353576876
1172250526
1734063484
1957210992
526520193
201318114
1305844524
333421491
594591027
994745553
118295119
1832670861
2146854074
1956770163
126592680
1387253327
1279499894
243083384
1536637625
2023130963
742255878
844157036
1689739542
1110568110
57527379
836834191
669923272
1709173772
333989513
753850369
486349173
2006047258
100471715
1557178382
1093558460
1461952080
699547415
480797213
641544504
861153365
2067158431
168210710
1343507108
1228942041
261233847
1659718933
1916592994
1130373307
251842425
323027709
2146863469
438999349
1183180254
886867184
135335375
463195018
574579293
445973213
2143385186
1174631506
243509406
1470204524
1842018318
1838807185
1299045261
301346666
1500838231
863883877
1124844461
1329855469
1994857444
668616190
306724082
1366206558
1151619066
135814277
551366027
6888522
738061625
1696278991
951452683
1284093521
947377759
480794398
21740811
1703369755
540451344
1950218405
1940091543
393237278
565235308
1253484888
934834462
403431582
687602287
1094512326
171628166
204976604
1093609621
1798235598
1571534998
233966692
208865487
129185537
1644155394
14796433
1467566863
2128630365
2047982218
206374749
1530132808
1467413409
1716298587
512741038
1640356445
424734582
270048856
1866679836
1237637824
331695666
1773235286
174512217
1292337370
1180860705
1110496034
133960295
2119591313
897603313
1035303902
816204617
595244935
1128896190
1437554882
1895764955
1732428975
956259696
1568314448
577794031
1496681743
56005098
59901579
1501943328
1322147049
1072736401
667038799
382007334
2084138624
420524116
585487456
1748980427
11179327
265135649
1154801321
1059948243
747040509
1008931354
1498358293
1980069979
1975164626
895544079
1959486074
1083979767
1622380414
1151058690
506724250
17084984
446315755
903756653
582623878
1090267277
461473604
335331737
2097706208
1490383122
1701219572
1443664516
960388651
435420922
1459194931
77531043
591186589
604484304
256429669
537012904
1424849084
1633317530
159816091
401052164
1716375716
2141227597
1715677963
1878164814
287719810
400348151
1234417958
1003383065
242689990
420063141
1270840939
1888383744
1271151631
1851233379
875285191
540518243
1384614078
1123213318
341843635
259398566
1546971196
845205280
1528515705
882803652
290917315
631616988
496149397
305989136
1517226394
310693835
521413152
110253926
1969189456
1263198314
224702327
343941093
843837476
179608411
2052283943
1501931216
1324772604
1755436096
1360705151
1468909207
1606598675
1768323057
1615399073
1886333355
296346875
1655327582
252233535
1814023732
1350941006
2112386278
1992419442
566022855
20857726
834653224
1613582797
1588038185
125927551
543486597
219367851
1847121925
986626537
1655124709
1175318852
783013101
1052665215
1679370867
1439221586
1921038946
1720682998
370030704
1901474340
2042173426
1680059767
1681766174
122950192
774786642
2125614271
2130508546
230185856
1650676786
1838995654
1008802890
675199247
886227639
938228867
12158489
1737504323
1541024072
555805740
1525960422
1801318729
94612010
941521652
748509636
1606931846
579788398
219920596
63520052
545807829
1606025764
1738561998
6091764
1115578035
1248618866
230237066
1782797807
1582159918
205732710
1235985287
1698780965
888197368
1797355424
1536322955
2088374633
691091389
923025856
1751835194
282301262
254070284
318535045
1077771335
177043760
2095323669
229540834
19507251
125455706
366305659
1222219403
759046423
476884897
1006938865
2122775580
1025955810
562644782
690079995
94559501
299458931
1716418713
719154191
249509733
1669917714
323151889
478035093
769794783
1816837902
1817952393
967245176
1642094102
284442495
407618646
208057889
870654221
853245859
101459308
46916898
673725336
558060763
51389797
643021319
720598904
1364981116
297041474
28202887
1354253912
400629544
278630924
2003902017
873903379
394184209
1221026626
644873913
1941350429
1933920696
23221692
1989596009
1291083804
345388035
1162327453
188466011
260130212
2014478234
394070320
503557115
691666424
2100520332
1760372643
798069704
1351796462
542553138
987110009
156902508
1595611958
1462217974
1987757281
1041509622
1018797812
2070768378
600397014
744434601
1331778393
1214763229
1304918535
22602090
975246241
1795424117
213215234
1459284657
1368283395
89215992
1526242520
1278829156
179062464
1237314965
184512973
1526434892
1284505152
2060565728
1768846363
975668965
1948466263
671553838
1342735468
1209664986
75906049
1894768330
719503314
1275270172
1840374786
1802114560
848637803
1388371555
102447683
37167281
1664696619
99714373
1262035060
1026584733
19335050
437581724
938301495
1686422945
1233273444
1387779098
2129776496
1418130593
1036529283
566252675
982201418
532100363
1320099541
286670808
702665196
1221588705
63495026
1946084177
1602335764
1858028075
444123927
1336284743
1403196356
949328874
2012144195
7160678
536611806
663975133
788028558
1538882408
1107072080
832446463
1133984818
1813614330
460703636
646271103
1131516486
1740452156
147680720
1721901050
994676637
659956181
1191105039
1501076720
114252823
765222765
181001648
1596252370
1899870136
1036935687
361856298
662482487
441606846
296115387
1133136993
1844352866
341003607
1969063949
33196581
289909827
888246414
1786148072
1399608710
1521004780
469446147
1881630270
47395134
118741878
2146212035
845001464
1707462714
1260132994
1637024990
645083418
286075313
274654167
1561362371
114206477
703190483
412191156
1739772241
751322896
160477650
34281952
1731076858
2051747871
931122125
1574159303
804024530
1523382600
1382848386
526566998
490914057
1565803288
1454139982
710141579
528295245
124211802
1276657486
578645419
1221755381
1121694347
1150075980
1726984078
326180452
782229374
927444283
1216813251
1341455923
616036310
746803346
416924871
1689845826
1975941052
1473350686
510237852
1133758440
748288529
785838190
1327758369
1018260656
576259135
1025979879
1784144360
442167920
1174722227
1831073947
661365733
983337513
942426249
954121234
784019016
685480384
1036495110
891238583
1982319126
177048726
324446768
734981856
1661102834
123759479
1400459967
36373470
1058637101
776355069
1918695635
1916626382
517172484
905194972
1098269594
775829528
1247689645
1485209915
86062611
1470007135
337526399
1863993500
1608532278
1251821175
1118039091
1531831432
890461670
442995048
1418880134
968445077
656420737
954547028
1761572175
1234116475
2065968707
678600908
2130061635
1790409600
1986648320
1021887981
182771251
215326525
939126680
1551153477
283108011
1724469399
583120283
1608466689
113352043
1331498615
585579485
621137491
961624740
351406033
1929687928
493206061
1270407803
991616164
69453698
498780592
682915688
305538683
1299316556
1926363690
1627511919
775538457
247933198
1121031445
2059125538
1459618522
2067188642
156732664
560464533
629628755
1325769049
133112011
1990358157
515263587
108796241
1400818026
2003655822
1028887668
1093591763
980380813
38819319
33854494
1467383505
376297937
110021094
1229077213
1173281415
935825145
1155460625
1414910814
1425535351
2005123981
1311394419
596546488
1213233053
544849371
352372646
1962997054
1828949017
1187344085
1921467869
1950405968
167932648
1343968844
1875556800
1688690070
165894090
1587326790
2021708834
1356182407
710809597
49079377
1415524200
256209296
406852683
292113306
1615988144
886564576
481299460
830745406
16478124
1534402446
1656422097
1029965205
738470515
1944827186
1648563934
1258827079
770106820
794978043
663329510
1062445546
2113870544
1707899235
2091706803
377435124
46426473
1005707235
1821604451
479457521
473661290
750529450
752674952
598661069
583370265
2123973767
915539215
1559156122
1150752980
384100620
862777691
1410205865
1279247191
174716758
1739735257
751259182
1590364088
992771080
1723081704
608769407
673443011
1221430300
708352477
1473620
948180162
301589463
320580274
2128065492
97999581
41177070
1806084647
247114792
404552049
1785519372
976585130
2427199
1609513262
552980733
216203850
580410829
310027879
1015507339
1695891265
885633436
642633756
967009901
199422108
1343048641
814386469
2026461183
1584061489
2052573297
1780599744
302823587
190204316
1362457576
283305713
364760180
1222605550
1262022673
675775692
1857440098
1020604446
1552031629
1376058687
1006290942
640954440
1579047513
244074421
478280445
1376771310
1864559257
834761136
286437489
61000508
562220994
945003782
1162451267
964716294
599837774
1849591322
1106762122
536911018
1002354777
2132709835
1076584761
186551165
1309351730
354444327
223480731
2310075
1479418623
460652210
772311171
697660796
865511639
223569435
776342540
101147079
703122871
1924190444
1387644576
1014728226
1519296977
1207459290
674178518
1060735532
747384235
237719949
996006876
1208753530
112705004
619896201
332050578
1057022561
1268217695
1481403874
1654004058
1189306494
491074590
932806603
777361748
2026634772
953788019
1543241613
581233071
1245446975
1207944768
940060424
186378723
794796803
1517389072
1660228605
1719294048
1160712019
1346292167
227831258
1744458186
759664963
1491055953
1870345374
702192241
1198894293
1244868271
2128846540
1162980688
453593746
1974122437
770813851
2033882491
204270022
1225033896
874728688
32279988
1738070822
1930753180
450158208
1104046264
1629192849
1950356993
1474523960
1532412312
1469030771
1969537728
966094765
1649013779
184133973
1998178456
1125303504
1395055784
1873089976
1715368126
1490398548
215179508
1799016040
1644121337
1084028109
431603658
250188375
43010942
8963437
715631008
1272539316
922555194
355139217
1054875840
759372855
1536206781
1182012089
301015457
1436859574
2037732920
394620357
150868732
1387014636
860743941
1704092550
2119171541
1435542852
967386201
1176020474
1931251278
2075421807
1028688386
349782735
1553259400
361192284
882075279
1713056424
1919744057
1069782724
1808737443
970997518
439175699
758988290
1083566504
1490413588
1136569090
765339135
301234647
870986565
1220694273
1334221498
1601725684
1938717125
560365169
1923885460
1136097722
466652831
109640155
951022713
1849262858
1184068686
1645760229
25299617
2076527464
1968217148
1002755735
39144627
187820507
1609214884
556959414
204166416
805131619
1849346860
1576831656
1094904632
1795768926
908164157
821797982
1186430475
486491444
1745090375
157307571
1909335471
1962754116
129962651
928105461
109620668
827004711
674803663
1625459774
1463265237
519744278
467186485
1967924939
1927579050
544415521
743604356
1166163440
311212951
570975441
1883767494
1515109199
457632314
1189089252
1030699353
357015503
1435177249
1065644846
33771125
588227759
1744226652
648479650
6960631
1114809032
906397364
1874003572
2081936122
1695466402
2036130615
1710326600
1591191146
861632777
1179709575
1914667604
969278835
117390823
714904173
1467453189
1164039993
2072321492
925098297
1481606560
675273561
1185089067
200184675
898344575
1409841233
509730203
1737257238
1128788587
881398193
211313783
1228786906
1480118188
1019340364
743038341
1733887767
744748405
301561380
1855552966
294000498
1324523633
754872705
706978964
277422025
838733596
1172385403
1622006852
863307276
1716995469
1049470750
1413390951
2084509287
7019114
80674866
902690662
1137487336
1115917017
207984475
1826600900
934538268
264721962
234395951
813218725
1107848677
1450763012
667688817
1728036584
1034751921
253062016
1363466079
62591581
1338226548
555053218
1247948908
1572606680
1492395733
1966045010
1282937124
1160342104
795006424
941493385
1100027743
1761154980
877712603
1342837089
738352260
1883979592
1585297063
1239043912
802801055
2142683916
2089059132
180966540
1542445061
1006150262
1082962330
1573034035
1619400884
949429044
415771101
52946643
1434120675
573161870
1851215906
1019221531
171713023
1494673383
508302967
1722810704
364949736
448294893
1587877538
159305285
2096328488
1140320740
1127855359
1883666578
1243020221
697544181
1018186439
827434496
1473008178
2002629412
901207993
1049084845
1585766739
15020272
1624947925
2116577544
55126258
1796998760
1533935288
460784964
987553921
396946297
2395928
840422047
1281992004
1068984328
504438789
771691326
452538507
892769621
1189412307
888378607
489166261
1318561058
157839508
767917552
244975777
306000718
860170132
2088395046
1859693604
1273781314
526101173
1372559779
1298524191
1336975144
603772191
2006183904
854247283
1254327514
1719686967
1383695689
730586781
606670921
802242834
1696663741
244070877
332527454
1470731439
2000630507
461886317
1077191305
2052448336
517835377
1705939436
1601041839
1861869664
1222078445
1233702553
169533334
1517234706
13922992
1374577364
591114939
1157029170
539028666
2096709561
1905411449
1192714020
904259238
1104972616
1141627483
874454126
1784759492
212420361
1005047821
518345507
1373583969
489258573
476846552
797042019
458622684
1377500289
1226342343
2127901544
1101330691
1781697323
1751754570
249101702
1704443006
678475874
1918690014
2094223178
971959522
292627761
1191561799
883191922
1909387996
595417896
1118215125
982048885
1830168482
2068589466
568091432
315119569
1832600051
1266062634
1771039480
1693110979
1886718376
1691038256
1803318186
841786213
1745638600
1237921549
1765619013
1426754589
1507412692
1739311208
1156752993
31383878
470610395
328159624
531664193
648590449
1032323557
1381548639
990238571
1379272090
1411383884
1042861463
1812937287
956956137
1431547089
205750159
1806015386
7877206
1292868300
1249207308
1348026607
781053174
960772294
1662989394
67815690
2005041132
137233158
1395723791
269675232
528981927
844171760
1031680209
671743770
1240646878
675855858
720520422
1818251033
1423480507
1336738736
1330719048
1930964493
1246977422
292393236
373967356
1041422652
2127396045
119836774
214466096
1669406599
633926881
604081573
1854369453
1311298167
2092756626
1225632201
941065231
542113298
633490379
195696624
429481136
1832839449
1776829199
273277077
110742402
711580994
1563033862
981987040
1670864338
1785968684
1142838075
383411344
2044356976
693781102
630872480
1229206859
1718133680
708661364
547373598
2005273735
687685309
609332005
1897072920
342849689
1276022886
1034993522
63456529
621895408
1460289634
399906489
347142262
263371069
1477508664
2059114394
267545441
1065916621
1385873321
2024115560
1357385527
1733456686
1150060333
902789367
1613194981
1880864352
996717015
1414178955
2076113686
679716164
526568871
1568643158
50942719
336362314
1782577186
1608719028
1368192924
1225972095
1946993735
1485850621
713194852
523139644
1473357975
1704474433
280598176
115158339
781120916
653819585
1152790038
1048124591
2129220699
558463809
620660858
932927641
1141886013
1716871492
1387491099
1663806338
1451512186
1021908110
1185637044
1098823412
1301273396
2052049138
1902761094
2130925308
541786588
1024092698
309029293
354438887
1631855948
963890207
694174905
1510161878
1743526757
1310893051
1041061871
557963794
387081718
519718611
967688180
172914283
802812094
50017096
785196481
1491127616
1152342031
570712459
850667713
915674632
1743370122
886463192
1436537258
68903030
501153589
1925782092
1427966956
1804417354
1783943868
1439020473
1442916499
879204024
89583309
2117389398
1234724897
1829571541
1536956528
632471725
465800493
1419527659
2059571817
947566523
1709012558
186830876
1775049644
1520001399
610386018
1833705344
845772256
1327008144
1399681368
600696856
128545594
1819569924
1616030064
1441970180
49777898
46916774
211312248
432266436
1613758942
1432107384
819928406
728993504
1978104735
167372918
1145296095
684222031
1594375827
911675805
653895561
74127060
1729027625
2080946569
1827915277
538407873
1246723286
1901842941
1201164674
2077343086
1070370990
1714096601
865420677
727790511
172503938
1762026919
974154437
1248916394
2052650888
1243455545
1653297385
1926765418
1533757053
914248079
1693733142
1202337222
968378203
1733746852
1098749923
2060513169
1197165815
1175403247
502478899
1242567371
1657719905
1328043141
644433031
1265945537
1631181521
1794338976
825946663
5321955
1125594068
1683108356
208913112
151333643
1641990087
449868505
618379001
2062903725
1903874602
109634781
620726456
1160900421
1618048948
560298522
1018031343
1064085895
902556807
1248630024
2005065350
1912695167
65282759
1022099678
1664741464
1559240764
1667366962
1047703771
1151379152
2127192598
701570316
866798084
1008851812
464860228
861407756
1564570300
16983557
1203773505
523902695
322431592
1150111551
2129825803
1257033678
1845324452
1551420065
546337413
665423018
1777618744
102185441
1916217396
981804750
856229368
1775433173
1653847680
792051480
1798260515
12427463
445859042
1641036933
1739986555
470204904
118415584
602294918
243501595
273901189
1679002019
1166925555
761879465
1829751904
1980204441
318457872
1524842678
838079588
68025564
58114997
682625559
588577861
1378475843
1184275613
769035537
771334505
1220612038
818335968
784814902
1213156003
708892808
1078411506
1869353579
1257519901
784639808
266953891
68545983
171084600
415240761
217483903
1130069187
1310985357
1422730043
700947746
1276616024
1415066431
2044718292
246903392
1742342621
771033044
104883797
2000199922
1799011073
464265850
13340632
2029510211
312545247
2063379544
891084457
1729357363
992984336
1851484827
341897653
1536419715
1017546340
603574268
1538428255
761625518
304791152
2097485713
2080563295
961225719
1829211778
1498834605
1588465395
1749307426
1033308052
1907160933
83691639
1175973161
866449876
1957382814
670409349
1187674753
817665498
149971548
1761213929
166242626
603050855
1757807576
1389900507
2125431221
1205314477
33358439
1577796653
1144721975
1081337731
1588629703
1645108566
2097456340
539111683
432643135
1489196348
219774477
1735805746
1144729073
403536626
1586701074
625969792
1712379450
685877853
1341794117
1903027428
814226890
707569539
1549566937
351916615
76415222
957400081
1560310909
1368388689
588869909
656132691
2025643647
1484883769
855367507
1513501196
1830830015
689609127
1105252008
153918769
1504650004
903810414
72707626
584358681
363012117
1573871374
1523661674
216905077
1555259597
2011575938
131640453
184534201
1200599046
1679802184
225632910
77040567
282529753
1316735152
1447781306
224566332
393402086
227257941
553180465
13337413
1667192821
1195181988
436334209
903298444
705367928
1269965099
727251643
1193603850
1804949918
1595489262
1177027267
638647284
1112912067
2022938160
1306888302
790375567
1647604863
1297955726
1372289007
953706965
226375321
1418108135
1810438675
498828512
1895469453
1219555636
1797853024
207183997
1764722641
173956510
1606701378
2024168474
651847911
646374692
935017790
1543702690
13058113
709042682
1393403365
150086921
2102381418
1434305684
1435168537
846848520
1038809008
733797583
2117283304
1716612719
2069227931
1395911098
1916949777
471583618
687835595
661631465
874407291
588310885
578788425
1577903082
1820436841
580258562
1979866749
420118085
1046083219
291926670
1924246691
1130954745
334886981
2047694207
440709552
434593873
775520692
445782405
1895766985
1255067511
1018292236
1750587286
1737022422
618544837
1736664372
1079060754
1042770624
1585885474
2051572042
248069163
1224841465
331960961
1226606005
19083089
1765204795
841505032
1999238830
1594930673
1588810165
658222256
2016810507
2011235562
1254678092
1201297448
2093116644
598279801
1404527261
149536802
1920818909
791008851
1433144781
1392747696
1624949493
609912438
1809933319
1497622663
734889783
1091185368
1739113344
506405383
750475735
256847313
1699115812
2026042060
467885075
2075192464
1277770041
736176276
1922096281
1865980787
1780906179
1567007951
1083381961
1663463805
881055986
2074021323
1704134768
386407765
1874293254
1692812742
956313265
152142302
455574693
1852353634
1768781039
196655346
2119350229
873670170
1045892363
1387684227
417980117
1826876511
1835686805
346763920
2139375540
1408050933
1586031021
1707857792
1521979811
259672734
132079586
991171964
1316752109
1558790865
2106165272
346174946
65443771
686317854
1717327833
553368679
1734418212
552211829
1099891273
1109156349
1772782458
868183775
1193022213
944789798
839327295
1684693872
785616910
1442503554
875218901
1129898129
1345790905
42597484
75851131
1465492223
1465470860
2046346843
297467774
951834458
957916689
559980102
439377710
506102452
590351637
2017128674
1219835281
469021181
1521813517
554968529
1534380356
1536389887
1438452398
865131715
343289149
442405890
1526911603
80113970
1930755584
1266756858
344246583
1376241371
1509665179
1247735400
1211461527
1030184388
1296579490
532364020
1408683766
1380953842
1621407211
1964181231
406451187
1404227598
1027337380
1857716385
784036024
1685217338
1536421368
1181712606
552986241
767605670
628551533
624018074
1275304247
2119989411
808699145
1683088390
1036519459
2024221475
530505430
180891248
425365910
1152938408
106745643
218375716
1993022435
1588480175
1075796359
176546630
1014614220
10200977
1318979600
2108830080
509259498
1385587964
842222177
259160313
1100913707
2055561728
187112395
22113674
2035933275
1483735043
147861672
1709541483
719462102
858774411
1205120588
679102256
649865624
1418056020
1089693564
839464015
621994620
313739795
1306436582
1253292060
449848891
148426498
298937877
739160015
1183891050
1182459463
1068001565
296800044
583818224
162412237
1197944767
1922353013
1554684067
646706331
1764964925
1862285467
85852788
296719616
65883219
1673554115
1811819728
446614432
833776601
2091763060
1928973186
1042075020
1689083708
226962073
676975818
394911293
985772738
1767240705
531540838
1536172888
649676875
1705759962
1218466030
1837023606
1505586178
808155107
1916444730
198459405
