4900
807816769
1122224198
605901270
1754107166
879180459
407617849
1077669182
773719225
1592356797
1983626589
553942807
545670451
2127518727
696135836
1145853281
268565686
1174908898
1408211380
58502883
78078330
120823452
646327930
1165156923
1289052711
112929037
1166725200
1801915224
44015079
63467632
551831645
270680763
1864967358
469962660
91605878
1894603421
1073676195
1325694543
1806812905
2076255774
329482582
748583517
178386048
107038412
2006670672
590117556
2110109304
506102713
191728049
1900620158
1464318947
813541034
421979685
1885398568
1194061225
2144330534
353545493
1136283624
322347376
1904854174
460892949
1907218366
1919817418
1023255529
743587764
182803133
2050440076
1675536135
302458268
1167901743
707704633
549537269
291701426
1492957330
1191133219
542005543
907329674
1858619080
462829390
1710338255
1210625195
800498425
1664584780
753742275
873357367
1089595566
236055145
1792638120
1876652299
2136204548
1158949896
1354570715
765192552
1595533587
149231487
1141062035
1939966114
350790680
50225852
1220206210
14863024
253298050
520880157
984070106
882555189
1281828795
1171305070
2060281180
91915055
1195131297
435218748
1665028002
1843256745
2062328201
1646585050
1662453573
261303179
2053287709
1534272250
414132691
854093312
634385775
20189810
405327990
701365583
1193096610
1874858070
1218938515
150996906
988971306
1640540954
1654114315
373807904
1313889127
1736322990
495978225
1007023304
517137626
1505918329
74725894
1196808485
366480458
852107899
849671060
792507583
81906278
1621933980
1831009936
544457793
2074960554
1434826038
514885014
176129140
647540338
199628457
907592017
1877256834
1578004185
1836640110
1105669659
1147921677
231909142
81436368
1693928097
830825293
1026031391
583332866
1667620427
704456143
1189555429
567276353
260884204
1263605470
985753611
992565516
1255296903
605678205
1862722222
1774401222
506793590
337102496
2087341185
681238359
580733782
462664704
861560034
1809390264
152890836
350672242
346711362
195863306
258405186
2081974478
1969416898
1927276518
216493502
363040492
934496586
1112218487
151324979
1989532721
1763532072
1029932578
1932860097
626503693
538195367
994648867
564868776
1133467229
560385866
47416438
730680875
1857023671
670029233
1732181885
129324557
1172643125
522415689
775626987
287929549
1227653640
993266293
1060858157
781433120
244185873
396837295
1460359331
1512200189
394504828
1733538702
2043057150
727282329
1640155143
1189147333
544655395
1283417281
599144751
1828878006
649541323
1902943281
2115760382
1103533467
1205863107
1973941471
1230379182
1483900747
173642696
1004052715
102825947
1568960386
1255754529
1085707690
1585370284
1150578536
812154869
264405770
214574051
1609416832
758563599
1747865835
1811947975
232314601
1331194812
1686054289
1702082960
1303349984
129133399
1603400786
1698326066
1492405236
880044631
499880741
2009322016
1254447756
664939511
1901943231
808272021
1915030148
290273903
614942441
2013379671
565185978
675273684
1843441523
1849168187
695911761
586829218
189821949
73370521
636394713
235096441
1736294263
369918286
1889561699
1269616859
1222790518
1203085553
1178133141
210649598
415709212
257100588
514324145
1460974526
957697701
1647325774
1123836766
1068145125
822211548
545358471
1582835843
1108848995
748782458
2020528773
496702996
1071265020
1669873960
526621647
1803312421
2119850020
1992478440
1771436575
1961634690
452529581
915352271
1960146132
1672891699
1243287873
73348397
1288867384
595515092
1500593653
768458643
607132783
257021927
1423911198
693051927
1993304395
337581337
1484850937
226908730
652745387
647678575
158455553
1883746636
1738334956
1629255067
1645402210
309455376
215873710
942975021
1974814190
1508308813
562714539
1926422959
178739695
453851655
1910556833
1962177122
1757780849
392316955
158445965
1911907555
2110878119
1590180228
2028121619
1169977597
2146304127
1834385427
284487538
35321072
29642015
1872184365
492791074
802814287
2062526811
188369868
187542849
1494038941
443771096
1650878763
1265945571
744830837
1343937749
1139961846
743353462
1733907603
1422170235
451851331
1328376054
925037885
414842193
872943872
1421302532
1721936399
1649676047
1466791315
1266480127
2036884148
240029771
33618996
1744395434
1110943750
1313498750
951945401
158260797
360767018
1897940573
89779763
273682929
1852346120
868526040
592616875
268884411
924171275
1352532724
1084415012
1862934594
1663056187
2119062354
1972797645
357786017
756551303
1309730071
993868662
1516567235
239002426
1559062608
807953001
2033336984
1907125907
304172644
1732004178
1767532888
842462105
809528659
1283333847
440869336
613991027
1303243819
1608995678
769659126
1164690196
1546549199
510101177
1973683725
481560356
1047838364
1834876698
504953772
114451630
94975146
1022600851
564387622
1423448000
1343103143
1507758652
1291395356
475295097
1694560147
255332174
1417088449
416642369
297390341
1160657581
853208426
796179580
1967823803
964304361
1189211168
1994985213
1501428011
1118000746
1720109643
481706734
1767365356
1195000668
1672303912
439618058
219690408
777108412
1194108559
1782893655
1858143878
245451978
1414081885
1387629030
692100716
1171849350
936345029
1516226075
1736521451
1775217544
455141851
793147495
1069469262
827638608
748871951
235341810
1654934431
42908914
203561281
773278998
1154542400
1223619258
1792704116
1281989528
1015477047
216273616
334818091
674223537
610578070
60036388
2070653206
597067037
1864938274
1829157497
1583790195
1014038055
933391458
457806233
1900077353
921668150
990900351
1698072032
210143953
513317083
1397365844
329643657
1130323065
803076919
1900017515
133518132
1257481591
1321674154
1197629629
1860911908
461278501
1699314245
1187054259
1260540959
954076192
1577556754
1220120407
2118332112
428976974
1850786836
976897172
947345106
809045134
72953238
1555609798
1503490122
750992231
1959032532
874376832
1474825680
530564298
1824200620
569659
732956485
1113757604
1004788525
703019274
274945948
1181461649
1002070540
1619597196
513377033
725841648
1876667426
753560456
1534494273
1132272714
1963043734
588865010
1436896120
940537213
1921441384
1832314111
1213376779
120968643
74117421
1303630253
11659276
755604632
2045864214
1493902087
1790169690
1495632901
1326667268
240821042
901335219
1304685252
1964838224
559598259
1915380052
1105750768
1357966156
928443901
1559956846
1632033671
1267211812
199667760
1179011277
1236770733
1802139707
1766441119
474533493
791342989
737560928
459726454
606361603
472637547
695288401
59712770
1307861977
371471582
1056661046
910598198
1507689098
1102181563
1570559294
326314023
803221006
2088750561
835196537
343049871
1549281142
1060191414
516475507
448324082
389111144
2064874328
767090084
1555591760
335239779
207895147
1203016207
636714370
354695888
1126113776
1898355189
2050595633
1556359986
1902319719
1042627045
1261519150
427978458
1604342805
1576629073
1382979559
1446833560
2078290571
1711879736
1232639600
1060850261
311941460
1920834527
608003766
1071022418
1553374717
1159604417
563548607
262016547
784414268
1090131898
2023847005
1042520717
493531323
2073602666
549616305
683029410
1849439359
445220169
761636134
91621785
1086097898
1447956828
1972098089
1397339160
1722313401
1102374239
1114660001
106824314
2053937676
1591753216
128214025
888754304
1530053900
424698472
841057546
1485530579
1393699539
1852526462
1794423660
1795349213
1293225087
1679431979
1027774525
1083246625
635692698
1731564087
1720041026
2049276999
1258778441
1234886827
856204974
1292499457
164782340
1507926335
666610737
539492051
539232455
1959334317
1571315791
664850549
1448386376
2057290254
1516447566
864097322
582773063
1089294238
1543248895
1450765362
342269787
1793632075
2114993444
1570872930
60890727
155799446
1354489917
1249493578
1278861329
2083535549
1901031042
476116883
509295299
1342218465
1875339689
922493953
1075309024
807527277
1260959527
386611724
1792532072
281244995
302134542
1331267238
1157027423
1524354855
997496336
1938917400
1359330846
867919952
406947274
652037006
155178942
1806481850
1250104579
2019316751
1055173580
893011915
97283655
261621851
977781137
13874390
1888801135
1732225234
25632488
917166971
1525536926
1955909256
419008707
180482158
497419161
504459488
25541551
1296280937
1478004014
1274049598
775091025
1667138210
1779140253
694271859
593812336
50057684
1914518578
1565711114
1867698144
1573662680
1214374226
366286598
745280742
507621104
1609729220
961165610
1132056335
1932603883
827215165
1822470931
745522135
1693697321
1250884865
1577607380
2046615990
1359020457
1636941614
1739116206
218927279
790329096
1196767889
637667386
1653197395
759700926
1659760413
163638619
114620867
1038733622
1704057239
1022366141
1467851901
1702482575
945577969
1737368184
1559288318
1802916417
931890595
2008208403
720202927
205521695
639068136
227236244
1605300587
1740616546
1604649387
194470348
115378361
718073927
771045446
263167612
1451781540
1466871674
1242640224
1098830254
1899843465
439288117
2023023988
1865835758
303460598
1222298482
1536759762
1634174681
1139249418
2032569124
64843545
587845940
108632810
332472041
2113139465
853047297
160505453
1660787023
256821126
793706299
1857261630
1486691085
305213522
246315174
1337741809
736212276
1587862765
1486113576
426934949
1926452118
1907654130
516653041
510695176
121613925
189571082
522295675
533641560
1415464398
1178849606
136835405
1713435140
480338602
1026231510
1323998906
1719277577
1565336021
564621100
1539695684
1413777592
797803992
1127625348
279127892
1776396342
1692701041
1566307114
1258712212
522267066
518613456
610286445
141910024
1975590896
1215398039
1792432187
1004593689
2034750689
542951059
1632924890
786046441
145255116
1952310626
1557790741
2038179963
2101560170
1010270820
1065768801
806561239
1140011351
2080868436
308329488
1571420134
33058643
777615814
370314958
1053258972
1756520792
1960364944
194303060
1875125435
1748573154
1889289962
888275381
1715570753
34059638
1763931059
291311676
359393042
302538103
1396640414
520018452
147826045
2104704392
1463644004
2012921375
296428367
1410408849
668218234
1867222242
1455825364
294840083
1365221219
1698282481
787984919
1372501684
590431777
1649140346
715369232
1943274437
1925619342
582122987
278439947
1424446657
987801084
458227192
1456967422
2107036494
2123729431
614340672
1206754827
1345889460
1653955515
1590781394
296354614
21236211
486197443
230442475
1779955999
1595295823
773906082
437390205
1271295475
802445602
1259787320
415985877
42349035
825909979
2087378008
814568351
1575464192
256505791
841285553
1880275488
1591811556
1944592494
1877671888
666574408
438722326
580659642
979779756
461243011
1356543583
1757429392
421837585
1772408333
1835608640
60082090
1313732318
1305211183
576839858
2059899847
1470434656
1993101602
1568081177
1327482860
1651553279
2035154113
414234231
1109366694
369249559
2145724593
1345027605
1686947216
1991574524
884634369
46583112
116452069
626912725
2145349853
676135948
407013574
1699099807
412123390
1874722548
1946673054
484985252
247785769
1686449603
442797906
1942560401
1569602127
1233400183
1235419260
1105619177
1172831279
217776760
1911198570
995290038
616079935
813080265
15964591
481937856
769967977
1544503540
212473093
463593577
1903538940
341777736
1892696198
2137663727
1324622793
783984814
80863447
236462939
2117625305
659777295
605641625
1647397064
470854956
1762541822
1549244598
1291355424
876526388
1727423093
844081680
445168141
292407950
458596645
248986579
1667582105
786547453
412838474
182242480
288990102
2126558733
1415264529
2053418563
1520495170
1391960983
885757193
1133366613
1005488735
366708008
760125505
1070547335
1494280638
583508747
1588395397
448767651
1053235579
1981427716
1003271887
1524055065
662867886
386936373
600574678
2109590757
980281864
220306047
915029111
1389715769
825341839
1704911175
1623635908
64140572
1798327143
1165007596
958384485
72645042
856790744
1039830888
1197071299
1854561605
1570245407
457376550
863518192
605870969
1859617990
614419193
575697376
1604769063
487013570
1346807855
828441208
1009906031
1447543639
894201191
332718497
356959508
1624637956
379742738
1186746188
54641549
1128547843
887398235
715409087
482211499
1550996100
735001560
215315756
252084000
1897757417
2069880950
1252243596
211803296
1996604573
2076388324
1029121224
35257963
195367415
1582272391
89625344
1987844868
1325749267
82733964
392410906
1975210266
1216529726
1685353169
515685948
1624051409
243215126
1435129725
1531933945
410400
525017351
719765258
453244402
966284797
874146359
448429866
1232920431
1461511933
1423461317
72360139
1370428021
1380013995
366276522
1509928295
819656696
834869972
778358286
2058863373
579883020
353225856
27992107
226291795
965052364
636228342
1088969334
2086688908
153851733
1155286555
12955242
2072944802
940009594
1706680385
1899402645
473440990
1794753674
931968676
1638490929
1110665939
1975438196
1533999382
1499455111
1851456151
487452861
463141441
1307108761
784815600
2061730458
1154597006
1741952580
690378641
1033680971
2037079457
1339589216
445697177
112150433
243404613
751265816
1398757611
501580880
1086924529
1287910680
614442009
36177141
1338030800
1784221930
1743441039
419287543
1394023726
405155570
1098786095
1510743094
1730747826
469510247
2006398974
1409186394
447877311
1684217677
959714201
1281404841
1490853853
1235380235
1903746856
68352640
1610965683
1971551177
1276884601
1445063184
782253609
455668547
1515703779
1995095106
751930824
443713600
1460199299
227886461
980161279
1082597428
1538252442
973888790
774155711
289267295
1866593282
1438504129
1005378790
1665089123
851624716
1569388138
629475053
450311716
248181859
2003995286
158828750
1972461598
675023885
1855809102
432902034
584592803
159548421
1284932013
2096019429
1408246080
1491546504
1721210484
406615711
2143817991
596701511
1240679744
85608638
1295478903
938973919
1791345943
1983097869
1885577888
1101610465
1412765820
1542512388
1176851877
1398973921
1504300096
606824741
442950441
1268524732
1820933673
39021450
1284815796
46903368
1109027406
1112979609
1868093632
2042440603
1633567233
1102754885
251279156
1233264201
12880325
1199177078
2077841548
1704564596
1338392447
341236847
1285738164
1410425738
1619953944
712211596
1173409030
1451329722
1643850299
1948314616
1932837720
434309837
979206883
519431076
2128740221
1650653248
1468339633
828266566
1039292446
1265810933
817665567
368365990
1828576936
460768017
58883598
286690247
1262393841
1435782647
1139158396
1380146844
301549555
591376433
227708713
335179290
1021585499
1649130181
447694898
31761238
843370163
458979950
1642163505
1715334127
396229760
1605843933
2094317942
1821262433
31884345
212195249
1557560398
417562348
912405031
898320198
455776359
1742532400
1532346420
2100134065
1592043770
1694086747
1173278425
1906350770
1647130761
1639642612
81324098
226179461
352104351
1498070518
1561889343
1410613938
863289737
1903740040
686110839
363518315
1646355639
1929242366
1717278333
1132045033
42618594
1536403
1174440571
1523995296
1990065456
1101737935
791570245
1369341512
1906262170
944063744
2057641621
357743257
1096701383
1465961444
295074531
425787073
715555454
244072399
833053383
541020577
132725639
1696246767
1283400156
1578614119
1364186187
1379050527
1402846088
1256623060
293385133
69993817
1062356500
1963706998
174396074
1464696115
1103776609
1685133154
1909211958
1293605646
1565733993
562345253
889814441
1787111289
2131147470
980084420
534853546
2087552277
1295737699
736531502
307954134
1594611780
187826273
1654273753
631041692
99235928
1234779099
476187928
938835891
658908797
362817863
1219008399
1415388491
382242572
1987108998
565599345
1238897575
145068434
1259085863
404616257
188881371
659886262
10417855
1283808817
405561080
456460951
596342310
992844700
999760335
1552333168
2071817548
1740215600
1567608362
1700232092
889465490
1188382452
2010948465
436634402
290080161
1451111369
2038358670
70799225
782529167
1288577750
2046067902
1160309829
986733345
4793085
637696307
1903033008
1104970192
735041338
753953728
1499037906
1389505358
1937181501
1086264154
374243987
1566200232
379948791
1728186183
242770319
2042011075
117005272
1749425804
2104886679
1049061918
714407996
537744756
1906953349
1576520811
1670796198
1200176177
318718807
2114496682
228029400
291302626
1897375032
500419310
2101020706
214927918
65938622
1539312014
753192525
1257784495
2066021247
381644649
618622585
680323584
1833714540
785411764
1414567725
1796995899
1905497421
387652108
2071749188
278612449
729248392
2116249642
1996030142
1146363832
1360753862
111770926
781430466
1683352534
975324711
1710292143
566751391
1589147977
234119644
977822956
113907282
1846980051
898014115
248082533
809895877
1623904056
1171353902
1198227486
1897093643
513102427
759832923
446762472
2084547123
209137831
130976975
1272522547
1257259652
1051248526
429186731
207482410
1622935209
481705330
315620296
1042883833
1514055519
871002203
1658436649
1315422116
147201915
1884384465
181660250
2072346228
2031843160
1421568829
215026646
481922972
579326416
239687356
1169551779
1731017334
509001777
1747704543
891621484
922063101
792124989
811465467
1877254219
272181801
184137435
239349382
911246831
1593500912
1213460542
540608914
1770586566
1914876175
90095491
1831889165
1596926304
1216176846
1388029528
1404709524
1553999614
76319813
710636923
533555586
1337999690
1042243634
940153444
1424311896
747023689
1858968472
2096935674
35140476
731587781
1619884168
1590520190
569560333
2138458092
1404938362
2102696269
402601479
1922417794
68965807
974240606
1375862600
1114982136
1245982360
786078057
1796576541
1880961541
1365800740
1756711773
1793930669
674766719
925443053
383613654
1537765347
1371547707
1836579652
2098589630
1958750444
1131738116
1554497717
1535599680
28715680
359371437
232678918
630038985
2001746439
2099846087
339953338
1274274844
1514648886
534320807
2103601525
239175242
779532757
1196469081
1197329026
970454791
497800026
1806670377
900050448
1958933680
1634546014
210762893
1527839310
758911340
991192452
1641401488
1380882983
100827099
1774955025
2102343188
1674110682
449324722
370520048
192327231
1110710884
1058340250
380171527
2059916263
354470512
1696706878
1116185322
1849170028
990603678
692752130
945615903
8662810
42062346
299612823
457777968
52643324
337107023
1779935331
1097130143
215025107
1694753978
981001107
811946308
1488935565
1281136071
1062213860
149525640
681640822
990931731
1644129267
689623608
282979112
550532836
540283623
1533530493
1331841121
910629035
2006923978
1447368347
177833434
924040962
1540305943
637176174
390459999
203731566
1860822561
1369940920
688273782
19392322
757697740
684140247
444179385
1575737344
1981594452
647715460
1192500845
514418512
1573562682
1024185225
1104350321
206555845
1929168483
547209384
153345576
537623730
789485531
1531953694
829256070
1801533028
247782148
2084718398
1556953878
810939121
1657598742
775255282
934884636
1799157922
967154685
1459983336
391616728
1239739393
1540483036
510592730
1065180722
1778182521
777487020
1518520434
1130660898
984262649
1856585362
1683255871
1699422513
57320130
507439109
1066060385
1313618682
1551060153
456876692
1268505136
1893951330
1391741154
1319242799
1704823779
1705784386
95071864
129788525
1974718896
319707044
1013142004
259071496
1531269902
1973921824
1461983163
896343983
121611217
1751440748
1876250187
337658864
1406403010
1482299360
727978175
128845646
1295358889
1636577667
2104930428
1460904727
654466720
1727780334
200026158
1441032465
102714605
1365467662
1837077796
1344104500
384916477
1027116432
822655660
1622235170
469490397
27449876
1894943567
1720569494
957177906
523750331
815840086
586857102
994328813
1315826063
1604148068
659892490
2119405060
316114379
545749697
390484363
1402051364
1767263736
1474023616
1740106158
2004421746
1553507070
282095653
702988734
778399070
72464820
1956413569
487893251
292834900
817726219
1654980826
813341294
1754524495
1159814262
774345168
1379676031
652761697
152733546
538724355
1597857388
986726776
28011168
438797860
1121680492
1660032078
806918672
429186860
1420462953
500882362
1707517526
1601437943
1165479386
299336442
829011538
756065788
1945281141
1993453201
1123542636
1377734652
1283238176
471407133
15692005
1007847911
1724002113
404913813
1788976890
1279357660
1725686614
140837088
1213431677
1954434827
1054527842
60762173
321218794
2014339988
1220519925
15489894
1808941194
821712708
1342063342
2050222174
1752664813
1605066263
80642482
2023395662
1991722026
1431530141
2058051926
96445383
144998493
926115985
1048666753
749639294
1074516809
727875375
1076704521
1234055025
1288208776
1973508927
1040952300
1597387494
938965014
1693745558
410778067
99915910
1593379961
1893640351
1851078076
1189825240
1850901925
120855521
577775221
1536126033
1033923542
1369449784
1837520744
1358112399
48930969
605388563
1724347577
2057502730
1825259395
1401081758
2024140640
1895807632
1341736506
1715743154
108784046
186497374
904397994
1709873271
449407829
1548939074
1061967176
336769128
1290591672
968643989
1987616111
1646471855
676777952
740551025
1520473461
1307346535
1046086599
1993355970
506845462
725791625
785957130
65425914
1202601904
1825162429
1529901720
321361566
488963106
743352800
568625585
2012454294
6784506
86307433
1890167648
127399683
572475436
1227003714
764552187
286676289
938023723
854773007
1866244890
1403667062
709592012
1989730014
923156675
1769430663
2090646537
1931218935
1600178524
2145986219
34177774
1316324922
864964862
2137866855
1208858002
1861827737
757272849
1884379744
2010099317
328400105
516852640
2058188403
1290759759
1045455578
588052527
1399055390
561679451
986768630
2021783448
1080009760
1943399953
1146415229
215846956
442130945
881739767
759486980
1380741744
1385361698
387999089
1814647125
445941021
117265219
300562801
405617227
371112214
395659093
781563475
694355877
1011820091
2073845410
1164865150
1059450283
1303146356
1168940169
993196994
1091576741
1333227100
1504222000
1511207247
1696542370
1400121491
1337080525
1672221161
2143237025
365234958
1534121949
49451475
9851281
1977183936
1326450801
1377705441
554238980
244344088
1971315648
969141443
261131510
886098783
127913902
57939506
1293707089
1794615360
1813829284
323580987
2144846152
1654509289
1106020036
1492994644
818675274
1968557031
1768773555
707770080
1073299865
270735594
1482004612
1555426014
1419640816
1686870498
12183227
551496092
763796114
1296326706
1939090313
1220645259
2002649314
865777558
726934311
1522511099
890788692
1708816996
321022602
43501902
1353759902
907193724
1805587765
762189764
412277988
1673094324
503630955
1516410375
1076485113
1104146165
1656321207
1784921528
1882000060
1044925182
1484086395
2131688717
224640587
1720509148
1162473949
1099953963
448342553
1076596863
988873066
932154476
2107195733
1271196349
1005419701
493070901
1907335775
1266735082
1193723652
298902445
591497336
1835625385
1539804577
953078206
897303938
1160579701
390669464
1474313002
1814938997
266917283
62156105
1336935810
1183487799
264003736
71386488
1002695865
313065469
1678224383
178093127
1781924608
1604031792
508848706
1598312837
1250294489
907664948
1930136721
1265597249
1672688806
634617758
1211635235
1531622504
1458608487
2141613092
196622638
993186568
1835219385
51454064
626899564
1659463253
746370479
1465508849
144612897
1439030460
1839361670
1594102845
1553407000
923611877
2062712233
1313633808
1748884291
1303980376
1008170327
1803915538
1808496447
1394082492
188475520
38604992
1333152586
198036022
1531886713
1488138165
314804064
853549530
1844002519
1603086543
785288217
714446994
1883768827
1699459760
688361207
923895982
1944560099
1154384092
1661634235
984972777
1484126467
1607323319
1196384108
74523640
1642697844
781382075
1234466599
1011465221
1588565443
1289286353
1292132793
1518476341
1862369818
768487972
1631057129
1508652162
798216600
122687497
1783995788
2114788915
1055803382
244948873
799996514
299675993
1306465457
1321099602
2002633176
1946788597
681163707
862586134
1149299968
432745505
1731380456
1484665869
14363866
1768503196
961098951
1229415365
1370727837
1774458759
164547798
404860856
318370728
1145357568
83891015
428260220
1926133716
2059314533
1539122229
329096637
1789913812
2062276799
1955875006
1569051008
1521433203
1699549265
334452737
934687120
1445637480
1834347591
1643437945
417921452
1085362099
753853080
365826676
1093521729
751806071
494251238
1931641635
517660099
94809268
612712165
800760421
1865800870
1733171067
1122911339
1146751115
114181572
690151878
2020157454
486704264
1403090338
4399442
1454022815
301004185
1967251412
1201152570
178505922
197454351
895109265
1710214085
1389804452
845416712
1023805462
2043038890
1841871925
122306976
429347730
1702956618
62579497
1360511867
2105839791
234615470
1794266449
1196277476
676703973
409589517
1710817675
2051730874
42633806
866738451
526378872
79225506
1083397483
2085557019
783017245
683352651
1242827648
1371908033
1580600824
340853475
818670432
2114303800
971540539
628839633
882505993
1619370484
585167909
668390067
674727932
1612891830
1008818528
712792538
73518483
1055194525
10001856
907536958
357268393
94198918
854295398
1481076489
1884250660
478233578
461844182
712134364
1174215081
1224913513
832976158
795526006
783857139
809951602
1477522099
474610395
1044807512
683420024
1183050042
1578630854
2092676581
342896095
213902741
1861248475
1500339091
820466054
1416998613
1383385743
1184236943
1079407470
592280508
1518210199
1787541501
725611045
1584951626
572348580
897500782
949286989
894658851
2115893472
819642349
1033638258
1623474084
2002316472
125984758
771622237
1360702027
1011567008
339708203
1064959192
1952290183
1417700144
903890899
1675750985
856558526
1098955503
1050270610
790647082
428384919
504805770
241879541
1445468811
1615753703
903491102
1179973849
1322254840
631149061
2081658544
73977917
934939773
787030434
975712548
1052402933
310927900
1891947575
1121964696
494512849
29387086
1747978213
1895139272
579251807
652028831
418980
881065470
2130368453
1815216521
1370751376
1946071668
759182562
2036238226
139400076
176745236
1081068417
1211423004
157361060
916158170
1473246067
1259542030
1187564818
1493841238
1198241959
1422995046
1094517653
1973053343
1289504292
1971582639
1260052876
2071644374
293427072
1182172064
122093202
1963879742
1231401925
718983077
1879788909
1536912196
1889316614
1506977218
1710916136
1821264954
2116400412
428988126
1593966847
52642653
1587207106
1786426619
1240683550
577122026
640646376
2083903652
451815802
144334963
739498216
635841658
959699410
1446718650
659734649
1035616563
789411585
132531147
1868711782
322693767
143483245
1000395278
817921707
2061443931
1041590009
1997039459
940914313
1215379737
1537894637
1696639083
1819396349
1227440421
1312721476
1200539171
728230820
1161483364
1547363886
540262025
2010155654
1273762754
1320275480
1698063468
1312532994
206566509
885165995
1655582802
2015514931
1072026577
1926742971
1111480228
1628666774
863982639
2072585132
169651810
1060443226
1173192857
537520258
1106628180
1385297830
1125529956
1512878260
1301546834
349044128
1429399734
1243999787
1910872050
1828260936
1561951637
1582685518
1651682776
1499083100
1569763804
998441538
575253882
53200211
1154520286
929838
1955873402
1449235749
1114661058
1690900143
237385847
28447992
2132973175
171464818
846666368
825989531
1992319410
1898588496
1670880315
1748933467
1682261287
833254580
1305725124
344326262
578555763
2071825435
483589308
1345744575
457053842
1198152805
1898357971
1155376754
1514519677
1623010597
978896711
1153098662
397753191
311158403
1252741999
1968785888
294828550
1281679146
249117259
1354061013
1385867174
2117153447
1833586321
1346786186
266952856
993239072
1833626919
1197796029
371006039
1747775538
1744334162
1218944599
1370560444
1355735801
699619457
1810785360
1433609587
2093393592
336096206
1760968402
1561615931
2093471224
2099338820
1013833337
687224466
740359640
988705605
1940147253
863293912
193113133
2103038302
1158323293
655334859
1707214244
1408606835
1239525287
670119833
1602217075
2025192788
2139934466
1920440036
1723694600
979866788
757253233
58557280
797413836
649342912
1677024741
1984319610
117514018
1554377396
266956748
2131550446
1177985932
1035615910
1855434367
1750529083
306372915
79024720
1246730616
1011726909
1601055946
512364929
3501181
1249685289
1494303859
2059243117
651434709
91734168
1613016358
1709713659
480006470
1124710705
1183160709
1643380537
1542029305
1017902319
1159288849
1425286732
742780097
1160273296
1729644815
1350707674
650563177
57061112
1156144428
548623486
91843890
562430649
1830230951
1121370234
1543130764
1115923752
1107767372
1498230592
560948841
936391080
1597866575
720087733
1648251428
1532229116
1226035605
964291556
33004165
562274122
1039064540
2080214257
739245555
1782984228
2014975163
1319305294
1814086202
1317876489
194168683
859132176
1686638535
597709349
1261169181
171289515
1013076870
742199270
1150507133
2109976006
603302071
1925965106
1793172933
1822916286
952650581
252418989
1937601077
1022275378
549131004
615772627
960186498
447537797
1705047084
934315848
767755770
1217478144
1894550390
95752554
2036582097
1294049768
19705605
1812715284
1704942985
1888266455
288426302
2074047722
248926484
740520098
1791998637
1012984351
496853688
1571564211
90506526
1145760825
1885707363
1172206507
1514536007
761496349
708831025
310014990
125780528
557641237
195373447
1904986309
1800980270
529977152
1313598726
1820930729
1496815040
1491116198
1966378392
253890374
580297850
1820225424
506785380
648714514
1827647361
366010713
1651292604
876081009
797776863
1377927070
925574502
2090657542
979230889
1286884413
149898000
1989714531
1359248027
1700765221
1984681121
816312752
863626469
1898661108
546810732
621443820
1606261911
1670903189
2087947839
1403824893
1848355336
1649409560
1682876425
1590127761
607237041
1545749157
1798470966
1344711139
926685211
390627650
239037093
438801430
1003753440
1243209220
1734519777
1486861062
1661458641
879409044
1810819383
1258143522
1918232329
1459274479
232803727
2048212983
1349787758
1366454450
1186276716
2032530707
325852599
512792562
652477654
852494022
849704260
1497983961
2098754921
935722457
1503071706
1823979184
75443431
237863819
1442346944
199319329
1233832821
230681262
1047285795
225457160
414851369
1708883701
884779636
1251999801
1393098170
2144771566
283280156
1740826549
1876198633
151361259
1345403332
2010975040
1142689465
218387271
1444877160
1006138606
1529318325
703907482
1648608428
1374833631
1153201356
226699055
424018951
2107789740
959070452
312536606
479274006
1381868811
1402430183
84385636
1858844066
1643499369
1729613934
1085561532
1227371212
963975245
456527836
414003960
264810406
1526276712
146263592
696340192
1099863604
254594788
2139553328
2031407528
298804998
1476553302
1925742090
107579988
1351058770
24060084
1078543681
825584855
1606682450
1141422507
613096467
708301195
857510362
679910644
752474193
1784577675
943077799
1514610299
1559372969
2146137744
224947961
1511658038
98750091
1441567290
364703202
162638167
2012322870
1937104920
1201912447
1396348326
1231858513
221236348
97788325
1069315686
1618040548
619319861
1744028753
570657801
1171367460
1476686535
314353883
318026988
56705445
1721644615
494622261
1464643840
1880289994
1788703742
81655131
1709944606
1349495086
650060403
1361935372
686694323
437258527
1258352617
1613356799
989057600
1960935979
81125954
820136998
1293310379
1159720190
783728572
570584183
288339805
487371173
1941913170
1227730643
1999786041
1837921881
1093205341
1679923677
1131620714
687101128
1754612769
1652041304
2129095551
1265604970
1664519144
688071035
24522683
1619462384
923455173
1977194299
1503630087
628272815
343384127
911230003
467276748
1409233695
1538854394
775295024
791098636
1911536195
1454655353
30249081
2072013572
887441716
350162624
169644534
1910329172
586462477
2081222729
1430956890
1018436965
338958498
1242776477
1390925688
49641076
430494587
1884615350
1846810525
111439407
304025356
1667697527
1033969050
189521533
1569967683
773789500
2087124555
1471284172
737837682
1350318820
707062662
1363894789
1413950093
805052444
124188352
521007069
1959131358
537699249
352967360
1952811913
1441366338
1315655739
1511378498
472561396
618164280
677616728
1892245087
379362322
455329700
452785169
1036865651
478107862
221161176
1632209071
984255523
480220137
552638228
1764157672
1723535034
1344034921
450585367
803299771
1072620461
1291336379
1053652186
1430988148
383658141
227722190
924433276
83377495
666965650
919283395
1271798370
980435197
470225967
2108505128
1887526576
1313265364
1986384058
1755956768
1326562709
657194108
1834575223
1199242669
2044517152
1529157252
1580105793
536241557
1478121523
37734846
1288672853
1965877197
723642410
1966053879
1387142512
962214138
998633472
795300781
1900072726
1782875393
1359719549
224344971
1924133454
1254974312
279568218
618202798
1567141368
1670714160
936838939
2115148559
2104517460
1873870659
1821383739
33068992
678498187
429296319
2107692902
42575193
664254181
1870341558
1993769176
1471909242
478008940
1032497157
1491485896
609426448
1148640779
125105997
351278003
1933559591
800764731
703853005
531039903
2133597857
1476803385
1074439043
138956633
454296970
2087382211
1054786084
2074717372
1540469050
1176922937
1445818706
2076732030
1337094746
2088445966
41700995
1482811020
1111770303
1940065631
1632093767
490643448
1068312701
1830105121
1049603930
922274870
1140670513
1299679875
2118332296
2133292691
1074576324
1588969009
1932322804
888612235
1586923204
1255530066
1746954545
525928801
962642331
373572009
390721340
840020650
2003042623
510614974
111240779
252727202
436361241
61646829
1067562706
563573700
276768144
1803518086
461724016
1491100834
2114498215
846931082
1684616098
872542567
2009366127
1930995780
1456913399
1627639791
1567591885
955906387
508978631
623346683
1346581522
1311959234
986404477
479186131
821026573
1246838252
1400463469
462396391
1990103951
1761398741
1471563960
470389526
503985494
807970888
1818710490
627640873
1625397076
334376322
143397198
98410092
1522750538
273372375
1245154125
2141341592
977563338
521985064
2021168818
1027143416
429046058
47025523
1439861137
1940110599
459540074
341018564
1510419839
298088592
1845699088
489984633
554892305
942410668
1600884753
1147827913
1482465824
1958878059
981800454
924869235
842583461
1640912103
917506668
2086818239
1795375148
1342979094
1475571091
1291289063
841886815
261259718
926796147
1455483775
1422449084
997646992
1196022334
85246882
1444843782
540511263
1272446557
1034946632
909037700
1829964757
1577938587
2079789190
2095040527
1553450298
32128772
1381902237
1005329743
1624502317
2112300646
468922191
413988977
598679295
1458310897
237062704
302077951
1410747567
133197456
1692896576
498314450
1153659729
1169581755
299612944
1675542347
1367976511
1546759407
678561129
1307761322
1412353024
1951087496
941807525
1377583517
704357804
1439877344
1596434761
1525410454
1733012335
42928252
514316151
1715700725
1451571274
1417523863
1531873328
1973796978
1141068727
443831558
2070057927
757852868
1620705161
57862986
1033467824
92390112
813567756
35208816
838750318
1080598932
209290403
785386895
811981729
1583539300
796227618
274136697
1040745203
659071708
578979162
394810652
234581442
1856416216
363381127
71529590
643930992
401129548
1407728411
1452222105
911083028
2104505244
83033626
1613016265
1315949550
1087875830
1464443810
2142541812
2025939604
835011827
2038655052
139880664
429117538
1674312324
2041235800
1421080625
376369015
989678715
901229441
111257361
1969207078
703346288
5245404
2029279068
23957281
318925806
2031626944
1921395522
2131732692
975756442
1476091774
914034362
496722451
1927577610
251021620
519439958
415543185
975727229
772515958
76564641
1734971085
842934432
1630319145
1308827162
1661042776
38102173
805171005
546670795
86641172
1777062136
1535222101
1258206620
787038620
1830706767
1305522759
697185189
1734303364
1385477863
204155409
1804268812
499143776
1261961901
2076781711
1322915558
1015969149
2005267453
234192991
404648394
1110383584
590420841
270179475
1117909397
487742903
1985971301
1753956316
477738576
935773464
118004090
2028965219
1081473971
1936856181
605245428
861910158
546228749
1162350376
1727372519
659889691
413036089
1169706252
263598366
1740317369
1247459795
1043076011
1783725293
730352014
1352534908
609040681
2074279321
1852378739
691085138
2012155411
1997787162
522530678
157722325
584208424
91197050
361268270
721004955
1201480735
811627394
431512332
2076159186
1602230212
1429456774
989749340
2078254232
471936304
1420268565
204606439
2069801753
1032186861
1285726294
403281832
1358135738
1775598523
64468326
2142993835
288479349
384550526
1316301516
981040802
1044274943
1003922228
371309131
1416507446
1566350467
1249249152
1453825175
1476792968
1489473544
1603813929
1271852286
1013788483
291903643
705379676
1007179270
1212825592
84682085
1060882599
1051264518
1340103474
1931062911
1847323689
328788705
299904062
1919448286
522797376
494155306
911323131
2023328198
1921799786
1312893436
387939445
1676910823
325720178
1509633158
32280049
774055586
564151506
1230251288
251502073
122495444
558228641
304947123
2032075118
906353371
292081167
711407978
378539647
970738840
564211417
483251456
723323670
1397447814
2016681693
2130384618
1202758494
1023531858
413022704
1110944106
1271261075
261245943
1014972965
947308802
1631834745
2042328393
1459604160
1236244641
1936414622
748337568
82438467
1022672441
765524361
339293978
1506668687
600524268
2130372694
839167951
1286353697
1700909011
1939646155
803551797
2092747961
443089650
1829321323
130070902
554595622
1634618000
1588912200
1683823963
869620345
247060816
876563314
766667479
1281557237
433124935
1793027090
64851004
551565179
1843237122
799653013
1090840902
1392637383
1230773696
8001684
1939851251
2031250207
613464519
1567234823
531723141
1187444128
627349316
215811169
1990798971
1333538686
2053943852
1279928510
448260383
361824346
234539968
68085272
1804387049
2025437261
1564061661
884024071
1200181889
390345151
1584775083
1478186066
496940482
1550187407
1154664332
1501236171
556034588
1070435279
382736977
311102998
1780083823
684685669
2015098220
1831989513
1231299157
2041102052
911683128
1551778351
431458674
2104427579
462038147
1479095492
1526738869
1298657606
1076625654
1642649574
1865970783
1084262466
297613112
1543165225
1556057954
448628636
35017591
477148795
190898729
1964889138
1454116466
820425868
106762172
1200090165
1445570945
846073095
1726340318
62611589
501388047
1502863665
664655934
1767856065
935088744
915250036
1120717622
233248782
475118703
162782695
572125595
237345138
607154165
882178276
264042934
2104041422
103913853
470280501
104254798
1746394585
1611595696
399039848
1824727440
635870879
1769297909
877151685
64212657
1105360952
1492443617
393570497
2114384127
1822852530
760302763
1231913676
2133381450
1060546963
2094129719
1981311760
2079495196
186144813
525532137
1960559366
978760330
241330573
2130296594
2142088232
2068593436
547156950
378216699
49284621
606722192
1332358498
596062876
1402811523
247571415
1745967028
1430894057
1634692813
2089728724
354726110
1234237790
650876009
40214911
94072263
1911290975
676891865
523790782
81313147
212917128
1246506065
295674860
20500926
792495386
429302672
1694045937
954004227
1985787002
1664447733
403521640
579836285
1290090353
337048300
743218486
716803979
1469151747
1612138200
1574287695
42015946
2020825790
381681290
966068321
155989850
55592474
1486037767
1072662029
1191099950
661494907
264951401
1065950632
2137898053
1114463438
597064318
349690633
497070522
1123817952
1425956473
5563088
261744349
2033268240
280426011
1312567840
696174046
765618017
1095538455
401352564
1226390889
390825095
1362149245
2014695997
952838938
1267439672
340911193
537856955
992791743
177749566
1023854523
1438078702
917453807
1441285825
1345738409
2122352898
716959604
221684705
1086656586
2102147466
1844069715
1641979093
1920004801
1307507321
788796960
1198672415
1617228524
1917474885
1353862706
596400856
65862008
1913561906
2043318325
1576935408
1540581751
1599438433
441900905
362471626
487665420
124139669
797987420
620853155
563697000
806677571
1059441700
1306867116
438904054
2135779415
1413988302
1349979961
1545980216
1803214739
1058142659
1739591612
1555070971
1486709164
1896641056
442373838
104484502
1325275885
261891993
200530895
369115430
93543631
928841904
2000501366
318320622
1262841407
1904064286
1077462681
937299461
795157291
106350872
293054711
1444265913
583351847
647328764
1149551453
1198356491
671586124
1450424000
1676942443
2024185917
181341487
479616007
1759220897
1862485153
2057780417
810159092
1821762075
1729760280
1335034415
1090021125
1657853070
1264235919
726843476
1926113358
252174853
1154227748
462647703
1386958651
1269562219
279761022
1448574932
1301697051
1616488428
297736538
587883726
638277754
262039987
1143580494
2144342613
1939897722
871262724
1324724333
331424354
1872238940
915107347
1716756561
65327089
723129485
1648235048
233787064
1239004731
1240285664
249712403
180141424
943610346
2125053975
1642612006
2009489244
1779071171
1266508996
1661620699
2040915255
1865032338
1958424198
1805216473
2020644238
566990923
546225865
31507175
402663888
753988985
1363991712
21083655
1520514320
1844879287
1039793835
46726637
1917850092
2145353522
113237287
1360932159
1087199556
1750597395
1630211334
1305376133
1727193164
192992644
438935839
219394466
131218977
1018336225
837014824
274250645
205904782
2005598057
1604829096
1859913654
1069385597
95760544
2051083313
1727105332
254776995
318602446
322289111
1099226810
121080100
1919034590
159447381
614254122
1720400065
468831924
1921308424
1757469038
906989399
879281426
1980513743
1078104592
1475724537
1016987542
475382958
2123011542
1667901009
1475408697
323001724
279661334
1786602138
1846094474
433358458
1067037860
1947296336
1163437624
259900852
529372810
62039311
284296297
376842724
522838497
2103912445
1298362889
1324619341
2083416409
194761669
761750153
1792578307
2056510657
1769567150
1079775251
934635816
370347720
336212642
1771226109
1059341262
87588774
1756930659
816309913
1132976777
1212494368
533809528
1748293687
695215122
624805827
1573894419
558665927
1274712147
1571349817
1180707828
1599342742
1286031953
429776367
270445658
15165337
624722652
1994696964
272417349
1469906670
477151885
1644698985
290892184
1905723497
1010123876
1515943406
148967558
620048068
177821579
18095487
1656249823
2119622192
207604132
1454949163
578453297
1220500602
41900460
1363588969
108281547
2118953166
1642541375
9342813
671818389
240264498
922773430
1164513486
1236062641
109577579
2089126880
864380880
443351855
1377863666
1734948480
212967817
865793086
1790178874
1201972358
1604219275
1958176205
68447314
1608997123
859782427
643048430
1832544853
2084620294
1258778657
1954943769
362490684
436013127
2003179906
1571997429
1599718992
554536398
285265654
581083139
602150575
24570760
743364811
417362709
296512475
2103221958
1180018578
2022684123
1322320316
40099889
577212234
1526871649
362955074
860257959
1273351076
527849844
1293469863
613335452
774294745
1334239076
1886141174
1435849428
2009189184
1693791275
1847318764
419049768
94413918
2123842652
2144985412
1844554455
1566113284
575789979
1508554979
1037983482
1299035114
505973622
1906891453
131156126
490310281
1921784126
2147389514
1034473628
1298410684
1815114679
1304851006
1957160936
1155690140
869479055
1159966716
226372105
1705171652
511417218
872620074
500827847
1730643629
1893544332
555096426
800978302
2087595484
346409477
230167069
1492233630
900175638
1855990821
2085619772
1057516257
1029652574
414463541
333361743
1385510485
64246489
988646468
1049262066
1715878088
577036247
449957619
706359493
1153439087
1007445029
946821195
510635565
171068327
1595315499
1957528467
791874133
1287496063
1866953826
1149729406
1660928307
149263895
1725541449
1627032457
59019401
1432738619
1205089289
865143038
1730617470
333764762
1717058607
1938992690
635204321
706491690
1202217625
233106
1342643389
1227909673
684338924
2126154577
1733051740
1729125477
1522718410
687362559
108031877
1339424696
26233323
1913119351
1449986374
457244650
1713342094
1553046995
605012967
1552184407
1923167648
1600773026
580171016
281057492
465407728
717490466
617364966
581013789
1749583206
1926450896
1467858040
1337733716
2083994561
486653681
1289224866
1449252237
45596729
1225198583
1910544320
281293287
241963153
793233014
1408417853
73547534
99182458
839263092
1837059405
1926700824
1975308151
1192053490
106837537
591663420
676724785
195046831
220395424
1773038460
794395105
1687479245
738507992
1674223007
419109501
10851064
1024151307
2026715870
1596031171
1797250178
642895353
1677397073
892623236
423351307
273690771
1875979021
882211702
2088991997
1430031451
163455734
115768200
684970383
2041915022
2089098293
274432265
77615318
1946438568
1770261988
1132225012
1178735750
7270525
120977527
852821835
825978907
1042225459
1030367056
607525215
444143043
1364921038
1841920967
1548153706
851035802
1289372373
291684163
273277224
1919256221
757675879
1377238290
1729339836
1111317684
1043128313
1759437971
827798674
543987727
1408697626
1342321782
75951465
161783457
1430018244
1115302815
715903235
1510753176
786257820
265815208
1689532697
703309032
1695739664
2116581157
1272627175
1578996407
401600518
1231897224
837187106
1013939229
1980253525
1248182267
925195606
1345906398
1093596323
1820294378
1747070332
1267952814
911992631
1558699293
339107958
1438400999
1525315836
1121436886
825853648
1598571442
1719783858
1532119914
128902108
552832462
974652696
11498825
233984338
1509267915
295762630
2020341358
1208315055
920839266
1595547326
1473706984
884869836
38083636
46389640
1784086329
1211560983
1546835914
1568264325
1109303251
780396737
911201330
121302612
2118812996
281669014
901692007
1158820452
1468091003
1509744499
1689087683
783370828
776892014
2141409286
1229252214
1294856482
613502889
505522731
132482443
1500715060
1031351827
1194171810
716768861
571922191
363279666
875221938
12772918
90579852
2133823020
626125668
1119378646
1435980554
726825669
295878088
1275648523
1781817645
233207460
1791158748
983567508
317587867
1284268677
453617965
805990194
354973425
1441183146
186248203
986013817
1454584833
724351151
1737211355
514047866
1430012860
2022885231
239464663
1196430201
187726084
1327537009
2118718188
672479463
1742301095
749641238
1540139431
674666669
162145320
2095268619
363837067
2067850682
1993067566
1613326935
2019394411
1759273837
555406949
1270401627
2103948881
264877099
400960411
2146001541
1849077253
466759444
1658914238
1613428110
2068915807
915717767
517511482
1780058983
953951347
792217340
366904561
1598553028
68430469
1831637946
834210293
796491792
748729553
1044565701
1351224385
1327713740
1472396662
1887862294
817748824
1747925307
1921058969
1818233427
1517470019
957898414
722335983
732548226
564812887
10147269
1355852783
1988142426
364232268
38759287
629775865
1052318218
1869436138
44852082
423171736
1191312374
1357224617
251937632
495361195
2061342142
1852935759
3908887
881505034
2025480759
31716211
1695485962
435936321
1335118445
908090046
1658969204
1692395304
1437035576
170717732
573512922
1124238123
1172137938
1449324
97882353
1989286910
2109617799
1158993383
983015251
157548196
1171097883
1569248025
508057690
947963223
39693709
1081572003
339640177
1840909194
50396621
861968680
382115423
875194991
1659033082
542761399
862789372
1872805229
208736724
226637450
572091708
1041739188
1994331230
1308473688
1293099506
1299875606
472601796
2043388701
1781150939
387470399
1919972779
853992656
861615764
1564885669
1667949206
994217910
1600688960
1993494248
1362884324
1616053473
822205687
1728526635
798206821
1173679720
1295129909
2015543607
344575280
597884704
133050278
155134680
1687141206
336296670
2008818873
2144406014
1627631029
674662034
1737272119
1341806333
1762558647
76431658
671056564
1444137706
680859084
1731830520
1332475419
1189970962
1093017060
341518031
707157379
1265103221
753767194
1172584806
1922803985
1864763324
869703026
1640919668
1660678751
1631173990
1193610001
1655411727
1347229531
550227621
2012171833
194859982
1088314372
249547303
16909189
837151335
1446385040
24470725
81133732
459435004
1823628188
1533548070
744614469
710928556
20300561
1468923119
1135628804
1281119415
1062805559
615975676
1162042717
1650735210
280711434
592279876
2104423218
517876031
539496271
209225016
183661257
498403486
24038122
96629565
37417343
1223822769
283282466
593681547
1557594366
1828164772
597417522
510542511
650444269
883799954
1270202543
189525010
124053013
521252303
1105109634
670238595
1408677425
1555625301
2008441950
1754274217
1303269562
1694056961
1821532624
1012117554
92662701
2005284542
408978670
457924232
471336815
678814849
511860648
1229324880
870968363
29168713
2090421856
1491357452
1890562297
911496608
257729096
1561764583
1177733489
1482086409
296932100
1583948435
631512145
2089552602
677820872
345972169
1212326230
854394132
519164652
339655569
1784645665
1020704354
804554907
315485770
1105782279
1857675049
236291175
463581136
1472457747
876204136
1612778197
172000833
727688580
986379266
90266598
1585008640
738803409
1476533623
1028202251
24074104
464179825
1441112493
933811202
1509732372
1522384897
1756444551
549998072
434887187
1834584798
782081987
1859990897
2091495185
1030242084
995956156
209162862
1127257540
908681582
1444775649
1973247712
269352729
1363960783
973181968
2070815031
1635985745
235644103
1445026000
608669105
1189227882
248575408
994311222
75772286
292049508
1108125677
446892150
1980572797
670476929
117974147
1915259961
1125630995
1344927311
798820739
1069089242
713585838
779276769
333041803
1446641610
445869191
1911498945
616365308
874951134
408192432
400945743
122671576
77797323
154605607
1843803462
1099534575
1092554492
1965481154
2024428886
1719943266
985276901
1587730060
687908398
2007759135
666443915
2011907506
1327122453
1555152116
712933628
1252237643
130108598
1680528611
613844744
1499568655
1847009948
853915554
159921471
1489118208
798771585
1612543916
1245447208
1472039340
929189823
953465152
1525244842
219383008
6886530
1153511713
1117520523
29909644
1044928005
726706829
344055517
1993091999
1852212358
2138084644
676535820
772069553
186506986
1155603497
1615113726
756320935
89184064
838648778
1209445315
575983214
1477361352
1157468003
1508873635
1251993092
2097789477
1005105369
987054579
278993899
1069481371
1516879140
1236574168
478485596
1750225200
688286852
1762213767
755193794
1983765942
2100551379
2085987046
1490644460
639057880
569797419
666719525
1106353840
1154147630
1691678117
2033306429
1368212845
1573826659
453561677
1069747242
1189894943
552396082
1727206154
1992630672
940244928
1869110454
503359353
1335578441
506334665
1465581996
725983443
236590154
639087543
1599051071
725174839
412152398
1037899269
1664596517
1092331677
1303182977
1081473615
1728006670
1319995973
1736784361
692025507
706605294
1124342852
1816244469
1741338271
1923617278
627116233
1777230921
1047570690
1971319673
1427643862
2083191014
205774380
1952985912
799767212
1602760857
2098810961
567837281
1785153352
528755020
1484865558
362130127
1827008827
959866570
178853437
472766917
1577448168
1574740431
138366453
1855599955
1559896463
1436115094
1485989884
1718007893
205357884
1540708182
1598284693
232871457
609463600
735350819
1896366463
2062641125
945728143
1429232624
1426919015
911761374
783509970
1426524553
247329978
138200560
733328273
1506961130
700569246
1577090108
1298442432
83233078
1143533905
478366377
438356198
1849056396
954533376
353547261
1834254383
577338654
381980056
2053640517
2026388922
1339217475
2118775042
506853158
562762193
1337625642
316132747
1860559010
326685837
1039248041
1640709562
541533392
1585894333
1410604700
2084383703
554709596
1293945033
1199142214
2118364262
2050167624
1660540949
1977968001
