500 494169299
622916746
1688481000
1175816615
1383305721
1022103605
2009080568
429644935
1980405449
1870024165
1419341670
388311286
739713109
1221503860
1592026085
1106103177
1409253708
1470247821
1214997173
228764990
193823140
1018547725
1143457891
616552222
1434692480
724687068
825613953
1712672566
1572217487
657491682
1794954703
754138250
1687159040
757074439
1577306231
111039293
1343111010
1302954506
386712595
1254983829
945365337
787330367
1009704001
605163519
38087881
1292406946
1036535017
1881841372
975480839
1089237197
255947839
2137192523
1702010757
1170616577
1572490389
490783311
1778414836
708510925
81416169
1943970109
1970205845
1408308943
1880938754
1182178475
2145121248
2029253126
689069580
784124771
416118933
866497082
154122919
2076919657
629368153
453901030
1608811158
142633600
335065332
309836078
1540447152
1515213424
1174217970
275688074
672620600
413838681
468755148
776842848
1960413394
1882574150
248050495
1722735952
204021617
1010828733
892017549
36596220
582367418
1541951067
1602305180
1326532772
1170028248
1738485919
722860214
1635819681
499799007
247528224
73294249
1059783498
940323703
1009401461
213610420
37514519
638483836
1002934428
941358857
750652681
97878025
2051119667
990402154
378459699
1785977436
453405271
163591581
356898438
659762628
135336586
892627673
913266828
780720567
1240501111
1657074175
565561876
78625823
1705959634
1875679910
2041015714
1121975499
827958795
170079651
1458164376
964550615
118272450
585059389
1120670819
79208220
2038440738
549477769
1665721418
1169312961
742042955
466265515
1537824873
963231258
883501938
868051716
974750895
278887578
1887206931
1059902826
597678765
974045528
147762745
556288918
1292390953
1114863270
1756387882
125196750
812931407
66470590
1088383502
730800275
1415613587
414685440
1233652478
1822312892
1645295468
1649595878
1309734025
955615137
913742951
2052218802
773059730
1098423168
163185998
95277380
1640219346
1504436972
1053072317
797650053
924851797
858680942
1697712270
2107380896
1752772791
1401462793
1966660945
1116737507
1541618429
928534847
1313784714
691327618
1314621786
235110703
104232335
754815022
1686089704
1429900034
529235504
1388992273
366481098
1538450535
1271382423
384332222
651599410
1453548368
1845153027
1264898327
1758134930
1034619964
679669666
199851776
1043130760
216754445
1496914482
2055149800
1824369981
1564436167
77629326
715870494
371343628
1989655575
1372269791
1988458862
1119249945
413521657
1573122489
1937380953
1098524365
840848299
1450160332
1519810481
991599587
519830290
2046164933
2052414486
892794913
1246513141
1222819756
772119156
1713560777
942568988
1850832106
1627641127
545715631
147724401
445868025
1377841933
1231084946
1967273721
1239518456
497623785
973294255
458880342
835400954
179578030
584548959
629129390
1429374217
844995741
2059474396
2013005468
130529129
1440263368
1109714483
218133088
1997808487
440932269
1605660895
218412181
541461878
1735994047
540959660
2031996862
1863204711
1354346493
1776646392
1763241868
453011863
1025632343
2118032424
1866647446
906447283
1993051832
905401836
669284389
1067293740
1586422105
1942323294
1386151378
1973212120
1006548016
595673832
267265732
76716635
2138868626
1969903542
2101088768
648943743
1314766358
616142404
1846424695
829818452
1463459568
2076166491
1760880668
127435631
916500590
1861405076
1527153072
1564850074
578870745
325706519
617541576
983972345
617790893
1684701420
935124932
689849007
1678105723
1053172237
1932881232
2100208154
1375342085
803902570
1284986812
937722207
408406279
832928377
227983536
132704995
994150378
716969605
410677900
56695417
829895717
261644220
702787146
1223726360
455383046
1164729706
2078900710
1330514380
1320409250
1967967311
2121311917
1207695807
622655733
1273235940
214492995
450242718
1162568469
897468841
548998718
625267692
676494216
2102399057
2135055360
285652179
776616563
1375205538
998540716
1134741261
1573703358
274513878
810236462
414374397
1311655868
1495832875
955134413
1314383919
1185367976
1547881212
2118959991
1145649256
1254866419
1892192782
483263351
1796162903
516335974
2133217019
1013868982
35352012
1140056717
1980889452
1812201438
143486366
143715729
2051529942
755111746
228039898
56481003
1007328403
488998940
1519581466
908528496
1552384035
261256796
1106507021
407983741
274728876
789356887
863048030
1956692079
867813360
1863530805
248265644
1402180350
1331007076
566836528
198179006
499800216
491703845
2092130889
1865503429
940959724
1866748738
779387197
690459403
350516601
1858813944
1674677350
1672135015
350662037
204296201
979767039
1936321762
317052688
244540857
596783660
262814691
484703679
467492236
575360083
710919219
650060730
898116288
446166637
988883901
1890614408
321076138
429959949
1261899787
1847635747
1911956882
291367970
392705919
795484248
1687656842
2064445796
381913211
725763125
1683398628
800317074
1273547445
1117976939
1635196258
102662558
1223765706
2083318524
1315085972
1776064721
1685626492
974912098
621702332
652911020
837342550
403092020
754444664
298724933
1752645775
734117885
1396192164
68076588
23504792
383809172
894440291
1494499961
2000526333
745232577
309145151
798216098
885174787
1753590524
772375265
802443478
1806663932
366677431
1239822043
1999857385
942369484
1053696033
1015183611
