5000 734131306
1378355605
1636603788
1521346138
80795507
1241518314
1967780656
690109137
1263691955
1239567961
207599104
133535726
1447847282
1602405175
1083752730
343728139
2041492694
587513893
54230318
365502459
1677321793
2033396904
284294614
1882462708
408893354
1122080615
1128016582
1524243252
939729870
1522994945
1403319130
1549932432
422279228
1011073456
320046919
2140474802
1531048938
715285889
699505151
1600500621
984902986
830892390
704621772
489253507
1608220805
1549266000
466640990
182680498
1076938252
194936378
570675121
1319345163
1765642270
1549510749
2147217995
51951802
818622909
647380252
165873249
1553533770
1308478592
761753634
1962738428
553678439
1260562316
872069033
190648786
1273374996
270208174
1209103168
2021135024
130714591
2037165893
867917139
976037013
939422911
136354467
756335215
1006450846
639935306
851028057
66814521
1078635415
21923085
1068203416
986437432
2107238748
1003831800
1440420506
676718433
1005327834
2016415722
399622123
1985813622
1215086603
472436778
711710131
152191921
1137417329
1290793581
2011936928
421099095
565921337
95461795
1417316804
181193289
640551608
761673847
1631539986
1384958415
1191820014
131333355
659930870
2131735606
388728303
413148486
1678595604
1338017101
1102371725
246621123
1677346168
241092336
582637026
287062849
310422763
942680073
881699808
1306286887
262370713
1546968490
1459334144
1981301756
771731282
1894763177
1744256434
1649603349
788363221
1165193295
994733078
1819367368
1801414789
377792185
956725407
610815679
1383697645
969153590
1217131539
1603659425
1249435784
1039113924
807658086
1105652817
4478363
1349266303
927130605
1124712266
497050333
761906968
598697887
1494183266
677255794
1494359501
400811481
1560024997
2105460632
1565715554
1797661215
1827118671
1867846823
1224028087
1240233486
40867061
97303174
835853537
1196040856
727416528
1008842080
85385884
104573672
1299469149
1466958888
2108174313
1137456916
498092498
363130355
701924743
1361902856
1978920488
2088423604
2125745580
1995945038
2076802285
2085123951
276741226
1224019712
361727954
1787623549
615151568
601898262
2059395430
205593442
1933903948
1690334629
1058001421
1525760
310120652
1670482432
256545648
1425210292
809193290
1494515639
1910969720
2030094342
1794270361
432091747
1014630949
1912068519
1270047999
1978793584
306526718
1999504778
419114998
427979530
658841606
306667406
1922339196
1933184188
775802518
1533696300
1680287949
2122053423
1198004921
973170489
1562581616
1070913530
2021658912
1261645835
1104840289
1595908170
773173901
727335571
314165892
135948165
18937647
1608864629
1940883740
476335523
2063211447
53019659
787839441
1207788826
1425487093
466366593
596312585
864134374
940575941
899139094
1758631140
1568138230
1275676126
1637032172
1306713031
372103626
1959249891
930476769
1010607643
800729661
1871541397
1251521022
1790353919
769488424
419439221
1085050238
915397756
530282391
2147214010
1487138137
1706690919
1317347837
139562090
877951024
109876302
365743646
1135776041
528195815
372340750
2103274298
1311447372
1525595672
272424739
592296443
1722509286
585082530
117476540
271093285
725714843
993974798
1699482501
1218648394
1405369898
1164192932
2137696156
1232747784
2094024980
2118582082
575679781
407889110
270066148
1152318712
1560637922
914450534
372017765
1793483023
1367712938
152041131
1089413308
1603716552
1868391953
852756209
1160395680
630815368
326936644
1817498541
615829244
1654940115
634148780
381476146
1507006382
14440310
1849215706
495219386
1737478203
2004229991
129837
881542623
703573160
1252973376
1128432816
511313004
1543511851
864356695
1371434620
1768225374
685925356
599460302
220904199
1976089603
1075041748
46935590
171884610
639228223
1280608745
211635930
620775502
1128306330
1470969084
718399775
1339783369
1954131939
372594230
1976485474
1882686515
523576140
1146793176
1116940629
1616453904
497811950
1015739216
1051821190
2005125934
2030455729
591455369
466663809
1181403971
906612860
127239998
809426353
119736158
1231756066
429310590
977176911
350657264
1928946472
516176480
534228468
421214073
218007416
406025226
353694736
2016169053
1330384845
486293859
112632290
1776940949
462305312
1051620888
2139359604
238927178
580780604
1689379630
2055503437
942016737
279662459
1720818702
881382610
369718404
1882719285
1280541182
328099768
1335024083
436023590
2132613369
581215824
644295162
1374897673
1535550264
1830693632
539364786
534137707
35489410
871782815
1028017732
60761536
1907816316
208962892
1098843424
1552604854
1783885369
1865785055
395219969
862517203
1316446795
451242888
1666213319
386516249
871354354
1846559307
1647474259
1539690171
339018403
2140558107
1262199453
1429683012
261827378
1164538938
1962131808
190726850
2109487684
90077480
547259228
2055841782
278431317
469438686
1733958368
528235258
521123428
1497967485
1725082942
1734894554
1047721775
1272506597
1885047140
360363012
705787622
1312427848
643770912
1305248182
314583614
190187794
557251777
934775031
1333647209
1915972312
1704718785
262379174
192179061
969671197
738252222
176634549
1958254059
566127512
826765415
460620240
440970679
214184165
107048523
2108340378
384556096
1710583697
361631645
1539716238
1504875308
2047018644
1493541277
113715156
1408845604
162549022
134462984
1841855010
267285774
1526026289
1279349742
1767877650
834465340
1918016003
1661958021
1941880911
681274328
1711243045
1650719404
282144424
1545759834
1757148459
860409092
2007817822
1835620003
976154863
809444471
13641627
848029548
517622988
927427759
1925570118
1717101663
1506621170
1683947650
15230066
487266582
1583228822
308586892
773637094
1779276463
274030313
762636303
1199493413
1106007349
1829825536
1391395814
1360483653
112320106
1615542947
812901554
148193291
1410569043
1397565792
206549350
304276096
200080254
896837653
1591687563
1854943536
1386968572
1360584256
1705124987
506138090
510340337
938793293
499837594
473864948
849760950
1851900415
490575064
1800573945
1568122158
1019845697
1309558067
90419601
177289869
853248997
565217075
1265504999
1126733152
1881842582
1713924013
2038607849
2033778982
838875923
11425195
851497914
127743495
1984613757
1851181502
1789697690
530662839
934436656
208582437
1199280343
1875758829
1593535622
1331545022
319822938
651000409
33644508
939476981
1853701962
275627654
1756467047
75700123
1040918103
1776020565
344966305
1258754391
701879882
761234137
795691276
1631221752
423550792
2096286739
1377533312
763105734
1032525484
2117779656
67303464
990122267
304437462
1769944328
682109599
734708944
790582263
1080314995
1212583961
1744637964
1688820192
407254532
1019962326
871344909
1415199556
523776281
1285087122
581053191
524298316
29874392
547029360
738382469
1171496057
449165565
1263983155
54798725
17125245
1567894035
1119708116
582311395
700461266
899511683
1051385700
1605266381
911763732
674382351
1645984640
977341851
1803576404
1378961327
1832911535
25129920
410838255
2058963944
1924550951
1313457782
342957283
1212573370
710366129
1135832067
884723962
1211862522
1756536
1966152395
444498535
1526294985
1707025965
1205907561
2139595105
1038315882
972849435
492556889
418957095
1473531555
1210866235
329668121
941750338
463637246
2003742017
652833167
137031518
1198949016
947233754
114078474
558067259
2127733291
490785560
2052964839
674470219
944695761
1177604859
983033481
1397053762
925415922
1945949090
1018976886
1939850654
1273489258
372382774
2060214519
206411359
1585059870
436701310
1637230363
239574739
1329948193
225271758
686124019
50089972
198397371
1583528671
2072572107
1156399593
1188355996
381252183
2046669279
1612433129
442580687
1888588977
1269884371
1377666448
1987011630
2146788498
535414451
600971895
481045211
1914625902
814490003
1020445438
233677874
185584444
235188018
1523912520
883209278
373640454
886060102
1163500805
1120794149
1869612845
707684713
673175763
688056428
473546628
514960294
1962395945
1064067212
675384727
1518105699
1202380923
813123596
278368504
1940045
81057532
1884069958
203501444
1857686
1319472482
187551474
1651432380
1751457855
1889859456
1475752416
1252811362
266874674
229772671
589495299
2020917736
2010837526
697681613
836917464
208832401
422390479
430119999
197843275
315995692
904061448
2113737315
1291593656
298333334
723787488
524012456
1502217197
1714012967
703817589
1783210590
640845845
1291614998
698091616
1181830041
1770042402
2081084297
1476994683
666239110
1805402861
342896866
1096193329
162443763
1378338187
97319515
1628207212
1832730950
816711768
688863250
1284942863
94028623
1430240864
1842919991
665383995
2001849004
1006794510
1839973998
409007460
1709160883
1267849399
338120317
2048324936
181804303
1999906211
1270591070
451830340
863309262
587401428
1113649746
1633100908
1205312293
692693343
1643619835
1271969087
1760247294
662243051
69019951
1449131982
1082872192
1144233626
962367422
1850280335
1362728730
1863407109
801441402
1035821627
1762442999
769437922
1561248325
1045453834
1435368409
1646939217
211252679
706874374
341744709
223060769
1369395289
282202695
2124328275
2008947454
575636252
107686499
1395500174
1146574626
137580656
395871095
234754714
1586484851
1592566227
1737875451
685071608
1584190956
168633792
426475311
871399598
1806335539
1595733597
1730595883
723967105
1558665086
955762510
249616075
105120534
1186071838
1170840728
109286343
1097962731
1769622231
554960951
878634142
2091524929
1820743854
793047206
1002334306
1464736170
388849334
2022170552
1104221159
1460908252
1085827577
1822086978
1750307142
2007689304
2053802085
160411995
411986229
1921943880
105985300
1401095333
442036802
1687892104
10357886
1668387997
1475480078
824533183
946522361
259343760
413111474
1617402956
266897073
1322425600
1764083017
960596163
1528516617
6276771
1514614462
2086737832
392360433
569254583
849255132
1896790471
2100434886
1400855764
709077969
1643485404
1484042271
825166188
1137394567
979425787
1128700059
584699132
1465169029
713484275
1371247209
950733096
1769257421
328975772
1956216379
131732536
1894725327
2055432047
1409671395
989853232
995147907
1646073587
575123326
764325849
832105781
876665842
1776182041
1913850041
1397124174
1252519636
558847479
252306782
1463150486
924398557
1512728398
238167379
2128915109
475184120
803661584
778308073
1237848906
1061769230
777636644
538387520
1535822362
1920402161
1051077352
819972987
287359553
454151064
1151927199
709696141
1841496681
1378035446
1979794618
1823504272
973354003
161071911
385164321
1987551450
1682898052
663630066
815119026
350372878
1799298295
940809772
2124539884
1794907104
1466325615
671979582
1120501426
1340380910
187575910
1906562532
1578219800
1032652037
1957117742
1024264712
138147107
624316028
1983356743
914996626
942651595
2132226415
674813696
1015558594
1334377967
1320421537
1723249510
252332738
1586218825
496048667
1939857294
1401323844
1558051839
436759583
1322861530
245161261
2122878024
405546160
1120218863
655947776
1541463377
650014512
82789938
467273364
1981513264
1114106547
799948063
1348070374
963191565
1836425328
1118590481
833376963
2023680681
310870449
1164421768
2012139728
2106255761
481848974
400243601
1849888741
741736144
401130409
1923205496
1972109545
1584656397
2012508326
285439042
1682380286
138595930
1438488169
2088707219
2012906619
1687855429
85241247
1921039031
1121029968
1567513722
1588016157
1645545503
1512036748
415177421
1966990413
143429260
145014855
264414079
766735034
1092487472
1770503409
1413363055
1429001282
750369927
388419470
727096450
1497107629
1818136182
49279252
1815514385
834045140
1096935098
429821320
470567006
1546119274
70997798
156632716
268404920
2095746383
59051008
1429355813
1893774922
1376673940
33686534
1543971926
1400005271
542596470
865800413
371743566
860753189
582781830
1180933857
271699824
2105880514
1223722211
903300692
250242767
2067763930
966558792
1537286789
1383707321
1404561671
420936597
1784541959
491366670
135771203
92189140
1005191955
1963812762
986935718
222521754
501996142
176553297
1195904402
491065099
208450939
1321090351
628793414
2144497362
326092077
2056689832
1358655975
99644228
1570322424
798622003
1762477781
1483926427
1192626477
1597297400
55702470
915397033
555063815
1334232857
828193336
330713179
726012287
1663626674
78572658
378644900
635733051
996192411
1807047228
1866644857
1074914754
1649990830
362349717
1391918830
188596242
1696183648
565353050
656907150
93828013
588844508
984366052
115929347
983089225
458976146
1550780549
1356043126
1775588671
624898304
1730015596
1412422614
426322166
1294651209
1216272017
2948599
1919801860
2071396507
1884482247
671917849
1124947710
504236717
1933533326
55321603
48303714
1129908388
856120679
150212383
997124165
1865694705
435697305
559384259
1068827759
1891856312
1921578326
1772874727
718619716
572475305
592323380
1761748866
789682837
1089781305
444784108
508197313
1399464814
2035256445
2072523832
992726957
1464730869
1239983837
735824307
798466391
284170018
460439274
740737788
1579374736
1005606028
980864577
1025899066
1766866640
1395331613
1569630190
659323713
101381060
966721438
2142475166
388057097
533424940
595259369
415035033
1601791135
1591636794
1636067672
605214606
365898606
1233240821
1713896850
1876221866
1679288688
1151045760
346319444
1556923764
379110138
687255387
669090064
161887924
1532747576
1980511719
1067702290
1510251154
1543953643
1669573943
1743667586
1680860337
1374916251
783467899
931269924
238120518
1871445648
25531869
1871646529
89774415
2030746432
878207319
1472491936
1095301668
702573583
1953228381
1729317766
1840302623
186625089
79508440
580125253
1680630179
711995624
1596590161
2032103654
1369701076
808072099
1877653404
1129109814
953613019
643508220
2106235228
1957010194
1036322107
1502918298
195559173
1946137975
63903061
394723984
652522221
2114981533
1787404593
780612917
210763048
1717928839
458801962
1950568909
145961701
1950079
604990710
1090802406
826920086
1891951852
1223336120
939494823
1435370358
753984172
1247917214
1683512929
207812732
1598666746
291806226
630398256
1157980756
2144297596
247544465
492460382
424395704
1783537802
411614612
1268211357
1625237927
1343584704
846069562
1157562439
687174102
1914212172
1949691882
1934864151
1010178058
635057011
728959292
364761968
1385336307
1082411605
1675937688
1119581020
1358632899
549843597
871640347
2085100990
888746884
824571058
15092588
2046697178
1616414532
1637546988
1753077242
605158660
1965512341
1079678573
467975253
1428765819
1383563596
116391250
970378357
1479371537
107547213
566994195
472276265
979137999
841426133
1838978452
382992373
1895252990
1755368160
518294208
1427258204
2098174954
15064184
89644192
1387154808
655773534
691127364
498741079
1719072234
518696716
1070376811
705227704
1817856121
1145849848
319560322
1357152106
1544783484
380626512
702308596
306799889
2070020643
1251533649
442184175
818541749
1625425987
1169668105
1009584178
60423195
650170994
1244584588
810940117
2128420416
2057601318
1686036937
1216284824
482934033
708910794
1052438950
1269900733
860629041
1647552758
1321627656
1856930263
655021556
249307960
1820131320
305369861
1436705657
756003152
935708294
2038992735
2118425916
1520154994
1437792088
804025258
1625018010
481496675
1861134395
998412636
1091082977
478028228
14019967
143369376
1936366839
136789586
2109947604
668169038
415551481
1490799176
1747526371
257684148
732872509
1952158077
121512877
74380703
178486935
2060392260
186321716
845112076
828336848
264106486
1900832536
828568616
1637724632
253635433
972576053
1695382237
208052945
1704307853
14260241
571912045
1648346695
757509894
1416688325
1999865733
162447132
1033910232
820890956
1156322252
413135228
306944285
1399791847
74901124
241300638
1013972123
761113714
901972447
822528474
342160927
381710332
1761168801
1511775644
2030902674
2039247335
937334305
1808387903
800174383
252758800
1201607232
1485635959
1549287392
1807743463
330068397
1557656163
348871546
2092400785
1316450977
1125145709
1051677355
1166460764
351142182
1199054248
991687702
467028502
96918685
1924327544
1481922377
1370491906
96716240
112835537
475377788
910840922
372454912
1663902667
957753624
274051471
588946617
320291161
1567409105
871319268
311567734
122591883
465257880
427319281
653985563
1439347557
1234380808
1639206121
1910069556
794520969
162436183
2125301481
624587392
441725097
599155842
1208163416
95473549
1641798357
1668165399
341796078
386826348
246577336
1929336673
150535755
1512513362
660456885
37497299
723455946
302141094
1657631808
248773776
1592907534
185057064
1772633689
1200708247
1636334629
1187888842
932363591
1322989034
1944399378
995315222
652282446
248652159
1463322185
76463865
776218298
1669501904
1779774966
2069486279
1495542794
365244622
693434669
484741398
142099606
2072386656
244306948
167193787
319646542
273437893
1093048000
627905374
1766650951
2063209590
1308731799
2104560323
1907612898
1004485699
491069648
857999350
1749804089
676775514
609950223
7832722
613903071
1732788118
1574264703
1277451659
1182866368
1409698466
1606898910
1875327327
1811962890
52636080
2086218408
1816884880
910394247
519327868
796220387
1156423973
240180421
1872625482
932278514
423522736
1177513323
614458524
380832906
1521439560
1690863230
1543227286
1542602737
575762874
533929027
1831811629
2094671676
932204487
1077536597
744051631
824757476
1221649795
1787644949
738554484
848254797
721307269
103942917
2050229937
1966308328
757911636
1126021574
1868194961
1691564962
698146812
118620773
1681038916
1837885466
2105938185
1483189227
89417255
375746073
1966343125
765094664
28309930
920841122
35498794
1575385506
2065961683
1475971904
1019224794
1214838779
1854399193
468625522
1143344662
609489841
983700516
398343041
19168615
1307048255
61199664
1540001456
729177397
1224837990
1794042390
11942357
721382409
456123396
1893058246
1751737931
262125670
207723467
1486140000
40066112
1579198345
1314577111
207024068
1167676989
1491370878
4534424
1235939650
960732375
924946631
2093626566
1286640173
1360653375
1838263838
1581903580
1115445515
278929272
1067415750
635307657
21545515
1547969882
1211759755
1996143761
1596887502
372128783
93841598
1654565398
2117938772
532968988
861097725
1243760953
116130346
402818454
1650911674
1926776281
268297956
837210489
1186326915
2026870039
1561302693
1163252108
501697784
1747473895
724182738
1207218775
1669184746
1636596113
1959954961
714883409
976548903
1333605187
1831803602
723853796
181251434
1464217935
1811688753
24004847
1418795264
1502059591
573090180
1772011833
200596422
57139269
823373529
1824765829
669553930
580795454
612645960
1812713438
645262570
598153993
1502864438
1509998529
1568418381
1519596400
182814238
943731942
1550864780
1946316767
211882137
1599405879
2016070288
754687874
952978458
1232176765
1374392050
896658900
650161436
267159095
1188945961
1785275168
109194727
109121984
897877530
1640606994
1527984453
1584586953
1788318991
320171551
1421569257
2128077616
1325186124
1028544258
915397345
1181228497
480451564
58705300
9286858
911527459
1881908013
377204281
163739006
348641082
23525139
595364685
1276765000
1758229824
617734176
612177462
1569399490
1216494152
1952006424
406242998
1887293562
1302024736
500077790
349707230
929047281
591859511
1502999766
430156793
763827728
63553018
1949738800
2026437851
294755305
589480292
563557640
736633954
1269291072
1866594346
13502710
1657876582
202334745
1030580126
1267700947
489707238
615353758
1872244818
610467913
620228241
2050015084
1401670441
1390829354
1215901431
1740228134
2028244072
2106290012
1077721219
301874341
2046980362
341172059
1036772681
1828517053
925839868
675552380
901505244
561866877
1247453448
1462479050
275482643
229848487
82726201
1139931631
168104611
1316921160
408514125
1193991906
729055837
350427129
487987693
474312315
1797511944
91018271
50904819
1267760476
762192908
2103338075
289073847
1904188573
165293935
1537169356
2048021567
1203347417
1800284849
1367664113
742732147
2090445602
1452078806
1236115824
1877791414
1911278125
1533954224
558445043
171411251
1808665913
1919062307
1111823975
291162521
213856378
1223929260
586641289
1300673514
872663469
1158897622
1241567682
2059123651
1873477288
1344835131
859709439
2055452400
865846189
1206668472
1422093661
61810453
1798545755
1145547819
150529835
559402642
1126171309
914576205
1293076569
1502186581
893062254
1060757111
289231439
521306195
1884617217
1973291011
1240846467
1092319120
703792291
1002805559
136946024
1581883556
1076678953
550117574
399788543
2018150370
1307666056
984642932
49647230
533420908
1948036074
1328020516
1490589256
1341945771
501640950
324188599
1069880627
1944206197
1867772442
1072114202
559119838
919872594
1484063416
807199053
800930807
749417122
2018875235
1056240503
346158789
222336605
246216325
395257043
1339742963
838705712
863200272
844948081
655682900
996018527
1739020279
1109590528
84632708
1063608916
1386953815
1624984135
1230703631
556332060
600093668
1571210140
1342680402
883870263
392587348
572641126
1642890083
428019892
202203116
1049299345
1299231727
1099217011
1654316176
1229844299
418959928
1753900006
439599477
1604473086
380528926
1419811497
802062742
974227619
458657090
230835712
1169724900
1892842468
940603295
1460434333
2004646904
957178655
418719621
311323278
45169497
356014581
280038574
1542909159
358380731
668841887
1666234887
226486112
514848631
289222438
278503286
228150219
1863049346
2102966280
812108829
854867611
1213087804
1226718580
1772730615
1068469310
932792461
1786714031
649272019
1803969690
769196971
275139393
1740618925
805461856
1282511387
1017025186
1990156785
147966196
1067380810
1792617649
1151578184
495138259
1211057713
757495392
1711874782
1359437536
1113635913
2136033898
1815348064
2121942701
130800242
1873684833
1379560779
970237027
2120445462
487533205
1163155371
1044814061
2125658238
1856877409
1290446645
1260169871
2007278706
1408956542
874399976
187697659
1446495678
1198015755
415257702
1107500470
1001446895
1079512119
701773171
1556829903
1961634842
898154550
1775558404
751390013
1906033026
1248490335
924189990
2070946679
710549915
1055932390
1857707850
1476211586
2023384645
982415496
886567546
1900085986
1537142812
272015454
1183015793
91913838
29334324
574761793
949703045
1833271165
761822697
442304152
676116496
96310977
827993983
983623834
677992734
1091969618
1205114187
573729049
550055845
1812506698
1953839728
2026955302
1661987241
1100643353
1890725055
300554082
1783589605
903522835
1459250112
954378071
287331883
1935223873
1487187658
2103722540
65642679
1580754499
1190537962
2141367303
1395665779
182053307
396968423
1772651298
1273456123
1967620697
1367224283
1943851427
568064116
1771670056
1971196192
135423266
40990171
1958446707
96041492
1334963928
1410078289
1611664060
980128638
900721695
949975417
697624119
1250607575
698308320
1610313808
491296595
1693438855
793910626
1351602180
733087793
324843308
408445610
192957417
1418433314
1087092974
181372691
1392596821
2075283041
9456163
1301411807
1612124290
1100652766
2079477469
637061264
2129605294
2141920702
403501959
1822429625
1462702055
1409198454
1977224326
1539250775
397317107
925820392
1651702646
2059749339
1396264395
1776805344
632298941
1879889435
370049758
522594887
1500496551
1788106635
435767314
589292995
334342634
1120927333
16360771
1576700253
867437001
1656990581
613924514
1955436554
63905076
2058798931
1377437536
1888732222
990657016
15917758
972520410
1154175645
153972542
2015239619
1795089295
816236407
2031791058
2028100035
1741429697
2051988083
1731816479
11677721
1061448139
752267980
657715375
278704840
250795246
61041624
882441264
876672305
2017298638
1797775583
1843206618
437410849
1468874701
37077539
1634102160
2067707297
1990178071
1313140753
543948896
715594219
22945552
1613897699
1536275106
1065128733
917549388
1981139146
1095339519
1899072841
619194224
972314333
774094380
1603342281
997611131
338208650
995492965
720157781
432981967
596234071
400799391
1836226489
1164466992
1282220967
1559184675
1474009693
1459155257
1925550424
903760116
1757677516
958667998
1522612091
1092164102
1864273838
1089855164
1449544674
2119101920
1163081152
983721619
1439713358
1934064975
1941635628
2065948112
583949609
1751855828
776567092
560937395
130297603
977985779
1783946307
1880692102
1556994638
1032847488
378417640
174298510
1967669112
383678212
1348081135
1708019679
721328029
810607760
1188778376
1801535425
1264472179
576223794
1428175888
302759963
1983000709
1978226732
973333144
764447803
210093028
435975352
896792766
1134021625
561123281
1049626932
938250388
1923097728
1974767406
57641294
974822124
1420284823
1645311749
153886966
1068904489
1233572047
866271849
1993259688
2042994524
991099106
1615955725
1860996461
1905936245
927416090
551883060
988230581
519583510
717678616
1763133409
591480987
1224316217
406178698
1700846015
1085276
308203752
1593745211
422817955
79077478
387750358
2118142075
1871195650
640229559
169386083
1052456684
180203399
993165070
1327898203
1354221171
1609521868
439630604
510862954
821995911
754856425
1290973
1404550452
303848414
531722198
2015001006
613923050
357080000
258878516
1286813237
382233078
1349184925
2049394730
1024198728
799738626
1960125576
138846725
1271363500
2083322170
1684862535
846238201
1996810802
954119379
555586717
1059237395
170500581
257075387
1149914925
760141455
2113094464
250919811
337329908
1144228427
58516428
1017882463
1335686967
1741849199
1660919692
1303714250
114049203
2089195368
1194833983
1598921963
340188002
324660465
1651980970
1037387532
1383745830
1272800745
311373338
323105518
961126241
1331847407
1155025178
500285445
1363370458
77053118
1539584160
1560910685
1264608366
430646287
998260387
1949929120
308590091
1177526832
1800589156
1456413068
1427870251
757759806
1702631477
736874913
1455905667
315057129
1065584023
869239369
1161731659
676644497
1224384986
1523008844
1783568931
71933539
383681185
175237879
1210045619
1932878105
769704000
860605062
241906619
698041740
503378566
1972494930
1485446966
2111426858
1711257682
1101918186
1248406559
878685156
1565803763
1031555196
1822477853
261012539
795703007
886864069
369725885
1070500785
589788563
1495117319
1128619863
2137977563
2105464967
335013309
1926677691
421268938
1185567954
937616761
1988052855
1321498768
350483220
1622932543
683523932
301126304
1078644359
1691060716
392542375
1035701293
124148531
1197166441
2053692998
92273012
871641942
858687402
940272580
317173679
1003056743
474793763
1172088884
1485908174
699432779
1169204325
1743546268
1847242770
1313643085
143337596
634820059
1564775936
1361814367
1609369277
1197328534
520990073
911189108
1690738034
1215158780
583732780
1285082052
323993135
1988069860
408691491
1033433718
1678261621
1333143986
1505492234
528067026
2007124899
1144016062
928051097
1975374427
1313314055
790922297
360412519
2110241257
1070213516
562241560
956652631
2016199153
728903077
527825555
1395800420
1476365697
456741532
2117552505
1431447004
1566160772
1600460314
1423472782
1322762861
546181520
1955646219
1387400254
403866686
2005690703
1465412096
1419086679
1322141881
1730140020
1039476884
1006268890
825831959
2110821790
154983008
1501506232
781241255
106060929
462756222
775361070
339178941
1938311882
629880213
1566474318
284367339
1078415986
1558310232
1647172378
1597384710
958410671
2080763481
2074390593
1114888525
1184491224
1425677570
1111873660
580959612
1382402763
871146796
31301753
1948290717
1245055862
1120260680
998964281
1099058545
251644708
404860818
577028350
395027896
1334951473
423981129
1999890119
1127520837
1636323275
1472307218
1574687766
1146386905
600330561
412228381
556379783
249633257
1372139437
1001180749
1474541123
801201421
1863824031
1209024487
1157078
693370130
379208243
1904402216
1805067804
1592500442
20952271
39066914
1129917699
765540252
65119876
747654280
1950845961
1543347647
339957295
1664633411
197355333
1494976611
422972476
2100161951
1593557748
1459796759
1644955926
145113094
1392055552
589136361
497220337
1595047497
959504289
986281910
158268535
915464181
1989825395
2032439594
1427053170
521545754
291305830
1582789012
1595171524
245431606
1263691135
1472071381
2076473986
1491601760
498331933
460287363
1723906928
739500949
1013808262
415636996
1419434802
1832238580
1034828296
849960917
1367349505
340516906
477134765
1870202357
910423139
1891952188
181510573
94139256
2100521729
210946376
1798493331
718661629
607764173
889106436
1295783837
1335562993
301974675
93226608
1979328183
1993601292
533641822
711810662
1215329601
629206969
2048894250
1827117085
1444425683
1961449829
2111846334
2108412258
1961182875
622004812
278282313
1436655542
1921679274
610561028
766156643
1866927707
1523945811
1550957158
54838695
128313374
1226589275
857116507
2101328471
118605606
1658035639
303871757
81897739
654306613
1669992893
1859210423
136247581
1667883949
278773160
906567168
189917810
1129047056
2099751476
808802419
477084915
82839611
1018500485
1682537628
1994677733
1071071916
2106050026
928225943
56467144
389095063
20341719
29873864
518976353
619923578
212196234
312489345
957790234
1455545744
779405519
462532613
1615724420
184124803
621930429
1219989383
1089202670
1431064863
1003917146
1362498265
1782940318
1870816171
681456835
494229859
1645422108
2081382979
1232335919
850761906
642019590
1699589446
470754269
1792907115
965457398
1297112916
1727524369
444887683
923401116
794629696
1313665982
643279045
765756245
87982965
1950545467
740192249
732747542
2009121663
1335331257
1253789712
1873043467
1523089192
273665939
1068304402
587498594
1922421471
1027356858
2142222983
1477725758
1088684015
718950283
591356155
1005885653
1572266922
105744981
1994164457
170641367
684144787
1833444729
974411711
1327105306
1839111683
1843201495
393008928
1793001240
1704224969
1330881242
578193683
240803537
1476148035
792131783
811877387
403656290
1912038831
1274577750
715806738
1188374395
1283067422
1218461490
172358049
744304763
2016747807
1260565699
2104358780
565646420
1278609917
286657158
1351464235
1008523156
489501307
1956585213
244019427
1617909539
1886145453
1569696489
1803210448
401362587
785210854
1087269877
1878830410
818341353
1356046594
440555134
44909039
23840843
1987517687
999935966
1478589617
1431945853
1512837417
1550250278
18134326
513271806
265758226
237621472
1099406898
2129805998
92234788
285332923
313623097
407242821
1152316683
64950197
751093725
1397119221
9677635
221027376
883408297
1883407579
235950752
1594691228
753053443
1033296740
2014300378
1684136799
270811043
999358661
2072698084
1912011299
115150933
1169214609
1406269559
155916285
2022943514
223260628
1623953100
277770575
1286715226
1238409985
1442338442
1569733825
95122971
2125897046
1244547226
259280104
2088928956
401052001
756771097
1965667024
1640296969
1623717133
1489065838
616261600
1279885344
46321263
708486872
1907622139
84562758
1141787415
1178271216
518875031
1788792055
798285099
1792737233
2051382459
905296253
587981577
1902181275
114393842
487638241
2019611777
1742169391
1950789902
1201813295
465959276
1935807768
1618299831
1150154629
1606920147
2036551980
1103816641
779016734
1156778565
1587649626
1610052881
1885418223
850882141
12537615
1777152072
594785076
1263213084
1735718941
110402784
1212124345
343714593
136283014
799901762
793304722
595197196
1465068659
1014371065
904423744
1370855027
1229206560
1003537342
346000196
1026793495
1257661149
465740049
1456964788
1990681436
725897088
507663444
858588105
1139429334
1542418771
1097945911
1586035058
1165330896
1745483209
192418386
459781465
430375162
1982554968
408829854
835668401
1220218349
704708569
1515717647
731265144
1485019356
971702678
857820770
599484054
1594214272
309823413
1730160006
783308994
1195848740
1789680053
1764164134
1553381421
1001630442
959475848
533737877
361897292
1302622356
193349264
193675095
326051284
2041712740
1437069086
513108068
50384842
345617174
1769338852
641078399
1656036911
2090794067
1653215362
1454921961
50464055
527659331
1948154636
1639613085
543923895
2093770558
735790039
2022483970
1711580627
1240496361
1702511112
980894803
1114258439
983926237
1481826396
1357043843
1482421444
940062650
1493085230
1635358393
1999710754
1979060457
510111495
142349197
1854707911
1674773314
313626115
1000472845
1003439108
1704168855
1972269622
1207955538
2129371912
370434539
1454422266
327883877
1465521112
199791766
875195535
1693727777
1091541087
904352155
1370194901
850549857
1148705421
1692539701
716171950
1547092602
1267955851
2081198206
852382311
912447086
830183608
163494592
1819855298
2121864437
682346084
911926497
933240241
350358035
1603474859
121632975
382402701
1396593444
1510838293
1741776267
173144961
1734256940
1233578027
1119719064
110175809
1457189652
1151825538
835436783
1929422686
757161890
445414874
1788523033
222624777
1475774563
481080922
316179917
2087192898
1551866737
497689444
245193953
1435235205
1494191506
175255226
665938716
1284030184
907039964
1848446211
480744710
1208334298
2055285394
1620929091
987076500
297771725
1856165353
1370578393
508736665
1624028419
294321617
1545971385
256240227
80696451
1685553956
1144795080
871149966
103325793
819651495
111598745
1927496453
542884115
876258086
1592237184
1767335529
284360776
119062189
1938212833
1156499616
1314368000
574695018
1637925967
558487945
1462613065
401883095
812380133
1026306754
1810116322
1820815316
1215813331
1936950672
692813037
1949609366
1636216458
1613107467
606229429
972168246
1963072194
2046927088
1386906619
894086420
573323579
756290344
1115064703
2068892306
340653582
721839799
1304486976
551815522
1648601138
836980993
1019098920
849536003
166262168
2051169680
2088448483
2030140354
419757885
1373672093
1442267164
891184126
1215812987
533700774
1431110114
487486329
1166685368
730109933
1507429568
477667249
543197437
3090238
359887535
1081794047
1437743770
702701928
300061518
1005653694
755384921
1379404896
686404491
458682052
735446448
1849128771
877846132
228463289
689404700
1063835647
412060924
426829788
466589206
1579037214
765302348
746307428
309197731
1528480995
1862396006
745857207
1473445608
1122107994
1154091029
264020682
637592634
1830226812
614815968
93228918
1704554111
108378304
994520602
1541180614
1550365476
739124993
1130537519
453840925
1415460438
982240881
682702789
1039488900
796217004
611393503
311771460
2122886397
204329658
911256639
1929974175
1708502900
290851782
674025902
1001124963
671786552
788984672
927396635
1675488671
1398397615
500414162
1137128692
2012955308
2058812021
609059664
298173562
2062076470
1267106282
773626593
1432266147
2017592439
1735929416
118468695
496568758
1050278766
1776646109
396528350
34286730
1449126760
841815112
1335685977
725859370
1796780699
1654948114
2123032533
1713489389
29231594
2111345998
820975732
1852059008
3442076
703995015
1144040166
2094639784
921263131
1683191915
1113933610
1773817749
1321793454
1429490509
976776134
1540593530
853495401
2113940103
777062874
156236836
1175650722
709187725
1656121726
2130908446
1921795894
1577092844
1037391317
927153439
1635293389
1908580713
635867628
24756433
1862020419
661495562
983012353
1471321303
927086561
1080122745
100043423
1066701788
1723658547
1147449
1052944415
944457050
1220962002
203253241
2036447161
2131438400
1693652006
1159923201
735836390
536451322
1418150512
27655880
878658743
1499533490
1453338795
109284913
552237204
1262168661
180487348
780967330
1239559228
1161363845
513507944
1828639878
1752149060
1100164072
619744526
884322917
749420519
990525315
951873057
1343009028
1991423036
278966449
12380053
1535864582
955068635
297250941
481757662
1603592656
819811283
425128736
2129057245
1936887771
251827882
1334408793
824878148
1714737899
1433074103
1003986599
110843456
536945381
666237117
1275586318
1063407039
1216833262
2120861510
1315902980
767438037
1031229623
714855742
523828433
2017943387
99532305
1443731903
1815264452
648374786
905585591
788441430
2059376143
990249879
526384913
907350145
1203846681
868676630
990924983
803010957
693943591
1843641852
1756438162
176199463
1319425388
30936531
2011233859
460937641
290648203
1506276098
1760077661
1880845154
165123696
1759436672
1890880880
117208134
908815129
418803863
235897467
659990179
1206498543
884342407
1681350927
782832416
1448962894
1232860532
419741432
334906719
1028246672
897709393
587114117
186787732
1633123399
1405925846
1171479021
571485977
1731144083
2023279436
1909398756
1682100531
577420606
907343505
1426720494
148717154
497422362
710643025
723901868
1778935706
488122642
1690005021
982841125
64768298
1631454215
1099027716
1954751576
2081325248
926932768
1888875439
1452909178
986130510
282726940
878137748
2079790695
1746729625
1840409360
1129313253
1020563026
819576770
1411585643
409685718
1383107552
138936702
1873021984
1652751492
788076206
871040691
656147969
758267436
390977171
1226971389
495058468
1241596941
244528513
1675104157
324547935
1914256827
1236241007
1082139701
128565474
231879272
720063184
180424567
1129554264
143368459
873285020
491744508
696410184
341895329
1869341891
513304374
1013790477
1114273956
109869181
1493019771
1031257185
1499252976
386500607
1686350422
738401172
1568021072
1419324726
854790871
643289466
1238105705
690779751
1317971875
1412494333
204056755
1245761687
513691471
177340311
1775240597
614234409
1278243073
1152396765
210279380
231667985
1821546675
1574458183
345781220
1559144067
1713529736
744113813
761153744
1647062938
389526615
899861855
1193164775
787819443
503918405
801969062
1114597840
1048491729
999030541
1695853027
98093471
1353782108
711974833
1370557199
673031708
797791224
1719170183
2093197887
242213251
558239365
1200939798
421628520
385686030
2003047953
2134292450
1793153840
627544562
2104507551
1971917561
1119297534
668721006
2142969440
927537989
407264699
1888773579
1023144679
471907305
1756615047
146511061
1402955893
142911455
2128588530
1857941864
499090673
758556140
785475001
54322685
1960677790
1772955083
1442705498
1022581297
9899060
2109807561
506571362
352130033
28221839
35857629
285650695
2047991459
2095198288
775484294
2112929415
2053471405
1059508789
1159988091
218606824
956128870
1862528779
450008669
349788256
745349996
1021728568
2098984770
1772889968
302703147
1180984501
1812531282
1622871786
1909209226
1720460972
1871320418
705962116
69018593
2004128512
2147152170
1877123316
1143054703
2003484891
1643534750
1510843914
1978865273
372517500
85566281
691289412
1770684582
1694431202
1752805104
338696709
1210609158
1035555112
1051337836
1869073242
1126940156
1957214257
106428341
1700362921
141043740
154823566
194524458
736571908
1898810852
1361432650
1227625797
705538606
1985024646
52028514
1746622847
1842258152
212400856
340703461
656797743
574076710
713839965
242480221
1118691480
1770968974
1476881258
1502960855
148537287
399320063
1352005860
1873701408
483781734
1169255767
1716792382
231071931
119919366
349384594
62353142
948597459
272661109
1094654467
1509946971
1351183269
94312379
1162222735
2142509701
2084069744
1890478786
1615330726
2073458702
1546317597
1914610338
1096972733
1973933920
1340962619
1664321876
1796073511
149282140
136179198
299235387
483420737
1972863733
1014737758
1665635468
743481754
1025005188
449267133
1685705594
925953381
2100527920
1701540731
1311327798
2067542574
843030942
1057486322
1174286009
1787635302
1548505010
1243056911
756243281
1031350853
1557303679
302639140
392448875
1411884200
1064892625
625654758
381918171
769583740
27039284
1573828720
1461369434
338668509
1366274114
266315210
550757081
1413999446
647972066
889224285
829383432
14056308
59789539
719488678
2036672212
990381426
526770192
1149537304
831753337
1766233948
773908062
901055115
1637646615
243579352
1967841050
1330661766
1538385005
620564303
1488729544
347335637
1634874880
1936685425
204437066
1761601914
412518473
1275381681
460473632
1826556548
760397180
2223467
69541795
598686172
2070481923
345227386
689628168
419620244
1444006445
1704738562
2022253033
93612840
167281410
1921670680
861549191
1558481171
2075087374
1956994928
1561467110
987551823
1343850466
894742710
2027366951
1525633010
1533974070
1267552379
1498381764
407621121
647382021
11386116
1847862719
1894034162
834611854
420571994
588984007
588993300
909146224
482657242
299460820
1074653482
142081672
14854661
2021455672
1923018902
1597342892
977570260
476162170
1164967825
702833852
1313730112
2038437702
1613265308
1311010776
1723637743
1543017059
109138292
287513172
1099319900
1115344087
430887793
635826168
233614094
760960534
1994487777
1347899427
1678854142
1195891302
1270267239
1209430653
74558626
564865900
1536363185
86749720
1893020031
267522036
922589473
1675764546
945113560
33676302
272066375
338128633
2085181825
391238198
644231807
334689895
1140790288
20466283
852261198
55918764
692609607
740074336
1504151226
1945153041
1074254035
207551031
1517060769
1824289928
1459914346
1424403127
423464430
907207688
1349435894
1248368612
495969102
556528325
1419632853
1469463628
1209795161
1631916369
162589990
2072412591
1280368985
869746375
1188738095
617177546
1738745854
6067617
1782735955
146230908
1664184574
1195747141
209826703
128803252
576099567
719372391
1156156823
872896081
1524825154
336788908
232147472
449333166
299235796
1877268353
410807019
2047031951
428878896
1107488473
62317256
573861007
345499931
1265901718
1904206564
1423732090
1781051075
1273356971
1658663294
198049367
669425482
1863313398
304678851
834648708
2117009713
1188039747
935360829
1976731632
1520356169
1170180409
1027629090
148754074
512243224
86143428
1603917229
1014135213
221271575
1009940231
543633084
681951016
1338883638
770045048
722109150
785690793
1398876771
1970553699
2050931288
1689359182
1319186670
16275591
384050241
738983841
1817312650
884123449
955356582
2028260067
1753355130
546000330
1737690700
142521878
1699026655
1687521927
1839130604
289203988
1436917959
1484093164
329944237
1010837647
463935413
1151929532
287814771
114553389
1481675476
2077585822
169028571
2061252851
1926874013
1700367324
920527426
43321205
103999697
294051468
5963797
1964301875
843106310
989965706
1771488510
1445125018
1078309001
669608472
363326963
621915205
537953527
814376583
261874703
2070954990
2108345852
1215943519
919335450
629234833
224318523
1109197414
1375912758
1267384196
772719299
599585866
1341876497
875386192
670421414
1214721000
602073634
488046087
403470202
771541702
2024101841
545206724
107520930
1022424401
636447970
452946110
940769747
89620254
1710076778
108546771
48906859
1610932069
1123169119
1138010432
1145925190
429944057
273262836
1453014504
426131523
1219093150
27869723
576729952
437028756
781396744
415098250
1262974460
492540357
120550915
679870701
1877527369
2033360353
1893241720
440327851
201765588
1006196144
583768157
1875805322
1890127441
304173144
1985858308
867375564
1598853549
1593678990
1523242798
513856884
2063072077
178869085
578636299
924284019
1797788858
618017136
869422850
257439808
967014898
1048328725
108651438
172321930
627518210
1115906342
2041830427
936670683
1509745439
530595204
1993068189
1708877745
866924871
1136444204
2119422182
1914905345
1981253842
996541756
767536118
1053228073
469082370
1037566048
2116112379
1644882187
733560347
140537327
1944555691
1190213576
1175931077
703700096
849357354
1945685207
1887231812
1105089429
1725828248
294447368
1856382142
987217122
998567991
298809327
1403443664
895899487
383464016
126281244
1272298840
590803248
652409122
1243119515
2116793343
112503167
1402707986
2023249297
1153939702
1619589922
15494128
1175956802
1634244030
247123796
555321112
897250839
1003315881
1061525207
1942242833
188761874
621662106
438398228
1821881233
1069508131
203109117
1825915394
534930591
613176918
79389524
1808534717
981374143
1002794237
2070828825
197526754
1971948338
1882583349
1842318416
132048508
629884298
1901478212
2374039
1589787128
2010082615
1850900873
1307002437
1808181389
667980630
1197527617
1547962970
1053382014
1907799261
214961614
579917524
2009218999
1175062210
1196953382
771376656
824880543
1171983154
223641624
2058376195
1852743241
1438706725
1421029186
906378908
297943965
556736779
1098837732
974531986
248808732
918772291
1695545921
882484008
1710721491
2035070445
2047534287
264746003
1836600044
2020424546
628559797
1563035586
217984323
1591124079
626370684
796500267
1357620398
54744231
423767824
28601883
567860502
1282201188
969245840
2126290901
1986096513
2137017991
1596227728
905104415
60690988
984773874
680726557
106681354
1120104102
1345567906
1758780393
1258526142
410966045
1642448943
896824869
409821977
80357209
504571274
299503941
604193631
1020867
831148801
799718879
999619264
211195158
102566674
569979140
68672285
156421452
648337474
686887594
200825600
2102262654
686682628
1741017974
376338346
1627780579
1225351445
1724779442
1650842598
1563929656
1890020001
936665350
279630146
212873620
943408659
1791423697
841807686
148688652
113842144
1024350822
1883817232
1727208987
1348417285
234165628
774426594
1302997510
308000818
648585257
1936710985
1906154366
264192732
1283258762
1702672771
278128954
1995320546
1614527356
230218092
1912640459
90234746
2103949557
679657807
87779021
1826914917
545137904
962934298
1812317064
825029064
1398685648
644625706
437711660
1805187241
991989243
629716206
814252265
1579800147
583439912
1410608274
1578867887
2110720543
1112287140
1638196421
1399882903
524773467
163784826
1283723168
1147729919
955806984
608365408
1194764673
2114892042
926747164
915672829
2074746919
1249306534
801915434
295821997
28689498
842783530
1408871778
685397582
63045818
625304753
1487916489
415592224
897997630
851022277
640015130
1782400813
1844395228
974013969
7458616
47157897
1717338541
1700062692
2100804256
1525788253
1451872651
1190725798
30892192
516961977
1569832967
592130782
815340378
1319314644
1704768749
1079023614
444270565
1200584071
1894554592
208725393
1046444839
1446991738
68574719
112923891
1434303892
276422947
710549504
295323055
672534361
857952140
1579896040
989044584
613020983
640601060
1897489440
180763808
907660324
271235705
1667928889
327556277
1604888032
254840871
1960383791
1300962838
1778871614
1025585562
352607053
957153447
73945566
423024762
994508118
1480945627
146504966
1226146387
314732784
1299256604
752225774
1604511494
1351715730
1183363490
1147428162
2014246533
1999816925
1655390683
1455983239
2006310684
995843162
1666327994
791039719
816094190
864291012
1166562563
872225565
1848183616
1956692226
1300076545
1053915639
502697081
999559117
552520427
1535557128
1699227284
1141852248
1123821322
1244263739
1653159460
1924169230
505845227
1427055888
1001235461
21972396
1196231440
138530598
1484956466
1770601679
1185080914
376028457
1283520272
1522489904
2042125936
979703042
2076819922
500500092
198046420
737719778
1930877648
1646394282
265020915
1226300274
981970071
203943509
2035728404
1684277896
525572892
1069350188
144300140
1017529815
143323625
75229517
914417876
2015529305
1731156774
208344784
1295623870
432443110
839703679
1374377191
452355637
1163189036
568090365
1931439636
319472583
1254953128
173587265
1713209385
1000036137
1483902194
957305405
1515920732
1949920476
1576160266
852830466
1491415817
1944307946
440997341
2095681791
1981070325
1392865546
19591438
1458525429
747714239
271285998
466411678
1728409455
1116858109
1011546613
1142023886
1500006899
1735318850
1569700464
406606580
1495564758
145934310
499995370
1214534629
260323197
855542346
63636261
1712641523
67101775
741318132
1153675728
697279951
1184610571
1364867618
764604097
794418579
1119519652
608716029
958922245
64067792
1888427530
1498286735
603449641
1773007079
1467311143
526761520
709335533
594166006
1939583577
1235403316
558300236
649966166
361097980
1915598856
1091971331
73404656
974325107
605706495
1072535573
1971119903
634266726
310908374
1287805407
1800790746
1047802756
1621000149
165632707
750092322
834080237
2132178997
1577888943
2146631531
1885809840
690039009
1291704557
392732860
1632427136
329106619
98581390
1901930350
1863974101
1856966538
2030200025
461481908
956122462
1793175132
195920710
1296341463
897586286
137642012
1802098403
324744955
58181046
242367729
268905072
1375870263
1962119116
728932348
769807901
848706447
338684728
1424709043
805358043
608634645
2058911672
816477650
1270554428
1858270666
1325505378
1864778401
1573893167
1893680209
484585636
829747582
47598875
73138377
24599555
1155349292
1127071402
587554951
1260024682
860926918
882680014
1351834426
976395018
1631644598
570296428
2009632511
2144003357
778065618
460540332
1483828790
1794504306
1342176671
1202963110
1459925430
1848129128
1624962447
1764994305
1975916190
1104249893
1799397403
1207630016
2053923261
1772057851
2142155858
321203779
1114352688
1173428892
990645876
1394825306
186972039
589648309
1960134773
804845290
2052852201
1686935538
648813001
483195110
2121568909
2028431910
2077917286
1816641246
756520386
981084872
1484435519
1733764212
436347239
887066606
219466758
974230437
920537374
115513779
1419994371
1754341021
673671673
919146683
672121841
2143265160
440055753
1402440576
1666644092
1546448244
81072295
637009456
766030335
724040299
1918835099
2139868945
250666949
947134809
1267245555
1737651786
442308910
756244114
1456754882
2012062536
378457532
431922221
248813710
900459351
290143623
29688874
687534931
207814474
1436170725
422271655
570058488
1405250334
1214557360
184836094
1675514278
1793579625
1086581042
1662728996
488013398
2099111942
106087562
539552851
651788263
1875801086
955348354
32360061
1683904312
1234272461
42810594
1487401444
1401838899
375495492
345822708
1904211719
451967241
1696516022
404926028
899960786
934189937
1990785072
1613096578
804061735
162955990
385551194
1538464364
1862288045
1528219656
1557090850
1972760820
537992832
584659550
880189087
1159492678
1215376850
716919656
648730982
743781159
843992472
1783000128
1011228829
1029253091
1930781248
1491573000
870804900
22178071
1746084407
734610749
1991099406
17867304
537651056
1800333235
1431496493
941380430
1721993784
120850410
386832511
1750718872
143540933
258967832
1204510228
359481275
1839436999
2065448678
2069221627
1143985524
1342980094
1841809924
1733259990
1940426976
635714494
917027800
1171131603
572012073
1154070686
1415381692
1722848722
298469220
1559374536
452042482
768778211
1719385498
595483763
823434803
2020036483
491292731
1642498011
1953652779
65329580
1311823394
578255260
1952391890
1963559173
392635793
1475984117
353228355
94588385
129506285
683394021
347421155
736285458
1451042557
1935160857
388251501
1042488494
883614708
900799969
191281168
707702407
61624569
884555224
842745964
1328232979
1138476115
499408848
1127982321
1702155419
361409875
1480044620
699930015
533837309
883498044
1620254712
291980118
1434943094
1748898481
1273810451
2116766342
217777377
1946262550
2098690805
1900878081
715369837
864660799
583860692
699339115
1480279871
597347659
1213586314
1536685902
1815311136
1062045150
407283815
1339499515
832147902
1004116660
1795998394
824377889
1823619381
1459096269
1495455883
1773327044
1488270504
418174959
1256623873
1379186907
523438384
476682060
1713908592
375459264
1909261592
597281245
1135429088
445382104
2064176399
2060057567
83854355
1488350214
1260954582
1715121764
889215621
448732852
974175963
433063463
1406851008
712323943
1868809707
2121221348
151811645
124574688
1579049117
1375406296
878573025
1838637426
18578602
2080331117
2026192939
1992257906
168432783
1111384979
1648971820
1680519742
2088598858
1567570295
1914775090
616668705
1524710657
1201605457
711377392
2000595234
456747295
2059821931
618079236
386247687
230198460
927142445
1446533400
895785257
928257504
1325917924
1511951205
404650098
1587564012
1534275425
15277459
289516475
693949764
819790044
1542507595
594180939
758819715
1410221908
704633183
145943007
1048886499
720477936
1347239108
2041630793
326367328
451867481
2052317282
2097365808
51900064
1149429852
218030343
923811311
987559871
214108640
1338235209
615749421
1037623544
715113712
140784518
1656765862
1562846255
1993680585
1143899229
525646836
415081856
1251698228
733539461
287573127
2084763983
1246245620
70091758
1408468669
328151790
238145180
1801571013
1353681487
2124429940
893709372
1779573966
1654051850
2095754111
165566813
700078817
975082010
2081438470
43609457
1906582971
290426777
1311024584
233063169
149209052
477999591
667559610
1078638369
958562199
1029356555
1720611971
713634264
1880848944
1569020715
1678854418
1301821076
1678126408
2027256629
1117613700
1476508751
688206201
1187439196
738022975
284249577
1409741879
495130101
1802778268
311423586
428505745
405505735
535081442
912055573
1289890678
1025836190
2068710377
1532224898
1051566360
1480948522
552122488
1993525358
929268825
2011493949
860613017
776875949
753167937
2062740838
136578552
151486976
1479529101
1632688421
1059331795
504659015
2054418901
382930549
637189820
2083098837
1859244959
1013506839
1664304958
1706561535
407783769
34413085
