5200 774853258
1987153576
1179422511
1869462711
1866667912
1328155455
1029072081
2068164508
1728531730
280219681
52614727
1222066480
557262649
2073626986
2092971294
273228188
865464796
1599996375
1740627081
1654566318
1609430521
1493963256
110443339
1796842547
1311631488
663902528
460580322
1493573956
15589497
2146254344
260419913
1777460042
1187304669
941995361
644994161
728749687
1861722970
291066880
1145967390
1856563591
1881841270
1578903050
372436980
253438556
2078188445
1000689531
1540089562
419965202
698530134
290944037
576499424
187934093
2030253568
190179547
2010416371
1655931641
1633643920
1240967692
1990753643
1454506953
49211368
151592355
156098458
623071010
1281302345
250452643
1716356641
277822433
210945662
1154595090
201935701
842032486
1881904843
1849649812
1835825586
180979657
1453827811
260364995
249579245
1202856962
989546630
796858195
83711595
12282951
531656424
1115258857
479413016
1185839216
112500027
821231440
1841246613
826589646
2032032792
372902594
971664057
916187056
55785731
2146462339
917110238
1967504247
1310149653
682084978
1301834458
1026921793
623854924
1558712770
1667388536
183234514
1214121143
1930462085
1717516927
1398885478
1403434665
2074388249
925842541
1850826811
1608285182
280360888
1945559838
531072820
883463744
1882938722
1223816023
938312015
22028312
1447521625
657868769
2126345907
295848268
1496215868
614446183
425214736
1486364437
1523398753
1308487325
1654721348
1917769978
2000793543
1589477721
819927104
1797631887
847659500
526698173
1355218075
703085251
58785727
509471173
208404236
1326340080
1010274281
212267505
1742393591
859478109
871950431
1109447630
1413384320
1799370437
23973264
1263963221
1972430426
1478072065
2141264590
1689600743
905371902
1297631991
1244713753
1833857983
1158314352
1085776098
1375271125
626860471
1215485885
1100659479
615067138
2061963414
1850453568
660548577
2127961390
955451373
1090316119
2039291444
1094166768
602741975
256088066
219021824
1726276674
1743914017
1917664647
766690235
595514219
1004170491
1994801353
1802668401
1566241642
1040147156
769442593
1189804670
1222544011
1439741834
1792586247
13306984
2136719564
1333163629
1074406381
1005672979
81887203
1960205653
1345256462
1915158847
1301224442
427188135
1603327746
1870662115
1948041924
1691693250
532430491
545936113
2020193648
552719745
147990167
2073299390
100747094
1893416728
779399249
762488758
1873258272
356576453
1567635417
1985181949
1042247367
1260230412
1919002385
1262398049
1702427642
1521803437
1086001967
1561714623
1834782663
456987114
212312003
368529952
367015896
28170836
158313532
1913550357
1134198176
1196235550
18761400
1358637532
1120067526
1320335639
1095297428
2031643639
978391356
740063109
603619047
101423293
1965818427
403364444
182627596
1613050257
2023338022
423628636
1711958744
574368275
876658296
1566171581
1718541190
2144124766
1898763708
90158002
1208185805
1296291164
40291575
498958566
767321367
1082121667
449943964
256174217
1566724726
1471170078
287115119
283983836
1074810052
282881423
1136605500
2862035
1734153897
1014703086
1007022207
131875931
1984999687
967028560
544251589
601177476
812068668
1384209045
2074360920
1499273862
402772781
1003654089
1449781700
1792862136
1892119012
1784439340
541677484
1598520494
697638818
89906267
1668282076
1808713390
616571932
891127466
1169551521
681581328
210384454
1761915317
1639049078
2004914418
1556677065
1886072870
267157140
625107986
165802452
1709350224
1231334078
355229400
811288163
1954556679
1639303643
797723741
2137223211
1794898031
1884324924
1523413768
466597000
1619849160
1566012404
2022446752
137566796
1669999792
667981126
910099063
835624351
1106963166
536641386
2066750373
423341124
2019425177
2042913803
1537014734
684845659
856802515
1213192246
989368964
703151528
317048532
619930609
761712719
1832460982
226404994
2026429188
850090020
565594300
1314248792
425884978
316947168
7304576
1832752416
640278010
2005514217
1661645517
594717212
1427871055
1363937526
228835605
1617203610
582006809
898118414
1810683113
998059573
568792896
472703448
1016240753
1079052499
1987660173
1225279727
621052558
1992365781
1417116337
832048909
1793218055
1354172500
898761701
1519664966
393220820
1397038699
1300679829
1989035086
345050963
1628604815
608334269
18672073
1642817409
1920898
493237995
674129758
1408544974
1291500047
436452983
255423019
1707668993
165629109
1249872137
1445353463
30211139
1473725255
866860786
1340678261
1144835750
750295172
1531494201
2061875270
501715644
7836532
88537343
391586467
1685693617
2024201738
1680444123
638760062
1221983193
151790594
472656782
740316467
1528813210
340932672
2043861582
1304480421
926265075
268551027
1102567142
765135404
729708087
185170495
143155646
2062127945
654973456
910089093
255935538
1000395291
2066108471
845182727
819732845
631736603
2141760163
1866644222
62819837
1146766238
1884222586
1408256587
1784410020
900911229
1689703737
933682135
1805330276
2089599809
328056329
1740218205
1286668164
1000341517
616176975
243412173
188769640
652889144
761191209
1269365215
2142333204
392227135
196746681
774789270
483394978
1860384512
939545864
79494531
1927524794
1619484305
1114935344
552537596
1368438539
997851932
505354300
911128119
485774257
80346457
44258738
1845184471
663527818
2123963712
517340168
469491699
597509826
826995918
148143711
996709723
65138222
627747161
1333709658
1924345536
1820297097
992005765
1280594293
1635279254
574967673
1848789101
1406487481
1566742288
929996781
1537291734
631854368
197606326
171346077
136897056
82593296
1908905211
44969649
887996502
740448038
618536811
1516697057
31091789
1601474222
971076903
430010387
860009976
855012364
1755692037
1523717485
713405131
836111507
377855022
1315751206
2139609246
1853300569
440122731
1711803790
721297244
580567543
261476019
2131311708
1470311440
1775512581
2041189184
1512715891
982483505
1202443346
1045985722
642390252
1091419807
368170004
905984411
1645846721
1952700788
652252170
510851584
1498700697
707424395
1506853000
944668761
123182849
1911232898
408913156
839247130
839404056
786349141
755503517
1141068683
488131653
1858401524
592537116
90918840
1188886260
1424850507
1691444895
153781196
889656532
1521263639
224803037
1058477928
1890437733
882097450
2082924114
1695452536
1849507405
1575398856
1974225508
135866873
1056573796
568816065
1064519164
767287531
250244944
1957736172
1933130515
969002123
454450762
192433890
1683214930
82193126
2033137561
1714627142
1344603666
1558701318
986734608
1655867869
904689521
1320131701
732534786
2071275785
425134530
659636623
587471722
42180947
508413980
147993137
506694300
2060604036
1537544143
1136451487
446929355
683747010
1970079344
1588264226
1800637017
208823259
113530037
1359951320
246442508
919700916
506342330
1990683331
1457462175
1279467672
244093008
622885388
128395216
236374918
436203563
362056745
1649365985
1844712018
51182972
2142038742
1893532654
2090561529
1535759221
1414553313
1061642626
2004111543
2012439124
2045187767
307186891
1317084342
1089217550
1146950731
281875536
913459612
868554724
522986501
1030026621
951154055
1041369006
2144754224
196306109
895322349
1063916219
995760570
1294081545
1901125847
1603633970
1095279177
649526464
342524123
243919353
189277857
978164808
1785941577
1857389194
1072327357
718061451
1259884956
423288885
467724751
604537492
1133707405
517857529
750224722
337793333
1991807287
1602415371
1147058728
1297590429
642339766
1296134276
1290690614
1414569688
2054755425
1865071485
1210707746
807351083
1657374355
2063991451
1315917309
641754829
1433384411
610452796
1289299994
1712331866
1084064131
1250062250
310234289
1145094323
858267144
2109359977
1892914249
1208466202
405053310
1745788760
1264832293
1892656417
1530104819
2078823441
1863662465
1147227019
1767142725
1726320709
1769407508
1653896677
1144691788
635885756
1553286534
213481248
1144756766
983130210
1946164740
1141671408
789647984
1776264597
734937638
1537465441
2009493172
362370222
176430103
392798477
1313578849
862680625
1122529607
852661936
457565885
357163309
1794085214
1864537203
517450399
799209775
285608746
305120940
658001768
1143910694
2032397508
196458080
907352447
1468127377
791775238
1214847576
1909725259
447131373
1684455899
253587020
1777473442
2031862002
963504166
493704305
64264988
1186597862
657657839
376880302
1468587732
404974239
745077766
928765256
1510531923
595216579
1038912186
710525704
1824489131
507748491
877636696
979771853
1210349363
1752448329
284483981
375671886
963224924
1942636828
2034516407
1143172233
1364336256
968106015
782436506
1484149804
1819043530
958754223
368487696
47586509
1795730308
1625001841
295468927
2015399878
23332189
2041725660
81710960
1227052860
1050788478
399087670
1343265389
918877494
1129036070
1348349984
1889059271
515671364
506634681
1834270377
810928524
686375846
1755805897
379181161
1944264077
1853545985
19327443
1821836870
1063837962
1765510071
766492901
1444815274
1975469062
309128565
2099078526
1330379100
634282425
902346392
1895783434
1443052777
1848878769
508959846
1334235445
599830935
391495561
1743064855
2000890624
1000975916
3149574
1763719457
747021354
1859510158
1514056637
1464256705
443280656
1475695819
1964238590
1975451415
664131419
1922290525
37771993
1490192582
1222772489
1499099978
1180074049
2080743061
711437742
1641055175
468897202
697953505
1497058331
993834758
30498038
1911440655
244350142
1768396512
622467431
915149976
1458750905
1797275842
1965848332
366192026
242119615
394553860
1314107259
1364731830
211974982
1009560670
753699060
438075280
1641309183
1233000841
581280953
50454445
809450062
1635915880
1940083923
853092414
2062977420
1757776083
1366293172
1286082343
903241394
1205874537
499248462
1708331390
2014925314
1600481898
2000676667
1190996459
1833802262
1193225740
244120800
495866511
2122458443
1284786270
1644501898
821152852
799325339
1140518155
45289066
532492216
1395273054
567839471
1831407046
504448128
3767311
2058348383
1292162244
665166464
632495663
1899922105
839401411
353376617
646790360
1256866811
1372549885
83419512
572391025
1428188749
1766688687
252482382
1695340863
2105990219
760792021
1067247684
2109992503
2046854211
2041534317
1744913204
291138032
480658713
301834985
1625816993
1410396161
1928657373
1351550328
1894353770
1922633021
378656324
175256422
583943608
1199616178
556141387
1090130978
1947740097
1782230989
66237174
1822697680
1702966644
2069712612
383648907
1166899748
473937096
198169730
165335370
1774128871
1812016892
448799621
2125154335
565897736
1319974914
1750686872
1881145986
1204982071
2162571
1096059288
789862419
2129664689
691316873
1906069184
612956970
1905968060
1048275391
979150388
861789460
1109397225
1951364679
2046271640
55335572
686451289
1792716122
712519861
836939645
1982750169
2045579874
1966865665
1566684014
1211580712
1301417627
1487747668
947773022
1203534489
1366652730
1057328573
1428460470
533218438
977887113
1798502081
394704894
785972361
1367191531
1259848269
1237945354
453376203
12224256
209617838
333369839
51439385
2007916860
1144723523
707082438
2053943926
669059423
219263185
1485967600
1449324970
928796823
1042080681
658852057
245423589
1947963217
915130329
814264458
328519730
1062399177
1051793007
1599833729
19220525
1488940932
612128018
818629510
2087352902
1733350847
60164214
964353878
1462986209
362689911
393735806
467199028
1145009115
364274818
133840956
1252420518
2067110944
1627203982
1458502778
1720642336
595727643
233190197
1870936523
1018328938
962824233
511629685
1447461174
1730365723
1620103653
936879349
448540607
1333233977
1006651144
1132371981
1907548491
1454400774
1786348280
291204645
1232593591
752315120
867876414
694037821
928295828
1842556350
1109044338
429005974
1338532162
1746153891
2024792830
776277507
1360486546
81469542
237422277
655662691
32100425
553207183
277807894
617755859
1137851231
1074549289
1451853571
961465292
464859895
1666607575
643828808
859799754
1479211225
1886615175
61810086
1972104520
135541236
2068628748
543937677
1651983989
565878822
1909188816
1580050337
540362039
217507001
384690314
549872035
1033623354
955533957
1844949696
1800414783
46306932
4954263
766302518
1559966160
42011073
1548610462
243897796
587470434
1323085120
1249417449
1176573591
1499169567
60277281
1294669971
1155600931
464032144
791799588
450361206
1385931742
879664216
2076932387
1560924498
1901621087
1748999433
1451014833
1387615139
2098073269
1325667189
886162648
1064388456
1376044085
92369520
2101100373
1263379356
1522759823
1030231880
7069822
1428334315
1099431444
1381091174
1587459529
995162907
543923612
238663356
622474285
1158405575
1853155855
806819287
1696469007
543577142
251125057
325265527
2126634385
1467769889
1405434861
125035402
1464760632
825317157
1909080591
2041844603
868497200
672924755
1524733677
232917637
1969151257
2086281833
649497007
463329020
2131255498
1663279782
800822604
1219494202
399208775
2031555163
1213541604
462541321
796313346
1649935796
1870254167
1776296330
2143435755
1840810350
858286012
1921100841
493267951
507944440
2050353221
1131016743
700030138
817281169
1041449197
1057070322
1987948187
138694224
1347194170
761097659
314102804
1757505089
513970908
1099740073
1619088133
28193717
62883188
1533561483
13798396
273790949
296227515
309010522
328895147
1156345088
1714009843
1044202463
2136039170
557709396
10967325
1035631266
747322408
884401066
1002778276
761094206
1595302252
1825530042
2090133795
303565512
391498412
639373954
1543710957
901987048
732538958
1155129441
107428324
242028711
316055374
1506398031
1211504773
166742765
628937180
978707680
1039777055
2069695677
1842327450
2031620478
1624092752
802958284
1910476140
1442587093
801236866
1557530378
1038485116
190167674
27584836
692446396
1361453976
1331910862
433469746
138598472
1896958997
2010603048
1843530824
1927754055
1266810363
1730159035
549930332
1272934687
972901809
1229458069
334018832
1460259138
1695297333
677819001
214612515
867115571
2011006308
112988093
1373498969
805218454
159513394
1991157540
1203267918
412410971
1513267961
386254687
54399507
1459050203
3366698
1809369626
1952009954
1175298207
553783985
1120689748
1074067846
465645630
1487116540
727112561
394828547
588019711
2046789211
165976739
1441263811
1105374458
1616621591
1859475889
1806088225
1786317838
455638200
543925493
606192431
530229591
1383005320
820464013
383669345
533710260
1532086731
136564693
575718229
457289140
288469077
2050227606
482044079
207888091
690429587
1519607831
2061947580
1670198933
1520524703
1973870265
60047664
834988222
1629262168
2019906709
1101752801
1597308102
134185088
270611364
1178895666
1036162372
584197443
1921789547
1859100961
1887059227
152962472
137226726
1253719829
748125764
1718178565
564574382
1729378055
1225850946
1809699634
1916230774
903144549
1706175969
843878404
2543763
2038536655
720069514
1616859158
1438588013
353787334
1067558426
1911084787
2075798934
1529999059
308731906
1248128216
672643493
1990594345
2007214356
232337289
309668148
1236081207
1717277468
275229326
153127317
673570640
1230307666
100939517
809469718
475449199
1787659754
2027791346
1183018919
1960394818
1929627959
1848354562
1627602157
762212648
1358952029
103978087
1240770077
1537095479
321106775
1299046146
203242156
589392216
1722457596
1643274485
921994425
1429759074
1801736845
20540270
227553915
1093591158
2014378601
128294730
479414652
1668156238
904487344
1681034599
561602613
194899599
708548015
2145394320
1068949681
1098324585
1495600049
428524492
910643799
587569913
613633552
469855950
576892078
775828322
1725182854
2102022686
1513271604
1659298688
136224114
1126656318
209800649
1760801545
1922874566
1510721821
410584890
1788397082
1352720949
13809712
2058382021
410171742
1825428121
615091911
987334975
1497777800
1545316001
633167693
2005825603
1979199751
1304572005
509437552
64216525
629045471
1966205347
1801667366
67797310
866900100
2120509973
1574041597
371779047
416712686
1559061923
717009311
1396043358
930826553
173355788
1604737194
1578992824
404602132
1885722989
1454041427
1041780415
1657208609
1211344725
1591972661
1895786281
10717600
650792974
177644119
1946492870
1063346721
1149735625
1441017579
2003553420
51350972
1145858152
499160564
200512722
174050512
1540209094
674085042
1457016414
72065093
1047371230
1271137827
995647279
893228243
270934096
364661314
1860020232
754964423
1848545176
583747210
385971835
366023481
1193562815
943723166
1589935913
1881182699
1285572853
133579701
1651761239
496151525
1010937307
1791810981
1741958060
1896774372
374835597
1114835681
306936011
280352294
342992367
477863072
551780171
1372100306
1380060424
499667763
1176287626
1435771983
525864902
780004892
1336643129
296765532
1482543962
1406272629
509117177
350899089
1923180609
505652541
1549563514
1163876681
349333584
250593148
1924260587
57093252
738008205
1532121727
1945380953
269484808
1676422138
1961191060
226876933
1292688126
1178194304
1273940968
232205873
1729557941
58301044
1257088191
818230958
987997573
235121795
481866813
690713738
1206870162
906662953
1669232344
1222653302
1266622014
1657051881
538444551
913641996
693697056
1418831217
641708492
1379168478
383066617
270965272
459050436
1106579327
268961846
719802101
582192291
360486392
1978065171
750256088
49254024
323628993
1332176659
464473405
1041311505
2143432586
112977573
171033000
1173826747
382973953
518820606
673177886
751899089
2052157162
1160716608
1675607472
1777075324
89536313
1283305088
405477215
141285109
1194259229
286124692
397083040
1453371263
1583500956
1953074254
529142123
1909096851
110072168
436801243
1447433174
1396395228
1778219403
1198634255
2083146798
1357456897
701635942
1240978967
1459305073
1419839402
369939927
124154186
712829205
1647012280
947597478
1710033703
1000129477
1574150524
604105411
47501498
1814558053
1642269379
1806889673
1050543145
1897352787
1388378084
994669174
2017898907
2107224770
1183345022
1153753529
1755032124
2032537820
1040486032
352067729
1771358639
1996349134
438636030
1663146317
350060934
698950101
706418038
357657344
130723334
1964309366
594555508
2120391608
1109307816
236830785
1317532167
1196708411
1890923
1181587063
790448598
147855641
529337649
934845277
1902954259
1331308634
309377552
2038403606
1776060456
518567888
424286560
1755453913
2115173388
146495927
2046209828
1210674225
1535994605
141253707
658380682
651469599
1894204923
592327902
1347820315
2098169665
874725411
795013416
381487926
1662838400
1499934342
891531888
871065124
257782234
985378777
297021218
662553482
12329879
1384160528
1426472263
429393939
1365847610
1332167178
1370318065
1952637619
707555826
1910726038
1916435023
1386516384
783842135
270788836
706232228
1083565536
2139556157
1321511247
1040322655
1865722504
367532968
1367967578
709726790
1635003775
1259112810
1620356859
459305123
1171074540
1257578100
1000896749
1053498892
500041060
139412072
371595767
698457756
141303212
2120754819
2073697087
717970002
2063051748
712997952
633838322
505608035
1873982763
635614036
440620121
928988258
271342287
777633653
919564239
1105066658
614559398
848193478
684268425
2089418768
415452960
607591448
622390137
120918500
828771279
1643008903
322371988
1222569711
498520307
2126475981
1056177666
1283610930
1639685373
93469242
165132254
1277241550
788347739
314424365
2114370704
2145936958
459049450
1043061590
297769227
1231383459
1161036937
1419137236
1537272180
2028277984
1460050322
1183201967
1829318980
892722079
68994569
2145333709
16874530
2082880414
43055606
182380623
725861761
1144507124
913065034
1973047267
873343314
2116065881
882132967
1763788854
1385421779
248742339
2070640387
1032967291
16575073
1491631027
975476710
377739905
839238504
241043117
1055559965
928409755
1097827956
1238143014
656244038
1191674779
227679413
1480910415
872810527
660569489
1098979634
724742753
830476896
1398330312
1951686974
465304382
725458308
1825412350
1665506273
2134290181
1080230123
965955493
829647726
107820628
1012753750
1280215157
1094413486
2139819315
921995618
1969666050
1748762458
1420453520
1555615374
1554239906
1882117827
119264681
604933138
1277055354
200102329
1906376927
439856127
1095422608
554670765
1240685492
517771122
1225403657
62361708
739240130
1404386021
2143755527
54031899
1877017754
957598176
1187672011
1802267337
603928443
1731275791
1544469288
1739107171
1180831648
255666325
33331938
23173386
905577516
1850911540
1217951563
1169132197
1582063215
529618880
1372246935
1912956033
1212820689
1102931806
378282957
1636432085
163265727
803654458
1121790832
1369780138
2125864128
465082968
848618272
1970403262
1321084900
724681994
1898768288
887488041
2034275933
1386746223
1523937247
1570778837
55154779
2132172645
490326593
2020539571
1651144927
1138177282
1518232764
1740599840
1726597054
571249381
421615899
1749420352
829852402
655757413
2005304461
106056594
783776323
177618863
1243096524
392051416
623853701
598235652
1594163859
1217036588
403621467
472217
449123973
1473800562
464421892
520518619
2091764107
387096313
914873406
1298085888
1526639994
1685435992
195526082
1576049203
1240450274
1447656832
1370607241
2125860687
694833406
1807488027
62020747
810786114
1094002685
779078412
1192188370
1907984106
595432288
1296879077
874126584
8402993
1103476266
1514639986
81112265
566065810
945912645
2045579479
665604550
1043591403
1355483994
2091238397
1374498944
937286846
456641400
113275437
1879763998
1039411432
1140253433
494255319
934563827
129154889
1900169851
607484163
704643802
1161503823
38494476
246337416
33833029
1091984208
2020346710
1227105633
1582537546
469177076
663050599
431737803
1777846421
1065162977
45397286
43939940
1671655634
467343173
1990760545
1976862225
536087167
2136971079
1123928891
2029190225
96255166
1442991903
674114109
667508780
158550349
1647752405
129627285
1516325980
1459093207
124050298
1079288570
197185851
655471315
160012027
536757467
2080415037
806798487
882829379
974284623
1768353081
928786090
831369777
1198883700
559432820
52654570
1703523506
1932129258
319745325
1256259312
332976722
364213256
2066366675
1171458291
421960451
1709188452
809940916
503502727
2057642500
225844885
233816581
1474883992
710678739
1557430481
1952212999
755848860
1294414775
137041622
1351070061
1780269539
2114246252
1836808948
559273689
386659395
2104887305
1518257379
1939290357
167904917
1926279051
632996082
1473913257
65192795
1619335021
774876440
1646021591
393349592
729266930
2032631812
1418539886
1646868419
414210370
768587678
733097577
133667876
1807700619
442936792
1532841000
1900474554
1532644347
1055226043
688389721
2092752009
1624316769
221204334
826443950
743603876
2048654587
653228302
1258895884
1333460910
1298402720
1567539868
619735928
1244802174
939987251
399080827
624445798
1525422182
842497215
135202103
1190749096
662619984
326749301
1072942723
1673200960
1665064939
727719635
1105132795
300176801
245917266
1292179859
456950103
2107195338
588021132
1525093786
1763491796
1655972668
1927099040
333746892
1615511261
330124258
558911088
1497036178
237100043
1113666250
1379020724
1619560803
126618682
214337002
350334466
1139986088
531734475
549779566
328074029
632425890
134451878
528341805
972013038
593703841
1734959481
1098349778
1423293553
547419884
108750792
440160822
503262740
2139439823
584238953
991880781
1037802905
819194867
1402459427
1509135037
115999717
481275150
630722682
162594779
210756139
1071278696
894214240
552239
962683813
2023866018
291134214
1411826142
787712121
1639501627
406082364
401564649
57759581
1080059722
1336536690
639752608
1598888058
1985895949
1699316638
2096837005
260478736
392511824
446726432
2114204180
1461677175
883771992
1484921742
1893552735
611733835
681548371
10322639
804878981
1298299098
664059450
1422696790
1935182728
386396799
432503596
1873044026
1047703562
343807014
1170006769
1374650173
195392441
1367403791
427995093
1960629990
1754506320
1283899181
1816455442
550128521
1409874404
1974632928
1625018151
2092247161
1326614186
1044147321
622006331
1652101359
941420333
1040811954
545997696
2520640
805923642
323700969
1094102779
786011674
1984597286
1646277512
1922191930
731578461
1513739066
1078887344
1876704077
116565408
351731332
1666310268
145236829
737570363
406992101
353703391
441668149
1337808575
467789741
1171314573
1878575788
1849694239
1950712923
128486079
1839644549
835736677
37088606
1522407504
1656114921
1047481872
1417984462
1855309714
440829643
1517102501
1640709610
1606623252
1073459620
1373216846
292182878
2130170856
1917053533
980383213
538712317
1487778428
1652684829
1774397250
1166541739
46440890
782201692
2141084830
1567315624
663593277
782709198
1519438695
939911955
1541133380
1143536288
618636586
446492878
131372049
1346863733
1679592783
1644457628
139954655
1349627881
365762394
641763884
821547287
1088956386
1739312532
795842748
2090803744
1196433915
36421363
21886599
85197902
1320453089
671585619
1002743939
1203505057
695617231
499463146
202621726
1343424507
2093818577
1614208356
1799985920
376469089
748258169
690152023
1809300932
1003727956
896058401
492492513
1630974398
1234191608
1571599430
1068192309
967409150
1037270982
1715954434
1747792675
1934752598
1947970456
1705784478
128020459
719776746
1658492717
1073167678
1788898143
1534909376
899419422
964421302
8770578
66242867
2099860705
1886116760
1579288921
129209419
88260146
492256326
1280969469
1167931509
1504195094
1365711505
788459082
150915849
575262160
72564268
1883626831
633226564
1083802990
590623034
1634311200
1104614225
2115423489
1953666049
689870866
58879186
642599944
204782066
1688370398
343569791
346003196
936086784
273699814
669590772
274133327
901757545
549595707
1907619624
1200691364
1128277786
1839808055
1123378352
1405425273
2127735618
732280428
1217733387
1891113414
1531451264
847699933
907029606
1893423809
1561624650
830272468
2007077111
2884544
525128380
988112459
1545407883
1892557857
615166064
1031453842
2146201015
448506463
1142395920
282127086
532722303
1241540154
257965442
791100208
1520960388
1293685524
1708221975
246987578
1348036347
1866689179
2074000587
1221866081
1906786691
140066304
2048207525
1562681567
1177132950
1318623555
2075745960
1672693000
1532052541
1007217941
177447574
1749821923
104104531
603275452
1846146706
1980644768
445045926
46099598
13202905
168816615
910978587
612916352
1986003668
941709187
1123686821
1967544938
1799830392
1154801962
1372816173
654466965
1363260734
1410827654
41406185
1494577019
1158381984
197232566
799943349
224328223
427752039
766032647
799218994
2123187705
1735316953
886919678
166174470
1420878471
949387921
1843016554
513997416
1131684483
1864486002
1368513073
1468560337
1332714949
1517078669
526432821
474069410
1312078849
2092763440
1242443530
1763646840
784811709
1557469817
1210381002
268342062
912196440
1499678353
940317500
1484421608
527062538
1399628211
208249089
1704012847
1860889457
670391954
494366096
2081839100
1583704860
1481075366
135524594
2120163123
1723675004
1800950312
863453407
783941558
1249186511
32468187
714456639
191071161
1944986841
1246581088
777602074
1539881495
375230679
1999999706
33152295
1342731873
1045589691
425444234
1927217837
1623480684
1623500392
961856144
26370565
1853006115
2110118581
1397575403
1500326875
1954660656
369974076
1558635731
1892215076
2109653741
12066463
1220272388
1000135369
1687121362
548783325
170651040
1318117108
1253128147
259760624
1865528939
682549103
424541443
213307205
1025696895
368822298
1129808093
1624655529
1482384081
1029768501
1899672957
1650852955
1576332034
1886357847
773573732
1951674591
2043402498
1000692728
602672869
492393532
1781679958
33468273
1825209832
1188859607
231895844
515604373
2101361307
1137499401
123824500
476231536
738833935
1980260510
1977809469
137093165
1631431284
1124774665
2002777379
1159222936
2143476343
112935065
655339085
35981789
690330072
1431611644
118868348
454934994
217980372
595471196
1226133274
867888383
171480377
1439700788
804915203
1221785280
28313676
1193035632
1350116026
1132996092
1454178765
116630649
1156193794
1316750030
989396656
1744940484
2084110030
1160856906
156739209
1878461801
584240025
300239763
441895806
1490825559
1066225750
776607695
746992369
365227383
2108369875
1068095184
709371326
855516873
1077748469
1864166916
1284229123
1945011513
37862755
714838620
1390557703
1057172863
839133621
1809048891
1182760914
975275051
626747831
1976409125
2128097786
1882650326
2005583508
847523385
1672279378
1923075963
413437300
1975552627
829733918
658378262
292557552
1788565049
1379323083
1446595253
2113142856
1429255005
772117552
276865174
65398553
439258743
728447960
843554657
291511644
705066295
1899563878
316098091
2069815912
2108421227
1481281708
1697383766
581290643
1189641871
1559072692
1660537011
416183195
1315822042
1153415950
365890106
1449230572
904926749
385037357
1882188791
1845157935
1957694488
1913312182
1789024779
1201296645
1761567348
993999173
2126788051
1382108479
1097276674
417178735
614762243
1109327370
1278849667
571577461
1689826986
1496041160
1819912898
732573806
585552171
1848958598
119391573
445413426
2101203084
1354319813
870033242
698563493
1930751714
1712917571
1489113551
440261660
124452878
1412940384
403415183
1391383422
863950000
1305696271
464719739
35325227
1153016747
399517704
1383205152
1854592567
723811603
635131312
502496620
963513666
1270989817
937718054
1109557084
1919122260
474198206
823092244
429828932
2134207329
599317413
1944036725
729748911
2115754862
1978125979
1719514544
984400091
1920302068
1563598777
1561846650
1195219679
956856435
687575962
125785985
1046021486
1912342532
2091108143
574777652
1028579791
1138476311
89973430
312818237
1487546653
336973333
723964713
1073322904
1210583373
243576175
594709819
1811364157
748456941
381028814
1107482342
2127892125
1559086152
46079620
2126781024
855974677
1131316727
1217395648
1702117334
1200852412
1426170418
332828331
101945290
1598669224
261009237
195195351
53976432
1977033451
896620083
1679459655
91830499
1533010422
665593992
833965855
693528931
1911758852
1355284406
1350902470
1862365057
2005490646
107536907
323556152
1236651929
2051810679
532771388
1393797362
642540406
738728638
992863360
1635279820
518485420
617229068
1298103684
1280377468
330293945
1137255565
413243542
1397461732
113001398
1088194411
316749175
1687309028
1666916619
669098728
222301983
1862150146
1192831979
1653602523
538720681
1432704986
1962705162
610134623
1922386188
1337354213
1368257188
2134289445
1823997575
196165346
543775466
518161027
1067024256
1747901446
976090663
606225826
1858802710
856219530
331859214
1470049824
716139488
1657920292
908785412
1877993683
1398435456
1521445438
800742448
1830024027
1740935049
1606881686
380755954
384188405
1966780017
80668758
1712196299
2066227910
1326676942
1903364082
1418300786
1524991194
1859348558
274777202
1063899635
1309892827
1493703233
1474866355
1626576543
2137622525
1128557776
239620725
1283494014
1100524758
2076570860
466410220
273618062
1646115118
997003427
840914708
1732561750
85158144
382762318
1227613045
318597671
8597427
861238498
791974011
1218344435
483812156
961893782
717296491
285805799
1395175786
880397989
1916550576
388151687
425515979
798529471
103824852
487476285
116702139
1501015776
1211279121
860732853
483233409
1677925974
2041659996
1390811482
1023511209
396184321
586196440
633237421
1733278345
1079167866
1001231832
378720311
428548632
718980240
1274162315
871648156
1118972379
1533858167
483379850
133103188
175068195
9793732
1976487629
1074733798
1172584777
1615985486
1292179343
1604201420
1304415003
501031339
1021593995
940631521
146858398
984937327
66117945
163553974
1625689961
495152337
1202915958
2032233072
11255247
900893943
1297236213
1927493336
551129364
43316277
1466742943
726938838
1585452202
1496058533
1507560776
465571543
65515341
1001696739
959757338
980434783
1716641757
1917020093
1425793547
674065117
1972224106
1406741534
680707598
809091660
1501615102
1400479589
1612359650
1037921661
2095389052
1827398892
1402427694
1421737088
731736311
2028926214
1942297831
660202319
1981880074
1087011602
1362251936
421591728
1520427487
1564818466
122543115
1338182473
1201612017
86639869
2050713935
1902993295
1659983153
1805918278
2136892805
1271946810
453559700
786191663
900516052
1642474524
1741075365
459238730
66758273
1150506725
1124571925
821510823
1754236424
609912663
1213059588
1639929538
2121695710
947665613
369847862
1952313415
1511665904
1778091654
2049732552
1181401381
534599358
656466183
648165135
1680610613
2088852159
1580463382
567361415
116623403
1883998710
1548057343
1642210554
193152092
721034690
788667449
18280197
1443153958
129633614
782720083
1013294641
1631204654
225355068
2136181705
1958293332
1655907726
817620951
654951016
911831124
2112752392
1919202743
1206051143
1494989891
1953436885
1437449591
604282158
521963469
418749843
261502120
1259835556
1323525426
135864939
953636766
789927554
552749183
1219936380
968601895
1617406969
2011239456
2058894162
402598955
1467062930
1028025636
584944493
1141435093
2075896595
1691277021
1850864679
2079319834
119283494
33757090
2029363805
1473993430
1968452651
207545746
895799810
342880414
1723559129
1618532703
233143666
890944277
917627865
1142729730
830771766
556463706
78816753
777566791
1087090868
1808502533
285152351
1402982693
832074166
135099237
335302339
2034254316
1237202075
1062447889
561751590
1519468218
2084271584
1502754694
927405637
1968668306
1156296044
66108547
1214957641
1644308933
1388229713
595718081
1825873197
1870728688
1755231149
1726009861
1459797870
294984300
1498258101
312782492
1335508531
1268524208
1654856785
834462625
954117745
553186330
1890858645
65368817
35903064
928552624
2039300056
965040623
2104647297
1043725590
776437190
1164423551
934841593
1511841532
778257226
1239455471
1174406853
1095558886
1047500418
1745804202
1883347750
1786652522
992501671
2097905148
1016075453
631756384
508829379
569894998
460526710
835342732
1791633997
284949245
1483404166
1641900835
959083746
1650776831
2008460858
639892864
1726995525
1781894041
1419040024
1447413776
363200265
1469730050
559450149
1672516325
942381875
349161015
1556838603
719428420
1611297773
1194259496
1719006222
1834502199
1426964601
875487895
361100472
353576459
1029710316
961358780
338574810
1033382688
1016734174
1911439672
1131838642
497632360
1951021042
392592373
295007096
1340483750
949967117
477951023
1997417172
532444659
402590933
2128159307
1021914368
1797723318
74452010
1173112432
1082312564
1490937113
31614841
671586641
528962784
364294751
880686354
1399866409
282497191
51933048
104974105
1650598082
757526419
998357939
1532520967
236077691
207749918
289648130
1890757318
1172456833
1657987924
783411770
143205715
1695901652
861905196
1177091204
1955781160
1517840731
975618247
1265368669
1574440259
848114638
1694088111
2130346501
1579854950
367741817
88967920
656394156
393034936
1923483367
1633302923
698104028
1894863193
816418769
1749188228
1407855900
56003098
2116004577
255614886
2134832660
2138249389
1913473033
1137957573
1619604536
82759688
2021251761
1770035480
1003319857
1767488061
881949252
115845265
1566706196
1621571059
1112721985
423771899
715870369
1276550649
41527913
2055373656
1327041219
749893233
1618456308
1626300592
21375058
1387209695
1265328365
1024483408
389794177
1662134516
1747404443
484608929
536382158
824896668
1400484756
1097815833
2071795918
830867598
554066162
1040094105
1908346094
2015633421
472042855
1178364270
335745483
1138572522
759588389
1120688660
1128222472
217691894
666859141
1508002549
155655540
1697227129
679338041
1402640123
161547249
857981406
400858114
535439750
705166131
1951731157
1303577001
1176477779
834206253
858370434
1194776643
739145027
30263811
1217961465
1427648113
1830629882
805708561
1270521548
523238063
1737468012
947916768
1112930704
1509589912
948319814
704682783
963089074
173445104
357240580
596492799
1691524314
962748162
1252429228
825930231
1098894927
57108854
689147838
287788096
1968513003
2045110339
1187829375
684978800
1284444913
1643193930
1187803818
1980406343
1009024802
1831704495
1039545674
230566498
1023273409
618773085
1573268168
1180769892
602497777
1537916564
1039932621
2052354830
1314122856
461764228
1960647880
1647303258
334587856
721424261
667162083
1573140563
1771834470
1836781894
1541040028
500786879
30697044
261891761
284264330
2143830445
2070600638
571616732
378973228
254933886
1459338105
2047217768
362381005
154515780
2013713384
1738925172
1985926559
1738897270
1720422444
274453305
511211184
1775973649
1513266969
2070006471
1981473089
1139763399
1345200465
612562391
1076502732
338804061
152657735
838597547
230074043
2045056207
1279330335
931858617
2011376797
660592116
836564766
1105239733
1363975966
215056338
2112127497
985804088
707596130
1074693625
1095127107
256864532
1351790130
283342107
124565584
1593548209
1747176723
1217421099
1243063759
1525370000
1258875357
1714261859
1035274372
1653093879
532004756
1088063215
1149291042
1396420737
1835688409
1404584086
1993690269
1851849387
2070240926
382713231
859140115
698370417
1826613337
723900748
280568284
855876008
1443694668
1197303353
1520792134
1798731862
1953814856
1030263181
1813590674
360782384
1193593093
552243134
1456937962
2117131311
2035147581
151687279
945192153
1564349467
1812603652
530119537
2086891489
1143003205
706858585
713552943
213359252
1927645347
852088541
2077763193
286552536
28450250
1316242704
926603813
1804077607
1628258910
183216833
600461413
145059036
1280848539
168991838
1264150210
1805219365
1728865447
12596162
2012972176
304430169
1584265602
424843963
864406994
1688665324
243528779
1739627663
1139450080
1652200437
1380399844
982728959
980441559
454719831
1410948828
1477471799
182738644
1217021831
1689529403
427790983
1124824195
129223175
333644603
1693538212
1638947468
931107552
2138503091
814963803
2010230570
2006063611
168212849
242808395
764419069
330719796
1814775016
895614328
2006829518
1629431886
1477073588
356031828
1091575144
784832812
807387273
1142894464
143965038
1784451089
525748521
1929846303
1865077922
2134334569
832677014
518639101
2040642201
1024659608
1634334809
1574735975
1295891190
1078286353
1731870684
1968742002
2063877281
1701041482
1984066712
1496324575
2085639164
1180633253
1902018125
1221138618
1450190424
389791197
158526342
2052568663
1915565854
1957954256
521171267
569388686
255820627
1462281680
779039764
610926477
1523390069
1617705812
2113066799
1814893620
322362972
588295397
1015567870
539096565
1251198864
1308643076
911123262
1797130151
1146823016
1464565573
1125847602
340051842
434064074
1429457650
327845387
1593252168
1146725846
748526807
108030693
50960548
1651037193
405894166
966030719
203092855
167918453
1268097465
365964138
285428687
922210810
441028518
666711045
2054529674
1767059949
298552908
725970949
2047625598
1306981995
1657940797
1233508853
1629052250
1452760989
1166151399
630533720
951339106
1996177026
950625303
1977572351
1386040467
1293298183
338281540
216448220
78648714
1426913933
1658433476
1566315739
1589531426
1641385534
1481018082
849238890
1825266609
1946342767
2061509715
131287900
2109855247
720250783
1127662525
485079744
1893493783
1939791355
2098511732
569818112
974816383
1139882311
660380519
243172653
540673454
530419056
1672785663
2069504166
751771524
1474344311
1059672954
453698949
1630739985
1839648926
957258094
896317363
19088100
960054613
1837795485
1490554942
638101662
2039549703
760276154
1139068212
1409428462
814633268
339311703
1612630648
1944674007
947270656
1551499009
2132623830
1672184381
1245186179
1013734377
1754133225
1081051251
991606110
283813711
686101468
606216090
194210325
1852410198
1971521827
1243661131
2015796260
1863988213
1681974855
1826412480
408177499
880599486
561296894
812632946
917540078
384621463
1084131743
339296567
1885954351
1708066600
957305628
801129155
1369099992
1730936112
419070800
1831893910
250759098
1973331847
1988326292
99383770
742544533
799041485
662148514
1003354466
1388808691
593216788
1300655010
600651378
1358939067
1045340783
1307068594
1424508693
957655575
136641940
1485101203
1883471248
1375370521
1414870090
868905209
1033622257
310651239
505860999
394733740
21256570
617456794
787279100
2050275456
1057469905
2071826621
2120021364
1363682171
1332126422
1367288123
1896557499
1714824823
46955113
2146793263
825591245
117272953
141740202
1833487649
1512450068
36153028
1825367474
1934592967
244736804
189932658
1165268962
2041785788
1453013534
1450152752
112246397
617782365
1237610593
1829977978
147784594
1619184465
372711763
2050439603
1906939408
959356337
1705827505
101596761
147975387
1693913446
1969245684
1553098289
1928957856
294958088
1846569642
513908317
1800530709
47931057
627255323
1184426245
1337731270
1222720129
1913698731
914318728
918688703
1407847664
543184863
921837686
1282474195
1868024746
1553960220
589409166
1565508187
872511792
358419871
1465024286
1153999219
1299269847
1733301311
1416700068
1719689390
2091584326
418728432
1818957048
1882408546
373023370
67777236
807245497
1540435587
1349795443
120595794
1087051622
129082770
298655884
975161428
338200616
1020856858
244951279
586553515
724789458
560445202
1749412297
323221662
824287498
1600927462
662963290
531186911
1893474429
913407227
1441303593
1424257928
211109506
1078077367
714552553
1633663633
1680610073
1736035209
817939677
1650769222
472718951
1755137167
97735285
1614791468
1080187407
882053409
1214105582
1153136129
167942185
762623004
264744911
998123518
1655823518
2094145138
1209944261
1945215481
1386443812
748692116
341304000
679377407
558814789
975891958
1687061011
520352129
222841828
210078464
1020447863
177560379
552493170
235891804
1012415748
1319504191
1321015805
583597575
1272684772
535610545
691534110
1397768364
1967446722
1600637454
930857440
1182689983
1168437137
1342853268
413731763
163550181
1037130460
1874630758
1568184606
844981841
1023257280
1215791261
946501766
269867323
2077516921
2120525181
1646324970
2071393195
498085893
873203376
1352146251
1083741657
280382832
364393985
621514010
1089293400
1823690739
2035944718
2105171113
620964133
1002119984
5565301
601575792
1496164249
380458599
213679552
1714529869
372348113
1121890787
598543134
936616841
1630274359
88674932
42421108
357826416
1007502370
717393230
1022936617
27198969
841018071
1406983647
769243223
1409059263
37475673
1714296826
1560904295
1942461466
1648967713
467903916
949133118
130878671
907010022
94407500
528425338
207729396
354943818
1908929172
1088862879
878804139
574340616
259326030
970934532
1852327982
2143951475
1249963993
689499564
1622508265
482759663
1226340125
521055014
726373057
629938545
578909134
1708428073
1090258462
465688481
1506926243
330059200
758221627
1910639347
1584990297
933863021
627618211
88381903
1335631141
802083615
1382576704
1939945293
2120675843
1546334818
1315667654
254004469
781326344
1789116788
1787517605
508292381
1535064340
1664064127
1725840222
586173821
1399634900
1819331413
1708699589
366954735
1231138868
1957870213
77861381
1521838647
294847448
58136339
658161245
698547672
321060312
1943686566
809178001
1257876515
356254486
943228803
159529974
1115364486
1822925561
194785296
331332859
1853988473
841149265
496960378
1213386606
691788871
282133581
1367778612
300056712
676632052
1733104995
428195277
490838272
696214108
1694265658
1261085009
625954353
1887664652
6424968
35945863
27638198
897419704
441723971
1118310512
151460475
1613859864
1561691904
215803365
630905792
1332063287
1701999512
1994137277
1244358387
1902063538
119770142
719961645
1286978193
481978697
81168309
1404141742
62638830
1727443594
1600020011
275790279
1625991815
674197141
1856746690
2131933885
616921672
1905988661
1246663193
1114849366
740696454
1988706294
509762075
654207335
1099222602
1169739430
1692734252
673756495
1226259980
855572350
446362050
490572162
267963714
2002296325
1774136486
1009828026
2074890254
1469986048
1810045248
1832632319
1349038751
271861833
259821657
439293516
1103192238
1446024939
1556388133
948019666
39548578
1955423689
1218928429
1162231370
209762777
1713623437
2074504484
1179712491
1719752605
1262889217
1840132536
603249870
854945498
1005801283
1996475373
1390615484
1846501340
1035740752
2037391131
1305803313
1313858605
244580555
207433563
1254692486
1477242747
65346680
551208414
1740458675
1348228919
1868702893
1656183956
1055789510
1561543571
1361951792
773477219
1791260383
1152083625
420548529
1218210746
2109442856
1778318892
1452961885
668699813
1386636204
1290574411
2048718107
1856688120
1574936667
169062083
782902732
1830802786
1342929338
150661881
1597943191
1457414121
1731548973
1091656135
662377495
237189339
993127901
991644317
1113686178
1362058468
642704860
901513392
2142340138
1255436429
595134763
418196563
1654320026
2114157533
388102710
760556100
1252039060
1063185972
2018406648
1502416026
1772382640
1861282861
861274734
2022140491
1345657258
1732698649
1744662134
828962947
56048778
508780820
1354003805
306440638
1562522714
1066877803
820000480
205985443
1806316601
372447330
473635048
1360129674
399526671
1889655016
1098069043
1979592422
397506053
1056826266
508578831
726688789
244169215
131154026
600460208
1113600443
1042302542
1855073922
1419332929
787047069
1401003750
1779234497
1357391719
618053902
600624871
1880885494
233997225
1828173652
450929203
1194287070
678919475
137476034
817227830
1564749132
1426703933
970878265
1877196297
1997393594
1768314630
388477550
1913315425
1093732611
1444586495
1112691596
889259688
1217564055
669211441
101225928
1303725080
500811090
1280093180
366315397
1139176151
1802036727
1564283895
1310857344
1273275842
204164573
590591439
1730476737
565617434
1018898450
1310930865
727075341
2065458713
1333746044
418523364
1662516367
1544006148
1602401243
600436989
1281628940
323189733
1424323241
1300055280
510771463
1126421717
686423979
879699552
1180820779
473316399
918421129
1266903439
992274792
1443656268
155230605
398574331
2078929727
2086281784
2099725725
930373274
92867629
1421777863
973166206
1135279468
1215891859
1941149392
1941732135
1898683446
1778531568
221903956
426379881
234463466
1618930929
670939533
220644907
347902531
1134204029
399087978
1009115343
258954403
1990257569
105129936
1828735055
1726017824
604878918
1460574895
1569274831
78635974
1454269779
1585366320
1351165549
1502146864
1439065000
810357138
1994376446
1771210179
1187467851
1034912630
783192253
1963825895
2018373273
276480533
1716286682
727000613
523553839
721562202
132368913
310709996
934139368
1922034111
767269640
1848749266
695440820
208543721
2118988008
1941491177
1061373044
999950582
1919346352
47531348
1995481807
391786500
1857898151
1698562241
679778637
1628481971
90926509
1211738022
2146934921
1371690321
1661188059
925876367
1178136898
1844193320
1576121570
1449156589
2069069048
1214218124
1443783737
2030788127
1285664220
452885245
224901314
1852839471
2132864834
1045519790
1650222661
86944537
1997929982
1326316111
1447883934
1286854365
458424298
986326001
323165229
142098567
1804625221
2066884887
772827865
419191389
1047105663
2033997123
830811891
1384761314
1018053975
1743944700
310422777
1373850886
1423565642
1619692136
62626464
1529627420
178349056
665264633
994960351
795908060
866722933
1169766969
454080188
156652470
1670608039
43764678
1344132960
430024550
2126049454
1587708405
1691172159
1750369125
603693022
1366586610
1806825080
1867691222
1531305465
1764486328
1496798231
395545708
929434349
1515465374
1419730699
2047479011
1595409270
729693122
1078170578
1636606152
976052433
1699075044
1947788952
186996964
1290109300
297742001
613945351
106148539
480663831
1550252703
860561750
1592321599
1315375404
1305299722
761356277
1715977402
138232026
1817481823
130706095
32566821
2090755412
2105386116
930719084
1499793656
1728414246
962183409
395505010
361029217
651100542
2077992180
643929493
532249165
238758930
1575003676
2098899736
1867292807
1755869740
569037912
93028557
2004538248
741767956
111485931
1408599177
820503120
1076034997
1533714581
846748287
88014669
978411671
556377732
1451966914
333929948
1938694830
337389063
1747370244
1523996832
1396640543
820898893
1969199605
1185423602
944841069
571078400
609486368
155710207
1851092539
2145897861
1886141260
1452332495
719160116
1901192162
2131703500
1248846093
541641442
2126382293
453825282
1144064737
1213440571
1441842031
756949704
1858043532
567883570
1229256354
318576066
2109897368
978924034
135281203
95708422
1537193724
2096244183
1673361898
1390986993
478958418
1705101189
1867940619
66874323
116739504
1622929244
1700110187
688767347
1638432746
1269391420
28849915
1559396442
2085037701
1025464480
1684765252
980418304
246083350
1881205475
441193706
1645334296
403082642
1715150009
420603820
1528799395
1454037941
311218127
1285605958
156462992
1165590152
541815445
1247237806
605091467
1143870692
747993067
1494530644
318729317
734457252
344168280
986616013
1325828055
276186611
1166660972
112182880
1708116860
1453657912
1331254400
1759084988
17636031
145767879
1267985390
1191122468
1508218264
120168301
146966820
389414562
1275706583
1032140895
1126127554
678616930
1259331286
2033986241
384086370
843878341
1339673282
1502487754
1022482076
1002319298
1793379878
170546707
196505206
1187067631
59045972
455667450
594923295
817408891
1798088271
1289627114
504565368
1573271530
1325488135
238012046
263641470
256010302
958319688
943081271
515904749
867229978
1040802908
1108502424
1989166640
279552654
569430232
1006655194
1508164246
1565545091
881067483
1490117119
512600014
1041403559
1496807269
689252879
1702075606
277235413
754883868
1801151004
1862097264
409018136
2040119034
2031556063
2097542846
1688328794
699992415
1607235601
1219823469
774163490
945154389
575813647
732526599
2130465709
549695745
1846501502
956839760
604396772
605586336
1144962478
606053899
1079503818
1269795292
794872764
2003881909
1412935167
1738894840
421866644
1208969898
662738306
1666195568
892642944
1047109707
1231387260
684909445
962898536
2124979571
1034864080
1880072324
1140679132
804973097
2041258821
1012302591
1557873948
456755901
19676111
2002050373
1851079233
377022237
1174960036
115627417
1727019677
875985905
1656408283
1853577416
1829339420
1911837272
1658420484
69195799
700465377
1798520827
171776071
2078100566
814211959
1658646528
1842362072
199164501
1827393136
1179562638
924940209
779071482
1210954427
576066993
368078465
239030077
1686593949
1536181464
823041672
1953514316
1543056403
1488794023
1510833136
520930488
1689110677
783778937
1565685455
967152911
354206008
1122128830
38407423
1224408054
1043622454
1107141876
764601394
900795102
1911840751
913486987
421129550
1093675352
1359056185
2051606158
1010863338
317909385
568113605
907361799
1212534562
866264113
8691830
391298710
189505793
914382101
627870960
1706627913
510726859
12939038
1456505565
540942263
2040177335
296452244
261090105
1335236660
1637977729
1695432588
1121438589
1159872953
599993959
94201384
1678082787
174029371
860444366
583239345
2118848956
1443203362
75809479
25304956
800974439
1898461086
1783793207
1722021890
1201222863
264974388
1233487948
600229042
396153857
1031383008
665650535
1071452885
1016177770
529714648
1892751809
1189707121
974945886
1947993042
1239307091
601106722
1109960695
1560927807
1670990854
39553181
1616040954
890301695
68373683
373385330
98412340
1546603205
1656288848
1207256060
450414496
524285528
2100557002
773644511
1162048028
386462144
964213120
1719415892
118724723
408234966
2071543034
1339919910
673876063
264974076
1259718927
1505431019
425728362
1766955691
1090833468
361389794
434987673
1811047154
797618771
1890302978
1755314602
1078843620
1576716297
2099068119
777959597
684620658
874128555
1915971824
396954777
1206816324
1553832994
364385507
1054460672
704674704
874232305
149980699
420909418
621476618
1273741911
69984032
200583731
40502069
1586150822
1587205131
704412626
1258651842
1296009780
1464968894
1347714724
2014238625
483849734
1869965989
2147269510
928393845
1769005539
1152750069
1361301856
1667787574
1870097128
1045610671
1195279408
1153905584
301538668
101968425
413848328
715875681
884944508
833270821
751277541
1726189994
1385742063
807937019
663332026
964635315
1853105399
37917208
1370981560
1041726089
1476345510
2068702957
152346453
1973904561
984075432
1139220154
602210451
352513375
267703144
376706530
1465031767
1361021521
1414661721
817405295
945626599
2004761270
1199978890
1021433545
1528642817
975726463
271441009
2139674773
1682218276
869305356
1269988258
1733139098
350434017
1237820790
1784171426
768289254
1889219313
915958730
823835350
281421213
445417358
825840154
1496386359
1167491638
1700843458
1374047753
120845783
669882063
1459676367
114518266
972903368
1211724037
144500889
537466746
1534775728
1694920948
1473240128
853236278
1271703754
98577812
1304936030
1384949235
287924684
1565696341
1971007558
1556976552
1293918022
1254923750
303408591
1575639284
837742441
1279559845
1122179761
1503070215
1892722347
1788895018
572805273
309041258
2083111441
721552073
1347720658
994096876
2126434463
1379454409
629805974
1388207596
321054468
1320775331
1857659886
1116550503
347773100
1755122975
751251568
951827422
1439431266
1716041264
1064015779
319305119
473214140
662573082
1041833100
417359314
8318429
1337349768
2099731327
705171083
690926702
1942527969
1571801562
1962358948
1581240646
1576822845
178502251
958481569
384702968
1590257089
767880656
242598484
1845533380
1202038304
1934206742
613159246
1458622823
409137539
1662339720
1762314685
6745787
381450097
713983063
100395812
111419670
2060829303
1782314546
769578699
1922295590
311162197
1987079552
879300074
6121837
949636718
980394686
441114
1248713928
1001583790
294944235
1900806697
1008004293
1422723896
1914824292
1923619007
418131485
319360393
830937255
2076911106
1952618477
783054067
2046854120
1901063052
652543920
64332518
1033777533
1784296615
607963556
145299285
181973427
184225736
282930325
1775823605
587043761
1263259165
301537990
327652632
316433004
810601363
374979984
1269233347
1379740496
752156598
1007625819
638890006
382307511
361715047
20185566
30718732
321997843
1292028876
471683425
1777029430
1265857495
145382840
695152249
595007249
2069166572
1377940030
1420792684
1707905199
1143860855
740005156
974139106
812899749
1935028509
202848081
2118663594
1846132127
848998370
652555869
2071424161
304405613
1480863162
1596812579
1747633066
595617384
1415090088
2051443813
129800027
718070927
1692382271
416316060
1097368341
1235771571
1259655419
1302494219
1837919300
1281282526
797792539
247342013
1051691961
1546899630
998140784
555223745
1711832993
253137804
694798560
153571765
1901815634
1824600694
798708415
2001528679
1646855037
543437806
721424482
407083730
608690676
1897881771
1493155433
652865995
1411420058
1118363720
992076915
366398084
853922294
1252236611
1869050585
608813799
960621112
1447424377
1549920748
858286438
1863442241
1863424412
137430996
869872904
149409733
1685975719
1303379492
334316879
1244482743
999652753
1664823671
363457330
1289665236
1151839013
1251442266
379779269
368623188
441446565
1235486782
1521932750
1204857793
338895982
2006945718
182285258
1370555157
1123295608
