5300
974383802
340650096
1821205962
1312042692
1453673728
1119875997
634009859
2030247400
736724016
384561103
17551971
814277449
596301915
1284784594
1812078637
448006685
1530311521
13751176
1020110420
305628177
1206364912
1742260278
112716877
1920885012
2047775314
881293493
1102279620
583421992
1282643210
1975564343
856438500
1131538291
1237866743
1286758307
164736536
1371780148
990128270
1112089301
161701427
189993777
448996698
691186639
1789456264
1403769159
402751932
1693384679
1168034741
1537839959
1688978329
496118690
1996505971
1262487074
1117589140
1526150862
1551383973
864081857
465860116
960848117
736193790
399537798
1883920307
1674093949
1665076772
1784322575
128892237
1111394397
1966550810
1761055561
402245512
1205348733
1572305820
1557357718
3612641
441622944
915248421
1481089569
1100313290
1386653425
870051947
729356952
346223212
1743812663
611597065
1768572501
1312809050
1750143447
708856597
2085847225
1107304397
2057939469
1526895643
1899104252
1842663594
1060271268
1507272233
1335805166
2096558350
68005966
1040069606
69065799
371984201
1712847219
1134108841
406324740
1939723533
1565976454
1327699627
751742439
1889407248
1602679044
1015948661
1748753400
198125868
845780830
1192093698
1257169986
1380650295
982834045
246985625
576118759
1115750559
178584111
1565019232
453766178
1940092230
835809306
1264789001
1078473747
815721730
1208370659
1274488822
132235104
1001579713
2026022179
1800338531
1595280348
434488820
1428009884
1001055981
93875406
330096965
7518267
2034639343
1635005379
172060906
1515554571
1674692059
1467195524
1463526018
462435799
596522584
417110377
640461297
1930106767
1280055626
1081355181
370203288
178258347
817747228
98161556
1922222794
2063193942
1017288207
1064012968
2067299616
415325843
1953750522
1610852868
2025034681
746085341
90085645
385971957
1319995587
293861036
7388437
908959239
1250489043
1745315213
1879338792
36395746
632343915
2018501322
1855042166
390558070
204393573
498264147
1110416822
362147439
1986114950
165655436
1076763175
1416605572
1187824386
1891963543
1615931803
1853928503
1662586318
810317812
1867953296
213398776
1770127176
1313560197
1016062073
1871414347
839240839
841729646
1853287906
1394390769
2094200768
1324183826
1581948814
1811288994
93051626
88065272
1926768411
1596673030
756627813
1553363569
1857854645
1104247942
165993364
1295593422
109509765
1491006534
1886727993
879740357
1464053113
61064749
1820521342
789275427
2115669780
1881940067
750905868
2108570030
499683313
1912433979
297112055
1095918042
249416621
280967799
1644882244
1303447442
1271476702
629205736
487602189
38460897
1641722749
577580413
2114183721
301128729
1283783008
1776041514
18039136
1541161172
541565760
1725296069
486705215
2018303755
1321929959
1781822138
1788259198
1580511882
366386368
616104103
486167818
235649914
1458215598
1870866826
2088164813
2037850842
627477875
1903953118
117067818
1851172641
1296376125
291905708
1879274033
519786537
1821808240
157497760
1940707252
2020109181
1979889432
1507900275
1320156290
1386205309
314267046
1190922290
794388299
639265935
1583895299
2089781727
428266234
1420695598
1605774585
1782155745
32006483
994161125
1817187357
1640878513
1390269813
751862657
1462667812
2143490615
526964150
643689997
1547929840
1716327760
2127377985
2124045780
883765060
1492432155
1704479497
186287785
448264400
1335794799
1323844065
807528648
1159297721
621924241
720143771
253860984
82619145
372177892
1303914228
187459107
974696073
1546227779
60772369
566301534
1038823154
1161010571
2121842173
560733767
869218599
1278049973
20726551
383883902
1680450547
1359628461
93802910
1548773550
1568931141
951714660
288394613
231715779
340722104
1686808895
242443987
1088926758
430283152
504426533
1054653487
1012317385
1167679482
1170856156
1122075810
273911463
1504817325
1204160457
1034453568
1454241227
744898162
315614622
1223687248
223259887
1585328519
194872918
1066959151
1823967813
1868352886
918510347
1533915376
1329918811
1030004586
421308680
1021710330
890345733
465188059
401525304
833806344
729644220
651122996
1850488303
1897464878
1585003430
1698684117
527716541
187427118
1557570505
178840182
573375616
1914927440
536842062
1581495801
1520640376
1395004875
848562652
1462577780
1432257898
1711249752
1620097998
1952612482
385551493
1902010845
784244591
782029984
964119043
2068800424
1850539103
508826969
2030700368
2077377280
479636604
273842455
1066372397
1769895612
1580443506
1197583595
784315341
508719522
1201133463
297407248
511556302
1558566445
1285568057
620636247
2108877231
743944076
462368511
1672084186
21297140
1399960675
1461275962
1124096104
232340819
1905889582
373501809
10386542
1312139908
239679991
1207026743
855590481
1899006101
1978090722
321768823
5699582
390070781
1559776458
205237733
1800436544
148533794
146955042
432569418
760558001
1677229703
647715315
747462728
36194497
136967720
154898106
1995060857
415144467
634288631
898440163
555252837
291246133
1982000508
2123467822
163022178
153064880
1190440620
1779852169
2039674451
793152275
770414149
907131549
1285851626
1083229479
1685831797
413130714
1903304031
156111675
2125470729
985334466
1124664331
918441296
1679737864
2011555265
687318015
1284303482
729292545
455252031
331766372
55648015
910280617
598620352
1536206764
689668848
728644881
303742947
964666218
1429880708
883055201
1484771807
201767195
1551681170
723097747
1184602452
1357098011
1935675335
775558300
752658624
1057154029
1336696719
1862885750
2003690988
763953366
1663931681
1356013398
746420963
2086844247
1968111744
1483889812
119001413
2111567131
1904460052
1087290743
1510970386
1876905227
881109922
1816030249
2089531743
1721674649
2056042785
1335743014
1005884935
562451046
1289550825
1561204595
756610608
511385053
1827741435
1634429605
948191419
1585778635
1072524219
950801011
1679728976
841426114
619665473
846808208
642792020
180711505
1829346845
2037565134
2097176378
966426776
1540675386
1286493951
350869226
870124236
731751874
1545853716
64824842
1725358110
140075436
500652536
1923735837
1573791918
1353338432
2058468078
294127194
1992419700
744249817
1058623197
1408917731
572182262
736322187
1283137349
927134289
747717209
746849789
504760283
1084384562
1504298312
686814723
1282971132
1857783524
541628108
1849612438
1480765608
194235025
704487155
1632414792
635177446
583652060
1221174006
413579321
955274707
1505428497
1849541110
189792476
1738689375
91299550
1240873233
1959151472
1787194649
475062862
345075586
1389399933
1603704846
128103943
795102004
163589392
191847745
1663982742
676121690
1206737903
1565008343
1732423087
1545859624
827874346
2000094861
195188743
1634723718
813177424
1030854834
1743695066
404190806
23026655
878397926
1883861038
838321185
679573174
1045606678
1795601650
1130190499
109022955
391025074
1583857202
1770086363
512187739
1031515359
997714334
1481396639
1827437852
1261197584
893690329
666811213
1472545431
529195744
29972593
75590830
1400117627
278901957
872974489
1983767265
1227254492
1113343857
1961541929
1098906731
628231072
595319398
446477976
33682828
827994846
2049635233
2084920750
1969466495
2015688603
1468442755
1645022618
225324461
9066315
975482310
395225610
1143244775
132498615
485830477
1894503860
1392699555
976436510
686780729
14494831
1508704352
297854776
1025128344
1345815842
829206258
496908577
27326084
494877934
386004821
1710335724
1069992782
88246371
426064985
25024670
1101544327
1913900576
633128140
801073236
165461523
1427966393
1441171344
1865164981
1143540502
1852126355
588726282
255652689
1704145947
1442888127
1731185265
705363658
189367513
92663465
575260586
1097448635
1156393663
1396610846
1226607130
1871069248
401712651
649031027
1945848113
859122880
786563303
674150071
491626139
1547184875
1350357244
1264769969
964905324
2078533726
1740111397
1453460361
1369717570
45063284
383603876
1867245143
1824386071
1532434451
84990851
1029058236
2072966785
1616403118
1320285645
1717929107
619838554
2025173247
1042827977
1928013649
1084805661
2097503074
869103102
635486143
21558284
1039645743
1757708115
1775973028
1160397384
563940643
28318635
877493008
1096352931
1288937125
861451573
569674839
950810408
845651415
208878330
361053258
876682835
697131514
1289337289
1272264129
968696673
1501512660
195476606
651686645
1188493501
1479015257
1254388643
1659420400
1757939024
1306691036
2007017072
2147139784
426187316
1215861846
1037462123
1650986355
583888347
598245951
2042537019
221823393
629596303
228315836
100159218
1507534121
2087618864
836188108
270110157
929420226
477661380
2102206523
366641893
1167913055
902440711
979094927
623571142
236150537
1184970409
1939862228
1992532338
803276600
2141962712
547674719
2078578614
143072758
1284570497
396039290
2098267828
1052473344
176981780
459189577
1891242574
301196476
1914496858
490072921
1038702540
1940557601
2011586471
1842451894
807157112
896821714
1812659588
557302266
1990265643
19046260
1717106586
1432496856
585550589
1581780495
416305316
1534660221
911274095
983288096
1897973166
2008257579
1900005851
1087480840
81854554
67550086
975091731
1134674854
459281484
1038864771
476655218
551041257
1125270278
1739026381
213351364
1113957266
1069156491
697959037
1342462468
1233771420
1099853536
1212339764
427574956
2052170750
1019194123
1337896656
726115082
734029032
1675296934
1168827764
65051785
1394535979
917434119
1182142100
1655037177
923287688
1248896161
726083767
863699596
1894605157
1728297860
1908691458
979886216
568931282
1348812269
522323757
625444613
568154957
307950094
1006889274
2058884020
1978738206
1739058906
1322781706
849103220
95125288
1562867643
1718996110
497021240
1409345799
474947817
1458122466
508559860
1942912771
1471757353
1047774394
393711932
89849954
662211766
1089215280
1485998727
1150739070
974537481
600093164
977744085
234121805
440091104
354646168
167208386
1104203661
1747298904
1821562166
1419426400
344417914
1227599738
469054146
372393884
594006599
1991029655
1401165683
1279741333
350764869
1089579840
197378559
1728421118
478979325
161336072
1014255974
362989194
1897664704
745568907
2141811220
1877152745
501020652
70881489
1011979328
128796495
363958684
889248080
865446676
2059281378
286079345
595713889
1889169802
766295690
98294280
87884571
575420819
1854969173
1922326099
998167720
1392394786
1455058976
1137650884
920566322
1103533521
1611729262
1306110271
1876285926
1436512275
1136819575
702529243
338645076
980888681
1562084121
1080324808
1613933329
880262248
1953852476
1759674026
898215430
367961571
55307733
1217262167
1627545469
140413258
866889741
5234104
594434957
23277379
306882217
1144325247
2030072217
1211179078
599470418
615028463
1168738149
1620689257
1246430116
603190491
2081801924
77396918
725538238
681342849
134942744
229730624
121363411
2002273402
1007269838
1259081037
1120929720
494085885
1026591385
1112576044
690622334
379351785
1736775809
1009977230
1144143653
2134306512
1742818105
1186218844
2052395002
1315161556
1340555232
46245055
2070972696
1629586062
863792490
589397010
1668638664
301469892
1852641199
1991569241
1517096835
785041462
66640900
809003018
1588937370
1485405646
556399962
1506511384
1331863995
916037471
636967056
44675336
970650888
1777357989
944969963
966522779
1591229383
1375119903
1197900813
1322108095
1478853904
2138096482
207361549
600629907
1099337590
532747510
20506163
10362069
1146827202
1023452820
1969640192
2028955221
1722780477
1703239084
1521284688
1687193557
59374398
663703565
478273977
1249596893
1533534869
1274420510
1319576207
1574203252
955919007
1557090462
1061195439
1349354583
928159330
1260834122
2073942060
1181885029
1272109642
1895972497
505080326
587730188
1330543788
990417712
1184336850
902568642
1592819186
2001108729
1848069819
87333820
244697224
480839029
1505411334
167921514
191719963
1491536965
1185082099
738767781
1993314849
1353905422
116396651
817320655
1851546696
1076707247
583845871
267122937
1737711324
263271660
924203506
1270344609
976552887
2067044433
814928391
1944090425
1843308772
412312147
776476800
1845759264
477268057
1530954531
1150345441
1869408924
2080139292
703900775
229949012
1304053306
1743000334
890512310
1809956645
1739130599
173971698
2057608367
461992572
1734672863
338646620
1187781452
876753595
65781946
1105839434
99737242
2037234514
791269305
1124406653
1740263846
1661338668
1251710014
1882360879
540477375
303130188
207268586
461876451
113491044
1935607772
849399273
640493974
1747541951
642551871
2078884656
1818466922
465577832
1417028798
368693903
30342869
1231661286
38907017
1446790205
622462143
1348205707
2144755001
301033135
1126308320
1691805423
57773640
1424399756
1459438466
1157368811
548001413
24573730
1833615010
1394812967
921792365
348179267
241133629
1982026700
608756097
1578688799
1409215865
1445612733
2054355176
1893997965
1953678452
1725614182
748355977
1948301751
368045006
764071662
644762381
856162443
1247572916
1419451458
2093610387
1985058278
614845681
1660980096
1799226692
901858372
1845027392
1496877061
415678312
499667790
441251965
50432253
691883495
891512176
953308626
2135986786
1881189388
578674469
1039512455
1444724777
746052248
709088394
701068528
1840896005
212753364
2028699496
918923343
1335550946
1416361997
773799470
1777323850
1853215740
1569245680
1632704922
245067347
98642232
1348375094
6345514
1561617854
899983197
1457018041
1964866448
1151603132
689311559
952187885
1854640250
243413585
1828380999
1056163253
2130223936
1348639801
210249577
1848260421
2013628160
1785770024
674842417
558979500
166725349
363437182
2002181317
1180597679
730145877
1420190610
119970956
2143930448
876928216
1778822702
282934619
804112162
1516271911
1288528370
1770744540
2058177685
1918657321
1814037103
1566490656
350262161
1581155185
1895422390
967821789
1210756250
240265313
226748287
1601572723
1693987128
1303016544
1323473483
1910187838
1938309428
1353470828
1332367389
314953461
1342227964
470350277
340499684
559288112
2091843321
1588718242
1390959830
342582453
1488279189
1097827720
1327663887
1433269149
277314907
2061704508
2098586396
1840496859
146132728
652055910
231557095
1794831553
849936001
1947437545
262468936
361899413
772737635
861404040
1344960390
1827121422
1356494994
799442917
913009508
1566109565
718592784
1986405932
1506019107
1144710388
1491442688
1533898349
710830625
489970891
2135822907
208758639
364098905
505643736
154918092
1940380878
713026372
350705237
1462929500
2038840787
1555667236
210119554
1424849432
1772487338
725501501
357185237
41624846
1459067850
235187150
93134352
1400014292
1468852074
1019590329
655069991
1648617219
1348743204
187518613
112850696
1422257511
1304212234
1220798066
53674618
1916791892
211660232
1205982392
1073314234
1381138795
1717105958
1746760623
1374021062
926906769
1056052085
1036323290
1262049093
355597569
1802694140
823491057
1139683397
2068316964
1029108789
889109324
352319241
171839276
2085999971
2120686098
998453141
1606300719
402046766
1912487765
981876363
1551065494
1047864283
1339097509
1490309913
1847719681
1319110600
2028928326
1104369964
237412617
1182587260
76739568
1591080006
1876720915
1620495769
928970151
811237614
1770751398
100910791
1348292807
80748350
1973438228
323470279
77023803
614122835
1091426983
710923430
1798479209
1764710785
383462538
1818073636
153535866
926995612
402425416
2031897512
482020393
2048355175
297428106
2075673813
1042178930
139117207
1812369932
1452416137
1669989527
1211639564
339774683
835076900
1417664784
2091766171
2013934134
1126312045
416656126
1482961049
384676520
515893672
1969101977
1358838293
1756745373
999393399
287336740
678020687
1366907439
390375536
1798303032
1167651405
461048342
151508422
1515484695
1001228574
1914603219
1524257683
1691638581
1221555959
542362202
758084040
1473338725
604455713
1610203873
2026793913
583618562
597004948
1457078403
922209763
485197949
459321758
1895376974
1341744428
2132022913
1295066664
523038961
1819915235
106808668
1654016784
467560283
635695331
1616634490
711717060
926137009
1451068792
858574653
974784685
1322438718
1909343131
1219909740
482826070
2091048999
1512287315
494720722
1758997939
856512959
404315628
1353062096
1714564342
1818169075
758026864
869861748
1709051728
1175103984
1922192706
2127248456
96500484
1470982097
292502067
1936529912
1497554129
1356275226
572496606
214299030
1373980962
1740015168
1674796430
598788108
1221748673
1709888135
1179665339
1238036383
883844296
668699023
731234069
1946511530
1694100472
773303010
1464684885
1802111304
243411387
1868372883
1980789004
1539665399
175560424
1829329317
2125265185
1023848928
1675577782
584350031
1806769732
1027993380
759664808
1171744918
1806167357
1048741514
446600373
1711176523
714035571
1816801384
22954831
1747533914
1060152091
1654248647
725008603
1985518810
321174872
1483287374
1435869901
1852584220
1282186423
1030890436
1250046512
118490222
1403487478
1004869201
895989137
1436252629
168800262
333101965
814138175
381848485
512131967
1333062967
98999248
387600599
823742285
1539255694
1086295113
1469171587
411538450
595589296
1920424004
220195677
628347114
1582029794
2020125729
1644695522
721934885
1598772921
500078476
1781892588
1693824807
1279558210
659361610
189761460
115214626
1184465513
732919894
742812736
1497692370
890027351
395720884
1463493894
1147055318
104586266
1475105641
331481339
152848420
1893896864
1763576140
513915202
755134625
1746284762
1864991754
1196410357
1165122683
785054033
79857680
579533033
1529768103
789857041
501362489
1821729783
251869243
1991270707
742107732
1689158500
2090752252
2073121415
707726382
512668528
280720061
271792976
1257446256
1036315505
602996044
951165926
1288645769
1240974159
730169100
1588363837
1281230006
1244315298
903238227
858654951
2113061764
407429638
804844701
1658994935
1549325790
1700105768
509598739
437348509
709357291
834970882
40621729
854465601
369429578
211482084
452128557
1239959253
1690926739
1058533676
98950336
1490409902
1168702536
566863121
89978953
1658998002
1238350919
856424916
1249229548
676718591
34707349
638870990
747226130
1248186710
1742943262
80376288
459827333
1012786951
32912941
634332580
1734068064
1486184233
584154121
590562177
702704037
1824468931
836656737
763231539
774268740
306659167
629406823
163899300
811275895
747461774
789154984
1085683708
659177672
1877933897
387495895
2140554883
192537342
1638977643
1809382177
1800494247
863203643
1375271395
1740444288
685950900
1691723641
1714110386
1648061114
628241822
637132259
1662508844
701143901
866670938
739633271
59652097
1486547403
1658574676
1977842771
1225014321
195416825
131561771
989208189
1495509008
1573690741
1176152650
1409849830
606995169
652145741
60111847
548077099
1028155235
1082296454
268399013
853157071
2128614158
2031402058
1812944242
824819824
1249427211
1723814970
65819644
1816785547
1817559221
2065248808
1533157545
349268506
1754198255
164370322
427025049
1381304615
943873386
1792569140
336635827
888542269
1119076436
2066751456
1942626851
380626679
659210273
2088855239
1116646353
30290927
981530934
925546720
931631790
370461155
1760611464
1198567003
1432137033
776069764
148240672
690942966
2000565968
867432600
2071002024
1667057027
875950991
505161150
1558066853
652308650
257989841
289802575
1645339489
1246191195
1053857149
1662924447
1774831940
1175987512
1778050526
272640678
778419983
866722913
464486495
1165282085
1941434858
1381770576
1119735267
682257333
2097018565
1030325721
2139521368
1947163905
206807626
1181575926
601601162
1108869862
638625884
1460730529
900746313
425292354
1336018282
1313382045
1949803626
1531025291
43003404
62934374
1379304546
819324134
293799805
1982783044
258366250
1824622719
1177855908
661217867
367772613
438053634
207871396
1261405907
86384
326251859
251101667
868876230
756523969
95919891
1101237886
1370749558
348898096
787367182
1786838780
698914464
288670957
2020132665
1546221878
1452108307
690599825
1085468449
839368083
47385002
1983960788
1095278161
95280814
1057266800
426313876
2019836799
1025655330
962557356
1277075516
1598937799
1060399247
476821150
2069654428
2041803200
202014180
1085208961
2089420481
1924413336
1832432045
1739719578
1405647071
140972483
701716294
1689419453
773724081
1992670081
1745669686
1769585761
555922493
1728408441
655372813
603029547
1961692880
545653161
15323949
1932513489
874681317
1419820745
762214079
953340786
2032820131
1589608817
204627622
765832647
1856277044
910527598
1287723753
648507426
1013365853
401790405
560406625
1638729553
559877017
411753542
1107175924
1056389048
1172184699
1655178837
1632460955
1060478699
1625921603
1438943015
414075837
865058326
509071003
346148463
851937513
1198328899
1251328921
1297579397
659443022
1775571228
605580381
628287002
115321923
509642167
1369062278
951062572
119712061
1674870925
1600517799
16074951
1417940581
681617120
1292882352
1247426549
1207766692
865691377
538825590
102989456
477473899
2036808290
524321396
1673256369
1081338463
222556282
1289541626
248767384
1709753422
901709919
1858633096
1307648684
2064379440
744612699
1815695450
2094395352
1146576245
825063227
168373723
38447153
1624479927
1628006436
277809111
1760657365
386256901
677290895
762200324
787339141
1643167198
959828380
1859997934
810032055
1387875805
508745746
84193372
1142368784
2090864313
1525048439
154602820
1016610866
1176529224
9338308
1642317811
1987998099
589734265
1132404620
1967437231
65185269
1768791594
1456200553
1005072101
1130176415
557152644
1089176545
1733845475
1542556102
1772345722
1655627303
943779810
580292171
1094651715
419650746
1251201276
1581380744
1075118309
872079667
223248461
864175968
306108503
1941014317
1319137483
953090925
1184005106
1439331778
1012123863
1356352806
1316147014
1012710060
1937336012
1748971408
1490008749
1497967492
964242727
406807005
59177965
1326600445
1002936104
2012452368
863420056
577722384
983667823
301813633
1018362727
1710427469
1313844623
75055253
1634640379
2067783366
93417595
1162424562
256477062
1533142482
1861362807
1557949549
668213392
302512565
904382060
633321640
171573176
1970588196
1472023965
1063113621
19144449
656474317
325662425
1719236966
688123922
254241916
445733299
1309275021
1477981073
1320432184
823985337
1598238241
178035247
332400809
1406558438
2008176257
1387605201
1258322424
767303405
1350042034
1288076424
1633037682
381971019
835246696
504077065
597834391
233973483
1912461139
207280890
1168868036
465400858
2140993859
1261066125
1046287447
1223719315
1508086292
721765895
1812370300
1496939415
1669009834
1841499309
1575464397
1070806734
1730239866
452010968
778015741
1338279212
1982705100
1291894224
188316653
2019051941
2096821439
283719550
1605315386
1905173664
23120962
386944980
232425808
325611610
2072243190
493431016
1131362788
772670645
426190805
668667950
934625000
401753069
29750886
1294011866
115188541
1244851947
1390509857
326319588
1760177164
1251426563
638136408
292221034
813765671
1303237762
1355275585
1152553215
1344654768
1789579021
1891525994
1362253893
443534375
1841780104
123003229
545964706
200824638
1292060868
109795839
583913997
735601812
2118797652
810747485
1049105677
1907325443
1830618101
234426894
1330280353
642554038
285197803
223079283
1728437148
1580346856
755980632
2101615118
1604941839
2068713079
205334791
874093682
664076972
358512757
483634440
483315386
344956729
1050484122
553918264
1113184396
1846843413
1416181097
1096709746
716547136
1223089744
1774819270
691317786
1950571451
989614693
1539301076
1946830721
738553777
1609683917
1166381358
374420101
995960209
458824064
1424774320
315938250
403942858
2136036080
1832527893
961838261
295158293
989564579
419079509
1508770282
712559513
1971055738
22957154
1276756875
1699254604
2136511429
2078332133
1595465590
1210871353
1294431688
1024428238
1154922280
445058920
1000068133
1634248229
1197391125
71547559
774148623
1131203015
472352559
1047272618
778849315
1794404
1871981774
1892785838
1277966595
422782409
1311566301
682837358
434295118
1454349694
1613761446
141105003
1142898662
1595713014
2134648018
1748896356
1714592319
2021197588
83134932
482441893
1748492473
25234626
1285625044
1996040278
1602471589
1968843074
1089090204
1459404350
464339668
834183010
1911698883
1369694148
1065346950
1102591273
388822071
1980743610
2118714033
499182904
192326283
804863393
1393591986
586205667
1091250287
399281484
1215216107
2057541428
1579042106
968581974
751808376
1154596050
704027607
2031004943
1477805879
371136708
764120839
891342265
1957328352
1016258880
1774687759
965305657
255039036
1142001564
1219481701
1260625430
87392154
1574031664
1976689234
1337459732
1142663163
472220446
360257753
506651113
657689318
1712305113
1632360013
2037393459
609000077
474000722
68306606
264624875
1540224867
590415691
629627763
362154042
171110705
1681179124
1916080120
827410060
1174359570
1501521764
175961586
1936898779
1717328906
1597126431
655231308
2099160756
1672464516
1303205498
1747504392
1143766774
2090680525
1333595350
808627903
327518554
1728305693
2002519163
423211904
2061566823
1437090287
1357092216
136932238
1493618769
542946961
10688443
395456230
132231038
1704445669
108477774
251896252
1909062156
160095042
1461351622
1528528906
2073160276
132744391
1208439571
2106176149
922511576
582129338
853935662
862628556
1030185813
292291983
1138609995
460916443
1653779143
1902284879
407078068
1958182456
596400617
1486761990
691936438
559158720
1307296447
308039861
2014985998
1889901641
1470359007
889245855
270917669
1313107573
1071017842
1854851475
873259594
1398768308
355483299
366616705
1926217950
1519304296
1719169918
1136844274
1787642252
495161725
1847264379
1894469167
762851238
253287118
966254008
1366944211
259136975
325260364
1642039034
1771570512
417607720
1786890137
566645118
444484120
1972301493
437471682
869731940
822081114
1948917649
1548468273
1626230199
1269163326
231582020
449866721
220668717
1066032991
1916566852
1050164947
1489139136
2017899154
1078626708
624080727
382850426
677614304
1605808979
1458963693
1804523834
2094875281
1676794136
682980388
1483212192
1735164314
1970003220
1187062558
1407990617
2019903210
2032121714
1041235329
1205709972
706494507
204968070
1939144997
1876253665
1826888272
1807868654
417384896
385884882
869503285
110142935
273704443
463355645
933578897
1098612589
1512731261
1796106584
505572337
1683881735
254508893
1498248204
833165015
944430940
472038329
1257468178
1434420487
361582701
1700784762
550985629
1757743911
2050050746
802397579
815948574
1391580760
1072425028
685947744
1438351739
32928984
710723643
621693582
1242884308
858531393
1287747428
816874960
2122563076
1969681451
810804309
1429223637
376140627
1805291836
850188331
2843657
2057676249
1956840117
1168341460
1228548407
732922956
2111967200
272815984
1711996816
323337560
1803713304
1787722106
1941516258
297268556
710017234
1273953280
1465817431
1667024172
742596847
104837688
1459731562
1051672636
1103605489
227954492
790696137
868155957
2002069860
385718587
1346150603
1639696028
1468259058
108798899
450817357
126190966
794411586
1994396055
1606818508
1212816016
863126101
468246305
485385414
895054755
701733541
1502098630
1734269723
1249461845
90384346
689094864
750347393
169954880
755591932
1197087278
1991183673
1260983309
2042026771
751348266
496605417
294664852
1268415584
2058919743
1587241078
2016040458
1878737205
1465837309
348550470
1092045296
1850028456
599994364
1676414612
387002091
872111191
224261339
1993686107
1639498201
2086637098
924159464
163964064
1261000995
968938344
326323124
1430980538
893215761
864141005
201955645
209013579
1628204960
2097642217
941893034
79745097
1934341716
1591910772
788207522
1158368687
1280980267
1151523895
1875003097
605648388
1524714134
1055280414
1812823538
1313645181
605215873
710262246
1998767476
2101987346
883820270
291412413
921941474
1668461355
169038134
1738255306
831967739
1211272337
1121021280
1258137795
876210244
289318088
171146755
132415111
380010165
2014087408
981066860
846883994
1217479563
1910398693
495359678
1086448641
604866706
1541835180
65404539
770125979
849200277
1277400291
507338370
1351018371
1752833572
2058709549
491241970
851059016
1405484533
244108451
413823285
1675196691
1536010365
863378802
487190929
1762120898
1820647629
1050699692
99125857
582350359
1470075491
1239528717
1878479904
846188999
817726474
354003493
480431640
627355845
700584265
674458204
264502440
1698371620
949021980
526894017
75436044
836860171
1284041779
1048618216
242782747
741124388
1916131111
1593759521
1487543431
1110778729
34751628
136512584
1933547434
461639467
1498577836
2130379300
101056473
1950421389
567369231
1605658363
85243023
733078866
1482185301
1486185882
830098992
595376822
245065234
1780281881
1070988375
1782472758
1482817684
518729087
1927703595
220541619
1769356437
20126283
1345795740
1365366122
605213314
714512636
1362482769
2136912585
900283261
644721562
320284327
1456423930
1643696659
2107245174
202795380
868753751
1116733084
640143474
884397259
1647369053
183527253
941418280
1607510611
369138083
1336880150
871832331
743625906
2077656249
1628055624
1450897362
264375822
1453257879
2139831400
1754500237
1889439322
605448754
192061798
824506337
603537822
1260081027
1304510956
701603068
1637975562
1675591474
467410213
1456739952
1718907461
992646525
1558294804
623789011
74884086
1191053259
1642753070
2039391519
1283560862
1544291846
277686377
627900308
1299020986
278012353
287354119
1191135488
415281331
1514716877
139671805
734518718
1426954419
439896989
1573983447
614333036
575152526
1919238540
802368888
1429308155
1954266265
1852042511
1435416088
1747651742
1298851258
956628423
949932763
875115308
1707159852
1315692308
1470188068
1157379489
1654711012
1392498671
1918845018
1738594681
611650461
1959326602
838531160
1184601959
269561708
2112467324
364617510
1467289554
1799844997
67534240
120593862
1362675349
37640496
1770778925
914486000
519513977
1257173380
853858778
1106318845
1080808109
542420612
47254218
831643864
1309225146
1995942827
1714287887
2055602805
1556762309
412779959
1889666879
185170132
1229718292
83146854
146527797
1389138710
13523186
159548740
590744798
1362361423
836715808
2056479043
305210556
1832373639
1703912018
870312927
1985209959
951756675
1563653297
655387663
1289990509
1129436621
802060048
1119672342
117804128
1184331840
91090548
1687118451
192478747
1077917188
1976616626
1431474429
2101193829
2085222111
2061432421
2111036006
515163595
600254069
378612662
396610888
703541450
449707364
1057603549
350010866
2079949983
1381389616
1522529244
1446575211
2048313705
819232891
297694371
115446601
620429341
1452125919
2014717901
427724137
1597403875
1220433513
415645313
1781646520
19058190
2026612231
796562286
1967470508
1841495879
718864377
1788956084
1651894428
2032590468
1899658091
1584975348
1491354307
302226888
1214083022
1691804137
668141955
1163002316
1491076570
2089435483
1283313195
1541628493
61919937
1448563103
1030745639
2130604488
506427948
481374973
669325759
37015127
711415848
644879156
1943822715
633493845
1637692327
736480038
1873202479
1575442484
361298144
1087488789
1943697949
1758354541
1052015427
1154817446
615727287
1034875816
77086799
791162268
772399944
620634147
640635058
292696316
1932182573
312318266
1742410658
1757697482
737485834
672846546
227553521
1389954751
1288431642
372166321
1852144308
14188112
1593894882
1775219670
1488838650
1208198166
461620365
709177143
1281779448
2076586105
700270103
181443504
35729241
1271994641
1486897698
1402598023
1312193581
872301790
1641026
179471358
633652909
585009324
1965318560
1327396402
1823004715
1458760503
452393995
1156976449
871820352
296890666
532579220
1657783381
924703540
580629076
1537550116
1707348439
804080658
1941468250
350269632
712776796
131591983
738955300
464921516
651958377
2129313883
731045408
1165681298
1090157269
387076227
395897323
1169972666
1161097518
1818695970
1698246307
1087850899
1179918725
559535511
1259838422
862412048
1070543687
666428761
1114398871
1847105375
1667243824
1973925582
1118109969
1837305462
272222039
532756778
704360903
1104823635
189847511
1606309577
1350958151
173607451
759721639
1092188058
307997512
1014160563
1538493548
55052951
815202041
116644998
1216105445
994253111
1074735406
492322601
459399981
1547165913
2009993703
398741127
1453222648
291075335
274883324
1478880949
2028302204
955017868
139386054
220769475
336349314
1522894912
150467278
2009420992
1221409200
580158203
1385213676
139858004
1429625517
947109429
78110324
1010306002
611665764
1213601623
1276544519
1562617363
332437661
587970502
1982897729
1602495888
1774199664
565636869
607721363
490207053
1228210812
1453987015
1496983139
239236222
1010984274
482833302
1602410435
1763193158
1182280089
1083980472
170585442
1078907584
1214265889
1284470947
572391971
1134128493
1521465475
1939742011
1565455798
1041918720
685567001
742196207
299147611
1144256857
938146584
1192887861
1842402334
1059061729
1868327473
731190624
1478661868
616079034
660432309
1709858201
1023719680
771372022
1884737756
1495691013
1826202615
1189604122
1027284606
824013156
1518696428
1050399293
318632303
515792149
1909944374
1852536995
1556579430
2067480043
1839435559
589960577
93641365
614432130
139301593
196162964
2098575225
1082996085
413544623
1274605861
1454989277
268077341
672897596
338209717
1056645380
552077430
1314801939
1059674182
337617462
1898519095
565908324
73550204
78904193
2138533268
1384876073
879330861
792696696
1445623106
322802476
1217440039
1538906696
1292626239
1033070889
1096238718
141857472
367153501
953990357
1743509924
692859407
560633541
2081045050
50609322
554617933
144285499
563891030
1870046576
707453084
1746857646
1653482627
1360800914
349628755
37835240
1887311992
950393644
1979888830
89034834
242496608
657277433
461603935
49751702
1925719304
1214879240
1460401780
1997473952
1808228779
278026443
1923134712
843869276
1943839102
588809439
1717235454
398301985
1494849240
58672499
812226501
1506725076
1461974157
297612048
2103603292
1171851602
27703685
934222795
538171049
861082485
545834266
1967476681
757620260
1440570047
642364149
624195682
1745694823
2139223498
872808479
1678964335
195835133
1386325217
767784681
2011940803
1521156444
2032589771
885449369
1852831389
1207931421
817353715
1960053901
1678741119
1909181028
1505797902
207159324
107158484
361806991
961442176
1990563444
1752084805
367704586
1137998832
1114655596
661091893
522660888
286551521
101276056
717536509
1898263472
125995101
1841110667
2055577922
1376915917
1604249410
1879492316
984886940
783439849
1440533667
643056319
1397689719
1913184207
1003549175
3965360
669170480
659328087
394257203
36239308
37439184
104714577
566583421
2140367123
2008520732
453837760
988661899
1142488455
417807716
1344434830
1455065904
1707318970
658227849
960054849
1865065262
101358154
1555467786
475933002
1065359613
371953574
94128187
1451407574
1595640882
1184670597
1146538213
1584839695
1306969753
544799833
1406045810
1379411346
573003313
1659405830
2091170532
665508487
1236414226
497287095
903256893
1256801267
916018777
618024405
292795608
696165825
1502385010
1639716920
573529171
1660698709
2051419007
780316034
1991693184
343553941
1350345459
1527197592
466939823
1974813735
905086824
725026706
1317816332
1134177083
1683833545
385000054
594602910
1026555480
1878783275
1316189428
1756012423
1156719826
299325108
89540681
1814603252
164309657
1522770513
1233833490
397413239
1879136727
308119546
847871098
9272677
1267079640
1398482578
5288596
416524559
1513691321
1755975281
1355424935
607068283
1305492024
83053463
1700368559
1786300914
439701771
675182569
158710313
1582290322
642424515
1703728456
105688733
237255596
1780947925
1013280852
781472079
976929645
1996195813
1617643996
1892167840
1381208154
1508983469
322341332
87400811
1773943060
1148447521
583645479
945234734
1622566282
1635174559
823919723
18877704
373028193
1080490746
525436329
100237616
1833545108
1134260754
1364891343
1783736778
1291415454
154382074
2094214092
968768748
47511195
1383484409
1478178068
80955551
317333167
2128628754
1153501670
1190086549
155824823
1161180327
2054609425
1935506732
1287242276
1846013022
1173104819
323983822
1115979872
1882743757
553930313
760194771
1198303674
1899628176
1073939187
1105935123
435188303
1339093509
694677674
7927675
1310981295
155973391
206720410
1912162863
1133270832
1984258303
1264942634
926121039
1501823688
219973435
407355323
441451801
1188168086
226042829
99867113
458302979
87845924
826897733
641129013
1240125537
838832256
1020012074
416470268
777703438
405969039
139918599
1759490172
906117276
1380103970
1672172905
790820557
262228245
198041608
2076794684
775401502
506863784
1833305274
961750940
2139047072
681597625
518380289
1588619598
1844733998
793344777
413150264
38020172
1176046191
1479791121
550676955
1512373860
811094701
753967420
1805995326
736717799
492151225
1964934913
1092566242
339254992
1640078203
1261515681
1746549578
1055997960
1500396038
543384782
1348312292
299298683
1199237124
1070869068
373933614
953650072
730964430
2146464192
2124231283
1947812489
1783505057
879352778
1895563666
2099407396
1896352969
438032213
1141051039
1368137675
1801009036
1633682985
1573883241
785428761
853073275
712174034
1074016767
199674803
1470427349
984209045
242539990
1652192819
2054319065
1750806807
2076300858
582275019
788376266
913961275
1196131059
967022836
1070845573
1476751271
470266925
594641708
1921918556
1452177780
669085925
398477756
1438163512
1580379097
795626831
2006290831
800869819
1016011145
835995773
1097568726
1481036142
1867200101
1695757097
1897300959
466091460
838667112
1788124651
1448074249
1119771914
1380430736
412176178
366495927
1957416330
741679011
344670697
910261249
1890264087
267133626
1064512345
1250999078
2076169737
1963181590
471894385
34289363
1863887759
1188357628
1692744023
496839578
2124315220
1078662555
1965397323
141347415
575137475
1020644110
2147359520
306833313
46870409
389731423
1159699091
264992130
1684471521
640357046
288025333
1829487156
1218135359
563773350
1458907717
219447540
1640700828
989624506
322798356
556505764
2044767510
1973769142
1954380306
2018624975
388770367
1404189621
1822213560
543417920
2027340384
922244139
1651616538
259012229
1986176682
1687954940
756475202
1827682053
1674646306
1829917540
1530925802
2008573672
1445421706
1365939336
81112244
1854850100
36448089
434502487
88179524
1316557735
1901415935
821657537
16041570
720630239
1862289539
956159136
13668876
1499703972
1512914739
971866921
976880995
573561255
1981172605
1873956740
1254285567
656069326
1713093143
815981852
1114614969
797299239
933123536
1458686672
1338271323
275969116
914405675
1324261159
1021359946
1865807599
1193846903
1729797347
756331512
719634535
586773719
1043424878
779559056
1236840677
442525112
778509079
992362609
1555151233
1772891021
1547481730
838609868
1693203942
1007180333
443261398
513781294
1664793383
706079310
596231863
1559932019
1538537757
1471792310
1025940652
1010766722
1007190512
1322931116
792901830
1103318578
1015751306
1390747145
371363435
203375473
17183614
722823365
1939700319
454220963
1871046615
1200939387
136976597
1759450210
1752032948
800018582
1661526002
1306168308
1145662236
1433555911
1141769491
388671876
954674121
1026695247
1487644834
229261246
141691927
1569475760
285035236
1646705145
576164769
916562785
1085638559
272421975
653078353
1566571835
2062490098
1228789938
199571632
433398589
386017812
1554408932
1891944151
1034139898
262070351
1540340999
128665128
30617413
1955479928
1654954197
1339873604
156482976
1922716518
2135067268
1017151650
397370747
71207278
647029132
1143147288
562101003
820082717
2079725735
925879754
376060228
1467535726
1853148376
732964140
576838374
1553508782
1301887757
822262876
642956563
856621933
2092975933
1985715684
1311050103
424452991
1398868375
8260622
1953130692
217853243
86107568
88154325
1913011364
1632143142
480389176
7353868
172679825
326338274
671165733
381163087
1512373471
1820190172
776736478
1618080867
185452208
901872797
1629149906
1060973613
144534666
1098827718
1036407211
1853409890
431386548
1199486116
1975462903
265149777
73601048
420066426
2108680453
169577589
1302183463
1989482837
254944684
708180361
878548496
1554496050
956332402
302573571
962584828
1821826916
1303240121
600780279
1531420512
685536905
420191068
1009773479
684465282
333942568
1082573194
926059693
1758430993
1533550187
317072242
1763348313
1515623460
423037950
1341251305
1700533549
1954163141
1444644238
414018204
586824577
411832541
1640930276
1156393948
1187003314
1455927008
1052649178
1261475208
417747636
940034467
1328541921
1003081248
1825796607
1964658631
612772989
142335381
114079653
510340111
1216753530
1842897898
1417916082
1960779675
329414546
1405474721
445929156
383230855
577304362
1589070723
170128790
712561648
1062643874
859749719
116501905
1483366807
493972265
432204616
1061805965
946637935
187246351
1078047654
342708768
1127884262
1411463583
1277688253
857547431
1934662382
1537419617
1181226118
555515028
2018969168
278635335
672646491
1838750296
1056787243
925023602
1845409127
529239375
290207468
581993644
496925935
1849708165
964668283
1597952007
240988236
1163564646
1537462674
1857641787
362510174
247594243
676221826
725431572
1688152813
973857461
485269157
231233404
2069592972
2047975461
1010839054
203075500
188718963
914652789
63036551
2007585010
22350003
946894760
1623539494
1118108213
789980144
633257700
173344615
1328865932
763797004
1894322296
1793158512
1881591242
506868443
1999555161
788111908
158689318
1509360372
549243985
476662158
1243998948
1831891553
1935220815
120782147
1209927884
1977061085
692284002
268490312
1504911720
255196483
52109689
1371799484
1607712412
1942516061
884772591
1113346195
1322014661
1570613793
2049283982
1279323730
583556842
1908341276
311642924
222492477
273716209
726356929
355024247
816002134
673686020
1192091943
1267967386
148099990
1359348464
544809272
2083866389
1600072382
1758866347
1158647402
1318199719
1737261270
305266854
996330833
969402798
1518067987
704811607
384983581
906315817
26342501
474161291
1918037827
923853727
1445782674
1309173696
1294400566
1192308498
1673217492
369964254
328352410
1843790813
1131284744
1143292171
1089504584
1787101434
1457419938
51861239
532213357
552186670
1495347246
1870642734
479655360
4883978
1944009410
293334967
2061618844
174291801
1076760986
2113966626
1958436445
231189415
2030026734
1071300234
1900001930
306876099
656671589
1199410026
2135830426
1739721700
888370752
64807550
731172389
1006784941
568181175
1840683874
346522192
399799916
2083772398
969597264
1342943562
474538187
1504130750
363126396
1195466702
1598453680
1024930087
1169469545
737337378
1205312112
845496970
849060982
2123630826
1435885892
1730766938
1856748499
1658450637
1261807029
692028411
2075883507
563363611
1164071490
2051458542
479129309
1066460598
1547467545
1363943248
1144465171
2102627225
116047438
838384782
1088994326
1669947626
365849617
1925023585
250268337
876775354
957150885
1637134649
1398744338
823787839
775891753
1897022730
1438961417
580199763
1496789349
899465871
1781908113
1831051136
955143244
1019658067
494992240
1145632288
1523290615
786600371
392285248
882415659
596898849
889783050
238385713
1229812713
2121642159
1273760170
1387274564
40244334
1069486326
2112785280
1764876527
609110205
1240605457
1964648435
1501384640
574574881
1225142688
1873545759
1420834891
10458759
549979158
1611776984
209689797
214624156
2020206222
1666133607
366478362
734805949
510950187
1055282857
1948454089
1236407559
1432965398
1098542563
1905478431
524693139
1921533327
797361278
871852873
336724687
357084078
1470286902
213229421
1991810472
523713852
2146181779
1437618866
500108976
2030686741
407872318
1140139554
1065115542
450486589
2072674615
1949775048
1850348070
982960347
182217398
339058651
766387943
1960893968
377729569
1867473548
2029497088
966673891
1329365262
1269133189
1667682002
1052415253
1797001690
1884034043
676954982
950155362
977334900
1546429457
378905081
422225144
502353497
676884470
970561839
448286790
786448618
1202585323
33334199
1720938791
1567829986
1355912375
1728546411
847021839
2030054716
1050279161
768530204
1118939853
1360945489
372416470
2025310633
1387636420
239173058
693362181
1014007685
4839327
1828271894
907195802
8719666
1898697517
961398603
1961405753
131698821
222812820
1037203466
951388562
355692445
1278283990
1411855547
462964879
2082055637
1037073419
1656890654
1319822978
242600825
593218932
1442467573
28338580
998152964
516223351
141312279
2064103025
1553268679
871589884
418497810
1597615199
953986030
272131306
1518704965
1386678800
947468102
1234090018
1552692257
251041987
343459006
139951667
1740043
956604856
143995168
1399101315
687075243
993306961
672450896
2135026152
1461179827
589722733
1999865952
248408092
1473825054
15684570
1318968844
609608199
1133858485
152615084
1453718676
2004655450
659281904
1103434012
335327042
493729107
123911604
1316744134
265730279
1306346386
1528644073
2101241147
428325240
814698481
911645291
178576026
2008784118
607422643
289145573
702998352
462917934
1485685494
2078201589
953067657
137069671
48710434
228046028
649611705
616377177
1696386254
106145576
2027870398
412454692
1417116423
1644451766
2102878681
454698137
1725325551
210520367
691754197
1394239750
1773334890
1990203851
1302540357
1952123377
1202859978
37080434
1110603309
1116181045
110340153
389750669
1528162443
2094244015
275722067
795598340
2071268583
1974773430
139619028
1245793080
1417148812
1044196811
2070880752
1279953
1679976578
1422042833
1428903282
1436943736
241505547
848740077
360980474
2138571024
904290088
1690124048
1716805068
1985086697
153303119
262631760
1294999086
346649342
1269389008
1444810724
1554373242
1855133372
978039598
396540601
1893103334
874364940
1146244071
1521612288
812976926
806217037
851849551
2070851785
1012887953
1527991701
2048580177
1600148087
757112978
95535705
1502986451
2064404859
919456348
1228262008
385172768
1716802009
147801331
1110338680
335010633
279038649
1078344444
218429495
780435070
1577596240
148906878
392943986
1398107496
312918668
1359544833
394097166
1713778511
1907530234
1133342732
1535376481
562421536
1504878418
165505945
730035592
1401864261
1872085327
792784995
532582224
1675893523
376229746
1450137680
495954537
1517772965
28366999
1343914749
504289656
766875540
606015800
35571295
2015226441
1910378275
357777752
1948821283
563312872
442719592
1147779911
1069635816
962464055
1498915220
1846663537
248710661
781724076
1208291624
1352270995
1154867281
2124848398
1727253638
10371702
1677130038
1318686098
717093435
220351395
950657527
304727564
909323290
1375742560
1396052972
80409877
292293371
1806983150
1475420283
1869346435
546261827
934318921
871803392
262022736
1411967267
679331852
1297032076
1929165490
135572609
1964448635
1385584883
1003300350
1159525801
1325796238
1599258560
166822201
479121665
1391019288
1062113025
761658975
472142880
1395587515
878944134
1436705443
1673937244
1827389049
1061884915
593004665
902165501
181858793
220318052
1479076316
1833997560
311798339
1349685224
1510355672
503092962
1956457458
1974938083
1579211668
980580999
924182357
1348539671
1364445852
2136070805
1481113440
245045841
2049638138
43237376
221927475
1997841978
1522352831
785071905
1833774160
759687413
112321852
482695819
196684769
1976287014
1944812697
757674065
1409032857
895639918
1114681672
1993960942
912008576
714464573
306974587
368577716
1305102908
718492781
1010557182
579687836
680387620
2031486595
606802058
351481359
1094798196
491986907
1653347220
558214098
2110335749
2029474458
734976961
440004943
906974915
770127478
726323888
920408563
1416243655
1251176868
2031475411
634830461
364473505
248621205
1751210540
738228405
1197589483
38483365
638995758
588779695
493856215
2121444126
2106155025
145270747
1531631848
990976343
457183545
1815838289
226720444
1570513024
1272962074
1863763512
2069990593
10864716
2139122341
787136672
1124076631
567746613
1203359882
1609441670
1121750871
1644603335
417844240
168475732
132410300
68910790
1295716769
1339782977
1864918198
479092165
1112644967
1566345462
109044162
1819891189
1747914188
391052142
2005183723
1883724202
982386043
1668315483
1819293746
993299560
1671665068
1690853749
1719889013
1307597749
831369358
1315644229
1774321612
802315842
365274037
2050286524
837440404
791870827
403675533
1075603475
1488116344
1318642801
2088772796
501173203
1836451553
160184688
1448137019
367557540
2056634752
1157668149
1599913868
1198652035
1426024225
1818686337
775833226
553839982
1448693511
1838674879
1260821872
831188910
1250089251
2062057660
766021271
58437519
1697645702
869845214
1540305231
409064024
76123569
300887753
888777845
178135026
1507497040
946862466
1762984061
234879053
1232390626
180538608
921491889
2132938494
1863591984
913762573
1248619091
1821011747
875245291
720843616
1976061317
61786246
1235266189
1243547346
111833204
253625102
514327040
1912654727
580453819
976231284
444403125
1498372084
1676770925
431834994
1860990152
351999977
1659932118
142434806
1303483444
2125725251
1818243623
953196293
584248471
421608510
1638189006
1959954682
843454601
2009055612
469902173
1622688662
390351653
494437648
789689226
849025252
668489139
908039508
209890304
904940975
659502682
70053955
1432172345
403651846
2119446055
1428169660
320974971
1715912051
1604411388
1277146390
624748230
1428343848
1414395223
1401246408
1701471936
1537442315
585289250
187157346
1606274270
1682329565
1618916865
307482257
2032934813
1357021614
997401367
428111013
26096034
1299844223
853703563
957124555
1949633797
1899995573
1997071594
520209210
340354053
1949502120
435722605
1071277147
542051375
1255460467
145933918
1380917851
172327053
1217535203
2024141505
3241791
2013162396
2091516811
230354350
1527242489
1231239664
1416423818
2033796004
1281415352
8565818
685200345
837565881
1726852753
694133032
1017704923
705783662
781583884
1167683804
1396240645
263822631
584398896
1244130694
1869126196
811967023
265449949
1803745019
1966421083
147275520
1740938185
1185891354
1468674577
1571809233
659753830
1808346505
789882244
1935010419
214170245
1757839366
234421335
339289221
854181806
826824281
527172633
420495951
1843396286
578157360
558904963
122127473
415836268
1744426086
152587820
599395874
1490969474
827938001
743449053
57588713
859948131
1962997202
273467740
876708174
807697825
1887255230
329583085
193089409
653381624
729397771
1999833658
11699027
877642369
2101293197
1669353034
917101533
1139188734
1921620759
1654455404
1972107260
83906859
1940871344
1703110937
1545035165
305153782
825382113
1330178791
1995900660
156596564
653540054
662501288
954169744
1248261196
1952886212
3639224
2120246318
278676458
1513131344
1266139824
1551090930
446866569
1675705848
1318319037
1895012264
464517926
510327927
429639077
1212091546
946115937
977090490
1672333105
729302485
1603056214
435679936
1818310495
1323539955
1609748939
349253521
92608928
1611757224
831770016
501571794
798331359
1604030041
27638135
265020471
1047038318
39771819
771918542
233342260
1253218851
171639557
2108131716
1125320292
1210401803
511714962
152733769
1062057182
1862756456
676624902
1856365647
1415840054
1128861309
393884379
461131250
325722800
1647538129
939462865
603281636
1932968259
1660308544
1769892978
1513346230
839886787
2104723130
348048693
195488788
853704209
1439303865
747898911
183963204
1753385840
977333951
1527702868
1829740319
1468301520
1414790535
874729242
622226993
1366379254
1153588400
1661863746
1950480559
1244196026
1570806868
1206052418
1872719990
175006102
747569189
1590468906
788106433
146114418
1247089951
312940399
221323901
1533808911
1816366113
1220356480
997753915
102137988
2128437119
59971476
1174579922
1421486382
543768198
1858496159
165094715
254622177
623657514
2116833352
10211566
134598562
1714350285
108509036
809851575
1761677152
1988975309
1439672159
2042594761
551241848
2054420174
1457478235
1925070113
2092048109
1040786947
822658729
1812491063
1093254571
1369798722
612546131
1051564562
95293642
1541081131
290153470
2008505388
642320275
15542204
737714769
2064088049
1453776640
846812170
1536067935
993260722
989951051
1899131536
396733849
760328808
1774952005
95376412
1581899067
750721571
1528139914
1953333716
2098882348
337599072
281232660
1950962016
1901390185
1708622593
751693514
1976320326
244557443
2004772299
954823636
1423088805
1814586535
818953869
352776116
489252909
1293734748
265757609
1481456998
1575327102
1325496732
1226390941
1782614541
1582661712
668216529
62769190
938602161
579711586
459738799
1589238209
724570853
212987714
349246176
490075287
1876022985
188451153
2022772396
226319878
492045690
731774330
1345080766
1994932094
153292488
332060481
1613869249
407998042
1477036674
1412816437
229266612
29998150
1532903911
924485746
807452611
1498886091
1621459424
686012452
159881314
1672840158
1485272506
280412108
493413128
1998885053
470534326
1866640744
82233597
1333279698
490262881
1561649109
624354724
263852127
2051900063
148103824
1516314240
382574393
955213557
551653891
942341980
698918738
1623564685
587565016
2000200147
1456473621
1125775820
1608568572
2089556815
1542090570
2000219372
386654272
632058718
1062858129
1902757947
1809835601
601694615
1022175985
477612804
302795308
888083439
366575651
65360356
1949927176
1884568982
1229901315
1728186312
1041909524
725527647
873864451
2067603743
510379776
649340773
315360706
908893569
1149666135
1319065005
1667752211
769823317
272640862
1225222997
669040729
2018081897
570416791
1891066054
350301608
1885379470
1946529857
381530404
1150989499
1783714577
1694921671
172859204
384446939
628528521
526176560
1856701782
2099112797
898586097
254845127
1391045192
147747141
712311502
622170230
1332289619
844842465
1875838930
1908543163
555101023
1824279933
878467136
983531438
1385868984
1098450671
579600773
2115287407
2143626264
1488358445
1379779788
2039203760
529570057
2121095700
497269236
575928432
89536023
1727521015
1767766352
631320632
1909541939
709549150
2047430183
1795786271
415165288
642282519
530182367
1073883217
1879179541
901718967
1358645618
1107068953
1901395437
1791322953
1217247510
1340395017
800195748
1078150987
1278962987
1122146001
1035640806
2140827960
167590169
1767700122
1653080151
1686005574
1405647038
1046660651
2121057121
1512914315
201259622
448280184
1230061883
39466279
1033499014
602582288
1081303791
255532382
694743207
149678274
695402703
1464433479
64875401
718630284
78891215
1785232045
889143754
596981895
557690003
1430300041
641257600
862239944
1080350646
683828399
132451730
2030774109
1470246440
1222658155
2055678064
2014047004
52777593
1991383000
768554479
1392678338
600388511
2136058317
1369530688
1200417756
1865688010
1910670657
595142456
1682197545
1762424463
1012222182
1956747096
543645034
1347069651
261610437
1004248947
1878327676
64095567
1896048066
522935547
639209894
1033432716
1744375552
1621456687
1928291273
1137281483
1136560537
993362538
145986898
1399066184
113991657
41314560
2008031378
269193828
433589945
1121312371
389822545
818307423
35644447
760994156
1565781088
1905973638
1936107703
1284445643
1432884653
101831486
930287331
1443864374
2049411750
1623690741
164555797
1721787179
220371857
542386069
800995393
343460703
575264303
1374984710
1098766035
98000817
1953043257
2122138112
1257973241
535720148
987744496
507440342
525686705
1818479165
536324325
480734858
1939444209
29125792
576357273
75940108
306894481
221073442
457733245
1107405091
979809264
308948568
1448040088
526050780
28818606
271275175
509902971
1037821379
1533462698
1984134929
1600243932
1279657563
819723390
1010743633
2047267431
542464202
1277204962
1839417974
733978831
553513420
672307434
722314656
1922134947
455917234
333121197
1837131279
548334574
720692187
1949839049
1264668529
1649702910
1462936490
1313639174
347888050
1269696273
1439484905
751008681
1451606654
463931006
719170667
1497155594
850667343
1000711583
1965856146
1359996487
2100013202
592601494
1048632792
1301810228
865276649
715971197
242708682
760874634
810291691
2077159068
1252254901
74767037
1726442137
1088364472
518396248
401485198
177093830
1507016246
1023237600
143356992
