5600 1555251792
1181427130
209620217
673040536
1310729799
903270063
1108689154
1328467608
1199821453
639547961
1528460415
1415652490
1131002441
36530302
1239817388
536191239
139574717
422414681
532637201
523202858
752107505
305503394
1250160172
1848737144
22725994
1462721075
262407673
2081166590
2054560319
1739317763
1728904183
1404822211
788201482
158708972
851078803
1811622243
1496212616
1439790158
1304929867
1525041001
174727103
796814028
268040241
160727913
1690515938
1051188260
685584342
115744930
911915663
622337562
531300766
1609087743
1042415060
907966386
1398179102
1867705059
838570809
448318034
137672495
1689793233
1380033420
1806827993
1725629638
1463169523
1859837934
1887849524
1240259622
243016025
1042740974
1526602440
1454458871
1210947646
1177260977
76605821
510234938
516003794
1552606110
1673580515
1820453274
1511972808
1777116431
616552693
1876237703
1498843794
698531184
164635545
459034332
1878913395
242374459
1961872045
1824765524
13162795
1233815664
1031902572
1031630529
1378149772
684818686
969109467
1561020095
280450628
500252808
755214898
1901632280
784206593
1051514254
413532826
2082289831
1316278205
1990664787
1059681205
1784825662
683667560
1675897924
2105527869
1029847839
1753028166
204337651
2015893684
706531459
1039887137
581290154
1989982076
2132282440
2101085731
208356290
684088658
904349485
1824235484
711041589
2000995233
1345404891
27692658
710722720
1753098961
2114860277
561515040
1109306482
294035942
230098868
539343171
984514849
2064652163
1251894693
353928430
447881036
1471427015
1009581017
1213445208
177417822
1644752600
578400181
1682657835
1029226191
907087000
561439382
1208670182
1027502322
2058959170
1093516078
1215111910
1932665535
892537916
1136687167
1715908592
478225960
689882293
1343015561
2055413660
572391296
898945984
300365658
408355529
1762110322
809511853
923304512
1757867838
997944652
1423595548
434511960
165993180
1455039941
2021285497
2043588875
121946265
2034905229
1296524889
1371767289
1346997426
29281001
608184740
900208551
604721419
1177420260
1072180513
394314016
1102561472
1218324582
1942732776
1956196609
1198388599
1288951259
2045494388
747380918
146176604
403270630
406995013
709163536
1222156684
1262036297
1706079480
288655847
745414587
1422044048
919158649
1326561772
1622536309
1716860238
2013495518
1151292344
1715962473
807873785
2081312385
772786699
535243804
1520721573
168766193
230689714
1029498695
1406905965
1086358688
438459786
1431197135
102061747
813678551
298990863
4001263
1897573923
1601963395
1592412708
166342115
1742239366
1079434409
483735997
1434466592
1613017732
2091354622
1643302757
1543781354
1385235453
1374828569
545906972
1001338722
475173394
549709844
144727866
569431630
761821246
851716530
242379002
1895590255
155827035
632134435
392258911
1558260451
1082378471
1446916610
1364469120
1531890593
231898386
391138139
1587613610
608650892
693809192
1986888539
1253789893
689896837
818957851
1212962362
704386744
1380719918
863040423
885622850
1493226195
61229442
81532260
2064537161
104301692
1507299809
1911664018
733244748
173148715
1256172908
1325429282
534293336
309951813
1319796475
380408803
19769189
1094357814
1943724497
1964508087
1212088822
826542047
1208663468
586498344
724991243
791679055
1105289905
1615704378
278125639
229758143
1719742054
786725795
912821684
698348158
854423331
540996154
1606949237
158664362
1697235170
595295741
2134792718
2113880174
401815880
994055768
2117893453
1209531056
1058372601
1680424630
1854786505
157048587
1903926895
943885644
604322177
738201518
289310008
70367398
1773452769
2012404071
1225883383
249376511
1059026017
967995054
26093996
1148662499
1190626389
826353889
1610653277
1240892277
1377358186
1977275202
326428000
908429422
915502086
354450607
736539478
1234242190
1806236018
1922323080
1922329592
2126475389
821521306
1314816589
966160289
809075966
1472012816
1618224179
1543221084
1510852108
449600024
525938011
785156159
680999581
1249220218
399927753
1853155578
376492239
1862780960
756842338
1127660861
1335772215
1704279679
787281725
1248174496
1746111559
1607360394
1837256781
692904311
803459664
417539977
1360009760
163625261
260108297
2122085049
2094274095
2138825604
1519678903
2113801212
735142602
948596264
1880832018
459441600
1064217886
35837143
1250715425
1881266904
1716546348
376333991
1391799359
766760347
1407721192
1457648056
1578225607
1079984374
928096169
166180770
848128116
874963043
2050452606
1773906424
1404113035
113586201
1318520460
1299901867
199992566
516418927
878597025
1955047492
1455098585
821847807
1710950524
2139231173
1369439789
1920832759
85268927
1765268175
1206216672
248838498
1858942942
1560984764
1025784908
1992247443
1358450856
393181755
244113747
1027987632
1878071740
273025446
1528765480
1576917741
112763376
99357413
1595508864
1885231847
1228860612
453686177
1326028329
2034108342
1389138955
406883341
50663271
1017758582
816214564
99160721
1790322501
660929479
1126454367
962736186
1325600707
545573512
1569961183
475079975
1446647900
1354161474
1600093690
1669838024
332092320
769992165
1997918846
508205472
616089200
1594315561
1510269462
2111455862
1980112185
1427312706
2034745875
1883166024
1385229016
1125912028
524046425
678984938
970616471
1892995443
1719344460
1901395039
1231807125
935415420
629825107
793480020
782127629
1418479140
950331309
1088420477
649000793
319844317
84815760
2083397495
120136285
1019635910
663508770
1532922346
550413951
375942482
2042707456
15040186
189256139
582801478
2017172354
395132082
134474223
1301834713
356065702
829196562
785593167
323576086
707962591
738886509
2128838449
767312128
74143852
1192280630
988299698
1238074517
1994126627
101496407
660025463
1145764932
1844645596
618748011
1438803973
1870659915
935548099
1504320588
544807790
1725394302
223930072
1441803691
1438107990
2143968019
1745792599
1949496263
1372650150
1946332638
1339867413
1038409331
1809287394
1911579263
364432375
2031974894
544435286
1444980671
1463911466
878824144
1386877459
1757920709
923673201
1375990574
1250114230
403611366
1729815772
1673207248
1301504031
1221947329
2028705972
976532290
1167369336
2092677028
1629302177
1669322125
1700218659
895443117
977227637
1851008196
477275205
702775272
351209460
659868489
1849670270
351266276
155937215
680579535
1757821179
377124526
1207779957
2057419657
73733633
1573603807
388682922
837380870
622832987
223122367
2043714187
1636847058
1251501556
181883938
907546536
1896140966
870441102
877514794
157647789
1474108567
1483714094
963957113
385217543
2132548108
395283905
689745520
388890
100318655
1676948250
281746289
446332244
1802935636
2029687898
1664532929
1713706107
621202027
1400029381
856006944
727421189
1979185173
936722271
744437451
649935229
1779492456
65926201
419655354
861783857
692066036
1646628577
532110108
632257004
1899219157
817004940
1492694318
1680159088
1558003056
253394508
1074341206
1302695871
1090536473
143490515
2021806851
602416113
1209011850
969100654
1438891364
2046139198
515526029
488940986
179002268
354679971
1839305792
1479067705
1697252470
1091037793
199755220
2029037110
2053414771
1291054104
1229670367
189304481
758324332
1136574860
1706213454
1213818003
32388136
1823063180
1194400056
1685216519
1067249828
1180705583
1050283069
578045384
1874001132
1932040804
770537402
1552372611
1655750019
2004981761
720943896
501512068
2031497538
981589148
1135565333
966475425
221878429
1769338511
1490807296
2120038152
2075321955
911461295
384452002
1064820477
1831663737
1656564669
1806436689
1732647432
764253887
661285514
1930975058
662843652
159726753
1240859241
875029552
536958539
1555540271
421674572
705579714
2088875440
802043499
298970053
2100406556
374606261
2128935539
487396891
2053210964
382319103
2112073613
696960794
1173221713
1802535411
1903387656
1498993402
2069893770
356818642
2019685181
375040383
1639238119
2015528309
1784956083
511193241
387629588
1340154213
1044927879
2054530696
374651476
1419614829
986187794
1485671544
989927966
1608622867
172866568
1845860325
1898433958
275599130
589016880
1360506354
126839325
2056089897
1382491480
782755080
729455065
1728545261
437803048
1432391464
1737412790
2059668858
1979723972
1240288278
382027799
1568713165
108316244
1982735321
392643476
368211276
191211337
123447506
691444909
1440881981
202959254
892674553
1157863316
1491757784
2095186612
1987165476
1662058247
1151490797
759392161
349030825
281512100
689683364
1175188997
623704504
1700364714
1421824553
539042619
510307672
1477952014
649038312
1103557964
596722823
844687908
1727703568
1498858386
340883806
1374938587
1812304876
427146777
414368266
812562803
2025327012
1811693041
588626961
639800676
1192459240
98491980
1304534302
666252113
519921777
2139773978
123055687
1198487858
690360388
843267530
865586704
318596808
1645555153
1010451681
1010367160
2038122738
696554376
841393417
122217472
1015952929
1716701596
777454787
1731298849
178115352
393610317
441075191
1513343961
1061772937
1853401904
1090590010
1434335188
1784284618
942171553
1834566433
1645647996
613646490
1681961652
283370542
2146418890
1692661197
1828324903
751253720
363088713
2006198150
864448481
2002607543
695165985
1815668553
514115887
2120270872
974953345
1179046433
1687382823
1318548025
1288159165
2001294703
1774939558
1997409036
644202189
685636188
34434219
252944238
774869611
531954366
694736657
994526535
539504795
133700837
1996932256
120092800
85362280
1184421987
463557799
1169900324
1466727058
2049360355
833655720
217132445
1387525924
686767962
2104879624
1151858291
624622709
826770552
1999573592
724505499
433568434
1812059916
433690390
509934000
1371386986
271522538
1963972970
1771908332
1283254553
1248700002
1755881281
1302337783
1180960402
556162704
1021454762
1899344138
1671341101
708385663
2046939838
1707858202
814253261
1169773570
1987130399
1827247256
902750355
75240232
176280949
809500722
957921228
408433409
891314679
659165491
1091513479
656007648
1021339532
1921785284
364832196
407531059
2095684731
94645686
1013676221
2030918392
359640417
243012104
1477303141
1483979666
595432621
554583526
1708580725
164026541
1945991022
1280218719
2133767036
158014507
1510345850
1575457552
550137250
1411138784
1754696234
1067304366
1888525954
1466164231
1275731285
38384423
438692429
1028333623
1605101135
1467589526
471509979
879280781
1609859271
1810641354
1171431008
2022476413
1109004478
1244964035
811569243
1198049818
1169938703
637144883
715660566
398150299
1167219216
761411475
1666412375
1486256188
539817923
1062815970
286460827
831248073
1239820222
713509620
1946395116
865648030
894904138
1642357187
1224599843
634805302
1068776089
1627182860
701530050
403572201
848982469
1259727234
1534842755
678610702
888666148
629433711
900277892
1893810265
819456432
1722156314
481649223
1529269005
1140502957
1880004762
2043232675
720430745
1162080578
1805252193
848774968
1596320471
1093070074
1748218876
1551422254
596116927
190481233
2084938979
1153646094
1721991130
608021324
551429259
1783495409
1193887411
880114290
1774134522
709017863
1861665519
1231925985
866584594
745586462
422310964
1233443257
1531199397
159110208
1808847981
1187829090
207926651
929092537
2091582725
1802048493
974257060
2129120765
1275380498
850606325
1433093380
381510485
927343344
2121225295
1647191268
2131500625
1617007910
1467523008
352262139
1519310396
1177858698
1299170808
950195223
1211439136
1293832236
1897115670
746152109
714250982
1042996217
1359862906
1739323149
1483913230
1314390159
823868484
161393297
1678306923
244355598
1738185468
559339734
2086104232
941736409
1705610007
2057790042
1719968605
545954541
1780014440
1762896321
720953104
984008367
1067556613
897211776
1413278381
1783994383
719560564
79234857
62044693
316563687
1423343310
1117348721
711007126
796069320
175523021
1434026819
1647014597
1884424659
445939124
473936858
904821505
1177054090
1859576196
2034970096
488313050
2020960534
890012228
1915916204
159908996
1523586048
170033616
893459388
609482037
1880120891
404836387
583254412
953168306
1232889132
2092659141
1230433882
1385014177
859506503
370593368
428221571
1036304801
1181532086
2140767742
1848532175
1735494048
1147914774
413356151
1681141084
211583658
768905148
1664901791
1564392253
1047119666
1528257303
1625480652
1850241435
2057771029
1937003583
1337967789
1677099682
1991374347
2053293508
1252817481
1942499265
1018086440
1250207731
1385285741
575592837
1630138912
946304382
801729972
1539299335
1633431231
1047742403
1716204331
894507852
678076870
2122922921
663653332
1257345890
1276915267
351411360
1093253532
772694174
1201454382
727603658
2136439977
1597361115
1426558736
1909998065
1454131424
1435043556
76650163
514426850
1751385251
604878014
1380768593
1431637655
416370284
1578121521
1100866246
1474690401
2006404063
1894240824
1872503772
754261103
628555630
1116567375
464945208
1877309613
865674944
26640913
1477756745
1341739159
744333679
876879460
1766801332
1442858857
232349185
964199135
1463106151
1602216728
2051789301
394457233
1316727844
1498893944
1123350101
567508009
894226522
587163451
903139018
801611069
986829461
648548676
1056798762
1407223576
871334387
429118334
2051063278
1003767995
1167002151
53656380
1109539022
520795505
787199647
412977522
488043827
1647776929
2088680447
758261289
574333197
1541380703
104991597
1882348942
181027514
1858316220
1512254395
1785062264
632845917
2083639918
362748986
769695734
1191654607
25081254
933248679
1831748477
342696372
149785247
500648496
910435107
1025794471
1870366644
786973880
1488608625
985987238
1579092377
618956116
233653601
758427664
908821397
27967322
1288181811
1003848943
363542296
1894126413
1243215865
574332506
27243653
965028456
24523101
785632229
825893760
1654806533
1103152859
2114161525
1715229407
1442169942
464012720
611030938
869503291
336240084
929948045
1192623610
241060932
2089833694
41736524
1350090153
2074966726
1061215392
1416766162
89517350
1014156044
1073018491
508911431
883058832
1286380675
312443657
1843664920
431753229
570474255
839441771
166740473
1213750836
471268314
910376228
737348101
498400719
740582647
368124020
1578428998
984762590
1308126892
1737932269
1275856099
1990313422
100454111
642744310
1615972640
179371764
884548885
794854868
1448140692
1777985441
831220633
71380694
2102156796
1382140730
1130770211
1456647095
1054950414
512737985
931499930
60791255
388185960
1097053229
53217050
1612489906
192264143
393664303
244841459
688074788
1348608903
1666106528
2088966040
1727990668
902603593
1426852977
2057070385
1309158130
470279943
1853707156
1687045222
1843489223
594106817
1755314848
1145111817
5592384
2065602109
2008501259
2133553965
1005190809
723853876
1732456949
1235357162
1340396759
1885697063
121599250
1177948596
278366054
1091714616
1211400857
139806690
1628369087
1384973121
734181949
108765078
291309541
19985056
1534149827
1634176416
920050461
1166347526
1202287269
1122121042
1975488985
1903595474
619159886
2009880460
1241085776
1130146324
1967827458
1312885861
376835241
1940289691
147511418
700400273
557720423
1026837023
2122409997
745211828
604700380
2138909507
1435077408
1167563028
1065975651
2093071311
69466264
1793801004
1770017849
1571637601
1474691627
982375039
1546794336
249967948
299709253
1106473877
527771343
1009688477
1169192601
636699482
2048377278
534141878
2062009500
1845280569
1951237979
341781810
1805867379
1029395809
301677256
1364478753
2083222577
1385821513
232539126
2071342382
719428611
909598581
614078721
863739702
1077702336
385629746
1762570569
365501842
1922496435
1801717118
688586513
681540072
29133990
212441969
471495200
90359603
37369283
556320868
1809613255
481987907
681482872
1357213579
531447619
1282164301
1626437680
1747553962
326496264
418456008
1590403239
961218193
1671344049
1005064709
379093077
1070213973
507124447
1537548152
950676531
1008344318
329515149
658441509
1390999625
948168442
1324096836
1033639224
772249055
615868689
277208269
891249871
1329904128
1991051025
467018914
1287078138
1071860509
80945626
1113073180
1177414114
1470240669
372397665
1429354567
616404998
1201411230
1927251832
137608083
168347679
119153462
264416469
1465188858
783797983
201285589
1175546768
703742708
2065479240
1687746383
1609332493
1025152275
257843443
1488619041
548452472
1349251060
432797355
741342785
1353531202
655701843
756652244
1957565811
957282753
683101287
1600609824
831142628
1710437571
1274947789
1444124689
1940068080
1907483764
1995112536
24730956
1744998343
227587034
652766065
786194345
2145540276
1898962460
2095159730
1038288722
1021052875
1394724314
934644602
840947612
1479390360
171869652
964646076
139139801
270278137
2019807574
1783392018
703452926
1587239066
1685273551
620356573
291441020
948372820
1920913909
1494349441
722742215
886247199
1983228241
782382920
1080426464
524153135
1824600242
1059329180
990553015
36537857
6572187
1622164972
1470492219
528440516
290267978
248923596
1760629511
540383286
1546317145
781243448
471502660
1997100025
2016951582
1089503438
1109351783
168530892
193678325
305478973
2029941107
865974741
1033696789
288356014
717716865
187335625
488079938
1021655448
933625323
707302015
1595814771
2089409124
1126796623
1242527483
324968258
1074964661
70025474
604522885
559730659
1974479108
567922079
1799538690
545991406
850351999
393425504
251132748
1574904537
1683517949
1268297358
692282919
649309771
2005191093
2129804461
471579547
971671813
600088168
1899812722
1574182034
224213941
1762525265
450610586
1521409739
1724836941
1426962956
472854113
422238871
481293935
1330856746
185660945
2060730664
740576155
2041625193
301523243
58850161
786275084
608692198
1667826235
84447067
477774550
1792886647
1466133595
1703644869
674891537
1261050488
533344529
1924566468
1962513232
1644593864
1537909603
1413914737
1183170937
2137302172
1888806139
879583552
1215802205
1731580057
1950398827
481722336
2011857385
1601353347
400597844
1379456721
914107997
429891346
1906591792
737937764
170506626
407219812
806034619
1922804539
246971641
1727671893
902322429
1347480785
578624072
1437393051
1410938026
883676041
1634811048
1712740604
1418619843
1332016736
245964713
1010786207
1114245681
1775289634
492429454
691690282
1725071419
1855805000
532780541
1363657693
842792686
1537457531
2070032492
2092866540
1485380716
699787577
1595941511
1429337114
881049628
1785858505
418763122
644641785
443504249
1950646091
235719770
888859994
412437980
1893814241
1093520793
1511978478
1070389909
43918783
9994932
1461881398
1830749000
2033571167
91495517
941995791
818410749
916352195
69838512
681528374
1442225950
1891289162
1712925207
1240045152
969644119
1825616304
574263909
1851007530
255347330
634160766
1801150550
290686301
1618962160
108750231
801775850
2139632006
372744819
2097473026
794865135
1601523471
114407917
755848529
972961375
769695231
281198230
1779006809
2040663684
1190420786
76786122
1802302077
7882822
1063014575
725039557
1484515951
742986540
515281764
2561498
1504287310
1306256641
2127675826
1172912677
1368136759
1677683169
693170029
1857989795
932109926
520567914
124698299
1784445121
1252825343
1253074404
364411173
1152381969
1922682000
696100577
263861126
550455808
703121343
1035765626
766834339
2119651566
869283434
1904488111
412611220
1586996569
744306493
136250398
647346213
1242435354
838466038
1081087671
80640972
1708272916
2068964905
285560381
682123174
1001548203
616319292
1806131929
1032766872
249771783
1551273003
2136513972
1106356649
306287367
1427567230
2094227596
679347325
340382701
163635222
1924757283
413676742
939768931
1740875722
1808084566
1405186796
423942048
1567416677
309146791
1374767544
1170873894
502745048
982270799
1552685497
1137303925
513744787
1388154197
1096786656
1908342820
1761944843
1681848430
883857291
1649304382
1529414222
1900682583
364131753
1917305055
1298419203
787812195
195619262
904047195
1525616985
1221324225
1465972920
2105073220
831968715
292829983
1069429461
421455660
1500593243
1019936093
760065327
765197680
1433606939
2098112326
1535804537
1549940046
1375019892
499500948
2086577820
860353087
1313804512
2083750209
1150985659
1340318545
1255300826
105565414
373133839
1569376249
76383919
909213545
1602608172
336935711
744539798
1367612285
1273249613
547735804
1326280543
145451269
235516773
1759054252
1342749473
1807013382
1483302865
1675331262
1761290972
121544348
195544356
1409820381
334851296
1562950846
948926364
2127553014
511953975
1373348230
1296400700
399228373
1609114795
269857955
596988982
1861882398
753558344
1381014765
676197705
289936590
666077980
1911509086
2043225535
1839771209
1920943081
293989515
634754542
941200761
399110392
816600828
492641963
790082633
720981516
1961665860
104858857
388224016
948016928
1954434339
1241400037
857248118
347157938
1419713868
434625262
926062706
1953232656
377158870
531443972
801909167
2067712770
2058580970
860384808
334292297
240454085
1958214756
895019392
1055842424
1140343398
1010833804
388602710
1402601614
862163134
609761326
666605301
372678735
953383957
2089965449
1867353373
439909193
1977310542
1644919051
955864582
860021464
1848200383
186046624
1679852577
1885813136
486644026
1098902847
897646028
60733589
1071301945
1819553919
569024463
1453357782
1453526556
1011200022
1924065110
827642300
39352807
1062691894
771990731
1028055372
1992060370
1621381591
1538373005
1553302721
604752915
225603979
277399154
973372043
298097267
14835793
556867049
720296001
463614084
2032981951
1997827620
1929103182
1578692080
1669262880
1077325749
882280765
532314290
1485184771
351798108
1481294657
1762362063
350034693
886611045
2017858548
1148459407
1839882444
628601706
1684008325
1276345122
450993204
1294368724
505986034
996177124
230215535
344472169
1000427501
782190986
1795310403
819472265
1918604272
307634187
641482416
1921952216
602245051
17365174
591890376
1379818417
528450938
1839606956
836086598
2007118294
1816055074
2100065066
650120681
485860882
1373460858
1513320633
1285079861
2060445791
2107112328
421514262
1575366402
1457199825
194756585
1944833487
949644627
1642107387
1822661042
948798990
2071429621
1203970133
310859716
1025735234
1127305659
773875823
94167294
154197101
1178493445
1550989046
2146219920
592595033
459825597
1789453446
1784333901
385092215
139294817
425181502
453276755
1303571977
1243832232
1621918945
2067071360
1144034164
1680687814
1368050599
1181821602
1917079048
477456175
373593637
1664816596
1922140914
1887149158
914937144
1766819362
229424800
1890153687
1010891533
1077762340
1226300488
444417344
1966511771
1549289862
2055164621
1987898928
1333392559
2133327078
599823273
1881238254
883083999
60053168
73605409
319564396
1378085346
623908211
1498227844
301412226
1795880802
1562556051
865897606
955316564
564473944
1582473831
598586175
764752611
497169188
1838194981
762874919
622013494
225301212
1235588693
395139972
15931781
1067053004
306415039
639234868
279649560
1934711615
469425928
931166699
120919408
82624647
1651839660
2668795
150353786
1172478134
1364553096
1330967188
258567522
493560668
1732328831
1457733780
1025343454
22112629
1169178032
1678015027
498599302
1821001649
323373753
1326555617
852368345
860520668
764894929
617143553
394520295
1920260017
39245342
727380142
1912855094
1515794740
118684418
1775388766
1526646829
987610923
700308066
1081902200
1485159112
21705305
996433856
1830785170
44995689
1175778430
1100265926
98779483
1704228547
454453905
1242891712
167279320
895808606
14565309
1336624438
522641202
1850411030
1136703041
1977063572
1871316016
53007805
2139751250
1552008398
1525101135
1261515239
717860829
196804305
1394911769
1871835932
1355809757
2060779542
1133212397
796920028
194410433
2100257417
1318891912
1779850414
1558982612
1782334820
2120451456
2056813143
945782016
626866396
927756369
348782470
1702717482
1029272177
1437287103
1949029593
1545618491
843991464
1513657315
1511009719
1520846801
203095037
1777319738
60182607
940126288
1248376975
701917743
1908352640
1508895621
1519383998
659985300
317429124
1089686137
649857988
166996188
372612727
1265547996
2093882014
994518209
1848985227
559286730
2057319646
105067969
1239566136
833171102
1617548483
1727392793
258180726
1144986559
556177525
1610903392
767383336
1623235195
1140868520
726777441
1735360879
768355257
685577851
2136372165
154407550
1901851589
89345369
1792218445
1429206300
94808926
1986204039
1957030267
1141264833
1674877515
1316459371
1034769890
442480575
1476499999
1448114197
1455408775
848694135
136650701
177507947
1424103949
1062617309
832130591
1995360991
1778751972
891869801
1595543605
716606475
1756788564
1978806671
1530215203
1648633460
490983980
1251706637
1229240647
1664268613
1326073706
741727099
422296430
821054009
145360501
1460113138
2016408463
706554346
1980854357
521521584
1936185092
1314627733
996490611
2128260209
911665408
1599136034
535768066
1576618076
712051781
1186481971
1146893897
383803223
979230266
646568257
1538478296
1332538527
502601685
928323320
42840191
1237152889
1510799726
470879123
1480169719
1736908000
156482578
432188323
1771090699
861769172
294456192
746223713
1298852545
1618909404
447515064
1112173666
112645559
1389537878
1936086878
2012557202
1482727670
1710424291
149858203
171414346
860915705
1395043879
901863833
1236096926
1189728769
1130847945
1835702953
1047672267
9656718
1268705989
829002072
1270888027
1861392658
1181658513
1164316222
183258133
161628770
938583690
1192380336
1078081767
1313692847
621437220
540121894
996194775
2016930405
149792017
1063081978
668400475
1331566609
1488645816
507547894
1239700898
678621663
1309912848
1512306564
1583042758
791126615
2126664783
96648478
1405677892
2017736882
413276730
1635876345
1445022668
557512399
1847107996
1363161871
760373677
1862215551
1485984135
891301075
977159566
1846050057
1402109688
1018631335
1824360190
160167645
336092423
1648883690
1617618640
1746096209
1153021381
1975212459
1696158719
398194446
2041866770
2100251934
318058320
881232004
1507309894
857249789
695326606
926931206
1856393918
269343858
1531215344
61636982
2142383364
410373075
1355629197
415233451
1477650062
342974524
359635068
1976050423
1366912524
1786453821
1400566216
1536595434
25997863
190080073
895792184
147859720
1802050177
939111087
2050258159
1823226564
539690829
1752633240
1176730926
193752070
1184536994
1016423574
2005964439
1962272163
321389714
628746811
1267277538
848635928
1317643252
1634769275
1682465999
68509664
577560090
1899669199
1328434119
196363654
13290201
1616512006
1993226382
1134265065
462529715
267577983
14108021
740860250
125042896
771517752
1857469970
527204445
1305399034
546902994
1928717414
374035375
1589060036
1871739901
1282669706
1875257812
90226645
469959655
465412335
1930885539
909015733
1620081975
232939148
1365784916
1188909038
38463005
1665767838
1544617018
1583042905
753806375
1210562915
2019465468
721114276
1257633616
659856563
303355952
852913395
1682602604
392451576
1777183365
1531717907
1281183524
1023618917
495019720
296918458
1253005107
2092300204
706777214
1348940949
1859692291
423597588
1950885252
277955863
1800108083
1661789692
158954790
302478412
539697874
1747442711
1650359725
1072225664
1907368174
592638563
1598280436
1503330883
464656407
2081283108
286330017
1828553411
1846602617
6586965
487111809
398761436
1003869842
478758884
699985020
1930131828
1225101203
861640199
1202005214
2102342405
691826854
1578872910
810744488
1277409145
1263381346
1085067542
42083918
1209230198
1547600462
1256623427
1383670083
842689477
1041664817
1855357356
2037337179
877596091
85850530
1156793824
121478710
1088915115
1212346701
1432463791
362731978
317642072
259972966
713898100
2087209935
676938076
1295310345
569705940
172233197
625584985
362945985
1697497614
1838540879
569943549
832133137
1127880219
1699971128
2127451509
937576841
729433966
565796383
2000689190
179713085
1523852620
1894072334
1294137059
1827826078
1590967303
1803488163
188996785
1555684670
1772704233
1371096329
121018306
2136915600
217787088
689048572
2003607863
747445206
1354601718
1868407521
600092012
214928319
1044430166
1606647137
1810105472
1235672954
1591724800
1383519661
399155821
2072894949
1489945735
806603595
607329999
1415709955
1135131550
1168771386
2104450589
2060080293
25116892
2124280924
1620248835
626335800
1615601971
631857545
1675414869
1109780821
46557494
1315230709
1953457515
1512849933
247181787
1826767627
1753967021
1694283591
1647227930
1761765709
446359426
1820639854
396109364
659397145
1518322283
770884699
1827069676
288956405
1605753788
1464534779
797721192
451027740
1207567191
390252567
602011219
476518239
323399604
1863994223
1950211503
287879828
1998028248
340718779
269049321
1868262163
1342470681
840853968
31517279
1316126056
1776693276
15973834
654366899
2064481041
1272152812
1945608792
1499495826
1664180319
778718608
723296752
150769762
1974874926
1072941852
1780507361
1878120465
603072664
1528153844
186315032
2694777
751522706
1507955922
1028984834
1618308498
880335616
942789039
1597937094
1243976446
1818015819
1164438342
1685965914
1462365343
847183074
918188253
2133908595
1410301194
408134055
6630087
765083663
1882277725
747887580
1965816850
1536244686
832631666
873724982
1220643074
2033148417
1634187946
832492805
851618014
1045699772
937466809
889169992
353868949
1287077719
1745671890
1703124540
833360119
6529501
1138995788
475775689
680453392
9618055
314476270
661163265
682277830
151154762
1445073759
1964502137
1919439729
1845329136
541464989
1981734751
78358032
191919963
1255948783
1912050181
163369426
562261423
1270302801
1596785523
1523435776
391231508
403926989
144520360
904776454
913885715
2120302491
1694162697
190555051
811011566
429098602
100118965
340243361
536069557
1156950
1755322516
909558153
1101592176
328150502
949062215
190222569
1137203712
1579788905
1137991265
1094009765
1637112141
877516297
1833053135
1550614855
1812336315
1644494603
1602334444
1357998091
2046382120
2104212789
448870399
1138377823
863486372
254995985
863543510
881529361
167505703
489421098
949734462
945406775
832925433
1107385374
1002875603
1692094923
1433865235
1616674483
1577831047
2049611600
1255667827
651808831
271477708
1469705453
1991313179
88877565
1697718488
1113625552
681504378
1659927808
1782706850
116712922
1725076088
1481819643
1865224415
48516323
2136495912
1724205163
111085228
773456941
832535209
577442987
1168079189
1202036646
1698330451
49730300
1842179832
1530027237
686911037
308205526
906370102
1770011300
526358847
2011660467
1363098305
391109100
208979367
1761925077
595453927
1666327910
1767101902
1488224408
1223887334
80527942
975653854
1360063480
728121089
969164901
1537530797
973001902
1580749755
1956463163
471401874
1794507593
1499873347
105182575
905164780
1158044264
1880469488
320008931
669973008
895101807
122949232
1437888342
1896390069
1737937465
500244121
1821532921
1688730160
446470549
629020785
725840438
493399579
2034689933
68833156
716873157
186870120
200126886
1205231914
402897725
854442078
1317615896
961997557
176075833
1978270975
846794486
1954531373
2007666769
367012352
1376739458
361814251
733037591
884518063
1596033975
1346195531
50678094
907183809
1560214251
1921419786
2055340060
944581081
21973375
1698916690
144692807
1283424350
645443644
811417289
325924966
720697446
223328503
1626027684
1008552279
1542035034
1123105665
1802850185
572351079
710807079
1523032509
1153947658
750935221
956098218
1272738641
1876981040
1539219503
925475621
599206571
664645890
330431671
2121463251
1747603673
385487016
1430538572
1321269671
1821368785
1119597042
1247530486
1907914136
236320957
1537307348
371225178
1139549651
1037878295
674668182
1503442681
2090143377
1992737377
295052462
1743615176
178968075
939279854
512120587
840001165
5580545
1547911418
1282813895
59340754
1271864060
694966911
1040523201
1041948048
1727376308
976636422
585000241
1545860853
886714101
1881701473
215017801
504689970
1993463603
1778777836
439133864
1757236109
412827384
244954421
1972279270
2134829093
223541864
314364860
660876687
1821914041
353382848
2090378636
361712736
500554281
86131756
88381332
1370739645
1595759265
319320248
1560382814
2128063388
585195563
744262073
1030978788
589191964
867229961
336178820
1616532355
713631343
775030811
1330122292
1617633651
868529511
1643766873
1660334301
1024101968
2016231878
2098323721
2081180356
818517400
1012026666
790365970
1542985400
1168476849
912449340
1042744176
1139521336
288122181
1007373400
1482881329
539435482
1170625838
1366131598
1124604042
1585418471
1300602692
1593632034
1608515513
695893440
1845346646
1680253082
1610801877
863347611
63102459
1892653665
1534688394
1400178817
928149907
131128197
1788134905
1867518215
608587292
1220249254
1189902098
219584945
1188224899
1598903934
1729449633
1739004250
582072367
991863920
2034246483
143575921
2042193014
2050160320
370326254
862773857
260278147
1026889425
2116774677
1563541953
1654800320
1279766234
836796829
2075345028
1929761478
125006009
871134347
808383292
542351637
366724136
1289214664
695434789
1645175666
587398436
772942810
411693042
379039305
965155178
1623869434
886580111
1695989372
1860175727
2109196636
315959944
833129725
466121879
1076239177
2055782253
1779903397
1226449667
531782450
2033106877
2091804997
1225181221
961347680
460828276
432520733
683045723
1898990738
335494661
1942978365
1047821009
1553761236
196207437
144989143
347337671
726330720
2012901034
441590041
1381281569
1973984075
347123509
1548273205
78757986
101317414
98704485
2102444282
1478659050
1747463674
799901950
496869814
1471634666
1129916505
9100443
1803548627
1025147906
1091804006
1014486533
274169290
765394240
40871008
1302517283
1250332090
2040897189
1819624724
961327508
138927408
262262224
1546232858
364546752
308773332
1411825355
543954192
1076933942
1426079106
1954953852
1758718236
403676687
394138245
296348644
769656524
776716323
2085036019
1290811319
1877559941
647601521
1804322158
1358272840
124301021
2043068588
467603517
1683196432
574766172
1591265446
1045982965
1820192420
1860551340
1521187340
1797238182
50859547
1597396931
1407637950
1180973765
1606029213
1514774827
189157047
1960882868
1577058433
623895353
2118765749
1512813563
1281057700
1075173893
76154432
1110899804
10503791
1848728060
1711843214
41798726
1541857085
470398603
989173587
1317245817
2100999276
1489826950
461521574
1852040436
1513114142
478331057
8121860
1028961168
1353340908
504246488
864424050
1360778802
87525494
151997369
1340978380
1788400528
93437468
1960139162
456058187
1386477364
786948757
313719832
1717902451
228830509
1136344099
589631163
939507685
1532569239
1832471773
1583173392
791913290
1199916420
404436940
501337378
1757581609
589746658
892579833
974267242
651288164
355661048
1643409014
931362632
464061416
214498792
1565798547
222576917
2035368156
1040346729
1906195945
2117655632
1311720761
1973440098
601126747
887218334
1087366040
1995884671
91024443
167592130
1799408610
1117261422
1968437577
462631976
1752059319
325027015
1899753234
455075377
471802267
312358911
1348681626
2125131491
1481063556
994678744
1561998557
163418917
1082829214
523074648
1114713882
1883819292
787049412
1078096254
664300400
648813475
1655531854
1936280531
446321017
1194204155
1825791198
1223492756
406407577
1314384016
457691245
1112268250
249174982
1287930423
376512369
736677674
780391835
236158938
2057273563
1147550009
807286746
433407780
1897666939
1921704564
2050469354
1549339843
716183117
632437592
700173093
846617578
530370248
468249253
153309588
75360174
522055360
737583454
1757855700
295985737
45001117
1488336678
387737428
106438116
1198191275
1581059869
1741359959
1964143872
1644544454
410174123
1285162532
1247148587
1475173382
366614447
2070411292
1504342155
39233059
1617705666
2020670782
713526329
1577615178
25642323
474835987
960461280
1826628327
85002293
1362238360
1897541754
1948750598
1125065046
1260073346
972195752
1291258523
2115327710
1789556911
214309181
167409615
1879784496
1252146953
533260577
1746140676
770317760
738573347
1538119029
1433698422
1580479889
218627898
1895091995
1424176113
352724788
856843673
221239634
554514885
1136903184
1347131530
1565512472
903233860
159455266
824710255
992609833
1271083734
1416150443
112014819
428310590
1538777424
729839997
1848627391
2066690674
1868612815
592256841
1199001156
2122046071
1421982988
1861664330
1045320358
1211019708
1099094808
850269469
615115935
1565517475
213136338
859065742
1454393911
1158536340
1675737778
965083675
1644689435
413938529
1114645310
13273306
234399586
2025036029
2019281793
1204324554
705068058
867393555
932359839
641783100
886104792
1141236170
1833066244
296784516
2099113922
656975088
512952335
203137695
1394296021
1918455551
375945443
1252022314
939360041
1833458651
1809987349
951415845
910634541
1691524593
1198757726
403925307
757092746
1423083351
1317855629
476702764
1564958612
2033858804
1139702283
1159902346
1850004219
1271356260
887034852
1586675749
1856651705
1824636724
2040392557
2132447294
38140689
1918223636
1636436012
64415884
89402788
456887680
429361014
60997940
1675007549
1719399006
902557326
1716224262
1079751858
457459093
1150977223
1224246178
1168018502
1490672308
1964619185
401007737
579332095
1474188801
522877875
1220186912
943335862
456508975
1724568066
1741009032
1844486323
1744798486
1105997568
902246933
1855678231
2033374897
1514604133
1656868499
1212205155
76574102
449074052
95171100
2102210699
1270451861
842410936
1205566078
337289454
492706723
1933072384
1445526433
286830376
1469208992
993130644
150227852
203295708
763199701
1888562583
1463981759
965513131
665982160
846842432
274480225
1276170980
262210908
37752640
40481417
65424080
867735062
19426344
598782590
346615845
853544678
1392855678
120761598
1121807798
1126249570
1349246786
1552778837
913888752
812681275
1901659770
1981782844
2144395665
497373284
993993585
1334840310
813545018
1657956587
60165304
1375490458
836121549
961600296
36044230
439097848
785369959
1055735338
2087096598
1347185581
1999297937
919133986
1164624462
802361994
905224217
1335865833
1676867893
827020292
763858057
474220635
1784552136
1592584935
1733514961
1413550916
1783801078
939412597
1708485247
1605708561
1880674082
639841146
1800073809
580181698
398374464
1792570766
1338336553
1890045281
406818183
310255422
761961828
212878760
252107138
1701894017
1506375265
307146361
1749594658
2127793416
927724323
726775471
1992821998
600467822
1643113555
1984187910
667160364
755502701
378488508
220882242
1038444735
1336809839
1948299578
679310792
539276634
1369567288
1517939500
1805242994
264431485
949409019
842830608
2095955910
42777301
1244545600
1438022639
626742300
1824665084
1051693130
580816013
1331568546
2015036581
1459085247
1891050667
1604689208
2072072916
425938770
1098845225
99969537
20647324
1351644872
2033838263
1312572941
1197188845
33500260
1371094166
1727192200
1752608415
1907069063
2070866922
1123243038
1085046106
1793483227
158485617
1914349147
759817911
1842059657
1363196493
1160036708
1934881590
198725694
1461892837
240414509
1803068166
759228727
876515230
295175625
134068166
734562226
461474572
2080104495
1667663648
653969975
1051238405
56335868
1151980688
818466718
1423029203
476261289
1743828056
1890222708
1746821108
101749656
1626830052
512044590
1477525687
1057461540
373920302
1035492044
711904122
1378354633
582069939
1272049932
1418374385
1157101818
1549178494
629843756
453685041
1402122350
1461602630
936096947
2118658080
183325878
1913654514
698273525
1704521690
996308204
1569621759
118058235
1541987888
714428253
174251928
334779403
875352569
1558045049
397536149
1365273727
1415069329
1133428842
538205847
1716116565
832455296
377862466
875234637
146435419
954680689
479738167
1663567855
850147305
1921261200
663518570
1743139915
1635621020
675791531
225479632
1799835700
1440180958
827357965
1916793652
1253208885
1158057623
1189716666
1105810265
1940613521
736736128
1779363143
1273277799
731651624
1991536251
1765422462
111901777
84479174
2011730979
38064821
444830805
1367981095
872865504
1816491940
1882049555
301875377
1452792237
1232312502
556362911
1016776184
944641346
423188942
1281190242
713171421
891462717
1052574947
2065195205
482897459
745332380
273352810
1870160899
181840735
1679191822
673807619
1718323181
1380477463
724346512
1467888743
211434709
1786543668
2133858474
672157465
514617011
1815197858
581140490
1238260417
1786408364
262711717
41609849
488765669
668638834
971205461
2066492723
1127877747
1692201408
1270641470
88187168
966029444
174401001
598568264
208676674
103823019
1261751697
624893443
860976309
1576103017
546709748
523979809
151234222
1994353335
1291359752
333034445
1024401338
1678158534
904937605
876675002
689154766
1759978946
1143536149
1389677651
383641690
645413424
1493062309
636072326
2091254322
1542134246
1317619975
1855477056
5810135
829735201
1611975342
1971881349
1844138664
596145253
1175059427
1370315448
1809633917
688637558
1099253940
319513038
472064275
388835117
1222982724
901893804
2129100658
296089862
2143560238
800044652
1469176159
105984019
569208176
2100187497
63205776
1193244586
167766470
1199130058
654890650
1301405992
26063742
427686236
1158618710
251926998
296417060
367717401
1602251497
154085588
402422609
1131944620
1803925130
1382921822
1970728756
1249994732
1984161731
23779614
1092617142
1764495381
380513852
738487492
37899196
1903174148
1445963209
222949488
312796134
1451164265
147670056
379645112
1786242012
622851363
545328223
1211621780
1019647191
1018933341
1588562601
688962941
1952478091
1022359052
1639488009
386652899
1313470456
1571043032
1808035632
1803323164
2145789070
1303919559
1661857027
418385812
204070973
1048959245
1930117574
1928354141
608834824
1888397239
1626720827
1084948025
762681776
1741604922
357711438
260437005
1179377833
1682812072
255468931
1925888521
1809936744
1436937078
1833407267
2041646982
658712578
1046288531
1931749965
624046609
2039037400
1577363567
1910270549
187540452
229316895
2134694509
1010320123
478706123
207939085
1892854453
1467609273
806367620
1201665692
2136067163
1677992150
67768431
1341057698
914598884
1216896540
1551370518
1741594786
1215592891
2105459856
1010575778
763161976
834092016
1841823200
1935905522
1029053610
281143483
1014662596
1560409435
2076850447
677021866
1593587289
723949556
656088250
724459806
1571363717
127133400
1177831768
952903230
879268029
469928180
51218508
1650079026
934388671
1155071564
2083083040
528602836
295682490
1163970244
434111456
1378388266
1574480727
1285689287
2034814176
1370509993
572829893
1982786241
129071461
1956125571
1555707562
843516824
1991636423
829755516
542998786
618466851
1109958536
912133305
966117633
321275346
370957829
1073876111
525899833
1669206578
2088862302
130197368
2091674847
59096822
1457942365
1380684230
1877190458
1015670881
1242368655
2118133848
791722998
374762360
1713763353
1823998234
427078227
1690425981
2141357732
996378215
1430841058
2086239275
1504616482
173119767
2137331924
1320604128
1954755055
1836006046
211991919
1462216146
115513478
872038182
1795071251
1282515149
1664072863
1581254673
404338352
2090494276
1169226523
1814120026
1390046381
196954383
1253037224
619955244
1089403050
118971316
273049314
326842375
1477584985
1502823635
1355525240
785522238
370368683
792555060
267355257
188455854
297986997
959041064
1169654751
1945593809
839093016
192165387
1202556125
2035334867
1600279996
2065967048
162607061
1279351926
1337318206
1910322339
754766526
857832782
442863727
560260045
890217046
2029906407
387613608
1495736235
525158841
1934428361
532306165
2080517395
54817494
400291891
699240001
885205200
1319964308
518828360
1234306991
198970912
558851396
1402876230
396026839
1761363346
1109716744
2128063721
301897727
1465170484
539227006
1192216943
99898443
326137901
1313272411
1902698461
920760386
2108347331
1803604953
649807534
1853464318
74192541
1819205727
960930940
1470999154
1970648666
1169785324
1709394334
24279471
1705448184
53791392
766284566
628661025
46382325
1760675497
725439636
1377475085
719602575
1351717747
817318504
1575049782
291146499
239812609
166630468
371178597
150121205
1177908762
1882339091
1766230744
1067013151
998566145
323659649
1622256794
1334886293
1217433435
359095317
349151968
108864476
1468834303
1976854312
1638157594
582071288
1628267761
678500912
13104154
189212069
646100960
2113973840
1361289120
799326001
335375825
193853561
2076947061
1195699665
1840213394
1832591894
1350159760
446587928
716675578
318139482
591855035
1379581960
535462464
1001191869
677850810
19118494
1651038822
1572118743
1103554686
1005574239
318028526
2034615921
1837912673
232239860
269920648
872300479
60588176
22852468
1581476164
579222551
862324447
975857516
1783861920
1334851629
978441934
1241208144
599651382
1569519643
375087572
2053790359
1227209271
311199860
124847966
968462954
585981872
870664744
90032007
817349577
1285514728
1364853736
1729970467
1141725085
387831102
2107112519
1402663961
1666832120
2057929864
1946557609
855494322
212529508
15870624
1375607476
985727467
1391856515
75511258
1403562701
1442520384
39671003
468282359
1926609700
374633297
757687734
73487084
1481225378
156091835
8414884
1616273754
1176028726
1083717968
939769238
602732020
2076784203
325030713
1671250983
306780302
320192027
428325917
1927612170
1001914891
1984490095
553553105
497584820
2112515195
1464502102
1617093326
1228708501
479243196
2023231841
1902246998
1986174797
566856982
662777998
676076607
329940130
1391788098
2032220688
763459316
1146746810
664504143
833534675
1350067707
1141024168
1429958283
937036104
1665000624
185557370
736939376
336846981
141644926
951208550
753749546
1035272675
1021085908
180111952
1967439535
1579147054
149494715
1409754036
1272145931
1008028946
760482244
1849362445
1530605459
798309777
1235261111
332969544
1563721279
1355055589
1777039652
1670455511
1040183734
175150349
484396941
101948317
63296502
1391095286
699095989
194744973
248798131
202463540
956139390
380028996
349025560
1837554771
1126215907
1297947545
167170410
1646567249
1484799656
1397937632
16252786
1810718438
1626471410
963543605
1652575147
1876027144
960969951
1641761286
995928367
1019417948
633752237
1242619120
1085530331
933880401
1665996903
85581334
255347214
1342076244
939409000
1818352253
322980777
1054293236
1064910642
762562469
1960223461
342430430
1304367938
1597114729
1408464073
1041327332
654573033
825294996
372188559
2032363530
1909434575
335356099
6289814
349262416
871139516
1765117685
1404271896
2007670060
1506249075
1585727344
653571215
323506059
989921926
245157017
969938247
1256214660
1175450346
1602903150
151405951
1335410966
2012775853
1438035878
2006885318
395599486
70704648
926039854
1917491447
1523641618
337587095
1659310768
122334915
1796254118
1276380807
729749241
105279785
1244120184
1343493242
1441201129
1487410680
338092757
1346368420
259431220
1680665917
687581677
957968393
1206380014
1853594035
2067812560
2052915045
1466260379
565252373
135477865
1920369970
957941632
2130011077
1039112310
1806851890
1724188631
1028214289
2124420328
996915602
168729428
1205702483
1921287409
2056858439
1145354176
1214581458
293839512
2050529835
1032529988
1727180810
404868969
87779138
7549792
705964744
357949085
884204325
1596639632
653941583
1473570616
304417252
998980331
2057344678
1068375651
2130020303
191919688
1375973178
1529854415
1462174953
1457639042
412730419
1009637783
143833673
901073334
962321155
484735706
1594641702
2121692818
936525445
969765294
283898937
1752812339
1135912854
937651186
648078000
1462078315
1255091556
82508435
722271769
1553544825
1912405562
1501209829
696965294
1039957464
1193926259
1654325787
1503590300
1675543326
1802203596
452451275
2004180321
623910522
1701006225
29055009
728522686
1132260563
1094370886
659303558
168673879
993322546
480879713
1984419589
553065560
988199849
983070845
825352593
877822967
679034380
990893418
1399925522
1134592660
327879587
423970489
1582578411
599019980
1346488081
448204915
418749054
1994612396
905041157
1734850588
1811494745
193533646
556245653
342512691
1211878862
740293604
1622897657
2131797265
1907186508
860946653
565754366
1881928854
363829190
1098525930
1040314602
468827905
1181841768
1078823141
96077452
875897540
1256242486
1950962454
865880164
1741035733
753564297
854227803
948689419
1390900434
233028817
1872389978
1791210296
300723699
185804251
813235991
1764763168
1479568953
1651808170
524550482
731573788
582282100
300935177
1371315927
1148372222
1457456953
1499175173
269246467
1226277374
1524447040
1506057357
1321881622
699645960
1986737541
43261443
1164013996
2043481053
264468630
390878425
12155737
1188272599
565146585
1454726716
220388198
437945591
348626842
779296773
1369900190
666997874
1997818317
1813852901
2046689711
1949928055
1650470332
118608897
1401574016
1714158120
984470645
1818025930
1289490390
1253025253
1264631147
673961032
1448892237
1171416499
717966834
1583864534
904003704
27366638
821201483
1043258050
1980798985
704252263
930649425
2047120287
1971496274
1669894410
1170143521
1354022770
954217788
1887696990
1030862616
1493122177
102936411
499750963
281812930
205996104
1986458084
1596288248
84440175
2057212241
382645837
833532955
9129329
614844820
1611807947
1866601096
1702611973
769302677
1065566562
910312172
2123993591
1947024827
593639354
1692945455
222396861
383095399
2005323543
1737244387
347227810
469875961
1048362808
1030716641
264349212
605450663
1985338432
531727956
1397986839
203058710
1066562360
574115913
2030313263
1745220282
1201728935
1987388286
1251279745
1934575018
1200996049
739181019
1204826116
1798126691
2061276916
1671140614
95417297
1078513292
1220796457
1672455417
1321074933
733392817
1994621616
1622152589
431633523
1966207433
427815070
200043905
481961757
514895745
438991545
648799247
2014479497
864796285
335539296
1643509623
763047120
663906590
1879470112
1140820772
1426004975
75706776
457947987
541429401
1114184214
444767106
1669628659
1736321587
318649296
38338234
2114860996
816412444
1685519114
2111856761
2018773618
1554693178
1128828512
652957466
1337472954
435369249
795765264
1603138336
843226313
1441226860
1812332381
624013933
1886753776
1439159636
657266098
847083886
1942624188
1090953836
1689514657
1341822578
477376611
1527919565
2002012681
1224723200
1009821618
46055837
960362056
882597631
2063402113
1234650520
501905519
542456266
1304088663
360643017
608714989
750912974
1172251236
1126981344
560906032
1375754700
1685025970
673630891
1361853053
1280895833
1101840263
521108782
316567969
526043449
1173216896
2032091172
908526530
804035941
1598700656
1138855151
1009557597
736884765
316000051
1247165026
2000289576
1343463590
2135895202
348304262
2074845457
453112083
1648451262
1788589440
1648187355
509097813
1874419470
2115016212
1827182265
1695293549
1339118659
1893798352
883198507
1344547341
1550968192
1313251859
528021753
1496849689
1154146000
1708809139
2071260062
1546555313
186916172
662721784
1010441486
1607495598
1690813331
948016053
2112762589
1324061906
1525069351
1981645883
427998482
836590350
645422953
2046555784
1130692478
981353604
540457913
2030609850
1590067347
1518838866
1089973785
2103526656
1691312797
648826885
365206587
136255287
2016117688
1992120974
909202069
400886787
2055431694
89380427
982724913
1698391744
982638647
1201184532
1658429206
1575087272
380081414
1340288166
367576926
73505424
948778152
1275620654
477600940
1497818126
1557496786
307406530
2039621239
1468889280
1758473467
909861522
100733888
1441174391
1735284701
1210080812
2063047006
1252183991
1586104854
827098806
1669895179
2656382
1260474203
265157197
2072245820
1006616039
1949706735
196219726
1434287011
849118304
690244132
1499494721
954050053
1580268016
1767739345
2062433382
66977977
1861207314
1620988220
1415706384
2104601940
256383622
332033054
1291974676
1656436734
516181046
264510968
31815049
701543248
1381228212
1689101313
2082588277
1441733944
1491740623
891724728
1863099648
1868434049
930772282
573987414
959216025
551852962
125483501
1639159392
1016048597
886093997
523617614
1444640418
560201232
647075202
1800798397
199750520
935784040
1023835779
1697756728
295120367
1944592970
616754256
427941487
884246827
1773590380
1219026951
525104940
1196722666
997416709
844793931
787177870
781483778
547200869
186920023
1027131378
466547105
14261984
1763664132
386534542
2002116015
411243890
1802536264
1967275980
748925314
986253028
1134527859
1642405435
890509024
122316342
690808913
179541667
1867874998
1330429479
1470374714
1174067514
115641734
1892017389
512505335
442428542
1744966576
462534027
901222210
176802949
2041912733
1196217030
2006202774
969412879
411668507
376270979
1446858231
918297437
299672611
2102601485
1462677953
1433455768
682109010
1109838953
479992393
37012610
2044561329
1283675971
42752174
1523001177
1736546971
1107347656
419032759
595520441
114966312
383393544
1264184013
1513468306
1730066815
134696788
1359613078
954146837
1664867210
1715750934
289878140
1842727898
308082020
798882708
2020410522
671524162
1342869049
792621595
1398801586
1363406536
1037034323
961602470
555925104
1898494714
225980867
452385540
1773624750
924185366
1410647447
2087149436
210665724
301065461
454873707
1030825734
535057679
141777304
1578636200
1119408445
1703737878
887173938
543503604
1009526896
147926840
1531941751
1204617752
591621399
1276921601
159615403
1840471943
164210505
73163731
197544289
1641482882
1342505370
991296503
1108404381
649142644
2067278411
256615866
85566780
1084584951
731234077
1887120403
1391178808
1179949850
450805267
370207399
1725077457
964745742
453312609
550662660
813825289
1293338096
1045085442
585200601
1384325847
1577760263
678957607
1578628954
1745930126
165411990
48207908
1604244862
1319804876
1991173675
722140000
985627866
264852579
235832026
1980276370
68288135
1262225595
478623105
1215513828
1363698229
718825628
2104167787
1298973970
1761100207
1950760711
858842354
1155842606
2028187252
1037014197
167725702
866414310
409099411
524178745
588525962
901273610
262936482
1878031897
215640404
1307653543
1407549327
1064031465
1419632213
1263847001
1659898688
903488948
1273995774
1064808598
689854101
1844906154
216709859
114912826
1577956687
572010764
497728928
242957635
1292243063
840516299
1818569808
1342905188
1214318985
403976566
985046836
1880868722
379152214
1441736111
1876210852
183239
2059651669
1038675039
779471346
521507055
290564182
879553518
1952414472
354318173
354390368
697803665
1991043830
33749422
1072675768
217362553
1593693123
1689507796
1553061835
1713331403
48193489
94390213
1209609462
151959020
668977275
1057304954
178388318
217459248
1675476909
798060427
1598501476
1086566248
709140340
435690119
1980322107
1348759925
470180505
237624086
1904719331
706283540
960783491
1997423510
495786339
1933718789
548923897
1236677405
445668423
3091190
436957318
1495285496
1030396842
1251367682
1031129060
1002972623
698584386
1317129140
604500326
1046104399
936715274
93845046
691980339
285487198
147291134
1825189260
1737060923
855314813
956698215
412191927
1049990999
435250524
2144284310
1476619296
1532125944
827621444
526306656
1193697607
1723550464
256587159
1807058513
1964032886
832282927
596541644
1344074491
1786362615
1755048514
777336933
583681972
1770379019
352976723
2074855484
1092630472
800599163
1810691350
833680098
1580278275
1460730677
773180610
1984994709
541230151
729996524
553512011
1261805713
556972078
1711766432
1902403185
1019978372
549582736
1052561306
498784914
1665792642
920627170
731112683
1469289967
987798112
389869511
1765419883
543218432
37748923
2122682929
403065701
1056401997
483734294
750785187
1188136007
140812843
1748156588
1601577681
969315189
1472819087
171953168
291919041
323953025
1980433854
2011569709
1553996039
1097382280
457858811
1377320801
923468244
835339998
557024372
958962475
1618628418
1399003827
1851104987
1552591129
1015923826
1406958530
399822340
1463230426
2042675930
1407630256
803654247
1460416306
1378397931
2101007548
883641303
530760308
1636015188
2035913027
336673438
791792157
2136490547
1076967805
1050257283
641240844
1124611909
301123833
1273597143
281611319
1389721214
796896799
1094407388
1382764663
1576807051
150540198
450964460
1001580999
622969626
572103473
1328093145
985618168
997871591
1478679284
437508067
637567411
908404343
88544510
2121240081
1387807102
1315032240
832090167
168242661
2127684807
241053307
430449639
263697944
264815759
2004818141
1327066387
861679611
1182195110
740556642
395971802
1352759262
1237611368
101124002
1925222198
1995623838
1347533246
628776335
1467914386
1775250479
995329801
1826869126
1173257367
1308584674
586944417
116896649
979721213
1764304107
652781234
89395759
1657981726
445802934
1261275431
1480399778
798425072
2026124634
1152954289
1465639946
1964542156
1225896115
1441048910
1317037843
1401063928
1393441190
1043627360
8901868
2117370921
1663316872
1179751901
1437083190
1150067466
614309722
461681002
1904342983
1775604582
1418689406
2080562761
947499100
1782636761
741928117
663190417
1526262473
1056365801
1116155453
500450421
1348021308
191171781
160385405
1859150231
1113120493
1511268238
1978570510
1042252817
1159436132
795765892
1260586618
506070898
1456906338
1023408586
2030841450
212802423
90885913
1742277094
1810244985
622458656
1061986031
551301804
690954663
183702175
1077647069
1038154490
285794681
551971101
963245232
380895537
482794320
1459078059
1205182949
555592074
2021275270
882772815
45313938
590894144
1584171823
1100915512
1726847667
1400839157
681208352
312593048
601266265
1646140242
492744175
77137834
1347496503
1865235537
295670418
472947024
1456388810
1570672038
334402989
212136367
1906639144
1120477533
1898716982
460666914
1616637443
1721332404
73396567
1821103123
297066282
1620071774
1754751190
1016462897
1431051321
1507420726
1287279919
761486257
1121295065
1558322936
1449660688
172400661
1679166107
1593455532
839697006
1351628698
1373186535
1487325481
595647205
1381759253
1531339189
1299248980
597897134
2013978832
2048174477
337177313
1417601606
1994510920
1161737413
70683860
1454248014
1231446703
1190684151
1718660900
1338657879
1345497875
298224372
546554952
987487545
1075389112
733602282
384900328
1759037263
1687257336
1710122374
546287148
1751424000
1132963895
2039472211
869752794
1629622931
1506121572
1254410658
494920376
1208444880
1968268523
2097179168
598478593
793151144
624443476
324880205
1799015026
1434056806
1281326259
717281364
1299609142
2095553843
521446235
1923711450
141288944
2093624155
825593163
1688722033
1414651136
1806858447
1021937264
1503934262
1820988867
858884782
1879340741
2133950286
48549706
1377594792
1481446834
1447971051
1609556783
198891010
1962877781
1343569168
591029466
1079085176
100838242
1274921915
714458827
689539530
1735479082
778958979
528320991
1037375381
572692442
2105468662
99512823
177432542
1477988518
1827933758
1746290261
1347695092
1438902685
25636272
1583683015
1490812594
1463672948
1992907074
1000933026
2083143757
2057843941
1509578124
285060014
1862415037
1729421572
1465334818
225960778
253199338
1634295000
109144009
1905737022
42976405
1591224152
364816549
1722149086
631873388
514415091
183746705
105917374
1786436245
1932214785
1817847672
1054629832
2077630123
600048502
34739996
76314936
629770273
943538779
80863280
1758598412
960953988
126015027
1964213700
1008602979
1621579198
304972614
21078526
1328849288
165229841
55754133
1350865414
1024395381
1571604652
674394672
988867313
