5700 1584640628
1926052155
1232853674
1861760191
613283386
991489006
251811453
1058861111
401494193
1965656895
2027638088
1376444838
494676784
1027397424
2130581915
844408367
1795303850
768556203
312408761
1110937503
1092485473
1499019092
178130748
1659291731
276616955
1136687113
1988318893
771670171
611132359
1663948414
1772141797
1927405896
1156523474
353962198
169028407
1088391598
2123158706
1568351190
226206452
572936870
1583505453
859366332
1332305967
1252170594
1960851138
234208211
1401815853
1628069219
1508873122
1587588805
1341440910
796346628
960664853
355200906
1234545056
1947216283
498653785
1392527598
1606275470
962761013
1189194339
1792888305
417707185
288214520
1271177748
1408717398
1571716256
1132471674
708438536
1061431954
1289706709
2133285134
574289230
185054261
895218983
1469411998
1622460219
1641096754
1227668564
1601886213
92586506
1731864816
114454993
1987487892
2087255329
1842919107
1681758231
1801346958
1892492015
1324663832
2028140328
1673380438
1484576617
498249551
981870265
206574367
694462055
344160779
1517494279
1834192389
1252686247
1154205751
1862261000
1488465226
830904123
1037215959
1464788361
1196078392
1583753096
287909529
762061373
488441896
385893407
1339793245
620521149
881640424
1176931583
1423828182
1658404709
979969197
1513768950
1849894208
739356804
1423520250
1330578921
938646178
1089011648
1103311555
1243861457
1068106753
1384941199
278292938
1161553530
1396630735
1079610580
1450711517
1367338258
657427908
732703321
989122910
1341178601
1421143293
2001744380
2121727992
1377093796
61220310
1909269297
585355672
2062071725
1839133214
937829576
702501615
1245511753
1157220560
1321666297
1800986153
814264579
1800327226
192367965
1512099590
559604613
1212716127
390873461
594050742
380875727
2059372678
1060310321
1898809432
397262299
187518735
1036770480
917591379
1493247115
933808504
1450117251
1363013997
1980309289
1723592931
1632979095
1855530835
219484226
1199863420
1463545187
363259002
971907940
581970672
2097030007
1557914968
2107274234
1627795409
96222299
1296149031
445037212
1364061985
1548353962
669823733
1214219420
1082448798
1119686504
1055261509
1661137137
74709225
420754837
1370025732
1544812395
701901891
1645273898
1618357976
1054357180
207639687
125540341
819805076
36260327
941369856
1831624297
1224536926
878880814
279373708
340807471
1981580616
1096092039
1543813601
1719998945
106800715
711480889
1943664769
981702781
879299768
87366641
150676968
1110599789
1595290806
1962839339
308590447
1410961018
103771356
395708127
835429787
1750081301
680733188
105979449
219661520
723317315
118727715
400242685
1429792054
899898616
2056632735
2144052683
1877457649
1326773087
2064653394
1024019799
2063830650
251745095
673957226
2413941
626898117
1400698564
459715058
1324506409
568578026
1006112146
112846466
717994491
1194972838
1002332201
568573087
1661222308
1056236918
1564031315
731346328
87491790
2093471230
2032949490
1257445279
154717480
252878821
1934028302
1757188513
1721127796
929399076
2139199738
654780575
900217395
447278473
165836167
1895967149
1449490252
1035683799
341847539
869394637
1396525909
1819631982
1019024369
745800519
1449246262
371639003
508773356
1439689915
202090272
465222642
1776996074
1697956646
878787008
14105590
1473441009
1789225873
1942494402
1785098818
110573273
359921055
546048055
1377580618
1791617316
1288521720
1625484071
1470642044
712781250
1056314702
1685560097
493221345
421359353
1092229013
1623460217
662405840
110801003
1420727508
933495092
1098385414
917959367
1720265519
1403612825
2141395250
464887055
1592517951
1306209371
105761540
1502605120
1625790086
1554471479
1519817864
621706366
580222791
1542601502
489748112
1145023770
382286074
1917492131
820112441
1273252165
872147546
1869398039
1937908504
797641476
2068956229
2086460065
1500969982
1479817320
2109392187
360843746
1756582501
930498074
2085602824
189456073
1097928014
859603197
1680657867
1845783368
401897319
1347993928
1294577292
1437390890
1003118298
809575443
1307699430
1722450789
101842441
1215483373
1729943888
1215342220
1233365974
806532349
2047290087
2067432706
604328842
2055566127
927896861
371597882
1522382137
1406607589
737205966
1998028683
917990928
1978414756
321858461
1374511909
692373650
328497086
1450610420
1420862986
1416975591
12116989
732883359
1116146207
1829652738
754823870
225512689
2001901612
1217833181
2018596023
1472538485
973506346
1260926650
2130804202
657094957
467315031
1305881423
890190011
784945145
1587962665
2140845701
110821121
365972380
2093754663
802965271
895606260
186509749
1899923139
1656462080
1365548628
561470158
1179102119
75208715
1962014820
766352889
1037861580
175369106
1517079989
1261561087
375672988
1293906722
1950837378
1522155815
50190453
1744268455
1707921765
1102550816
1718291431
1894542995
359730307
1753078591
1005338753
1651386425
260147224
1881118081
1500769805
538110350
305034433
1478340317
1522267281
252703916
1644573166
1328317323
216361780
1356043392
1880866797
829374895
510391774
1194458693
1764833781
1101695878
659923888
649459986
2002737329
2047829258
1369986436
2093370894
1439890565
1683973921
38644740
879821204
1348059081
1078672616
1588493733
1305301564
1721143527
1510762294
1802425644
688226752
215438437
1381714137
1154709443
2000250328
1789169606
1006795612
427422639
411745984
21240673
1517316842
472659440
1740921239
1384635569
2009610911
297314433
825030291
1918994482
940765404
1943525846
1396112105
1674865772
38923050
1514711269
1289611312
1006519265
257137462
2003565959
1185062058
1141903066
1766558283
1976108504
1882676163
892335626
642688486
1745025958
1577885297
794637569
1794429999
1156150427
1729080041
915344426
1233178588
359413312
1544287607
1332198131
1561283674
173774469
1329612805
1190429244
258892508
603873292
64533368
1192472135
1264469346
1839612258
35538599
322546086
1948007472
193708903
911052766
661526229
1446570251
2035992272
1831134111
1970926262
1692062785
1543015223
1918594779
576700095
2041462852
824982663
173149428
1884730202
1961051749
1945307681
2037311978
1872886275
96156367
2087240843
1219815798
582807475
323377423
1984824221
2017974190
2020962053
806533096
1096078537
1437491498
1487741526
984450573
1786573365
885183401
2124078643
1207406020
770211733
1466148271
2105869155
862847480
347230566
1628751598
319678957
883462583
1248770848
1222818077
1414222302
544064730
840950964
1425567539
1359077106
115253310
310815174
1215887102
2055051789
794464672
1708719982
223209385
1906342890
98346195
1896276543
1220254705
1507852025
1689452215
1121373484
1923887241
1829419499
1083286139
457357095
885149113
1305411996
471956797
2141100478
124040933
2098959299
1263319716
1748074273
940811077
1620265204
1974034773
661741
1031331201
1986842293
1921201817
1610079610
2059644038
624388654
136702699
28421833
1426162623
203276819
1260949059
1616054480
1111784128
1382002893
1369132172
1467529086
1133022805
853286711
689467655
1382421640
124299267
1654908424
2111419371
1086050075
1154772737
2007939430
605211945
241776666
840425427
518724016
1005736436
144775677
1436921061
1057115838
1942607917
700126876
1261790900
390687098
2063491794
973769923
2028366828
7884439
193074846
198444990
356033026
786417916
112735637
1420440603
1204548958
871867140
2110022674
1184587532
469213398
2134755893
476460137
263748765
1835679558
1149204504
1352792977
1319023788
1814274781
2009425248
815262932
1456241418
1312388474
2101085125
185237244
1336618026
1123524924
1032896703
1043666807
1297495188
1007517781
90001028
1672740715
2051587579
647550406
1884944472
392077259
1161487923
922717549
523238096
437585222
1184333256
2007581700
417654516
1352772796
890457425
1539938264
2130185411
569415597
1225712677
747389023
627764451
2130487357
1519120136
1075048260
772649815
1777616184
1436489147
115144741
2022226237
557205278
1432838463
489996572
247205704
635972417
1303653007
865532457
791547969
755405190
664965389
1239523095
895613770
619773689
362510263
1718664703
1645188464
1485957918
658181237
592644319
1800721572
1550062537
1305138634
552086704
1192923582
1488329208
236407163
643429029
1342521930
1873634543
210364907
1971398660
929741853
1823035293
1955655096
417812057
753270207
499620944
1954376928
934679360
1044513265
795554036
589371288
1149604391
815045088
482745136
613708820
689593035
1971474144
1200086395
1202627915
1648640596
1707363519
200344089
500676799
1412365227
338252928
766310493
989756677
2023061394
1516942843
1156790356
1536876594
1701383349
860770916
1653649260
583390569
194865183
195995375
1956279421
2056242183
1927955796
1847713397
212517877
1558084876
544468712
1259924425
61424699
1799076368
1131120223
560966768
373264924
1075651253
869799067
1904677529
2017137822
1280236486
1155097013
790779559
71113059
1598659897
1691719223
1415590711
406468983
693981071
52601412
1246307678
1584006240
448344955
870084257
294369316
896005574
2054852360
263771231
1881134756
560378045
1829430422
1456102773
1722426825
729187330
1630974084
1782762774
1385719605
1392523028
2139467764
1114009470
1745871521
951393631
1065201270
453063381
417782134
1901425529
848878807
701400762
201457478
2043544163
1691922178
1332020497
2056191494
357436656
1727939247
1414980105
515178139
1897300640
781274389
1767384175
1500789737
1088650599
1946063171
1247520220
1401789772
569443544
389471979
297261784
527128628
1908152985
1465358387
2038719314
1210292886
1757482691
1376108456
2122408680
1137589676
815275147
1262784303
284795150
1837530978
1475431819
783324682
1026584818
2106705306
1980802751
254303873
1980523116
1816422225
42704150
571186490
1909438940
1180532592
1562955848
1331291704
1372565595
934463315
1021513909
1880747046
456883189
1931835523
1009822339
949110361
1478762570
620312386
2077227735
335330913
219547278
1187382404
1551518374
1669146476
146103689
2052995256
452850859
574929778
1877885474
52528439
694210706
1693123039
1248440308
190185309
1925965618
35995281
941111451
490746422
1327591244
1864722068
1640203473
366164229
1178472916
2047451023
599235686
1492246939
1644590448
283461056
1656026723
895079916
830608251
739015211
1887195526
812764993
1180980239
1047214251
1583698982
1616105482
1636102698
1053881980
428930294
210527702
837330921
1899612200
761834145
69727179
2098930443
255725655
238773468
1908868429
1052459195
1257354583
1458129807
1955768170
1211798054
1738268682
1907312759
1728695342
686893338
1204830617
893605327
46183308
700885776
1486021073
345151506
2051759899
1859235541
760182258
412237102
816581312
1550737430
1888304675
2025071955
1740550304
745368386
23620662
1202737857
356159979
857486020
771363221
1333011121
134400510
721898089
1995937231
1613253847
631171023
2037922845
686994653
56536090
1238667656
1020236679
1539507382
899206800
947596677
419181440
281150607
2105036357
465736926
493941051
883077750
1896476800
927321626
1259960420
969779663
1992068929
1247989501
804223142
1414187325
1354025031
309348061
1089542304
409035145
1179547202
2005561651
307868359
1496836916
146600090
751824684
1226692970
618415357
1020990327
1862773490
533439313
524122717
1700532457
315146409
470826840
1170215278
1034815565
1029534180
423874843
1362485575
1862231701
1908023028
394040680
2082631753
1710755624
218188208
1305103933
1733614198
1893157775
1680711592
1364915899
788545334
851936220
1855654964
980008901
2124134467
1649983177
1195889368
184112317
301127605
909306584
1355198791
981100068
368029116
1412492538
1845168710
748650553
1137137586
204831290
198711077
12526811
1565660549
556447575
645669484
306524484
1635248356
1606263057
102812183
836012552
1673181897
1132870759
645482849
299503370
1778846113
1886228279
355978269
410113972
269754508
1329749994
311609223
1134540691
1874646044
697155115
1623416293
201067125
1910098413
836260564
1972750237
890620013
860243523
2058451025
725927396
1105912387
366510713
2011765449
469310919
1324869098
1698073308
1116561661
90577177
1652550211
730899842
2036144927
1746669897
1456325568
1785348179
1015020760
273285637
1498382455
1740269272
1819646959
1405559491
344796293
533512531
21772724
324897235
2048646708
812390921
5264006
1936643449
1154353696
973040772
1267070572
1244389192
847388644
1063418645
1063053662
1874359858
537947553
2103635214
1345358602
1857298457
553209108
116061647
440698857
163636326
1603573508
721584611
470765729
616636173
161701972
1173352044
465787646
1587894657
1212480900
518080073
103295367
180563457
1097879441
1470564647
1710496837
1053700407
1681020808
1009351031
1744308469
1420551264
1209209755
1801548396
965581545
226209981
857842325
1673381582
1809415042
1967908853
1766371483
1895704231
1737638607
1024774165
984361736
1370263019
1646079722
2058531955
1576090996
645806719
770811192
481820940
2121372891
1577396837
760510890
1645241338
91942077
1396384391
530317389
1267595213
148628145
1032797243
1984816120
1201239627
1881084806
1564408792
1485293474
1180594779
1291157163
2128867110
2017701521
1995217375
309408434
88003418
1579756492
602341647
1238450629
543769408
1438407552
8024884
448789962
901180936
752591507
880004639
2013559930
1001346239
110966396
409953378
13132702
1906905420
314404496
1496999527
699596206
1655677922
267311988
597644841
138057214
259836510
410855341
133595228
632101922
1802394914
1439940637
1995669330
244388296
209827551
1486439249
256427184
1713356167
108896564
2016459494
1843014758
481929115
1704184873
1167170388
1347917389
55991912
484625499
1250397125
473467046
1427145317
23175237
2139813669
1110563420
1930369720
299745190
394486703
6186256
1982673076
1490333965
2045023043
863223766
1692448086
621946909
12020815
964428000
1258400790
706456664
1363126569
1588430849
607297600
1368573574
1796165901
1729745236
13328634
584497198
1383659440
101469830
138872091
642693195
141673971
1980910065
2069247854
233159423
1393838713
1791283347
450284469
878755491
789909670
1066247253
1611766306
827892497
463078010
348141038
1035969523
1338017533
1325764478
2122295278
813137742
687976184
1147575730
2131417212
943983673
2127950542
1985888738
1076327143
1816489983
707376385
90980250
1569000392
878533184
359555040
1957908755
336675128
1409781894
1021733954
426129498
1347806770
1419756317
395571174
1311676043
1612330160
74819701
395490202
1962839345
2040530869
724591208
549900531
1323181415
1559633339
1126312435
1760090540
845512942
167273121
2051883898
739804414
783602166
1605845641
1962621684
2101274107
836442967
2015298401
1189570656
967387676
1455208742
886581162
1461566524
1264902002
262844670
947509361
1708053175
1845936819
2012989824
1900500912
846877064
363140486
806906825
1758558817
1274055365
1743682848
1149913732
1039477541
1657563621
1801873396
1103155983
80737284
170305583
686816285
995845371
1113821449
694372315
2012253685
921326299
1472301670
2098878869
225615374
389524071
1924650617
1681721398
718430099
1447609476
1541202
1505225969
1889322497
292134323
634285615
1643359115
1718230135
598931050
2032988952
1588909861
949822124
1218198265
2010167678
721165700
17806466
21640247
1070430650
329759830
668333912
1013677916
499961801
951532710
90247254
160681579
1174279656
506623943
1869243161
1848045799
1859077786
852812500
1043355554
1124377384
176678670
1438524323
531474714
1464215349
117373274
1804135621
982792974
1837016350
1220867765
1581851064
854882520
101667512
154849740
1930576582
379206393
1245734004
1429143766
851911229
256390643
1357890796
599363536
991158231
1964699640
1590072870
1529887518
663956773
2071740385
822507730
472617305
1648351796
925913833
1394580721
1354112439
225683773
606419674
1952487989
1205770835
1624533833
500040846
741412854
335948460
1034970238
1827821157
409472477
1952685347
1852504023
570136069
1114588112
1213511236
2008718334
1793627843
1023670829
1698071083
429463329
1882247222
1971769891
631090949
417792987
67116060
1089162833
719843242
702782533
324271238
1031283220
272590166
1455017885
1352886918
933841544
944312907
75734321
2077895748
1503981318
1826051064
1145354657
2073080535
164890790
974742749
1820162741
797540582
2119160476
1155590003
186059658
2090670386
804586223
1438021650
378136858
241005585
17681027
1888896763
1614784029
718929520
413375843
323861201
693172122
957161359
615105175
445848414
1575028970
1117538174
1783737542
1477460594
1651972248
1169392934
1157241509
297359283
165108575
468034826
1900674844
1961398750
956049824
253351637
1126707410
2111308136
1911583540
1840241702
710992773
1848795792
1970043756
186891980
854189973
731117524
1714806212
446303835
2060890702
1089760224
1482938827
886941480
1764568706
1142078583
2043209591
595067006
1173116082
169618367
132289425
917307998
750095092
1692875505
315663283
2084791335
816434558
339455326
469009102
555913959
1764466349
750817584
1912206613
535764761
72794104
1883853534
1126831255
451851085
1696510219
1901778624
973706576
1604096700
1076164869
1575066638
392384834
376938106
460863062
1932649992
536878388
162718915
177010365
1737158452
1533862985
965850880
2028033996
58073866
206572756
626542473
1390178229
930832509
2045715489
1138348091
1570405468
818103270
363189055
516767919
326556745
1231059456
1043274386
1613853923
1682231109
790173999
1572984467
1630139050
1162345967
1034486890
1596034110
1843212438
236833218
1335252297
2028239962
2046649272
887645854
852545108
357564652
1841616450
355252638
2088064225
676081868
55494145
166986259
690910300
336579572
1616234960
1155680720
1305143000
1346727885
813744250
1897045236
365111589
1586172793
8865466
1504316048
1804014572
843893698
2056697198
2033347801
1754037782
287037562
1753262208
133036340
288876321
331544307
140250133
1416927436
1792551416
1467547550
1281471301
1795950659
672019913
431147489
250443496
1296810164
2048512489
1748326490
397204192
1019062069
195323673
1110002930
119815497
1615627683
1136841111
2115020102
1507036071
1433488073
772226094
60800816
878936617
187699726
1184629274
1738187869
241463710
370537633
1870698731
989306642
424119567
25731362
2116125490
1705514572
1834729756
2077801498
514083535
814264837
381096283
396887952
1012957885
823773022
269844138
1045714133
891212182
482413746
299267667
1412971203
1456931891
544577133
1466025751
2024970253
96872228
886512305
492642274
956684725
1792387494
97615343
523966160
2118126682
812418946
1745725193
1120712174
1937552388
501447545
2106628986
1822331587
452029664
1341470959
369746825
671771705
1163285262
1587785592
108148499
1644580924
542847619
1999328153
649818433
1843022549
368738435
1253929507
1534250237
1728420844
1067129512
819628496
206989477
1136424440
1024577506
2118495732
671028093
260522840
1353953361
1470754899
1474257114
1303147987
919217566
824890258
1324942553
1865276341
1205457757
976799072
684292189
407011049
307052287
656580985
487515585
626395789
959725739
536689237
1613126860
2008463835
183057114
379186340
1592020693
238734736
1804409520
1667578222
535319270
1313245954
1550524606
1260808191
1938633464
633061951
443904180
1975070778
1052130962
1450957744
53176753
1744465074
333113518
1212509914
677037810
1094767971
2027006649
769024113
944539556
1322959299
653996427
509315316
554606413
2116678313
1183764842
2086068862
447442390
1343644881
485048882
524631788
222298160
783362875
1625203690
896304848
352458823
1744851214
1731250802
928743112
929496451
386712681
476762766
247731912
834409661
1852524572
1216544056
1048133414
581058644
630812170
1673778343
1769555944
754780477
1017616806
1402837090
185452149
335973984
1607010793
958460212
170525634
895040950
1854073787
302247280
240186153
786453323
139686883
1211254144
476819451
1807753931
46793222
1795811398
102335495
1147610885
1395214863
814010026
505574961
1394137743
1070368456
61937796
1893031958
392386373
464041081
1358459037
1866108059
1097659
1617089078
1876408485
270786087
1950707319
831794513
2093481506
1648590089
2040262278
771076744
758756946
1720847734
506444856
1900759300
581124603
1248685526
1520946292
1275606102
12827236
1022950664
829545827
2076540498
240846130
594045197
1702858604
432237046
1857564834
1543373961
1005995044
47115667
228530231
262514039
1499645789
772027517
640045088
1177881394
1814150971
1040656820
1615747773
159042908
2060313734
309004882
1479746377
1600442587
1453654808
1025638281
2094580579
1135036270
1593098523
32358601
330600174
225260820
1941975248
1810513446
1362323489
1438350997
720316306
258691751
1570659276
2135916451
343432952
1015447221
1222542819
1893869969
387406906
952215918
1589722455
1725475014
809443614
209710155
8227013
2039190446
656057339
182805593
526113329
292397195
193728478
2030767254
796988406
41608175
658230555
461086903
1761465393
1819907843
1474842902
1997702869
1885538755
1169515935
524793625
1014350367
121425965
570311864
233578440
595848434
804557740
1473499210
196860485
1848588955
1069252158
432419333
1638814718
1616806504
742271595
1916112730
1302253697
881676693
2046992741
1270415238
1378216663
1929643357
191995298
1352010379
1636490359
329313576
799807511
1876012603
1945996940
2018211207
862854149
1048833411
241857020
407525741
1566565293
943122081
945364701
584441175
710294479
289042570
1550237160
1902055585
1294151856
1643463148
269301781
1478826209
1756889593
1784455024
1149775536
1037140792
846814927
148607271
1808317408
1626644148
633793205
1074963031
696843074
1415241564
819398854
1257842089
967858518
22300476
1177022787
1191773574
1247390800
1764153788
82250936
1748900023
552342569
1829049627
902797376
2060583300
2128061219
369194250
690066230
717067215
1537658271
748158222
359788917
556319458
792044128
1770441295
1848973517
68294760
805292933
667856409
1141155118
1150726720
378951118
1104466007
532771977
1818478739
678314374
700340513
1825766286
1123728504
22600316
1463755789
1843716365
798010873
1276565527
1395947864
1654907750
745708147
1469531658
2072301765
1947927501
1962345102
932394081
266181661
812776173
1327896842
1683435511
839391247
1441658188
1851881601
380338622
1118709916
1748342613
1819566517
1777088548
1703426331
167332194
982876676
528611152
2114791515
1480641734
872628652
873238619
534591896
197072700
671324563
1336959585
1010896674
1873639189
1093693989
2014806743
1211477251
1288634466
605653382
1272425730
748585675
979189913
2003099934
1947073345
206994860
1572813407
1136047211
1646356094
1241064212
2097916674
969537458
1555893869
962376452
1735890327
1900174630
1345538746
248926736
435296110
450946080
1268417066
1753299828
760120546
1826877108
219466645
1004665812
108907932
1081860135
2094224797
73315059
1886922595
1801274291
2005309274
1160076929
983041171
1486453195
1309427889
1262038037
759647854
1074196350
1766597101
444584692
570419877
463592306
240411824
315094804
1254131430
510559529
1340550111
534876985
943107421
2022052623
1338606618
838953643
1962877108
538370125
189090677
1237877819
394100932
658594628
191814214
359181205
2062300875
1524263983
1927246719
1920924802
1667606758
2117886645
129334276
576550044
667400056
1953459334
30112859
480021806
393379925
118657999
305587976
770563706
822307793
1066288390
1245686547
2001258786
1649246395
1866030468
1025608232
1806313615
1894776952
255443374
1896364622
415239566
1443646267
285833950
1893158260
1492811784
1186729130
212426281
292479397
60443062
1443409882
1906981544
1111366095
1232521245
340073330
2085981950
169106853
726910691
1254798832
811517991
507666909
1489003094
1916449351
2124810260
1396439086
1285025997
1149543334
62223069
2064361604
643692064
1393777200
2025981399
520687695
231611656
1419839138
18412994
1600326359
1612265832
1834198871
1912771789
607035864
2087211808
115522414
188989634
818660863
1063172091
1705459870
1384569256
328257062
460592494
43447772
1679114119
1489879270
1042258858
1363929192
258627875
1498964871
1475159965
2086226046
2118721993
1911690105
1739945102
1229882442
1897742314
1777886563
1465014194
1089056124
1267770215
1290899096
1246232849
1729766572
1079946037
2074448974
888948297
1100254710
1670239346
1049969804
758445366
584650008
1180233755
750777834
1656106370
715966990
3203390
1187582065
1358545835
740801685
744481689
934173998
18393643
748142873
1811372481
1096818369
488596726
1973023964
1741759270
1957425633
606503604
1072388534
512588477
1896576281
1084760006
1267843823
2123783322
168278327
413888507
1293814089
1683059839
1426225608
1769951477
1860732696
281646320
1263934756
1591534764
1078516897
221819933
1507687632
1466643306
1273625732
872116833
1746171220
784127521
830177183
1066871258
371343074
788572268
102842820
1285259948
708742615
2059305792
1780630855
726176505
1661106751
286850796
829939763
839025587
626405486
86850937
805187499
2042347595
1103915435
457817202
824628371
161393593
1448913914
1020604412
1580136430
2002771802
512578009
366896180
1425643175
1707208920
1430150105
896411713
1959728753
317964544
543557578
869548041
1835213135
1418875239
1479553345
810049087
1738656418
1865884428
1477540406
1767384988
786758326
731651098
1769945706
1237007286
340992812
1669199560
1025325194
2101758092
1565014991
2089170754
1347562025
2144740405
1758070222
1738910238
173276096
439086850
1462278413
1063807467
1289543935
1725120015
1644967794
132935300
702164356
1129008399
978414003
1598268071
1753609357
2144090411
741630921
489325132
24932656
841040590
2037166195
1964785854
981350173
1177622516
1274684928
636319544
263203446
1089283754
1535386320
506878747
558514240
679540430
1514934437
1022720919
1774585541
649759986
2111058353
2046036180
297661741
1086641190
2054927549
1234477445
1271825538
1768755319
275845373
2077600147
1005195137
1095522500
1400613584
644884431
179338038
172890591
641580942
1578904754
1719379592
707567468
1957665391
455327879
1492231011
295479226
280301505
562911680
17675863
2080439500
785269366
625400535
1857101539
1033836359
1610919671
651827369
233613357
1013827633
156598405
760473899
1163133086
968289139
1073360183
237418776
600562312
1088758370
487610846
1676782217
929289337
1643550086
172099162
691354416
1743595799
1412284159
1009713733
605975099
1964976022
934886628
108570826
1823577848
20608085
1798024020
1886446906
1455255287
1580994634
1270646510
1888321190
1830814856
617687589
1030428373
2011213038
1946547326
1901901304
37510948
2113402007
334316680
2088750479
904731446
144853759
1599390206
565565720
898678643
977175211
1495328570
1203076738
1354138640
1146290115
2044676839
57105185
1540192121
860861452
1848743253
929268347
429954967
1669030726
1758002982
1594279707
1944319275
237842228
1719359382
626051906
552328600
1100180490
723161754
1557911749
516361387
1013497129
165142231
1734312130
1511319601
303593594
1008420037
407831828
1762705480
720589530
500747278
524584823
2037062589
657806631
512502277
201982520
1772750934
1656625069
304347222
120654042
82409101
1383876243
1296396955
1732923256
2046073624
867004013
477215996
1542323165
1825659192
137564223
766882446
2095430944
1811330361
576585003
1890401109
619293814
545738350
229702704
1086532205
478213298
1124655504
1899738364
1639359701
985088905
875680467
458155122
1854869203
1182269665
327532710
1030412733
1464304407
209735564
1268391290
2053716336
1771753523
1257821554
1308348891
1208158935
628686803
1156074430
516876070
1207175977
1171219391
80729893
1516321223
605833901
1919692015
249702514
218706732
606146688
2145815025
6710300
130649099
573441785
1989430373
1526190896
1381177042
932687799
1370888202
2138266494
1964872111
1900027952
69408882
629391098
342917464
381617601
1339899735
1776133407
928322163
242086440
1645677366
1583115051
462029899
731508547
1834210527
1548794642
565353367
993745886
661366524
846327058
723098505
1857359765
559651442
620965710
880888071
1396426552
1659616804
400389767
261715085
1470552374
206800163
523187626
1456770184
2039165307
2082847697
484630214
359970662
228693499
401409766
2109549279
533329412
916009678
1510074941
442772061
1035619859
9924267
792941977
899685593
332200892
1053165275
2071641169
172429919
621915276
863007555
1263842034
1482969709
1516028334
978424798
1324815705
1649184146
829528421
533897979
811447578
1332728844
282321464
119305113
885428227
1943689089
991491267
1006367728
1486261801
141881989
2125608432
213580485
960481305
1899395388
88703298
1261329273
684872892
1133957287
266902350
1532641671
855679101
1488244854
2068097937
1093522940
729828004
1405086148
430358245
1844914862
298880189
643209307
1175081561
558919460
781133584
1101699690
237691893
140995734
1252317311
1281093895
1868140180
1637894600
1085430868
1645979745
1679010584
1236572230
1833365442
323446797
1718844207
2056234912
713646419
265210540
364108641
726213200
270312970
567508866
1528823166
1807675837
539556084
1502949670
1021848102
1164929594
1586659228
224016191
57969773
508870647
126253619
354815252
1877934808
1369621130
916977734
1932432287
14481867
761782738
1346705480
1730222212
599936639
53639501
1646120076
996681427
954611948
1023108464
2036673155
1891835667
2020818216
1857478452
398868653
1168152486
374024035
671916155
22377578
1942783260
1946684536
1490571343
293038396
1612917274
1187206405
1848850294
484863376
1561972790
1348194290
1692941297
589263518
168707950
705940439
1767056874
832538944
1181626168
545274299
1003236377
1601890711
552011249
1189205900
1944110876
804683732
535822805
841048573
1673186935
1995244341
975089927
969395839
1211554967
166237345
1373069661
795578040
558562137
486138981
151671116
858511627
25073569
578150451
1187948448
636681314
1515503220
1625483831
1372337248
945338721
1185521801
847156866
1870985261
924689803
321150632
98890236
162493730
2086179931
1207836281
1065504732
1878181670
1452214929
1048536570
127443150
1702200239
1158789135
1471463423
1623281844
1188061734
454425146
956016958
385133725
907390155
1898276302
103334620
792711525
1606318051
1184651616
1747472499
2087854723
342794963
1393596464
1243216750
1563117316
547397609
1234758426
369680192
1808969899
2087322877
906939452
1568726514
287418904
581559094
646125608
1096956923
1980296375
403826625
20891941
393512214
1104854898
1738228675
969455652
995735566
1707252897
454581470
227108923
732084996
1857249366
2075411656
180738060
182851615
1930755749
793836204
1657429199
1473904924
832225770
349532768
1782481794
781360118
1523257576
312239435
817560679
673552242
1189199211
1599400457
1121618998
1964246689
97900993
650499436
2015299234
435914170
1198266415
1225056857
539185547
1160750616
224309231
1406312799
2025024908
117219941
1908657172
988557956
277055899
1299471217
133923253
1027851307
408886404
1606851394
2123255377
1378933717
650709054
876978935
746921469
1791583793
405127708
1599601964
484694274
1219792850
2141751149
12098575
1997503373
619209967
190617091
2139503655
1393078826
1575172541
1338208139
348328256
478413165
1712446117
631317201
386251576
537424770
808682836
514825951
826048630
962449061
1621927808
336727202
696505469
1521701740
400123943
1937846748
472982066
1208484541
982579196
910809682
307421557
1786604582
858433719
1465273101
570880629
190710972
1047907870
731626536
1378370156
381682743
1966433840
845470528
1240774663
969788486
1674610934
1225938224
1751934799
1222432284
654877001
671770913
910888345
1436297462
765881505
749765172
1084020334
1036212315
1815004121
912120261
1225746420
1053493873
13642425
1114907191
1547712023
1129842163
2061117620
2109945943
1164517308
723634339
841967955
798678640
32264916
1044227496
1480827844
889290191
1180727413
1356295045
760630302
950596094
1507731685
1417712288
163252851
1851414968
57649338
811529034
874576883
1454502467
10742710
967050284
1256831671
1914960220
2070274629
164995108
1472278091
1348703985
945360194
949048656
2043094045
325374042
1042045482
714291809
1807462024
1263698322
16009044
938036656
146755306
49373286
763187275
1599888023
1398269045
1778976238
2597461
355952806
1737188601
1166803319
777852903
2008461606
704732466
727183851
1095925238
1401363985
1933326571
294037842
1638211407
1725910819
1729844003
1600738730
1980078412
970664350
502714054
2019996719
508622803
786623787
1036400117
655706889
2140740099
503763771
518185825
1628089372
79519234
1649947742
420950504
301514395
710186360
946419442
449541371
1993478543
600392072
691799450
893499594
265172589
581507002
2097843470
1441876654
1380393720
1212730672
1433387644
1983056245
159947595
1291660304
379285922
529497368
1070245108
793407219
861508591
1008711604
380633052
1217062201
1071000954
1200749949
683780609
1940774824
1663480772
377697479
1669359779
97510549
1472330943
251534996
1137007408
797780905
657437615
1443976908
2085262555
2031051469
760764503
596450357
1347731302
1777842702
872334596
505012487
1385612620
291911650
520895741
1459135243
1116242849
159339889
779616784
903744505
1888060696
1022419666
1253274517
1652119877
1665712972
605500246
614708346
2052590886
1862955429
1652789673
710007077
653747690
159698841
616889421
1838849631
1895079769
1663894080
1500785042
440837909
2053962090
820836317
1604572186
2098479693
465472056
391860356
133582583
1700510314
855299308
1387155914
1287217575
1461135961
1333537443
79880175
1888054589
322362532
1076810466
78676249
1109186357
1883975961
1816066840
562259571
385400551
1437404011
1123839816
64323468
636483985
1735248186
2028280427
941593548
1164793316
293060691
887574163
1840997683
816458068
610813218
1108137211
481286701
1511138066
516700455
1323288196
243281927
2016766389
159916076
1023028258
878130586
1707736632
2119483337
5334674
1191677035
475883849
56182042
250502879
1668936782
74952336
1594618470
1726185114
809671820
219187628
1671583459
963735621
389447350
2002252324
1903823665
1466673071
1073332435
49473501
335739135
202224018
1050681213
703432379
617883743
680676460
1402494949
1656972183
1286870685
469584024
675007210
1778331685
176002115
262746182
628797080
1678944197
468331358
575256662
1480517686
992461442
1013648793
3405815
1362982755
1942762175
710511306
1088252181
202381303
1316497517
1122504421
513978611
730850228
1796300236
1230809222
1325871123
1066007873
1185639346
373167876
1992186471
1376207429
1390830920
2000445626
1844434892
679478624
292339002
2025713940
1179085865
2004144284
221343942
639254327
1166125011
1023750006
1043299624
95091678
1279680393
289243532
1535875823
838649854
1782705365
2029311194
1528382153
1904767641
764294809
708036357
1550055794
310230859
211583164
926773504
8250432
407417999
519111851
1064523892
922002767
1956278709
841044520
325937605
1399684934
366906694
631666283
733936502
1317651095
153484168
1496575333
1744951033
1741979757
1169194075
1583634829
1172327401
1973061717
1952289131
128779224
502745647
179153750
627965216
1537811595
1988723705
959727836
1797179435
1693315904
572299173
482747063
935776194
1270382432
708395866
2100787595
708828308
535187372
1957141911
1184067794
595869757
919194420
597710979
1105640218
344587189
25913695
1737231380
1838911109
1803841083
1172875755
1393133476
189260021
1674939019
742512123
1075064188
1945037872
1008178688
587695875
2000900962
47643139
2043178612
683210861
272346747
1781823759
1782536219
583278241
1821099049
202070064
2092323983
12093571
1011639700
2093460372
1632633003
140379782
771633366
607033443
220396214
1214258055
1094523812
73959790
1534316694
1415525632
771950097
101034779
6714956
374909829
1884443560
1123921768
1636844601
779520575
1245810381
701225767
754154762
192421834
1954615934
1961384226
789404778
453269162
1066646585
1509939011
1958718681
710333671
370386735
2137680353
905897503
1289282715
578547041
897759459
1515049910
1599546421
1360032546
614364032
540000913
61144815
10270712
394857660
215627720
966716553
1927459269
1166131029
1234120356
127695421
1873981191
2111691373
2015944506
1971526093
331694252
1519408523
1350568940
1925888867
1854942308
636988688
74831971
417672390
1617913680
1802700272
2022320024
412696955
479926196
962566787
1393000925
33735570
1216585597
1849650892
1005421404
2080910255
1816964785
32132110
1675809323
1765220688
1178623291
382338559
144153793
1696121590
355683668
1044579814
824287254
1982772845
334681669
1049239607
1157281207
1172963628
704001494
1330163593
1818946162
688695381
1135332122
764410298
1497832458
1074207045
1457215584
381475704
722280502
2013419934
1303793111
755809627
428241382
979894135
1833900862
2143604526
1832544409
567865811
1246792394
1810664772
219739498
413397197
15606495
1237093339
216459954
1441588733
723947654
1577225015
806668515
1138097128
2056329685
1306252530
1086920194
1914404800
1762596825
1581702993
1795635911
1437829176
635074754
405617065
2147215847
925001326
982141743
2091303213
496504192
1448402521
1573277389
1280777297
851656250
1945183788
125997001
2145812400
948879380
489664508
482085017
1857468939
1022495311
1215084633
1859079269
1142261950
62510279
96706558
1419917637
1246573396
242396765
1076169530
1375318647
1041527021
1278745326
1215875666
326394422
1274975130
108083766
628918869
2076411122
212663481
1470362986
1747995769
416987788
1268963732
363312625
230794888
368042316
532424497
413180784
1158073388
558102471
1533607655
743205362
1052401068
1120798516
502147748
1095338065
80281913
1258362240
1443627214
539108977
773964431
1325801533
1368164533
1879274340
563755993
434314641
73000705
1462406145
2073527636
271058929
81662454
1395648615
256699841
1037758357
1384959226
595219233
1702984454
612111519
1452862940
1078093558
132985339
1629161867
771090584
1555010774
1499407948
1754652106
786867094
1521988275
805131256
1648054181
1132106630
1669992833
1611611688
388564500
494543064
124722102
1659132121
2128532455
2002997854
1545960089
1183266719
664797569
154649286
149276145
403605212
324771574
251452569
190167283
58510324
536141465
971988441
1087631743
1900014879
870610685
613098767
1671771635
2055307829
776736157
1688749348
866927341
580447291
62171303
504259006
1853170398
1561343540
2127636857
50287436
175966878
80526683
1321062069
2136609668
1572847887
168599820
1649786533
1578562009
1874037954
1107950436
173513165
268308155
855419490
1815404804
2050102369
1436098901
1128352383
773138974
24221993
1837204095
128391269
2013593968
1038611354
189497796
1117997124
2048212510
281477539
1114636667
602287405
160203414
1325887282
1001740881
1632327511
345122185
2006218418
2058914014
802634391
45474352
802532543
743940259
770399359
639979437
1632620922
1843300733
1811548823
713040599
288729944
938934875
1092786377
995898555
1826744664
394063645
2101290909
1839879232
206769355
561507216
1376580069
1280105923
367156232
379267244
2033722352
1095834523
1015995526
1976340451
758397209
1918659999
72701230
1280585767
2129256966
134101698
1311660132
1702162891
1784902595
1018669053
1735087794
307204814
1220598950
2041190657
910932074
504425237
1574708186
872249638
532873345
562854111
1143434847
791628506
1753806434
1283732633
1634569927
1033600915
497866938
1644080567
1530796576
296753471
2131007148
271347283
837682896
794595807
2012287821
2071832515
1026937582
242092835
1762684736
1202267990
1033253347
61425706
1603754719
545624327
298599384
261319718
1428844746
1068885435
1606308434
1056605145
892377048
726289910
610932767
1517212957
716664239
1821781783
645762619
922613593
606255272
1167885981
862143202
329298897
134210197
1989382041
1588279276
200060393
1215724065
1948298723
802768896
1236980590
1492041309
34448135
1120015915
1150522494
61288226
2102921768
1522500375
114418733
991046034
1000086593
1227205552
495845519
1156876439
1157348480
1266773899
159449921
56512410
1354943687
776568579
1009924408
699817312
1412024719
214626668
1709130530
1513235838
498576877
2000315217
363855431
2050126575
1726226578
468884701
1860645815
35533427
2025514900
1225375627
2061570319
661931167
2002887780
931528073
1758488871
2112706542
595646708
295360241
1498135450
245812097
1605448393
158851105
618333598
1785698631
187572304
508694704
1641503088
1718634421
1244572801
1500551378
1192050628
8840313
526754659
1562787885
1706221334
1523582639
1229585893
331369485
375581675
1408620830
686331520
613674281
1508729324
2080255031
253765060
292763279
1475281697
57708755
675841468
2129828643
306225416
1154316845
1566981807
772273379
1433349092
779053063
1697340298
363598347
1670220810
487528678
1713800695
1464323100
1339113885
625198245
1990289933
2027267514
2123025467
1551392370
1976525818
1673589012
1042996371
1743707908
755855988
531332666
1931823970
1921685285
1595176068
476238059
1503845039
674924941
1713286373
510517178
1829944579
2013056391
1092718200
96229631
382527161
596900036
1935462588
773878399
1511400777
237474318
1621085055
358366845
1291255966
1227393866
1539710009
1118538473
1249272288
284345227
1812762873
533939946
1810433394
1086624215
1627348301
199192998
2082910560
1069897404
602052267
1809354769
1083586412
116660046
1352005748
1574546276
555826064
569843334
2132078625
1997526895
1765852638
1927653539
1238626739
491536598
292788547
189043806
73143219
418497303
965694728
445586759
1084617713
1814497006
964516987
1153736446
819258081
1347823855
1863616214
697589289
638802224
1931667158
887134279
2128632827
1685172857
673208032
919110077
1601187569
1053307581
1152329114
648308984
1355605684
1824346630
1066228632
603224417
157218026
1345409250
1975561329
2131327975
705110177
1718621313
581192971
1494234919
1821081583
1823099692
688083228
2140182487
978418115
1314314297
1061720571
1125228765
889049473
1195214904
1760369825
1840456672
1957935042
973868488
1668163743
1739473310
499901905
393627020
1295226179
80589142
1912389285
1359135236
1357901909
1729024458
655129250
902078552
136512630
1471971755
390486112
1046717503
327675753
1903476467
1309399094
955489355
408404004
1923747854
83557701
1950092943
1701420324
290567040
1547868382
2100374655
2069459593
764385469
1927125929
947851023
251537542
1246830423
26112252
489175881
1570267564
1072144535
1033068519
341339754
1312997575
768851685
237827833
95203853
1682749396
1175617143
170884280
1582413953
1917377900
626861209
1090022266
1819902252
1303890815
149741921
71365259
935937146
2002290136
1400061728
1046905152
310421573
1145530176
2014861950
1524783246
1983593552
271882605
191881940
1690903931
1515011596
1629163974
1735779090
1095476064
282895693
687937617
12865821
1381058258
1526167649
2053854662
1079141958
1466297968
1258842142
273377794
1848557606
290692763
942322746
2052262464
1992640541
2128691886
1946048481
313829115
358736809
2135914513
666729884
444242477
868281696
1095524251
880032657
1975377572
396260458
590837885
760977372
19221738
1146438875
195986044
41473232
1580622293
1203681327
1199335315
885130562
1545637225
2124696932
606285563
1948838039
1321994413
909380038
1280964309
1393364821
907359079
1829281774
1576531672
1236682487
188578697
1467375975
1189448201
395857542
1656408677
804124149
818692573
658559763
1286503253
1164303399
559873826
1961931468
2121062881
651932136
1999836661
385977089
1402873991
1008616544
289633833
1784187636
497167848
288450593
961994561
206016617
67062821
314349980
1470241104
912100525
1757814344
1997890895
136263677
1070018509
1475518213
278304862
1613948066
2063654256
15980259
1259681729
223916133
1572530395
363008614
526664227
1940876990
1542527270
705929284
1425553078
358520594
508982801
1422137233
2061198842
1374531551
1062624108
1457137251
373557849
1992736913
17552806
3270565
507324368
675072772
2041595517
1395245520
2029204550
1552895855
52580511
540265586
1347782801
2021905610
1296436227
1767227142
954046277
391019687
1243579107
1507878734
1315761817
631413782
1168667873
2127013577
408092383
971267867
1518494726
807664157
917220595
2039771615
398846148
1149666800
275228728
1714336763
324030072
854109853
1919913052
433385843
1326479060
941634872
1299368204
1312728622
1190397814
1759567565
18043459
2122762187
808836329
1366598087
1748965511
244356971
1777256358
1618173131
598231408
551320713
1508479063
1508054230
1819105037
633726702
1876640572
1950989059
169986424
893597999
1279313254
156859283
1552471545
1851832942
256028840
1879086001
1114816390
1708101959
522221507
633712538
72220567
520209795
1153684035
1635373364
1243428273
560745132
1346204108
23641664
161669042
1973948931
235666729
55637569
1119083235
877339943
825120108
1418473798
1287760640
1383253985
1965171086
1290888618
1775078310
2115478207
504341336
253318787
1209354131
644150596
612618961
1422830134
350935422
980144092
1161413488
1586661396
1078449168
984307300
1553223574
1363066611
298685096
1879509605
1753812248
1156477834
889401578
1961106789
1121814899
611735233
1807895353
994495239
548916818
1020617630
585336628
1558756098
597896515
2565410
911991720
1214344193
1263162475
130057729
1193005382
1218028975
1581755099
1296049511
505483813
1910698566
1804399641
1652241845
894198452
841753117
1426275651
609215226
531360169
401331319
1730416832
2089173223
806055997
1568279282
1483535018
1124647292
1706779228
1689371467
648946979
786248300
1419745107
282302836
659928166
191317136
1857479064
1388474882
1123535679
245209349
1248618302
1171467419
997543640
955930703
975421889
1770544559
121750458
403722180
1183901585
1454576006
996768109
416127129
1586289294
1150391691
823721711
1318372706
1412964781
1285901187
176611066
813013366
140249217
437814060
1983947798
1307460971
1914415055
330128467
251405606
1623076612
36025750
357478861
2033064288
1769160387
901258577
2021395235
1724314864
813348365
115761297
2028574512
1956056213
362712385
1152630458
1959603710
1677394521
200825516
1051862405
510745401
110197216
2021834792
351725960
1858564222
1222317179
1704092074
1716930000
114401156
600159557
496984911
66495679
803085478
1547963837
1139306414
1114419123
1353468024
1530032538
1771587184
1974544363
2008343207
250213205
1781977518
509707885
149832699
855820435
172934498
1272734808
797286541
166131179
1733346462
938126046
1780896350
116802432
1071452225
633768931
1653091026
521959765
2008857997
393298558
1058917844
1893393073
2062775161
2036898316
1071387576
870718435
1198698943
1978482711
1026782014
1670980966
1830264559
908778241
175404051
1587462166
1069309544
1890773936
1257777410
1095897624
1195765563
1104901255
2072359499
259494535
767005036
1806854779
1200474092
1427062324
57980145
1079438570
1005931392
1025577866
771387397
581518946
122151680
948229822
897154263
912438305
961256081
767958620
1775878166
163968743
1510903599
1315284811
2144360298
943303404
984064153
349761864
1389440890
1044211818
268643226
432612114
1757749745
1951050621
976538782
1580348958
680369203
1733461129
283584882
1529048047
1820249415
178852005
664978434
520227152
907631702
139442653
985977908
2068798245
1215080067
1102003937
1478437445
1158873762
1386907152
1676837963
1549408609
1831504192
479567664
1213410220
139553085
1021263144
1385379802
835253425
1069895852
1313035648
524915860
1454171447
1960343593
1727487683
886300676
100743463
1509163994
790163139
1068800075
489626452
768255271
1429971147
2043643244
1814766820
1397995137
191715965
869545974
319923886
1773624380
1751570246
799149731
1433122892
1044688660
455703965
240043354
1416499537
1017835310
107706835
1620609672
446867622
1875819906
1146299375
413965944
1619926505
934567545
1109568227
810252331
1929504934
253232135
378865894
1316189501
686575855
359473226
1825390611
333123263
1603743704
270384945
1490607773
1973655542
23492457
939714863
702990915
835552539
742884143
1848577352
1366513191
1897347291
572665842
1564701605
1036688728
370105070
1186774140
447330102
291645524
155432552
195260867
220874857
1873467465
110469026
1271206631
880342943
723262615
131916594
1033180585
1735427706
2002349413
1696742139
1269080762
1020674855
1567822232
584732092
1354980717
345942626
258157009
715797611
1708717306
499913051
1527252277
1398704378
617118661
1059084215
1677508068
685636633
2093910088
1996137153
1993415826
1426093004
1911233739
416948057
927057229
1582543284
1644714027
1159646007
506571699
704020772
799993250
297879724
860212915
1238592904
2067359094
416987088
690240946
547618925
1620518016
66427183
41378761
1229293529
13647269
826325001
687250673
1997038792
1939540191
970792053
1725239679
818077938
376734745
1855980964
2115492621
1485868430
197950266
1388440615
678719458
1715939650
502691994
840141906
494426219
315231876
514882845
712112164
1406872100
1854220698
1160806478
1582477836
234605794
2105046830
2043263287
140562035
1621755528
2002586232
1868213673
1313087136
1182617442
848075601
1607797641
2060149532
2031742569
208968904
978339861
902988933
887446974
1383979791
238553375
1650317367
986379894
1114743213
4674605
25389050
1456596228
830827055
455182334
1390102046
1768252952
1163268610
1450842987
1766844179
1817201054
1782290714
1021060930
222790503
730644518
1451124559
692237546
188711532
1831431842
1914117088
718460839
2014506111
178571946
1723982541
908627046
38069472
155172558
1817072437
1757897318
432548951
233346738
422893040
1147136795
232565514
478098335
396006265
1824191058
985400205
1767082075
453831257
473661209
2129538030
517954992
1398631770
805870355
1916735773
1490837186
1562864058
1578099630
1047412852
955739392
1487402370
1546772855
64068133
1619147927
1538360800
2030643526
1648626622
1168390240
1671695678
1675445182
282677751
1235988233
1081254169
577920412
1693434627
692078122
702523731
2022097054
1129914763
1448589107
1278776631
1307513645
879982054
116249450
435821290
1835163812
908783819
1117835373
333839493
1193732569
1828574629
2087902329
20141946
938523963
2134600933
1293023712
1034058098
761468602
869727765
757540000
1398620210
1590003841
1615319521
508411304
179109491
832433024
1192180960
74727164
1907288795
1191188149
1117630828
143079584
441456155
394551251
1987041780
946312397
1828317449
1895162895
1113373554
927802217
1920478013
434739126
1512955736
886468368
1606520969
1418665656
767198745
136763706
2053886072
1932291245
1004462378
932445656
481575756
768945547
2093503873
1686331506
874907921
1779365185
1177535923
104423436
235321151
707999959
1715135547
360346370
550670312
1669336411
803048797
1174383634
1110523595
115913113
1437870656
702514620
1558978713
433511777
913316520
506197786
1116672037
1361959507
672081569
656855099
545046033
973104063
1563884063
1837981102
1885310391
411717270
841852397
1570526632
1879047142
1193212659
84421301
2072841092
1151962582
64850682
919079650
1483533384
1785153017
1159455676
289465650
760234784
1870701432
1503229219
264181382
33637736
1086334942
1252707075
1854432395
1735157375
1932289350
732881957
1869590471
892007775
66884959
994005868
1876209168
1689058988
2008135247
2007771104
1049144373
329481068
358429281
158637213
372332784
1785447310
859704691
730698100
987928276
442321572
637377371
40291091
2009618044
1660593279
1676983789
532675365
467237126
203870375
1375906869
1115590823
447527518
111136701
2006859563
919949378
547922593
1797226091
65718646
338605166
937918986
1537456845
498693226
1936397690
222851428
1501483002
1820338031
421763671
2068209017
1978739271
544142672
1958932568
978196708
1512920101
2079134442
1046793104
1953265261
2126985696
15095182
1787637609
2085448507
162510295
1752316064
468221549
228931848
754803860
1937599708
811946690
1195155566
132366822
1866394993
1646227
2096700240
1985580081
2019663648
1635816345
307895968
1796174085
468416084
130864221
1141138834
1652031942
1829446798
1427008402
554975843
885124866
51728441
1127157070
1930426940
130387368
320491857
332078656
1970480665
1627824806
2090694785
136053892
65805780
1527478107
689364380
2000961524
1350855189
1214920104
168342706
846088685
1091387124
437095653
1368468918
1129266738
1162411350
760323383
897702384
851331737
1298841167
968502338
623221370
707913612
44360833
1831018853
1442715137
1813239944
27244261
1617709596
1809954889
1274868672
416350885
1841390988
1157838528
17412921
1926088108
348092957
445358142
1637387228
516874456
2144890889
848294393
1357057789
398578145
1769338681
1347106567
1677906309
1012823598
243053179
1671835022
85138754
551212200
250653633
825587149
541091904
1022750782
345772351
1207388090
800494885
926065042
1387870405
439988670
1216281618
1882946108
1891691655
1932680894
461322811
2005446142
899546843
1257300996
854182512
1015088595
1336354557
645175484
227632462
493803933
1625302306
1104081476
380643782
1740772002
102969011
911961182
1507036346
1933063696
1660134004
657847787
935203277
1000568481
1390085320
976808026
1244646265
992595825
1011958890
1139508415
296133442
1224025546
542197158
283769646
2034723321
1718449059
1692055548
527431751
843100135
792066569
2143432879
1741601747
1628988817
239500019
307269823
45594289
343229166
1821997991
894611542
275034469
2115303641
1141411704
677007988
1002863126
1807755384
1527752973
1309762114
285416159
120398726
1817212301
1520465630
514627671
1893889393
516865687
1481219924
2100901749
1531589245
2046743547
695760735
1617316836
1615270028
1792999125
1990755158
1112444571
1690060681
2104818461
27448419
136117102
2056861985
539523701
649327950
879048660
1394205122
479440371
1738218956
1397391634
2014122001
1803737201
856928136
1220420248
739337611
670820654
922352179
155087817
2128223940
658972045
1781286742
161439419
1403823087
571583459
510209846
1518693939
1298653272
1692628224
1368143094
1885103121
1283875704
742440797
547990037
145905482
1756121259
586217497
782949349
1912625833
275900377
1862499977
53184203
856271443
1060916483
1414231531
1568248548
723149446
34896244
824942371
850925714
1150205458
1368288124
2091596829
222735332
925621264
401665638
1928132794
1185804751
536022565
267334517
1195433477
477264779
1614327652
23409051
19549337
1800334274
1172799957
1051184530
466812340
1802920477
1928959277
639224516
360976048
463482742
1380955307
1356235590
1457394341
532533898
607149555
6514588
933833979
861682721
1289174652
1249462166
1765159695
1859214130
329136756
1930846749
879351636
24572189
1768487660
1512717831
1135270651
710127004
421266343
1531726241
520898590
598971378
1963479532
2064532423
321696889
1699784196
676627048
1050372923
1902349126
332192208
1267498887
259356426
1911906252
727602303
933279711
373315558
2133346163
1856958248
1388174346
78495512
1378958296
1645216612
914761036
1471770386
286491905
507739947
391455627
814175235
111881377
221987057
1079448553
2069128255
473659097
776977477
1214037686
957040549
1845126494
1317987869
1467276692
1630390485
707936613
887384095
1836321266
1994656910
1689398938
419176134
364131182
354587321
644269029
1457511307
1416928734
1660419676
1125363545
812741247
1583572852
305374572
1699176214
285347422
1392088902
1068886502
1254208669
778554325
1047704449
1172003160
1504099871
236101468
407428955
1318294871
150370731
1673625576
1195278746
869598177
216178277
1922620605
1813934815
37636031
1371238338
276518839
1350284224
987136000
239900489
648399773
1457105686
1040011598
413337255
162502348
767945808
448509254
777314893
1177563282
1334609228
1388745595
193229724
107676739
72340850
2091131092
2046239512
8558279
745335548
176490689
1941535348
1809052185
221604314
1568824492
183054173
1329289520
841480605
839994528
39728355
287524185
821050352
1537058812
1628165866
224307526
1050102524
844899371
1276304185
334462559
141409982
126185191
429763595
385521646
727202961
1766524162
1488947989
1967767696
1883737309
2029441830
2024786619
970792249
616904882
315006522
1272582340
1479334511
2057154903
137638698
1499242787
1608261642
1372650796
846946260
1236119268
1505643947
739438428
743355026
960542658
2066710220
1229186139
248251178
1579476419
467752740
275450337
518111808
867531100
1566381778
1893411910
1836454537
1234516934
983299759
1397427371
96512049
1632500229
1094110314
46809017
1651012004
940377597
80607068
698061581
51775331
806732051
1886032753
371064010
558621920
128134882
1891235598
2014122164
745891884
1762758458
220493386
646053532
1648204330
1648951215
1692430202
1128143143
157204372
931276591
675454777
937943981
171683904
262006593
229424329
369338493
1504966737
644421254
1822121689
1385207549
1740881749
54870772
410265226
710109807
77625811
684686426
1205155155
871864212
1948475481
1279141393
1279715200
1095762773
812822711
1632555509
424729058
824197286
704296337
700260874
420689267
922179449
602380001
2103161586
262488855
1724191155
561050208
705171060
1436174602
2113065700
828914531
416457991
2100145695
1944647128
1117447011
1473499366
79128217
1342812747
213469737
1044832246
204056538
457870525
2123593216
446965114
444130609
2142587491
194810997
949163363
1525617573
1211724274
533086537
246244845
1502295828
2002210775
1910806648
170670506
682505419
323847521
1642859766
951603824
24506771
311566166
158992819
2125875914
1531426020
58733359
574183924
445110532
640341358
507708956
1725126866
1801132308
1186245933
1747434247
406776443
1279319636
694605327
1805551894
1516125037
1382223542
1048620481
1213495644
670845353
1599341723
1852121711
49196443
794506334
1049622651
433440338
68169278
2107921428
1869182044
6564978
577978623
2024479599
1253690593
1922731257
1677674071
1133756163
1708041328
75280640
1441013912
1276028363
1781363891
136456061
1944330731
1660526941
333848971
1867169904
320176710
1817701801
642618095
1307464297
612654588
1605499524
1763268348
384353778
1748908985
51247726
636832879
1325623745
1366301454
2144484301
684479822
1505529796
1751124655
704792696
1931284600
776892550
1730889265
258461407
617847809
848713692
575790392
626544984
323051581
748493006
104390779
820551419
552329356
849463918
250353986
1316950936
655071002
1017629594
529024754
1255514186
598988326
2041122664
47637859
1352440647
1706865329
1303228781
650410771
1125079130
430437990
1697239522
1350201250
1995147566
1759124126
354597331
386230838
1482450297
1319127375
1320961953
1720792787
1837800298
1553754261
1072669527
644036057
178390906
1649421402
1380727321
1474056502
1967011098
1235234925
331613045
619412364
575579901
2085100422
883166502
1484371406
715384486
1280886881
687492948
595107178
125197790
603552002
583649450
1566344018
559412608
784666723
93184735
518719807
958496541
1094472959
581836500
711411892
864871463
2028354273
27461916
205816052
1431117555
1775711727
766342534
1000885548
110426745
746099739
2116092975
1109746369
1109236356
1082712069
224587092
372758500
1692257533
7228066
366876052
1546383647
683876417
1242832390
860711488
758675574
769508774
279721772
299730368
1421187691
311441352
1020102798
1673960292
662261226
1014213596
378053707
153070682
830619943
415386011
1865109145
751567608
1916424286
1144531867
1586239287
881063874
1069122534
930883448
701955287
1092222437
764581635
1178689026
1341396634
524088902
2077361544
1953666055
1103185562
1880673515
519610912
1574457816
2054681543
2086034602
1641723157
701156305
2125974782
320576412
1986830761
1168151189
1053790740
164433688
44438887
1705708398
1929176911
1752270933
1388625326
363966641
1182543553
163129478
1515685371
1862080889
140602125
1959308603
295394902
1529006675
525543796
2047476642
80906686
534957365
660632520
593700548
392131569
1233654278
1867172744
1398030811
210505762
1717344023
2092772185
2107514188
1543946000
1726109762
1426657580
926012315
809352463
1537345704
35819845
1917504521
685906021
847286808
699690997
380895380
469446641
44850425
239420383
1163495691
336836778
1733517716
2022088717
2036821966
841567359
1584594869
1359431400
1616301503
1713864836
439525015
547447699
761933619
550994667
811210196
1075694798
1547321072
911032626
345300291
900026069
1226030030
536549124
1330840933
414776738
1023914980
699728826
1815672727
1401589765
112134611
1426876673
674168313
984465480
2009219019
1653428560
2017563721
976992202
583437488
2022063467
396591028
1101103345
2066823244
1260616530
1682091852
628261092
92421873
2043085891
1853940761
1622669950
334970474
161866546
1103176081
1968609250
530033121
2111054481
278586822
625147311
612058731
151536292
413411734
1549689823
55307908
897529995
1055074467
1693727134
1227071373
596243306
387510875
1727122895
1644678313
661482318
1026933108
1007747855
560135220
459159343
560471163
1364134057
922594107
713075590
609730101
539499924
370637297
771129403
574440800
1076976117
123838498
1831009939
1353166303
734626399
364620142
779008112
467701791
280617204
1085503717
99861879
2113939742
1740646561
1592366684
865831448
451029993
337272587
1570423230
710346083
1095522547
1984810598
296734659
104507287
1253563962
729940002
433376780
1197912051
810450944
619233045
1614311301
465900363
214730944
1489773000
498385038
1506142830
672694771
150707333
1463952131
174286849
310489872
2020678665
699765485
14046914
1119251315
1814505189
1458254436
42213494
446894396
2033780953
1788747265
1775196890
747305590
1820722176
1951303964
2056511299
315362473
103844900
1052189130
1329031213
702424530
1433569360
477281676
1498920891
2101300226
929012923
1418939735
1765754148
1025353196
1431207373
1896552847
