5800 191460534
464534251
2109885045
736708312
1266635766
2119138254
1422716233
2005574081
274063771
2139001413
520325123
553628583
1284954794
1412856311
1413342516
1393106514
735908232
1071898612
897184294
1261125700
875383747
1604897727
1398555168
1635394032
131377243
915607314
1223071665
383690861
198544892
160988679
1746761485
884347632
858530174
1128918963
880132387
600620731
257115077
1145964124
1224955130
2144678585
177412227
919912261
780253710
261911746
1489114115
810863528
795857609
828155235
927044020
637775910
1721210684
1974395899
85914048
1973005818
377148901
314407631
274874504
85094920
1312686025
209146919
766731237
1094422079
2060056963
1705358708
1268699530
201439601
1090385300
1759855770
853724554
2022561588
1609193239
396579640
156119202
73582678
1613601739
274756486
1960425006
1372390320
2141998637
1150899402
1757729435
1091892639
385679411
567731884
916394278
587540583
671173816
1619445355
1900477304
544552237
1531241071
2120020578
134710806
1470790411
1809552950
18859831
1008535538
427794557
1603763357
2044674739
856340603
493083206
1804602561
1605931350
1816769819
1952644484
185813663
1013375515
1224380470
2022135318
423229549
1275232877
543319889
1862682645
729272946
477053610
203194668
281589608
2107690901
1746608844
722039784
771766412
1979477122
1523467682
304403353
647628884
572522029
644689444
2122999800
2055261331
191433564
1219379968
471067516
1102978075
1678814994
568564592
1477988486
1840041744
1408303953
1708649
1073058067
1233983290
372609718
149857365
1462633308
1240162302
659542802
2006651450
553793767
1466627809
1957209991
1943719451
1301308779
1655012407
1437068118
1500065718
312626073
871373375
264962772
519696555
879932572
318211605
1168340756
648867851
584281529
256100459
1924568892
555630448
1396494004
1674890476
2086085425
1330869977
678414339
623426246
1773272566
1458000081
1148418402
572331321
57075466
116690718
299323293
490447676
1831222803
1533093459
625126094
1159995469
1106037708
1061860074
1350241608
400798881
1435931918
108344494
1546244366
640365859
2090972322
1354568587
1573545582
2020944817
488259155
162360220
55188006
692889455
1372071828
2038145370
1979868201
486921562
316160834
1674132990
584498378
408510477
626594742
2074940346
1163852828
1416861776
84220923
61123025
136789850
271082805
301112067
1127149856
1680758707
52231214
98747879
317800514
636207191
14180848
319347082
459773864
507911348
114012595
272776534
21048818
167984771
1635987080
1020833060
497697771
576369844
173087440
1879534642
132399581
359915736
1474517159
1989967383
548215288
1438160346
424989310
1932454554
2132211345
1124417061
879471271
1266878074
294726866
685738525
1691694268
131450574
2097379828
1761387955
1129362515
115874511
1056736957
1769994128
1222239936
197348748
1460974749
41641628
319050339
1884254578
1053176080
777660552
1138253654
838127937
1041977955
754915397
1889744640
463563589
917781561
427791264
810184073
44790492
1304742581
646177349
2060742915
1646910203
1892403158
1299587933
821477934
444328129
132409179
952681521
1268446374
953732439
1135807157
297631289
1617655567
1826637855
1410223533
506846610
1503208257
944066932
2007325327
1127632669
1948948193
1858849849
1006929446
216315525
1363563343
1257390176
1886991458
1290505461
604546554
767598078
1031144553
877299438
1184258155
374670763
87573622
96322257
1178413336
2011667669
697282273
436502267
1066601218
1394501241
231304671
1869633488
816131723
1504323113
719284083
1648758446
946327862
1766148647
1328337623
1939396441
263706104
1431166368
705237790
812199564
1633625536
1146323670
248110317
1525692575
61659058
1494381852
1775083995
1814079289
2001871068
1953797083
894387388
1535518601
1951730976
407991311
1390679694
1473009920
923402132
1355184937
161815056
978733950
740620700
203423933
136613865
74417398
202615893
1869379839
745589670
482316376
1794199671
2146608918
2072334136
1338577837
998590067
1742985025
480980888
1180528159
1088257752
784539976
1550434551
957210160
1798679171
1947906676
768117440
532885639
570176250
355999705
1472431271
2026173881
98957899
617136309
2012387761
43597909
1126294508
1028591870
1116042563
1749412716
484254860
2106202806
1792317283
1738303832
1885952615
1745348944
1726525619
1700337834
125136198
1832649500
1266239146
855581719
770324382
429059033
1292083176
2121918213
555480458
924561044
96139464
2074926396
320962091
746615028
1999830843
1413158934
641876855
19336232
1506121393
1240415580
1905007130
812822501
718595464
1011682656
1354877524
1547668653
237676600
1777693011
1995663386
2026997160
2111163837
1386615041
1949397666
982444918
1862753334
247296512
468434432
1610628480
26189061
1162648814
2058166798
1756231043
45912284
568282236
1325724510
1670731993
58371131
1195615035
1116685099
1041060497
2092489596
1018849774
1831659506
1578391233
2083573482
924374523
2107395510
1495288812
383029271
1736759198
935595400
1118403910
1698847807
630517680
1377849017
1539937611
431999596
1522306783
417590896
1600626656
1314731586
151911150
511602730
1015682159
2097313050
528137573
643282486
1250420855
709218804
165386808
1605534057
1626450234
655249823
187239652
1942403532
1059823306
1814183833
1953321017
1531215524
1439823281
1977811238
857271052
1687224031
1310716198
764883631
2105722830
1294866780
431171064
1489242985
343724523
1306379440
1730395090
909576658
621157438
2050113559
235583557
1669392287
1296273218
1499204400
1596936427
1556272759
604512311
656844410
1135887648
1674511348
1649773996
959781787
943603958
1522361736
1918805808
363810169
1999390436
557174198
800332543
1571885173
253436552
1255163620
275041414
1189874380
822927993
269269312
1056616970
2098027788
866998899
713217441
1633500068
1687687624
525119068
1611352708
1623343403
1577408041
273212264
1472413704
49707084
1360755297
1539275632
1860901909
90600235
1972156820
612374138
583110409
779167282
2131675671
1951997170
1201399737
1907160767
138163713
2012705416
748465985
1340625142
1353743173
699543498
1988726358
198100658
535819168
163276018
1801549861
540783832
1607239035
2018435975
460595225
493056592
1175985036
1620578590
1272689807
773588423
781575529
556253532
1096410192
112092310
322658260
15931473
163129869
1656305700
1643259074
99906737
619929902
2144218359
1143702559
749167144
1988010419
781371427
1169613529
1303941986
843146328
609076914
627827842
1902306414
131002195
719979163
2069453662
1712481579
564988500
630710665
1162477354
705063674
629406295
475417530
1401941866
365669314
1027196595
550250763
2099772017
931618729
1343866055
1660643415
1936043465
1965845356
1984523400
880184607
41496189
1439929004
1475048527
81904995
88070542
1083159097
343029165
313035133
1341172762
288817694
2109888852
519094259
1448440669
431644706
1709624155
1811181110
1466025304
12821083
1966536566
688581913
1629012160
1819537420
2045791599
801810364
215127476
171648477
1633946978
432824777
1695732973
1256275514
234511271
1052313093
2067827048
335201558
74161472
376110017
1286674306
908153173
1974541427
1259079119
865527326
694748912
2051929137
2067310679
1099222445
1739334139
1722893605
1146230654
106385943
912623672
2006102520
692563221
1869914502
1341350740
810164909
1245767569
410279322
507167667
608424470
632352715
392178304
516246072
131178734
1132242731
64882962
311548567
1270526700
922500700
833975558
1240552899
839537326
1421955838
1413500599
786979880
968826358
1294636693
24677004
649009016
1914403374
351140921
1349757345
2097679760
1031294996
551710407
406649306
1246165641
1184567433
2054295531
555720218
654357089
1789919393
373161275
1804689080
108858474
489279022
513580926
84885862
992203863
1374120708
263946292
1012722185
1983759602
1159803531
323856435
1672987215
109218519
129914123
2110752269
816769564
789368281
164858958
663313349
779153412
711803869
1949046730
395916697
545280455
1270205156
2094924050
393045972
551535549
829786944
34252731
1228445045
904348036
616505902
420255150
1141390850
286451455
141677403
1735629803
71750780
557616834
723436508
105920063
798121094
533806274
1610824729
1601124171
1055953322
1102269493
2041639457
1732689335
445224225
966420860
454908915
1299541866
238167113
1122128254
1374751106
953482875
1043224139
2027510314
252708673
1665201399
1739973467
1337967399
1484015723
1817364866
1088614943
432590166
2039683284
24394711
936668761
462330736
94803857
80279490
552396562
1351211646
827603244
730891023
406254766
557723988
1598640548
532770950
1914185641
1911323131
898017024
129948896
328957467
431735022
791939975
1915302561
1790730921
2137656826
1626668972
48969384
54211132
1236661154
198663279
1640258535
1554270903
1188161788
622134783
1370579086
844275940
1733453808
654419281
62140756
1448533752
1713887018
1369271061
647763535
340527702
2018851150
2003163499
1754212072
1229107791
607430108
220042851
372639368
2047583821
691701894
1902396963
1049290772
827012037
776514252
1125608809
1097652980
1390275875
1036124991
596990770
1916296932
1513617160
1806716383
1813715900
2126921874
629661556
1533832339
731279878
374455568
2139487043
928681807
879024872
1525083996
234442111
241902751
395875993
2065335068
588968988
1882296565
628931319
1760277068
740368350
159494184
1764839022
2110884014
391811387
1889869093
391670188
2064936967
274964312
1096368647
233660900
951387325
1495123499
501690456
1300167491
2084647347
1379056851
600195453
1109762831
1545114908
1980502850
1599766252
1152299489
1119955967
491280719
1266668262
1922414111
420300527
1540803671
1857224600
1434764788
1425262191
570592717
818503731
1362418072
639344261
215376261
289960226
1890004398
943432699
1969353655
2005803008
1909501343
110075712
1451861836
1796924468
1492149704
46377542
220851292
460234380
1659501929
1557582702
1182211571
1007239737
1612527927
144050832
614656273
1514161283
1465091408
812668096
972044804
2008667609
1249675353
478497009
1988014988
1568596104
353549426
804180981
87469145
1219809980
505483887
2103919822
1482601863
1127230871
2114100134
395092167
1317251450
791731673
1108688002
673333316
1685864728
1186552842
649618985
80851568
1500590736
202478886
1913706920
1728833838
2113066957
1780914632
271216968
533442235
524639344
144185280
724628336
387604491
472675357
543463756
949546099
576189157
815765608
1799720460
1446089013
996622539
1777324062
418126472
1480108263
1711250330
2097675209
175092004
329875521
394570269
1687203349
1834971717
1042277048
1088785385
1021347856
755454953
784866524
690243086
1203904691
295309986
1643448103
440825513
1513648797
1242622393
1528109130
2039501289
847958631
112333516
1591705231
1057678754
1426156851
927928136
28459718
1601611237
299585030
1902884661
742027943
518734206
1059515799
2006913685
43995804
1770372508
2101757579
1419704623
143235034
983947870
218592703
2038921911
1853860703
1247526704
1381686980
1343164218
724562965
734457620
382720905
913870749
1566713883
1044874388
2065756615
1681126684
1902684142
1317189163
1194889590
1128194694
655024341
56337009
1815567124
1534456745
1526838774
908158147
337964475
36165124
1631515682
475230417
118767015
425404610
1264110299
880621414
2107929226
1196959099
680677112
919212720
753356105
807866290
588907780
1561491917
1876301443
1607757199
1480029147
759397946
1855853950
1030490190
1732296146
203525764
70093996
196850681
1968260072
1032291477
1720336862
772726807
1239044077
442693511
1050315612
473165716
843499092
734976575
1747576446
708598133
151707819
97344951
51516853
92835968
244903981
725753508
1385285426
164672533
953427780
2012059936
536462018
1442514897
934964441
72017093
1912184866
1370567795
740177209
844151087
1777665456
566579134
1869178270
288799247
2095738273
1519889517
1367490001
159386616
93615570
349074306
1544243747
1236021173
1502524427
1641022258
2018991823
923739923
459740773
2056329207
1200265325
896655734
2007287771
1684520095
310470650
1799089961
1391304493
749994616
1899406317
1057455770
731059558
1162838444
662807352
648060915
284148685
2027200963
925195995
2123420021
387869123
1592699142
1296669792
74961920
364084197
771986886
2073501949
898811770
1279408563
1084800532
458222105
1039306204
932596660
577976249
1255960778
1409448159
1990912571
2027227428
744944640
1327513076
378047230
567812462
1715325590
2133209535
2018646076
1806178394
1674951922
1172884703
1156230669
1425782387
2019911809
851998892
96264494
1469007341
1244834116
1670947355
38571301
1392552650
1472924603
893196132
1851533930
1199456851
1988118437
1501473750
1150201000
752454706
1537327719
918037325
1569646934
1403951684
403445967
152856491
1810203998
1668368692
1741140381
343344198
13003658
827408446
1435457463
1348987524
507431836
1493547455
1949817937
1480293849
525115104
833753949
1444004173
178251793
1720236123
1848911429
1954409338
748205598
1345083731
1900898287
1745771707
238140268
1415270546
456642902
598472268
512900805
448503965
391614436
1532642123
271675038
2021895478
1977253303
1498565190
621616258
1850208986
641098168
1112369269
1977860776
988889993
882309050
737751761
110284548
2103742040
2104279346
1856856475
1020934204
646261963
1601019102
1167901025
1441159499
693811596
1299720014
517615176
1109464730
1732472442
2129322820
1856673245
1575700832
1245448915
1579166220
1874657441
1358918755
1466319357
970973954
1946265025
1969143878
1075228900
666371287
1207501889
29966193
399727890
1917639870
745801078
1390574237
1506523763
1607606177
282994503
289621141
1349728663
301842964
38448805
433706817
1040670240
971348020
832430533
2031695756
1424645450
1465433663
88820165
2023285061
584795006
1013303547
1631714816
837139379
171221653
316587391
700445997
1348818444
1081788649
718000522
65364091
659319589
161644348
1709044912
2030112037
2143923790
194596394
621944561
1739509651
111533893
498617775
852912757
402715769
129639993
1676311177
1025635058
1443740644
817739896
1433375889
269516364
676977591
1678492807
54822230
1655893164
230230154
925017713
173690379
753234140
677218709
264070048
434404911
639406143
1508889095
1837658054
1445474605
976874450
380052301
1301461170
609522974
1922682660
461125520
935066215
336459913
111839765
1034875855
1837194259
661938574
8294323
939008554
1554600799
713992981
518676369
736113739
1735381365
522398634
1608463738
64228699
1190377150
2049369027
1658028446
2091963428
1137086291
202126256
472525060
1537199649
1000314729
1834621456
531205693
926630089
1783826321
756349385
422797415
1091918935
793684039
1185016032
1611543797
651832785
268218119
284001868
1781655187
1885706601
42852967
1757370379
1109900840
843472114
466355693
1279439263
53437279
38213990
230002319
1978540752
1148818357
1438017016
2076417824
1091726526
1164551188
1330047460
81480821
1115291879
435079170
75529945
34285869
60950491
119939808
1759206173
1549146834
926281303
899063628
1455309742
49050952
160857138
1467453313
481871626
1985240996
1616212665
1586697811
124944063
203587638
1873719940
1584748154
384326167
33812556
86501927
1018784600
1739649086
771389770
1117768714
1516579114
1461770861
348919985
1161153815
1852089711
189273747
1858522025
1469278772
1515620020
1306620102
639214633
1463809900
1476009270
325908108
556016876
1623717399
1991262917
365850581
909960551
648081888
2107638774
468247210
1972403779
181594402
1747979975
1573919799
148487677
730872064
1470491764
1867072472
1070867436
251991345
2111570080
947090682
2070521430
2059896171
840913514
1183932675
146586894
1198582773
308681677
621607644
542095036
688526285
1211114168
2028873597
615142403
1897056030
1099028659
1193113901
1727966641
1057877287
1804288863
535556621
661544579
1755001050
1034661045
1618529598
967899541
440872587
681778035
1420710443
771540272
1314597656
1189253809
1118744180
422756268
924143929
2014059323
1252644756
376368059
500332592
1658032768
204830267
1597891634
13791828
764494874
744478564
1591261414
1700782724
385304862
634841103
1877480082
1682217818
1970974863
1050424791
57646829
1788052628
86077481
350157325
1117963634
15796700
1350966325
1857367122
1417913098
664998089
1795319649
1452055551
1263357603
1976661866
521235451
273486622
1556768119
780147260
622508779
423919575
1809374962
1709924881
1811363189
789981182
276572519
504388466
1973464090
1208345040
922652214
1900630919
1201489844
2031638356
499309984
1980235677
1876408677
2090946534
1820812210
2127964642
599077653
1710818111
1459299294
904260024
140125944
221344507
933649770
1402625907
1076809875
1606732985
1330075804
1402076384
1792312590
156620081
1474591002
333140572
1507642026
1371232720
1643420616
907896055
1437809129
464497461
2099165862
1788644615
1800086754
563945337
2100418728
19193068
1547831427
1679858659
1058420295
872615478
1883751396
939206779
681102704
492107931
264083769
2135656540
957486681
656052272
1016919411
1544084904
1611207441
177236919
802619701
265769784
1913889945
461165088
377354325
1198509636
2069177889
674779663
589908675
1039378851
1511805519
660266738
1696957561
1990555504
2067885638
1075214259
404815269
1100991288
1158004576
1919440244
1680233252
1514343575
878003731
1080664280
1322624648
741560608
1802224428
975745254
1810736776
769605393
1878917956
831771007
743792449
1168701158
438858708
605982887
2146947637
1491732072
1015283397
334140942
1474451119
1915445791
1491218193
442302513
1932968532
1577740410
1146199204
1915308845
1117935864
878963409
1881907492
251313889
321553591
2105426175
621564944
352675180
440424213
17523382
1471532586
585599158
1781256254
1325140471
1593816891
1684322682
1191178114
943513010
890509525
1285774615
1231588474
932619127
358251415
582337554
901969356
956987924
865225458
995608614
1796364954
1076042642
2008908207
1323954796
1317075524
601106420
496803284
1389570547
490675393
1889564379
1302125858
428992908
397464273
2145415678
1077526923
1021705867
100367912
1965127565
1005772024
2040254122
656679474
414663778
1092019643
748824136
823098192
1891133003
2110067359
221482815
550821932
129938978
799391807
268185040
938797438
48552436
1744526241
323299461
606396955
2124009380
969709421
206476612
1954545519
604208943
822667242
1780543580
672096742
113857582
212354925
1111431612
1320803568
490725624
350700216
532798559
1724679999
185501797
165694587
1971714995
1449988829
8925303
233003635
1077267043
426176012
521141169
437045557
1427589211
2028219137
620956850
2059176100
782747802
1673736271
432033593
78548995
1076764786
1129984229
1283935018
714447390
1972133089
1905880194
923205235
1446586858
79298893
1117599860
915783503
1731712626
443534722
1692454579
355149499
2091835200
867044440
811788073
89457284
908593334
568748292
1445795723
41963509
1666105289
1202867903
1053752197
2031041778
688752332
270454231
1199449403
802501517
1976871374
2058816052
1923863860
649194493
904608271
1385574981
167869182
2082768332
332092163
1189739644
483720387
1842326451
799712923
527347094
927320305
772258942
477122716
797812543
592686177
312737313
393802706
1994882606
2120250537
258725837
1537875461
238196825
1789744888
10032045
527823947
326587171
629481669
535015
1083188948
1087549945
1340354685
1506775702
1463102919
889754584
1083127024
857153378
1711590655
894333528
1135195718
405298979
445702393
1406641972
1023239659
1825638106
367096344
1858878313
927151823
609248302
2068779437
1735605462
64961966
875092120
255098433
1098488886
731928955
1733188188
2115538748
241079288
305439574
223018876
2014406986
556701348
1394845426
2064814119
591526777
47563881
138371822
1901994115
57852427
2138237405
1453134069
1049146135
1407636438
1765017083
1346811341
1476780740
1940796945
1432705130
1844869716
833328600
1809217710
612104247
491571864
1193785126
1106942604
369422665
487735073
505084332
953365902
2105666393
573983923
2104598820
1401418602
1700550555
89898123
817059344
1738754358
154675028
31714505
1814232632
1151958022
286198358
1552537769
1218945101
2004086084
1520252059
415099085
1419201922
1922150052
1724427488
957582122
1620907034
1812881091
751575906
1613861786
2115172632
203443452
621694714
81159229
373881623
392095151
1370412066
1285610812
408034383
306341671
1660007355
107943318
1964012824
1926094126
1372733352
641981153
2136558959
1348756813
1797692139
298056197
1210728470
552254307
1239203440
2105298681
889742422
1970671117
653920353
272735598
1489141797
1340676626
841372045
2065379542
82789129
369135487
1437305903
826885303
480282505
1433386385
1559423436
1830303001
1726258661
2144241327
1822984749
860976668
2043584137
2084150639
399421552
272323925
1423885208
1738934213
489259673
1446543574
1673776012
470346894
2089569960
926439549
1754162194
429172296
464607684
659096886
915381076
879501526
509949399
264002118
893082228
1951235201
1710137361
2003860683
1418192970
1658125129
1606149993
1710052394
1919120210
404304954
1669257773
1814544934
720937875
746688535
1560296698
1725670397
731592036
1373113799
1578354826
999135566
1649777619
884428438
2033561673
40211749
1244703253
1788209539
1836757052
1144207018
510543457
399509789
949723970
755820618
1829774422
607145485
335913470
1360709802
1394837108
1134099739
905422816
1648253601
594217296
1267626409
1742127828
2053635628
1377793338
1166269255
520210490
1737174835
1050712181
1760248162
1166906364
860000114
1443834397
657051582
1148374627
1901376938
266908525
917596620
685128406
896189957
1876853448
295733459
1781828868
1768542919
104900003
661216859
1734002877
452985931
1517677287
270614796
607397520
941000933
1092218148
1664704853
714507051
385437163
1501176974
1786889539
743855455
270892860
1279984012
1165462744
621489132
1557122949
1737363263
805273061
1041085514
1582533035
1505893668
47044982
525879516
1742432069
412512627
719091317
605226621
481636863
1836712907
1081091913
431254409
1927359482
880787255
357459265
1153400418
1787707131
271633438
82068829
1581808226
273937826
788914886
138392598
428410754
1763392473
1029744130
182188524
15529870
1942414794
1090389153
1013090229
505449752
2110587272
1627038841
513870450
1758021927
487714457
128078726
1444268006
1672626729
980827708
1499694036
1318273819
542441901
900225951
778030092
345778173
348646076
1273691322
305296157
1463320534
1211836378
279009694
1202061570
1562717661
1447895506
1871850825
1815206637
1398715151
698318309
1576173081
423158628
975715033
305505205
275328332
1193420403
1490022087
71682871
1096568862
1082427996
126980982
1480954833
1274629922
566135490
1243114525
1427841597
495505304
863173373
608266003
561759871
1069507169
1686359876
1172214431
1906387494
64748966
1111748736
559732865
1654523759
528825291
196678957
1011679780
1958438476
1500931251
1592173698
133236126
2053595980
892157236
87728174
1393465566
425622988
1642700768
240490151
1835536131
668495404
175103298
914791900
1616673809
1067549742
2024396
141841576
793780469
1428786348
487272539
1066135025
1704861809
2024882376
502236721
720323113
1324645009
601832294
501510019
784001619
303780281
371554209
1257211306
60645701
88634905
1182816004
1536917803
2060988127
1983920771
1496854610
1122636331
1457789432
1201967351
1416520853
420511902
923886133
804482382
2120154802
747639965
647824020
366310287
1684003028
811288170
366214170
2021518022
29772516
14202663
1576904530
167573962
1509712122
45412474
1860570890
478489429
422484280
731114787
1728139959
1120221784
1931160154
1439918438
490803154
110569031
2141966768
363789044
232052020
1617268533
1092823563
1597436208
690920660
617110033
1338411241
1772813802
918834594
1828298029
1527604684
1575593208
1395082969
300143678
1216300931
46494919
187363556
682253440
881408820
1127286480
871585999
179124619
2041827833
391300939
1642385864
1378427063
650291162
179406347
1183686618
1471466989
1952870713
1321913982
1203939686
603758563
1464504752
42207066
1346908876
1950186544
996620806
336026606
746561335
1595931558
1235291818
1673358320
1001601882
1521802895
1356813733
339002163
1488523297
1534314713
132230427
1005066917
449166491
2134722132
1564363046
2062835790
1902663629
914429700
1863432927
1206880091
617110530
550093758
201932273
472981685
1834915816
1494120779
1267764919
16628476
612510110
961293826
1527531826
1545997007
21135391
738659694
304729805
1003150178
1797744308
1970613283
946713770
1175897711
646977058
1966310599
575257075
1524544547
2089439100
1015430097
1814250983
1647977532
35290648
1950690208
500395708
876887373
1225646541
1890957738
1766426348
2069276158
244302281
2024993144
51983416
1798251606
1775937018
816114099
1138560361
613484212
259955116
1223192688
1433846053
504583114
1943369225
40369939
659932051
1877787317
1901999119
1397159598
1091404995
1773042546
366495403
1889543190
1252274044
1711185675
1528298822
1098419379
1176694354
1636014056
1454173718
1109885411
2115025769
1867592232
1435723802
647298660
413185319
1044937584
1732898095
349129003
259849664
2147183519
230929635
546890486
3612884
583357667
500250255
1135589739
1636237667
1978211335
1438104293
1705944178
631328971
2007382164
1305540395
562702684
839814333
978681100
690728681
1439270914
1502315746
2126423947
1380343297
800919252
748448379
1459075495
438103024
1225963104
26961120
1581193352
1038247012
441059019
86749626
1331787225
702528303
1940407025
2014988539
73170692
1175491933
1634590024
2010451274
789534356
859249668
1462645802
1254195473
1676268459
490722907
961189307
702285021
1554745956
703499235
1521585200
1697160571
711171163
283979497
1210282571
144589616
1661096053
343264892
1096634268
1398126217
804090829
1609601200
195755106
1659166716
2654549
1140766042
1484885646
1760539860
29463133
1569431399
1306725605
420980373
1800672917
1872554051
1433168930
965908685
127030497
364542241
839832396
1624399606
1642509068
1994894688
2073372385
1858454353
1683867159
1195802017
37150305
945558709
740960930
815640795
1134108663
672414992
1395860793
672864040
96412768
1182818262
1782516298
1238027412
1535828976
835125068
1617587875
140280349
1234111038
55225389
431824908
1508888848
2031301277
2126592741
2144199805
146838694
1649110070
639861315
1686504285
1890340006
367265425
1912512837
540382521
950634359
1361225104
1976552998
1766431840
23745571
1325243835
607366109
2098521314
277003525
1403689173
919742528
1312599251
831277595
1061519700
1913643940
242881670
1558153841
122730395
346955125
243357477
765241169
1307544898
1067592390
402639460
1323040316
1759251103
42825202
314681145
1241498327
154728705
2103378634
1999673815
104835424
1484863890
801603236
1165760965
1403492765
1173708570
457758108
1910278912
165832575
1795724219
1288327379
1937909006
357144302
1550697659
918175022
1692443585
1121133930
1887835869
2095454522
1764278283
899046452
2064753332
1867664245
1407217363
784378531
958625892
1903845619
1554705133
854821049
662301888
1870844663
2054259672
505700553
1081879712
1258640785
1446917896
1631027754
641604095
1430302148
523833295
1924078444
134967103
2090143776
1717129004
1843870796
572206115
1196820143
159079624
1920458844
153897564
236641953
447512225
259391684
183285933
601268244
429742583
1684844381
1194041374
975211137
1112291949
604452769
1157099437
1412832418
622338979
1250249373
703344899
56598941
831367250
607268647
1627956373
1937786738
1449036611
775421445
1771873654
2126167504
1444226887
1850204978
903894553
322132848
1899274087
330328102
1946129470
773377284
194434936
245024323
1400321413
188500868
2079929301
1212694860
1405455245
1755470292
1103700510
1229490416
1754214378
1637157667
1851877663
1623335896
1115232453
1826673163
604586377
1241899422
1394144555
1980028347
640038301
1539724430
763154566
1497354381
322029946
2121028842
871039015
1048737422
35908604
2099350073
379278954
1735418770
1646472794
1061813716
2118819677
12095835
611042448
373667212
1487496425
1731089858
1702776261
225662318
466025392
355199418
2076665022
277662154
2025444881
350713396
118552337
1184299652
1558585774
1619241913
1429104336
767394842
1281600194
147120016
762606027
1452505724
254019831
1332982560
1437459050
324154225
1570378542
446054657
1750992734
164567175
818125884
1103680597
1564603460
1426162019
345405053
924788161
1914800579
1158780498
1525793007
1897341730
1931560482
1393113521
1347713782
1128676634
921033934
123730744
448422006
2139765869
2080020223
1622872474
908070459
1235657276
839613592
979000556
290418280
2069335159
446972643
1204515072
548760739
1325606132
306513625
1973135241
1411510846
1129486266
1002294074
1558329877
930294311
1243320531
887210583
2040226995
625806872
1495483117
1824742873
2045612142
1444821392
1533277590
684336877
1183941800
1020462933
1302207292
1058234012
1387700845
230159578
18739042
162424232
1406936471
2066501263
331259214
392555979
943222840
652616930
609480196
602337468
208100298
2108196744
650346114
1781952854
2134414423
778897958
2067168765
1904673600
1419180509
757174504
267187171
94313436
1587678008
876307459
1566281509
555821497
2117228585
2139131058
2019359493
690386253
975305611
92829912
1180679748
1992149351
785522054
1150609332
328835388
1274995435
1837530607
1250172467
1667865559
2005117249
1565525688
1992122958
1328630787
305671894
1298097561
270057645
672068677
1888647413
716746448
669194182
1409352043
291704877
828442417
1715432560
119281885
160389396
2067748525
1128695404
94154503
623293344
2097742362
1533400139
196945416
862151670
1404284349
2090768352
1280930581
877150864
990185363
1030117983
797527346
1672230036
536451382
1695131818
377086831
1722051540
2145100490
680662998
1777343278
761163612
654507144
1045467355
486299235
1822092079
1750532497
223143169
361284010
1729775962
281772387
1157343998
411773546
409735520
674347857
1958437265
1740856784
800198984
47603573
1236917552
856624626
705187015
1032165882
1828912064
1467760935
1096988365
2007901290
312058074
576931755
1305587861
2105303340
630978960
1861302706
608064135
367426670
479463934
2024537613
1859091670
1321375572
1681227725
630773980
1883811471
1797257630
1978257432
1456373845
483632918
104614967
447453801
2119941310
1875234178
260955073
164779473
1300991288
1729257928
2054939210
110052493
1185929011
305820655
1451088319
1442623648
1505467359
732669177
41604594
1656778846
1930802860
1084141283
1348593546
576893283
137175937
2091300132
873760134
1402605335
897043824
1128422574
47972368
1944972338
1839522731
1524608113
1455618549
1445992777
166443447
165917940
1531702233
309247938
1065364435
661062059
522038723
455055030
374705695
1182257228
6228422
442850939
2037982016
1272123736
1738167834
1433445842
1500322200
1797599334
1193416426
857527696
487395848
973317236
990882181
638223520
1168453252
1005602853
806680118
563615057
923052013
64453046
628763054
1815713841
74771478
1150944158
1891662032
282130754
2006861010
1800653983
1602414978
1674015837
1048773963
590368728
776873508
130633809
1239040236
1807605161
155735713
421848194
1697843544
936420134
765592480
636347423
1986606229
1546025666
1223229540
1545990895
437562238
1780253914
1568038116
1582006636
2126266304
1810335509
1095786651
2043670834
1890913032
1423971711
1056541608
169214080
2092389228
1502839404
1975886505
632913840
1733426080
1214944987
1366146987
1258376305
1938126851
1691816458
1320971501
461149805
317672706
874050398
1162528506
1441557349
504305185
466389094
342337337
549096419
458101515
663897875
1533138313
1583253221
1737637581
1145138353
1401832335
808590947
1128656265
1010198247
1954762170
2069230488
1524429552
1097728897
1092748885
912751358
1509970029
1463707959
1982236596
2112436442
1957260184
1990121174
1360547308
1751008643
295029778
1427057906
1217632753
1379539360
1704747555
1196440877
1426381546
1558553053
1468880049
1312678570
1393500449
591043548
1885689811
1966858908
385259497
821443075
1807583916
1187419124
2055735267
432279674
813751862
1020809277
85352875
530728973
303039142
938781480
1195855652
796924839
907861720
818574305
579325684
370646111
1537641799
92109895
1981928912
774094032
60744582
1959340389
302774517
1815324326
602046311
239914027
1504452811
326915632
424435212
410173683
786842314
170491456
2110650831
696473787
267395988
852407662
1536487520
1922336820
1216553380
1673128224
1852256689
2580726
824510296
201857794
1082045637
2103726488
895542509
1367172243
1884141579
1409756530
1005122420
1900102421
1354007920
1412168998
297434696
1891642542
1565639248
1682806607
595383731
856910895
683033787
317128682
510937391
1383089441
2053468657
1078497584
75639211
742350958
1185621219
2018634665
1422578569
1637711992
40901722
2028056233
616218911
623279396
290844889
1256978421
1665377573
168527995
746820412
1095281762
38440000
664124055
615207682
560629928
1751123988
1196811771
1240689796
793770097
1459314927
2070066144
277487264
1327413144
1603391610
1696991395
953043477
1811626429
335725436
609923036
1444255373
1422711578
1425155186
1492865067
121184712
1153423440
2060037617
1510189082
271693224
1450577642
339362952
1040519769
1143768608
771196295
389437745
296702295
1403090838
915651555
662590275
462333050
437513535
1728365496
2146960284
1398809475
1934040913
390406166
438967652
1048404784
1875835237
279539264
1632942551
838885802
1963360383
569300563
348119405
241220150
1821688168
638534174
1996037851
1600856565
600393427
365715139
98113636
1720986610
1530468295
1761764539
961164129
1959220642
1260731886
1039378198
753483084
468933278
156488565
1910369561
582557393
666161451
1227135391
256545138
2067961194
2006978251
1590302507
866806573
295237154
1154175973
1118846477
1324252519
1608316847
257573062
171547154
1693347869
1794540707
1743491288
1729890111
1099812808
845059536
65675203
1053159273
1571886633
1123161099
182597016
1330975070
70482513
300335903
1310464551
533188182
456034484
1864053692
584905453
624033987
1325695976
739949940
1657726331
383670852
968789086
122585448
624002277
1600473660
40865970
16020590
378766867
1893886746
1433208456
2039836904
1811331837
2123463156
2135845318
1473466853
1230985154
1044108311
1640269311
1971852379
317685544
1476361452
1786348972
978256366
47191464
320384269
692767458
330359703
88596209
444000240
474845057
1766603446
1199694149
1678154274
1160728038
1030915273
346297035
1505247258
480440354
1624474780
267865123
1533940561
2108410213
2045744278
302089849
219759142
733435180
522846639
1771265585
611298511
597082212
1685351717
15327373
230894543
2022259018
61617858
1780850399
1201888983
329779081
820178732
494406473
1091764780
1160080567
971690592
1049107621
1446628789
871320623
1117800799
229587811
1000069802
1499896843
1166636373
1020228910
1073713699
1543281902
2055520431
916715842
1229660963
1151785465
1667201654
42786053
1354924279
943387038
5076932
1308043289
1731127607
249767289
341491412
1201809462
1905848977
1492955891
1813002265
1612910132
1532895899
433124110
1185180020
774361499
1787497499
1035617053
1412511857
605707569
931329384
308655201
830976973
2011497266
18744995
1292010785
1683678843
347683250
847708108
1934647339
412791079
702127719
1883338563
1235051859
1106750818
1753760670
1709285380
954530335
1252595477
1180320668
1444845441
1969250583
581811980
542219687
453524549
117054242
1356924196
1715362323
1414106235
842338046
425515759
84407813
1971358538
557349237
1656868133
429922410
1054126076
298952277
1042159352
226463191
1712642932
912027658
1397537537
414092438
1455806307
1688438788
1975887622
1148797264
1940544410
518621046
1274535131
1829872444
745381073
2020329020
1030137161
1736413182
104424073
1339030733
1239599767
1549807680
1713415648
1460513691
2119752213
387294258
6797173
1636059910
1909288625
2082993930
1205005583
1980712055
255886167
280517569
340056328
738767284
1867566425
2013770129
2014644244
1733027324
647503342
187780981
1604863718
409517412
869911857
844831022
519270791
995669619
591146019
1841027863
2092025980
1747374190
166067931
133754491
456642473
1713059194
796458713
981214679
1391178952
1394321808
285369660
528679156
713833780
370262970
1662680263
617097643
361708542
2085088546
1460419825
1288189801
16814209
248392412
687729416
1807924252
2070588742
1578609766
1664337204
817403824
1819387094
924984780
1285928079
835229009
1558823149
1855450616
658573077
1584090786
1079156916
729671805
877605527
690968807
79683268
1545483553
1805295095
1840691350
1717059426
1157670968
1812624510
248946099
531916525
1658981032
1787723530
64645243
277223393
633021204
1179912065
185267491
1477507516
1544062106
1868349978
2059088079
689825218
2057578592
1991294855
825947287
1227997004
1185009033
1837394021
1865493231
1022414937
1136599284
717979189
1996372924
397914186
723037636
617752088
518504374
1016247016
318019093
1184168749
451837398
450682222
1502876255
112273621
508538514
284124524
1377614469
132484240
332564753
594196263
600479191
826138846
253957780
532808607
1086059157
1981869685
1083920145
215111298
1388840779
1956300778
536575373
2087597419
2045860526
576457471
833809496
1692845230
958722946
1996958385
1031395490
565933760
1930908024
1552204385
69054519
381239872
1647324252
741863273
2105578546
821190668
60161455
571192137
1726817747
622301442
2122993736
1953652367
1828690767
1390144840
644339764
714080833
59054848
556546572
1320375165
1474882255
148005008
1998767905
1171272250
386736631
556968126
700503753
1812596444
1926887681
1244652931
1318488631
29605494
1745525540
2090154791
1604475133
1891475627
1190176745
1328333614
2094075638
25368728
2135807206
1801034126
1537692243
523322423
1181194387
1204760804
498971184
15158660
294509611
80146039
1389903035
1230080481
225293858
1882525186
1535286499
1776313159
212413508
664653607
892977657
1482426239
1582104091
4974728
1900809271
1789255959
383612559
1439253668
867763310
1972950899
349390704
429589949
393845047
421091084
1803643494
2120340090
968484411
1954947509
1702693861
1537173982
1974305057
1406854828
2042658126
1854046064
113725832
1056285494
1558327089
1731846224
1463676328
831507030
1238938417
1097850354
887456036
597439945
870631144
967771041
2122857496
1859837370
1297769912
1217467086
403064746
127097057
757195547
1740195323
329664023
1804019099
1592397024
62578291
52385707
458012887
1344558503
1630336968
1258662281
1734629312
1443104457
1649189973
526552091
1400354548
1993964244
95310111
6361202
1330996042
859987888
631206623
572010442
106492368
1103626462
1928952126
580614331
185661519
161782233
1564937168
1302021662
773049660
663269390
356290078
1828551826
1544818694
1767470488
363129820
1240977898
1885731274
1946235666
570666299
173316703
2118546672
814397870
1900892925
27991829
743767481
736157273
1178008298
1584692344
1523665480
1185610464
96357425
1325795511
1850588087
1759475920
1873455897
1385841004
1034392853
1724212170
1944630701
1722892899
1261829187
1665008491
985729083
556909562
507560617
1028619648
1426802852
198418466
1123021988
2097774867
748583964
1031594686
738538025
1039988538
878682541
979000743
1792003892
1134542550
40867788
329042139
1861008286
907374054
1847150621
333670144
1082340231
2079726647
2118196101
2105357617
1825519641
1070347545
1815525044
2076811306
636145263
1847743047
971636298
1763820306
1676085688
1528438302
1503945533
1859333511
644209035
1151679696
679966337
1289040329
1258660815
278478973
70370974
1124186951
1175430116
1945608558
252379594
632990903
1744442153
585286117
1171809468
470074893
997136784
1054406609
1549429893
1564545879
1823049025
1928240790
1842664672
13492808
337136574
199242198
1770117796
301482338
727306468
1542811643
1108461891
516359454
1690302634
1624146868
1249365725
1615353512
313392625
1800681082
1365579668
1730857693
1161892813
2015636274
2012427017
1737162506
1104465233
2029133858
1864286211
1392427201
2031373779
91699451
986931344
1745271503
627654960
1151881591
1349121661
976202769
1153014826
1561089825
1637492559
1984701894
763700441
1563143324
1677732207
1246745042
278118935
1395757668
1752684275
1618296957
1300599957
888707680
481168150
1232551780
431347466
1205543284
1550402998
29800283
369198561
1774244242
120232014
1908806263
287494230
1929522365
1642584406
1630743218
1500663718
1658527449
599794001
1376305236
704579618
642094965
1739296400
390100882
1812869466
188034305
474435951
1073635078
926139851
1481426550
771686679
399441530
794090490
189222271
250885866
146861098
419743161
1852598519
1797616637
474147910
969800014
126500680
1182092161
735024664
1528283513
1494040667
1968363829
177177161
192525534
133101519
1474591702
221971051
57538448
928311199
2058738212
1436835245
1601389204
1289251429
1057632159
728995782
852472833
1452317918
1880350508
1941749627
1262839827
1981239464
829575558
87671932
1462360049
31590196
2121734053
655414621
2087781254
6812305
13850629
2083538595
1348296960
917373097
1483637323
1969815712
77960433
1039265172
88558619
546338172
134279841
1917672744
2136994982
1259544392
1160496320
239730139
668389849
1921025850
479485213
1837085331
560735158
1706676983
704769303
980796764
1171665148
1166793467
1621501382
975184184
1482992478
1134414176
86679745
2037486682
1167350719
314392480
241897332
1469848333
844371644
1940980965
2058171366
1102590255
1423702044
635124834
810000767
1923886284
202893302
1125393321
231228429
743219288
1774610078
843470962
1590407410
617530598
1720492136
1685432257
2144747314
1304816758
1046530871
2079941432
346023822
671415292
2127284419
1305690063
1365503261
165473791
530781428
1630256140
2028293306
324099241
301725815
689770022
1442379313
100406258
137954817
823499420
545705001
1417194489
1429397034
1413149105
1796369485
2136025914
530398130
1549162149
1727840136
998551804
1240025033
217304362
47141476
1759586026
1443247736
729591831
520254800
210304178
931211842
87478130
1389307019
1444800624
1973772690
1211176641
2076031181
740930154
844999111
1011268507
398614401
1451099848
565713923
92402437
853039864
459558784
957161840
424095960
2116880917
110532492
1542111093
1943137516
2014034245
387609527
268774323
1672213081
1624980249
993457730
1217243302
1827157207
312362753
1339992169
611363301
1443508116
763863891
1258720477
169623531
1688390483
1834161214
1317218687
1586482382
667667517
1614025849
455383757
748027990
1791674609
558585288
971681022
1814698983
172271582
632555800
860487284
959021043
1787471446
475655751
1385900701
731020892
900326999
1441344803
1038941032
716273753
1409713295
591983901
412263570
2143109579
1114322794
372368812
2028405835
461622789
2090234978
277954208
803073851
1978147715
728637277
344578225
991723848
621975751
572702523
1342432497
946960608
1163155409
1974156800
1809610161
1403427054
165620523
505556490
937807519
1841566286
1368560084
430807094
1644788897
654243740
1648302934
1958367807
2147301235
44807660
2011237420
1802755568
1343981465
246257677
611535399
209833362
923875509
1308381339
270241881
1563669448
623939768
536382292
9497547
2070190379
928731232
2087225567
700284703
427752087
345275383
504741930
683446157
1965707057
980085307
472156225
762697817
290133776
529374720
2086587331
1043802066
136212826
1291511353
1992999385
734872342
978991655
1264272690
1963372870
1002246689
1952100736
54075920
1308801687
1096684850
1518774515
1944469574
1490135526
1438064471
171129371
1845493882
795464204
421420050
1550845074
1269000175
1548676463
1757256436
474281197
1904341329
876480936
893117408
1242206784
958932282
1192524085
787305463
832951472
1038547320
558550343
1191854175
697336706
1659959943
159176920
344892543
1152850866
1247558415
2073541246
2122503224
425016810
1507462134
1567026796
613317019
2065278118
1393917228
1180264737
1507252406
653959954
1925817814
913815986
625564564
1665411657
2059449396
1050948474
496199390
2122864843
837157
1717444826
505968091
1681624929
1340836247
157351269
1037532833
769986796
988128257
2040051732
512794339
736962366
383443915
1745091918
555487100
1496437167
1305229181
1899858338
1050894471
145423456
1481928343
679838652
1158545172
1552366897
266387878
507764259
1917976450
977934978
1440359125
622641866
1845113630
2006243761
571495746
47186949
1732412309
1734530298
601345601
1211930494
692819950
1067604369
1047223699
1040259094
1174847469
53677793
1245879364
693260389
194717979
879944601
707667735
650169628
1327848090
279086169
1814732022
1992717953
852621695
1955224105
1526425536
1511338997
1819596017
1323897006
381570373
29332673
886913731
760521789
2143864474
561284036
1867027265
2086074362
2017468460
1613168747
1131693568
61797520
1040016168
899342794
1408230723
2076126781
1601045730
963616938
1836098390
1364398688
323116821
39987567
50793911
1224974205
64679996
1923004134
104337905
866427121
1820681265
807121923
689588718
1229158351
934962151
236365477
1538822174
140535624
581774852
1458315562
1562041128
590048249
1134425857
866368915
58090307
346921230
763367758
1621696177
1847987587
1810366466
1285873041
1967848264
657203268
856759731
2101117775
1035546667
1360936928
356110576
1167945916
89840099
1501344395
79878350
191079149
829781979
1184230569
690740009
194557604
842929504
456615212
1122300512
1396031528
445480338
1905045873
2146157533
1852828459
479228876
1504569832
1813847610
39904198
1005385601
931026532
1011097525
96208493
1005948307
1318871573
722461772
1382111247
715362899
1648613216
2067315700
1388267112
1731302601
1243833731
1916659941
454307923
625915962
474377029
1128588778
1338029511
872685147
257166365
1774400599
1325125816
965040595
2139393021
1606136540
760853643
591718543
198046701
1803057914
834041574
1002812844
266927666
1959413802
506822579
767730757
1391413948
1777755511
958841192
912597224
427022966
949756831
834845060
1717812365
1695995156
1056626781
701380648
335662698
179672045
1579246317
1582756168
101260885
1803024117
2108701816
517592043
1777768215
68944101
1576471542
2068065121
1437794475
822131576
89573043
1314948796
1733345850
1955685149
1777423523
190867838
191343833
1087495257
818921533
2052309936
214420785
1005416201
2009590570
1484730923
1314670154
852019991
529190427
513935081
1916220261
1807242389
1868840368
6101332
920621734
1318828052
878000518
218848797
2115647105
1589626500
693224073
863848393
1049018694
1309121168
109787208
1193799550
327788066
2147353394
164642897
108594117
891040861
646986043
573256629
119571127
1530636369
961731398
621286809
1447114847
1859143510
1666331114
323686742
127469710
1812299950
579779428
2027978988
1607597540
2889844
929497438
1500478241
994911001
928995695
693089038
1761077661
1272455670
2084982748
291179372
2135238424
1155443992
1047136969
170949741
1228809763
248032998
1236920245
406168440
859578142
525746875
871818024
331973992
1672529402
501904505
1121907839
445846390
1568999751
131451185
1343319803
1275328190
96032793
433164132
1975872698
407938285
1341157432
1492973330
965427376
809417792
1101902855
785183230
2020733210
793421874
1278216681
679467952
168409396
1757777214
821182785
197520091
1708954656
1403813145
1023017316
393177053
286641972
1746531171
591282016
1880206918
942777094
1548917250
512638221
1706292481
447600543
244208736
1199705648
1890901480
1423207634
197039382
857581472
2033831512
500780445
179501192
2062513511
899223495
1050937925
1578969859
1066629205
693090214
1472109171
1326781310
178515202
255088560
50472719
81676333
759200234
1052210727
2008735007
365939611
1416947021
1696779852
370919505
408883122
216552359
954751039
553366444
175063771
1398672968
506599755
1928598925
673571780
397463789
151239935
639303992
1386585614
1142005913
1113519041
1940988069
1915776515
1785932038
318479587
54310789
1314000212
774546518
927249828
1990896945
701736729
1475299259
1701515749
992910998
123327453
1048656480
394189909
79362327
1454235233
1314985062
950066867
1544166466
1775456191
2132861832
1165791735
1297187942
1948959531
1828174591
1700525794
265813143
2097349282
425773186
2051421667
1825036578
437873492
95351702
599394225
1035352533
1974114588
1855849075
817161467
293098435
383015843
1745504709
47709992
1610597444
438956650
1947722286
1838940320
873917088
58429621
1899128389
698651810
1408649867
284305837
1584281898
90486736
936113719
2059437467
2113164559
291819619
124649716
1372232921
1229037777
530288250
1720776985
985939184
2065878707
174756880
150694503
308802726
662028908
1492116867
1582262312
445073459
1893302144
2071798274
522395546
651504996
1754636192
69567334
591491618
1533792329
86134882
1819518548
722179988
1848548996
1608112711
712514348
739559472
2135530746
310160930
209829305
993062758
70189644
424737825
200332652
1548707181
1804868883
247910811
79035907
1385869899
269385311
1772732233
3004347
24532775
1108504263
520685522
120225443
152281495
691251998
622810559
941345936
125207725
2007590765
1419966976
728195033
1222868118
1781963918
168276421
18967565
953120670
1370987338
811267436
1215779517
243976454
1790306689
193187299
1245512446
2130715496
310601163
667890565
489562616
788568762
2021504007
1221719125
1267989323
934653465
1027273128
164176356
924924197
1223842593
142651745
499255258
1358193778
1396455294
2047230055
1039313465
684862780
629510793
2015572412
1489750833
1204320911
280076633
1118515988
2087549459
1066091436
1830530832
1465395297
1128737046
1358704427
1283086369
541299047
969690001
158202846
882363573
336606257
1212578982
928297172
1970805262
1652888238
602811615
473142704
128351653
2138744455
647157997
1253700370
1568849753
1494967611
742115312
757045911
881300180
1167625308
977948967
1089615595
966984372
932460033
1002875685
715416739
1037689469
262255949
178274527
1548718639
1183795368
1818049020
1305120997
674867141
1994985812
700169403
1748996945
953120767
636119063
1398027303
1292937166
216332353
1862097491
612569239
147786797
1076641934
683962794
1281949633
817158765
351556638
1882019410
182843981
739741492
1700835641
1541241023
1590793873
1959598020
1466608113
1982973047
1691461182
2001496139
1746764855
1244289567
827332940
728930950
530473468
565924345
1597057988
1391825776
11596121
169575760
1074452552
44904934
193586485
1288331800
297702828
939263141
1960850743
1243988912
1484151483
1002473700
2135827961
76076636
2066082273
2019029065
909318498
822935683
64054946
811298572
510076769
1294325308
1811558675
803279521
1244757335
108073432
682822125
573120424
454198887
875796327
956071804
700512288
1561517231
941391645
1277862147
826575420
1281884260
1443309062
758447131
654787987
2136987845
1888832045
2062671806
1980602976
463731723
446311338
1415440675
316669851
788905968
326088535
53532827
1524662327
2032406880
242137254
1444981825
1357632239
1817974157
333649045
1196688873
1915680600
697667946
1542785835
983881214
1916427437
1000086083
975209001
309612682
628854779
1540754945
166942585
284240310
1030124045
323638181
199998087
1993414902
968291896
403038925
1131384828
262055527
374630427
1477579952
754309676
1591492161
1165965903
944552948
228273467
1750961642
1913805897
647169318
729425858
425207605
1438718144
1003495150
1883305473
650931538
593132564
1268820530
1302125583
1225246998
490422830
1683747450
892651354
320939225
1815563542
1802759703
336325087
1081127132
727950122
792528429
54877133
824438656
1632236805
2018420699
1180812849
1915685401
1194241151
1506646835
959452362
335309826
1261601262
957424685
2110402655
1046194170
708352791
1110698787
219595087
1599120351
1385836912
1078045879
1114175880
92540058
2026946562
349352335
351758031
1849037663
1667217906
1409683412
1879231749
162820398
1936115843
1458287201
2091255998
947172033
1399165365
1737435549
912783503
1175703008
2111440341
2129937194
1304981642
781974739
2038576848
1719036618
706818952
93446758
959100247
1796985419
1314125335
1701443414
17987567
848126374
2044618723
556219734
202197154
646213505
437077801
151272388
1722661800
1419723093
2099739016
1848067123
383757674
229462918
998911880
813891140
712788185
10775023
1892617821
86260740
796956042
42952740
691364260
1246631479
1689226793
770175289
1437030033
702894268
562609833
15454324
718552418
2043414070
144468658
597633404
100193385
1022270814
258358054
55341179
1276025162
1591935968
1123513734
2054367884
909845580
1058747398
1893316883
1228305805
544770478
1607204888
2142455256
863787315
898614448
264840814
1263913646
789503549
1033775392
767012488
1140898618
623898454
1652481600
773295323
1623207517
1748042124
1871798405
1556450950
686900431
515867660
1752566752
1706462909
823465635
196548749
1283042948
130871811
1664821875
1114280894
2055807599
1875471080
1265398367
74761418
1806037020
410519133
1688196058
927074140
1609889972
811237224
182531136
346265923
614475846
1815141352
1131679943
1927134574
1189359641
1491161340
2077924172
1036100081
1522747547
778071626
885678437
2072252858
1911946145
1482331050
1178040938
2099375077
2043869128
1618979899
96419242
591619237
1963387157
561132281
417038559
1840188777
1746230262
679116635
543645147
1551737979
1438361496
1866422521
857637291
2136976847
1382998071
501535849
1222640205
1751503765
72208609
1360164646
1218296995
350031285
1459617400
1853989837
1593916296
1072665187
1092268267
1708478043
468657475
2010877569
851773053
1385953438
288502321
934323742
594808183
1333589530
1287039773
883243867
918021695
1773271283
215969567
2134147253
372436566
118351163
1973256687
223760348
1760817627
938602041
1494426317
1010944487
1049388546
1504836033
1454074314
1431027959
1448848244
487148807
665808524
579987035
1638422659
2002813130
1753347714
625198286
960531321
1019591976
164277067
142245789
2105164924
462962333
1425660057
2024823502
965527635
1913135432
330150558
420023360
1767639587
2024502881
1906451472
1690030924
720313970
76128071
485762378
1678792878
1927984254
773714617
2023856523
964646817
1300797647
2045945940
1766765913
749211049
195379171
848629053
1551494510
2112582319
899438601
2059665483
644312096
1990080871
1003316068
970569357
858591359
1457690604
515988229
1670498009
1265103715
1935333191
789207125
1064074885
1430550345
168143983
253118251
990936566
111271183
246765525
1330487615
2116787261
1832542981
1823641128
1324822378
1702105995
98102062
2084317309
41538529
1032517043
1405429960
800365616
1505058110
228648966
95377335
1164852187
1061904260
2094934035
897874316
405225166
198252490
1554962270
884219109
2036765153
1308841372
624201692
512797390
1443524478
1932881157
943603795
378748217
1048166300
693383640
172445784
678165922
1225343102
1173747840
1612647659
870845215
642086613
336634317
586767455
651552768
603088310
604941317
1674164859
53571895
1152519925
404508069
32079190
1342200669
2137177017
1755682722
136995090
392706591
711330875
1126080375
915823695
2091322736
203542605
1867428190
1446886464
1085757641
53192702
360155883
1603569976
1015595127
900754118
1372691783
721433239
1809199178
952654047
938890961
1448510249
465734158
629740289
1123120635
1093590401
746904461
449206954
751985463
2097594460
361569476
932354675
1253479319
1297781282
2141877772
732968509
1348858533
1458812455
1356598960
272933717
1220171035
1691150382
1905615589
1413368111
506130967
873324831
1667179087
620636461
1089791680
129974971
1960678856
1559645941
1316601814
1475857557
2003144245
655231158
395119549
1197725606
1449712189
784131937
25818389
623385451
1361265891
1642956645
2745588
541112484
1527847931
2061049868
1278553310
1956482958
1339571569
1026350198
88521032
1096604190
862760661
183106425
452709391
1654985177
660191901
848410579
738770437
415177557
305698511
424540368
2144062008
2033302132
779981682
686279274
1494671021
499076842
1373949975
847027510
520714385
1078384791
1055357712
1141067424
989037712
1906918132
901945080
1070725631
274352829
1559493234
1119373561
1517654009
509108021
254920718
1934929809
2085369510
665951798
123925976
748634191
1634955959
823405670
1631435405
1346481775
867899115
991920859
1081601788
919427302
1064172698
1474985967
964364634
1097351290
1289847815
434209410
1334010318
1699382820
366795863
1542818751
1061928643
395670025
1057559628
154495336
814098739
1747779639
851112441
1409935363
260245606
1717368889
864523053
997068135
998737661
439519925
2050283051
1318869712
1702117002
1905489900
867600689
1439307532
1836919881
2017181113
956916554
1621729437
1171516696
233492027
1675412520
965527651
1531265404
237587855
1880898698
1579168679
1139464858
19945584
1804197546
1691928132
1999793585
1973113459
1236948563
541856980
429592850
246234091
1273219310
1607261988
1906958208
588419269
152075827
1589940880
1790371229
2083040809
73813962
1247990729
492000421
1576255769
1683219084
1062998484
740950053
2081176753
110405055
1066409776
1599807901
1609357361
1511824247
1636947325
1198810175
153752914
421325210
1646837335
1413888596
943476386
846344552
1241892480
855078952
1621446117
1793962028
134477898
1909995959
794454445
2081040069
846085265
1469386115
1719413869
918391541
400762451
244017655
126124547
1983413903
1653589147
1008756987
1630826227
2005176484
1318747127
1461374047
380259623
2014463252
1454828050
253839883
422155182
1315431694
1073467043
1520312547
1446847526
88217469
406060734
1198060556
134029628
1519862045
134438415
1974988667
627133582
1628351613
1280893450
871969955
1688792513
1671199408
1086757828
89493088
436289495
269704086
511232542
1941794117
2025023504
1453133144
1906635745
1770073018
1564668844
1495967118
1231686332
1838520882
1258675920
923640068
1278907513
12964830
803152407
1980415040
621403651
20142723
1290062048
1129812881
731198826
1688566538
1390055578
1142164203
1010969645
1229519136
1435110727
770735931
1781195056
1335952468
824269205
1708244340
269570950
1737126794
1491159840
1801700265
1125301303
894585315
1183068921
1705789712
1276375183
1929413274
1709580728
902696420
318753995
890774819
1620555597
172880968
1360045535
1093509646
421820487
105570292
1836958624
802453115
1979034845
758734486
436593677
1652889857
1339737671
1691621484
451920847
1765551499
1885359679
68290683
540652034
1253310901
138304394
252935196
869345752
1027166491
1715966459
1830214620
46888098
1027363177
2069997442
379993027
767055047
299828988
1613787931
1867428704
1447540523
920772714
490504772
928153149
1318809117
1315937260
1719548014
1055318907
549319344
745108063
1331065812
1169090250
450310280
1072991308
874364127
910409888
651712147
388611567
848493569
918298183
1920446958
1944619846
177387514
1413687769
1316327498
1743680714
614456183
1626364560
843262398
829655891
1139213451
1882263031
2068091731
414010393
361060921
926213777
1292286282
1505281422
1593567848
1944974719
1776443756
898433906
30970090
1582672431
1906652365
397853380
1656579296
214403706
771347070
1438543478
2114957316
493007557
1919412700
1748591319
347565028
1669537596
400907382
480738068
1601718403
1233369746
1108437101
576578666
529349349
203044805
1716706105
2078292692
793744139
1841148179
2066893567
1227419002
1708300843
2108231969
1214863692
243395152
880588995
254427856
104856958
246321932
1573332324
51325341
1425069742
105380143
7150214
237068674
317556341
290218414
1920177410
885114895
989598270
1124274710
194157026
1154796540
960908885
2071290952
111740254
743474492
278155305
1289626374
235135004
601724442
923461575
1318071727
1449279106
1109119609
1139221334
167077137
1623107175
758886609
1573902280
1097260875
319225163
1170047556
1400255641
666854466
1410072279
1313305245
1717460193
984166899
923875962
1101222047
298388166
1355286547
126261947
957685432
2111256688
268467550
764703376
2052811337
1495323409
1732090571
1883444269
2110418262
18314587
1379254430
170323673
2048062809
867051683
483381722
1503278384
1147540574
2061447361
250194317
766315510
415668446
482925799
1616958975
1293238181
662261292
423256684
274636240
1418101576
296027385
531218241
973622078
1845245469
1347642099
1856742305
1138016639
714977848
1445165906
942040357
1307072538
1963336366
354365266
1939404862
251133937
567861742
1866749470
2045702807
1582608079
413884391
2037558637
1551537623
2095059990
1735233604
1569689889
583917869
1170969747
1318707351
298876000
2035002412
1260556110
1955968695
138236199
1550436549
21031299
1925936948
1788569814
1925000595
2138497719
1462178584
1813146659
302589860
54210871
12459696
855372775
1504351721
1315726883
1854697305
1517220037
1591224840
675453455
726549017
204987431
491828146
1001545895
2040588645
957263763
959476266
1159857614
1068696690
2113643875
482766634
2087850150
1911372719
1392230811
526573698
1736053045
1612482795
806756481
674730742
1144697724
1355220080
1798508831
713251754
19274795
1114913594
707130195
1717670768
1157598534
2060586450
1635443106
196515908
1458786744
1069487722
2042175738
852645855
1252520417
778278560
1508595717
411165001
724152340
547483249
1063162223
694747286
2058439695
1900517778
2007564771
714923931
1013387336
864532181
1126799919
865644792
1617110409
443028809
1532059197
935682606
1363947271
1491716985
1361544638
200103454
236269439
869684417
899245262
638920294
695972851
1379547218
1044847512
1280470814
1007110554
297154332
1587416781
22650769
1282095439
1072693681
372385872
1000068477
1833667449
445347651
40296123
1441644307
1317426446
1530227585
312018413
785417417
1128418116
1567159514
320497548
362134653
1159962671
397951619
477111093
1924620977
1210590904
847379252
1365562923
182246775
1103871653
2048664291
933203023
1378223836
422971923
1117620658
1536194547
2138390039
1297246125
261013853
1503949397
1838252818
2027108658
1911266318
1406157779
1511626780
2067885439
318648977
1269085089
945892232
1901680329
1253864018
1312579961
410061668
1310049671
1819358092
1484022731
277044836
1357540668
614062086
1459663361
695527079
1154388045
1459712314
655184732
79973360
1725494585
1682075053
20797336
1289252321
172892553
435671179
1106810784
2120662639
186769165
1359408902
253312375
1005757355
1594689482
1636480765
1814696951
578740857
410556995
470383804
1669767110
11145319
1973359951
1673417124
63832002
1603210935
560274701
1440670403
238654581
2128775966
445277927
501669453
1401450648
1004964805
1223945552
789701157
1649447382
1424818242
535850161
390918771
1386668098
423779507
1199056788
554838
674166718
1467562809
629731881
