600 225703237
658451690
1853958633
1280321356
1887383691
1804744800
1341246843
1594235440
1331770335
1155715638
1736491616
932327625
2104106889
1539963705
1969133524
1816884708
2054995994
343679099
91651693
1915065157
632535825
542610429
1267735254
281448166
1269188201
1597099100
679567263
1316998718
1102407229
1853123860
392785880
1649107707
602583796
356194165
1208846655
2098110351
319924275
297992711
1435563605
1115878140
2094299685
631068950
1457588463
356912394
130380950
456484661
2018384910
1756515050
828235880
1616610560
1676320404
507538216
68907691
916836919
2020156653
190024215
134562406
1670886565
743605273
527459786
805389968
933306822
2106389217
1107356335
176381121
874950202
1934439806
1642399623
1681840035
233006586
44748291
1479658010
1470338206
1108700429
338704551
715113103
1947179543
1913022354
2061511789
1766437068
1002323560
966830581
1665721917
1450997750
798873028
987902197
459176591
1048140426
2085939185
555639371
301281347
1613463487
467660549
1814009116
248832727
116506161
1666227708
1683579173
1786669996
2025697658
2086120974
779925603
1994134949
585700748
912405989
232703607
1479939791
2067950450
1798539093
37984440
1071911429
1509025156
1728353659
247303950
1347723880
603429741
1548870480
477271098
1814293679
1965295253
1738603025
355999075
1343895940
327927341
128345800
2132210402
436967526
1436003246
844448117
317178010
1152485649
1190268750
1468086922
2103012793
716680806
1068657530
769405328
852639035
1364494418
1279803882
389567333
2075965039
216479212
868632446
1024966745
535909572
137576575
491706405
1051900521
1561198674
1358130261
1283634182
1706908666
481054182
1251775676
670237488
1465242869
747079559
1246334177
1001890126
446968455
197360796
619252476
761967439
383036465
900012455
585537898
501907995
1446345374
724420999
447189630
1080205329
1818309986
1512742166
1700077936
2101171272
1367259769
1634220830
2005683497
1253986285
1556060769
383555919
564988626
2082974041
1147539637
498564158
1503745806
594157779
700154020
1198178080
1914001796
1082240302
998276182
1809540396
1228508687
1556041591
1635734056
1510764690
1128789924
1465986918
805970918
2075427757
1394956868
335151043
307070133
1129269391
1704426878
1783147153
780181179
2103157269
967407123
708920588
2132533797
580363041
183957820
1042828358
2019507079
1378570266
1891087807
1874930007
1368445243
668149204
1988343639
347143515
763185645
859531938
971624440
1767290377
1709349773
1792886417
1108413025
679045549
697196789
231646097
1421747471
2035153815
1830336531
85316927
1043731242
477431881
1648666689
1982990825
1469483022
1404180869
1110380820
1571390020
291342487
1463624519
848633759
831427048
1710818779
1185892046
1855671631
957114249
1515683681
1655431173
530441836
1999412465
412265797
2139543816
2058622865
1009160134
988623524
139020027
1135510704
698974572
192698291
345328970
1182426840
867335987
1324796900
51006317
737292908
1755255510
658600009
1021988781
1195689491
273529514
879962653
1054987350
356261836
2067605978
1495841910
1039319912
650943590
666587294
1763814103
1050919774
343260406
877997146
255796109
934595295
1612543311
1809342528
1646129605
1622801730
1462698563
274175315
1822717835
404606791
384190487
1740808782
1644015731
1529573980
1221638175
1841527997
1251621855
501385598
95207483
1940975697
837840631
1735730561
149995362
1619533779
987000487
1936787745
2137163137
805162222
39932652
917845313
1061705899
1087924478
1603031006
175422760
551322589
2011425833
1469769886
1722278634
2043440338
904951660
232073608
7109474
1856778975
476887837
116189752
1341561589
1634194609
491595751
1320359939
1959954715
1004199636
1477502858
1758726170
643366166
836215228
1322621979
1936970143
1498849865
1443295193
193652982
77836417
50848772
19489998
1584841436
298413837
1688863336
325268048
1952155572
439474295
302149097
56326005
464576478
1546072787
1885170679
2132287078
763389264
235192888
983892850
379536129
798430332
1793085885
709963929
8855803
1792836691
1552074440
1007837452
79530352
1505814198
713603755
574044368
2045764209
2144522375
1487150348
1441701356
102542374
1823328795
1142414995
1537674406
2063044570
1637000957
447128129
904672357
854127931
1243260599
1934457005
759421711
1133650387
1972788552
591634832
44763675
786357871
1070162554
1608013344
1433698825
1942857125
483642100
1474796548
2087286684
2084002306
1161455599
767499932
1294833383
1694467173
203345890
476844443
1275547856
37100121
987246291
428546900
21851665
1221839752
574479815
1859340154
953871490
1943656824
1796523056
347406345
990520012
1253995580
204504859
159781203
500706519
1664000490
771314202
1993585281
535928794
273591358
673701706
814979360
378111711
1841436298
799516576
2014122684
1375446723
350493966
934368048
1853040385
2086341373
247052769
2051916100
1229505158
1479399595
2101752963
294838476
617081044
1823960171
1124808472
67850307
1050996271
408010052
530410660
601474797
1973861063
813107654
1280747703
558449526
548213754
1245498322
474911638
916129196
702410528
2099311853
2128798229
1543720517
1490209835
1831498368
70783835
2145773206
1488918198
679344745
658224749
1350791576
1302892876
1739071138
684800521
963150763
904578979
117287479
871514423
1343193940
1667139633
445859003
1386971749
138825934
161375991
1299013447
1878994378
705214140
889276266
1336502361
987093742
664838739
2013523769
1853966323
977731546
469574590
989503481
204088383
1134685772
1716598272
1543747979
212823367
1187011309
153833410
861168843
1879781926
223046454
676772583
437798173
953990138
364661545
972535114
1077752637
1782477613
587287683
1014192377
1873018591
1448872769
1842383940
64244683
1364146734
713684812
483467645
1987918084
1665731176
482289123
1155781293
1511657511
202965848
1500644849
854873405
518065624
448989433
1341772262
618402401
1750371345
141048342
1052058930
1593800431
1742117447
2059592277
1733744576
946784229
1988058715
1423340602
517612219
1198752286
952580938
357338095
2076118010
1284718484
2008400688
1477966166
944773902
1378952771
1080454731
186044892
1976718670
857136644
1137974227
1133284168
1755349450
1515065126
1576819180
611130859
340964926
315844662
478901863
1804742223
573778455
634137699
308434500
101924905
56710164
1376209558
1046943381
2048520306
2065976704
1471347256
1227977772
111884040
1561165645
1733288586
1581513909
268349924
1034720657
990562409
1789068792
1226634937
196459479
