6000 540127264
2061195084
1936435661
1869956557
306633391
1973315260
369743149
1070848151
536401633
1356622829
1911856147
1172960877
1310735781
353885812
553566128
1338855921
1419840902
1832827564
487016922
405873031
1508143599
626741863
916551462
1483453508
653070603
704046351
1182247131
1065504242
164553198
1906245555
1120034681
1035750168
745769700
387884392
1414282407
593399185
431245311
1276919827
479989304
1682976968
49436902
820860842
419290961
1770620338
343340826
126948117
1816400754
877549376
1191433335
618823750
1530497181
911505083
555557272
1949541559
1843249438
622301029
1119230874
1453479247
1906579055
901465024
1644765816
546821784
118420278
435982609
277108730
1963214229
1998591318
1171487660
852739252
1057408860
1127667794
2022048630
254937016
265519471
1008043899
990732253
826837905
801659495
1793505416
13534363
587744538
1052869099
960212315
1455877407
503577109
1356775628
186433175
275689965
1626672736
168464774
1751436639
682681267
1093917570
1404305504
1623244534
410726402
1611435541
1699501022
130809013
864407083
536447960
2033810509
1021509755
789885537
233595530
755911997
1818551729
1301482227
1861107210
888765622
373097455
1158284247
42002061
930900914
665686386
1435751225
1313424991
1469757119
477383870
671878649
1873574131
684953071
1703030531
1952334690
2083020923
22402365
1100949345
435413494
1766900886
1543507003
108190664
1138909999
1232730184
1021116232
1317761987
1704640484
1647970411
1341013829
454781673
1408969995
1040806379
1127571949
910650138
2042896145
1517051881
705497521
83701245
630298335
2016244172
151172804
2104256645
848934273
1532168722
2122473165
559594598
1418828137
1956127773
1438960881
699118122
439976204
2119283333
781306591
43367451
1227962570
180979068
1166479486
1310539652
148229691
1513601184
1303706588
1552853127
1762233426
178498079
897716807
1758495394
753352851
1410693206
501631038
1753652226
1619117591
127993696
1009717531
1713319785
602987262
1878233360
1402812402
620959380
1024211855
2116860351
1833795571
1044513823
1817577326
1575759634
1912409102
1983104580
817196368
530370127
1247449020
1101500644
415407926
539382356
800409274
1264209820
2005208811
827230751
1610266081
1217200166
1302655574
1177753303
1964258105
229905611
1999703888
191148626
819279255
442031719
825872420
1514994975
600534445
1030094506
1369612325
1671943280
778151510
20439670
380276561
1022964094
2028366840
1089094610
1120747171
822644217
539458934
511423703
1287460138
1267389508
2037580866
192950536
1113045760
339989600
2045744373
876329095
412475039
1309164204
2052847324
1595797858
26689649
1378434490
1097315450
951571097
84674400
1223843080
1945465903
241456590
2119982409
201541501
1136138261
670904894
1326404243
1869467783
1908123232
1125424567
51514168
44146603
2072705417
676141174
1470116386
307125767
247675058
1837645351
212776629
1350921391
671487873
902144243
601476976
142877430
257679159
564832989
787957689
665818269
892747209
701270299
328078004
761978956
1214570343
1173691699
798238958
1066468790
913100145
314308707
385067926
830161834
617846695
418143499
813191342
1067253397
1393509465
1884375283
1273370703
433991326
971769811
832604170
1645889509
318592460
643351983
157142651
188198675
1801584288
2058049671
1068423783
1442788110
837337641
848142816
792305399
244687947
491902404
988046222
1866823165
706206059
219882093
673242733
1668831887
2004751403
279896571
1385053184
1974020876
1701817737
1743766965
1632353753
1952445339
533203409
1749787889
1371846147
1790787569
2125321483
228438770
311904172
1151432265
1010665341
1044987194
1442508495
873281820
619196645
1846931863
1356321007
315871608
2043121194
1400286423
819975388
1708695833
55076055
1325650117
756712309
892378494
1571563225
1964122705
829730675
513855660
1476583381
1567567881
1191503392
1578296608
1365141724
1970028628
2144708468
28882610
1461707820
209766186
1445356930
498593157
1650492100
871196017
473189979
357998597
1905692474
1307078101
1253825187
1975647621
1589101233
1358754894
830744353
1755840464
960094507
1348821953
1181029427
1929193039
376610174
1246403640
207171097
107427679
972539314
284203281
1296850306
1642466049
717272871
1543086028
645423100
1483955617
1089084237
722007487
809502589
1383246174
1931275066
590225045
1469727517
1089079427
700038165
1956749876
1346236304
1067262057
554259384
511466385
1541369574
1296241484
1792246951
305286823
2079394048
1328577061
1792889375
1220150888
7803920
133064667
955211012
1332313008
1201726450
1045918285
639997769
716276357
1727497196
217302511
979976369
687915458
1611871607
795688637
1511402191
1614229443
1877522771
638880634
1659651495
338893255
2027904937
764434269
1921938303
757117359
2097209406
1391426718
804234572
810886263
380893739
1517764203
1546600255
1587427395
1536351595
1101433752
512083060
789541600
370039212
1527203900
1912785746
1433782220
1202640723
1552326812
1392327263
1606077996
1860442025
925721339
1161219032
899710977
410303721
825319947
181656072
1784577920
1438554879
24698715
1734898693
1472849325
1176030965
365493460
293321067
1724946537
2059968442
989345765
163518
959523046
437921397
278784865
275921296
477641248
1196277413
131586458
355284285
1181511284
2049654335
652132007
858328686
1462886001
439088719
1765993226
282097703
2106463954
1582070347
1456072080
927025023
1574280958
599208388
1359353210
707250081
69994206
580431688
568423723
563631884
920616334
563007872
57953251
2087209659
1841885038
88320814
731967676
1889999573
129608793
1524970280
1544393652
855168790
253728190
1095417136
288690545
1152574267
2066273625
1572419966
694668347
1404828223
1523587777
1448557923
1052085992
374373390
995779260
495047708
1960408823
1340866662
1676624922
777196941
643884729
867775577
739559195
868976655
711360387
604568906
1123533564
1898923996
1582965872
1567745543
831112349
591918935
896467927
1868092220
966622409
2002548684
1231596024
2059664999
1883944477
500132128
1184897936
192494560
302175081
1802859158
255457091
2122876368
316593705
1842631182
396796125
1283706995
1439689906
1268495803
1218802285
885335884
1098614781
1137236768
556005330
843321508
430701165
453376070
1685204899
1369127369
408854043
1207331634
1466226375
1929341850
966296245
876655234
1763621238
973653692
155886574
1900490202
576327191
1750026117
45000621
1285596556
1479202806
519803602
883238030
1099013067
1699958869
109906373
1723756467
1499948001
392387016
590751273
1723265911
662045490
184285664
659562214
1984957735
656005348
1689246663
1686557633
93221903
1738411757
706337264
259916406
2106009277
327733579
2028114111
1624293849
1543758312
195972916
2005793035
963397376
1080565459
2064351937
503974307
1332146556
1314887891
2040119656
1511481965
194289331
1929337922
158078041
499449265
658065154
623008932
1921472541
341306128
1146806845
703238731
1057367500
202904011
710120036
980394340
1513718408
429587023
56957400
532940711
446126174
323330423
1865324011
1989792552
1197979056
1105088900
2030404785
1274011562
2017580610
86476312
5443460
676372022
2106192695
832361587
1681301776
1732993465
1447090931
378199865
1255063611
1693529762
278286866
1775980636
665400493
457064681
1338981088
1225644727
872117158
1031315831
321947218
351749422
1583633357
934143251
1052765125
671054940
1326975302
882375371
1338730819
1152888030
2021091945
1817358804
340298796
482436576
1261665120
40550305
758939926
1981793093
138298179
569331408
427682876
1059823521
1374283619
1380914375
2135001417
1334038201
146214989
803860515
1744999552
645029811
796104126
1197477669
595065454
761259875
90862244
1254596057
191319997
1594741391
1015415310
873593845
1799787039
846249919
744850067
671710176
1539158158
1243865725
579265323
292595817
1933105998
797862948
1925568328
1944851173
1104976847
1257504784
848376582
1652533723
676115933
1472801666
341282657
1435014936
903270087
1187310089
667694751
1346151875
1538383566
1430793818
1455773806
1574449417
1747150905
466908500
1301579296
1791203779
1702590547
1936351152
416970534
1578714494
637038502
1405703334
569840872
471147455
1992528380
849947761
1448529728
1108786463
693591607
1982259559
754858291
2029963581
1539354573
985484243
1758784516
718359760
625714638
2135089828
1699787947
1017462904
239948709
1065715459
1849821021
638238203
2128296310
540890554
446872560
1529919331
425821201
221217167
1567101508
2134062413
1126765969
209335788
2121858735
941300860
1845384474
270696657
1896463752
1178107006
189384553
958219528
62762980
748709327
1779134301
1294742660
839942230
1219971225
508163487
319279810
1839697346
718330406
1906743563
1584365193
156016978
1510900630
1105651601
1339589850
108194139
1774540783
459619731
697645719
1632058936
1725207203
1249447505
510467882
376221364
662019580
268956891
599721686
10900461
1882103822
445680533
459688983
1406102925
749769448
1579158672
398199600
1705166415
730456420
1656994371
237855642
603086880
1605799443
572985162
50315799
185624734
590799130
305116834
318518255
642413717
1375051386
59264183
1037746149
527959265
1416021215
137029136
1986447807
566055691
1432867617
656171362
1131772731
1455645881
1728747310
933854903
652687218
214329342
1175684018
1469497266
235738244
519788610
1007980177
215224358
1089166823
149809664
1412274022
1147483723
468852441
546815825
781931924
89131782
1508160503
1242686386
996003357
1468103094
1372153526
316772486
73355948
196757783
1322913386
33634797
1940195164
1119136493
244235096
216457721
707916009
1188271378
2063296616
149468536
140872459
80535722
1708766708
461434912
2025776924
752825140
1521986397
454166884
1645039967
1195683445
350519733
82585506
1580695604
1270048910
1070888490
611638496
1860323854
350006442
1725211629
1114778445
1767891807
1442579267
1527244433
848941423
930129308
161939843
1556464712
1487265241
1384012885
640606931
2140430397
1162841086
186326098
1023731663
236352634
1454467144
1051501051
129138603
627463301
1454488718
290272956
1175861129
1433860090
1698055053
436936732
917926775
1312033702
318907999
735024484
1528491510
2134510826
1832861508
89538125
658374858
304048980
1490265997
918436108
742831430
1298641722
2143586901
1935517819
1138531323
945405867
973554088
1386269339
981888265
1175581980
1178712765
853382777
1956933999
1615430423
1444618586
86303467
179810803
1617669833
1692259668
1094325331
1590095811
1605510546
105620999
486167351
902980962
1159812774
1453676164
1654409810
1835486750
442357181
1946577560
1699835089
1988376147
1987298592
1817590220
468829315
1411323029
935938109
1378831606
1434142923
1958619321
1419050296
910033253
1263385504
1538565353
995196851
297235996
153882877
800333237
315028277
1101643524
992762935
1770242505
593728737
168190523
1843349206
114187053
1371297356
845683528
756551324
1377310404
1412333288
766830736
836635640
34411724
867915598
1625120349
2016460746
662290667
844552896
68830104
560425562
442364618
1593995680
1160345261
2014652622
1403770406
1915532201
1076566226
1048222723
1650694853
49230425
400556741
682497689
1876749724
1071860476
1831502072
2143507230
271529880
342294767
819091365
1801171524
1758046055
88793094
1236078523
1126695329
141295836
369223386
1282116042
302303559
550581519
831289482
158194674
544875040
729596772
1618433967
1995965
1820857575
1614537001
124233787
1450543060
1757970231
1158375856
2144139628
1181074101
890208985
70489894
376592544
169035863
1054047032
512393871
1506241457
718665135
1472560260
2095999998
601526822
908586490
1428379935
1428736629
1914507436
1052864165
845950951
1267410211
1730822817
927132687
2118157189
867611349
1089131674
518944070
139908892
1344258559
529335897
672227601
1536021893
1895688766
803927398
1927233769
121962459
1484391109
639102832
782179983
390390368
1393222751
1928186824
1848377216
1503646820
1175669
1100172952
1005171115
907296087
1474847216
269783605
2087640773
1654219559
296641869
541489708
1984260605
752861544
609024271
206449973
1614942953
1622009453
993760571
2084935479
655647410
119724645
414882955
1352004484
768597907
1392970990
72586389
247554083
609192387
175426517
227550447
2088007255
695508848
507593020
402186517
383315494
1315023051
1672411499
1452070729
2051164225
854772837
219345379
302180784
1483571275
1523870702
171257617
1313205823
1236059852
96012184
1767234081
549230201
393757654
1146055363
635431093
1242439930
352117016
918167762
166873365
1798623353
878844909
1483288601
1678285427
1993288837
1168105565
2018975557
1378642356
1287719402
769485366
2076852590
1211627655
1062558390
1819422793
1289439648
1054051191
372360784
1824642619
1562519580
620117868
2089617984
1917593221
1879715140
1037265274
624501265
1584010626
1869510540
155024257
1345468256
626051781
1614784142
749171606
1115904730
34845717
605280153
252563825
712115028
1467916036
262269285
2049971574
1459705692
767613893
2101938666
396608995
452869207
1661101874
1709541543
141164198
686108542
1864113372
827585601
567313878
772990368
147583331
1529052761
176646997
1892725797
215889241
924362534
116665905
904773668
1038409243
339817301
1005284221
934672318
1295374738
880436812
186258440
20435310
470378369
157976558
1820797729
233428281
1169259540
1729015878
1287064762
518057018
1241721386
1595792274
2132359880
1273526538
422253926
1067599628
1082766680
1877817443
1346759886
977933494
365876980
759949539
674622546
152057794
102546363
1739897687
1850632195
2013178084
1237790677
913607477
1485725072
317383281
23799076
2064965340
625151727
1361945817
1777906240
1969467300
940287020
2021065361
1176934336
1595144824
1280759390
318747769
1576554276
1313347454
1603510589
1014543942
18850062
1467407031
594410904
876227256
1763885905
607943751
445686704
307398484
743440167
1976060107
2021971371
808913307
715644891
1320687970
2003382623
1291219530
2047273016
1230148557
341346910
804194892
1459081687
1815163670
91868451
204009185
62345832
545986383
1121052868
697673084
1192389287
1114742431
621855000
1620441144
1760050190
477086825
1806837965
1061624356
439904182
2099071622
1844176000
1060639750
717681614
1985390873
1342288963
1162377037
1182710411
988464761
1354261924
1016159141
819683335
2024765558
549514946
2019140250
348377292
2047724340
940871725
674661242
56510405
1261900491
1130036900
211378351
612818033
341033660
227776068
1093395167
1739692418
1394412995
945460193
1568365954
874584887
460476333
658724893
1536457748
729461933
127613926
954249430
659567723
165748542
101176985
1110715388
1882391829
182366239
998192300
1063088560
1390376854
2055739031
1036911711
1317185139
775745120
1046520552
2082856237
1342887211
2073278509
698946468
1065244637
1902338555
1207921699
1558310047
1181282075
1974043609
2025361113
1080710373
485009421
1102104404
1389788527
1581546741
1912504757
117414012
1380623108
1999146184
1371254225
1668994394
854979624
724507410
1405784318
1771661280
702133149
1853630986
2071956163
1192814832
730103243
1181986543
933398127
642533707
1073520216
1948295062
625103361
1883079993
1267247803
1016563816
1912782941
1140546984
1591175190
1883089942
2004258705
1233918816
271054439
637380496
1781930600
2099140703
305349946
1469227659
1015271478
691065565
884461463
674432106
493843771
76170964
900243638
520336011
1250503312
1257918683
1226874826
48027407
995442349
771512410
22750457
1292447508
47302078
611680546
1192416342
1422450749
478083495
1860609702
1573372824
1702942596
930832961
395009376
2123228417
1704964094
1935984184
1275002303
1730460920
207691681
1741611540
673232283
1379491081
1622732553
943778204
1745855275
684959985
1540257507
1674235803
2033710931
1544544903
227649137
1885558274
143269668
962952781
168988999
123725517
1981085409
853294889
845448878
293024544
73139196
2142280492
469085866
1574935736
736278201
688416626
1835282701
1631216967
830846344
158911637
2147083035
505194352
2019241639
2101248723
1897365074
1378293304
99824226
2083083923
251158169
264078888
1374754202
358347833
811059223
2106539203
1075239736
1210121404
245413281
172034430
234596263
2083938668
644951923
2074748140
197540459
1729104197
1918511242
1580522116
694448136
2058533791
132441573
2048128940
936955134
233330202
923200484
421397579
945229650
1152272137
1213035863
289358658
822659466
1524585387
1445556357
882080372
1098056817
1379508952
31786754
2035843810
378923343
671224310
1827384085
1628086707
1761571992
497406300
1798155603
1595647799
1563045738
1255884743
1401445448
1020647463
1889596109
518209550
658221545
958111123
343978257
699095953
26630538
1742011669
806439063
2092093392
1562490608
503044296
72244668
783444549
1001771996
72874108
1264139583
204004450
587157154
1008457888
1961674433
1108103248
656384154
1437811649
185360023
1459766432
1764815763
859091464
407300099
312389908
2140569878
1292267944
1527171084
21721748
841119743
812160791
663220013
379125572
1278896879
1958000005
338488245
114910017
54740639
1296326372
1779172359
1275495602
264097723
1259301966
1437423909
1762963292
463251957
1379077634
2048069793
1643276796
276620649
1018340316
1380222690
93753793
478811426
484662663
1001752944
312327968
1962339805
252945158
369268974
1847062866
1897098043
186598484
446379042
390562646
287932172
734097971
1762863492
976381862
1617512206
1788182000
1123283373
1040624854
1632488280
1557619294
336007502
1802717574
1476609028
236262188
707953703
1245065459
1316481202
723621355
1780494032
474001115
434128279
1220207075
1544116374
1743981587
2040011236
779323539
505360009
1376811678
459849464
798041458
539577703
455887311
1767773509
1085314783
101929862
1802593009
24312783
572587486
759331744
851774703
394153349
604407409
313278132
1113979185
1172924432
980809771
1036451437
1749587832
2044279217
1289358942
1586345764
999403974
865261467
1695782724
2062531252
1957712368
1141152861
535125596
1512403481
448261189
75288080
22862470
1384327118
45864140
1035390116
352888774
948099751
353172300
260556738
183355037
1809717040
123399995
714341838
1330422998
1638980226
970534046
295010591
1818684738
280919128
682209144
1608353581
1519853785
1326555438
1777193212
1054424650
1009448381
2119185633
2080271134
1149447202
1603371124
1446800506
913065123
1758073796
1133388717
855363768
59360919
404120609
1044465940
115167260
526317267
624373342
1358422150
1836538207
1946729907
2099225385
533899659
1612119530
1252290950
50207357
1970684604
832117567
1795730265
1666556061
806683129
1105628725
1806459498
2028145938
1849922898
1198287956
1581076836
238461109
1328114410
520701703
881238498
1527458640
448651579
1225291001
745070856
344177469
736313028
333735131
1220819874
1134088762
2135978962
1940453238
1482031739
1428038797
1465557246
653189622
1252685416
2062147315
1976526897
277420068
375643377
2110158073
36767081
387792649
993516588
200799973
1271213630
1778394673
1965301508
1614672070
872921607
1020218056
91963895
1364905911
791810792
1633706460
160106094
1917440169
1839754564
566225412
767348733
1735161560
1782433906
1511507530
657549230
1964542282
1180677864
343334856
1022953796
269457889
240840228
1318244458
1294513850
1619596142
889823193
465343738
556651626
882364162
1331468417
56706916
266407523
1322529768
1431316973
1318052069
1526301457
1381227524
1862129968
1830618266
1755396348
1159185363
429643886
891146474
1896602020
1043988255
962283157
2106768167
1930475389
1430517874
2050373565
2000384133
1105795124
1278621338
853443797
749519072
1096010335
904571649
1377723594
1021415740
1820262757
110790815
941345947
832558419
255424856
208707813
974100108
1160417922
671867755
1110526867
1881240592
14281225
1023122054
1176556461
1379509359
1481779881
64462679
2071031416
297367153
1127410497
437312531
2090973502
187404117
1496788290
658420092
156549074
471661563
450856649
680577638
38570736
510658766
1524585646
1250900234
1380988541
1134158377
715519189
564779519
1390841631
123468852
1048381632
1094189289
1341012315
1923761043
1943322531
598306207
1161584533
1821316501
2121738281
231311026
1300948924
1610481660
1065061292
303423319
2048864879
178670060
1794297687
407438065
1857183954
1509311479
1734729551
1348110559
625222211
1352687587
1012867213
1062564261
698420165
135467440
1935141712
528861852
1820685694
2121561835
8588492
480156155
40231014
47368192
520966734
127472609
973465167
911904686
109910746
1965954531
1931914811
1115925317
2105143652
1424681897
2109074336
289805274
245706631
1845648117
235300011
92761319
231516005
1377499083
2059075655
1729257003
562058762
1031520552
86858760
1854452487
917773757
119014656
1564011293
450970337
343312300
840666213
1702075402
992125303
1013288775
1706561501
1962739506
1546360598
1587180422
118813532
1882006778
326787288
1709543857
1818381076
294357935
1828960488
55789374
523249529
546846430
323659463
638770275
1732979028
470733797
503977934
1995994701
1585405427
158177806
1289830042
1022562617
415392723
732473152
1351859243
32473696
2070271672
1460856663
646877205
1707180959
823329656
1889894719
1870843859
1187758983
1064363214
1659817715
319236201
1178599869
511010745
1930549702
1867588982
804269925
1350760155
1683972575
1161249267
1942592345
1569935238
1093758063
97304772
691216963
986750405
1808947464
537414750
44526296
320725202
1247314201
1778802407
704915041
338663051
1954503997
1117287384
874994810
1458942148
1118254068
217185809
882097124
825741492
2034519958
828647977
2012542539
962907021
203865371
1530488187
243081596
79066848
421761394
1021423227
355737922
720026775
1103673546
952151374
393354052
1643312948
2011450383
1712231517
1876815847
253400615
550006670
106743633
1114160272
2051410587
659863812
560942327
2128570068
1661663792
753802739
574359015
1439378899
243449114
95316450
2030087778
662324510
2144870680
204749978
1937810750
925464081
1823569412
496799860
765164625
1382534011
565699246
911132744
831345033
653083255
1922891794
878986850
407498411
792561006
2082455091
882149869
931377510
1888464391
1840353405
1387189706
739195765
982781946
1132257682
1321885356
1416948651
869337704
1353568246
880148722
413211967
997188285
889074153
558923676
683946126
192063150
1470489151
747784686
781409198
208410351
1156600801
959564261
1094402486
1978833068
1389915764
678116085
1165317079
623325316
1009496764
1922369343
1079048539
80315413
1893049964
541699788
73498540
2020730133
756320514
1980773650
102880038
1990877868
7884650
1623988200
226426508
1539302538
1219291320
1365101831
1738175483
21253222
1127270855
972867855
754261168
1281007866
1010352707
1207176430
626274724
788938571
136452258
1082801413
1271978893
114693722
1609821695
402538191
1923324709
1432676284
1754327750
1839292139
123500972
88576789
526004989
272105586
2102984877
1210214392
505717244
166318572
1835596469
415137692
595676980
1932168234
112393036
236462156
192567940
1881422094
2114563989
1920935496
1745158203
1145831538
1040381345
2080536416
797570258
1407877042
859946497
293567499
50661976
998287214
763605763
969843206
1549605777
1494360460
1864608120
681961301
146096424
998129620
702666840
1458203419
697847090
1748005405
1357044130
843712827
318738353
1200702518
1425437410
840301424
995484355
1287709938
290923586
91718794
364380027
356791154
1681097206
423076375
366156013
1231902212
661803931
1634911916
1206043036
1986582630
2067955028
632396880
1450120931
1861767566
354922298
67096235
176961030
2013499982
190111293
2042223972
1249638271
575232881
1564836818
2129327667
1437791270
848862212
1202104029
590599917
2086785210
1578842084
1119922953
559134871
1405342281
1750816039
1605560940
143409275
1871952656
1556886359
301077552
1765374833
1948773875
767527154
1335514581
1679220616
1675025146
1993370164
1413892865
298473088
1566880651
2028779279
926660214
1919832095
408643365
575017254
1860108527
1928584161
1196287726
345201376
1216250614
408275982
656912973
539737355
1285985294
112582498
1707715308
312751271
2102354804
1688007554
827666824
62433901
1414895585
146227025
749111687
2070515741
1708046534
1921357011
882869685
1616316078
183131445
1151118290
1426291682
360877373
2133927224
1361802249
46498323
180369048
1662155135
1201762159
751432212
1128294400
600970152
879629296
1933325755
2042306409
1510362999
1240610407
1488575386
300269871
1157120252
1406958782
129233504
1929146056
576100105
1145690029
1367846565
927458543
1053573713
2082669937
1542411604
1353245174
1026287008
1179655131
76312850
1515328466
922816129
2004556474
1500270204
1274646149
41432352
1111131601
545767296
585812576
380536100
295503736
1197418813
1501702731
949644569
573512329
921949725
767232445
1339946789
464764147
1870631883
1134121783
2079582626
468265332
2053871396
542613144
1061727916
1959959127
807905290
1331877669
1458570379
1461719904
44209516
978086418
449345179
997012693
1950675526
1492909134
184392842
456135738
510597594
1602857252
2096767815
1817255903
698055356
1934215380
721067332
1485113623
1550199952
951270771
1049762352
1403106648
1843055563
938035988
1200719815
38222293
311008625
634516527
1843583429
1414913191
1258617803
331473281
235469349
1288314893
1300761321
1608961812
1427472768
716690388
2074588138
2092532466
1510291328
87896001
806283907
1172327307
529816190
1852241537
1332164733
487261660
1522249785
1461624597
1789825393
1903274900
1327980092
945522440
1750823041
549349697
202934704
1945120200
349191015
1347173643
1363328985
1902933427
700378892
1908612130
1683367520
833482382
1329468329
507159038
621245329
1842817167
1349515640
1328301462
914796097
1418136997
951925832
1016993949
578139787
441009237
1304662133
1276054733
1787794921
1482201462
1564071601
63816478
324114214
518812488
489322536
1652744481
1259808597
778717893
1745161039
1255665652
1849261324
2096377452
1831354241
1732493874
1239681426
65883231
27595224
36004301
611233951
1261274235
337397957
1249281907
992921823
1170014957
1639397615
1568577352
315614170
1443947076
1767690517
839854259
677731993
903992755
1029959284
703796019
1183168888
131455751
992213204
442041790
2061547752
123073963
1524942628
203596878
1709264246
487125006
969853870
1226911392
1594639270
344729144
849119104
57191928
770489627
1243830395
1357793312
174963
1618964365
1698202800
641804947
778661612
355315318
379898302
111831093
2052375685
1602828849
1473990831
1989667506
1837189862
1142544629
1378828191
435628160
1664829966
548255399
1670230954
1078151489
529928498
868060456
673497984
941330807
274259117
1452643581
110135686
1747130115
1439319337
1662270634
1984378288
1108000210
1839412457
653240900
371009575
2143714182
2056414911
865272397
718934973
974054420
651783049
1254390033
1140336520
1248853449
145504665
493169151
247874044
306601369
991707503
180074648
1313221095
724274075
242748818
198883431
4182618
879931130
1193830294
2010373471
1847763816
1685488188
1513359095
1384707048
1114492252
999919582
1924318945
1628152150
964207210
838448606
1268344197
1268575193
647231844
2012738251
224839914
645761842
1285396358
1691711911
1734069770
1340080235
1933484845
1975979549
134651645
711816891
808328548
1258268761
1762300092
1492020003
233858343
1599300216
372083278
1086856486
262979778
1244900197
802419202
1042269898
198307941
853918774
1697916074
496278735
1969408142
921994112
44724944
480351981
1843647449
1694392964
1958127564
1658323110
1610808763
270586005
1212946356
457429149
1832010849
660721662
1027421591
241879409
646869886
1738070403
1873523123
1517773219
1535829377
762841595
1904615411
675312794
1056657180
1618384005
1698440679
16693619
1026855007
1719501063
1190277391
832636085
471699414
1264037573
295548286
1976586225
1613306959
1174806870
1368585017
1976863149
2001852196
154768524
2116896128
2007707273
1431381762
1397905759
542832780
2093000886
2053779717
2103933288
1542825888
1658681354
1346493513
1475748747
1710236607
2146968436
1583143690
1996120047
1233314157
364703684
301776326
642911392
446689144
1656512854
859114780
443228630
1410823306
72450725
590441398
274611538
603305529
1299248742
633717049
1941338092
1354999480
733073024
1115778019
1195868344
779287310
755051656
933133160
2039677467
1239337429
898738771
189133483
2086554988
99201229
1991739914
2109870628
1782140832
1566737375
1015197249
2035788376
1003998511
1492681422
822565530
446657971
171828915
145233730
1097251716
240679756
434169005
1948851224
1640511245
1204582587
1845316753
2114431532
43287680
2097108015
1786985469
556822540
576949570
1677891487
370806190
1087999768
86906057
1592127939
1557939676
1993409104
980691100
433963343
1200407972
1683590260
1093228756
425240285
1915111574
98512465
1096267970
1407000230
667297648
1777083646
9086619
900211750
1762878875
1877438411
1731353477
1378212567
1164117125
1531305842
575751347
293421348
1442488591
334932696
635708184
1451748032
1441945142
1559531216
295039854
1806615259
1079437989
503608120
980459246
2068108749
290276456
365599251
1633383356
1914250352
1041769754
1702843654
1733846022
1763212609
855715396
1739342956
496046046
351821710
625356272
662379687
543462401
1090774213
1246474831
373224762
29827887
71545778
209053274
1224810098
1617192390
777648643
556316128
402292706
1712693832
1535864509
1922054698
1845657290
157068688
898522266
586313142
1847356394
1387569865
551072856
107686053
1366063685
1336501354
1950754438
1259562357
2147302645
1254548360
1527727737
649382974
1792978357
1351692474
657109977
1145735131
373799677
2127975455
609307940
1387291115
243490299
348843479
1778281057
16852707
848443819
931306966
1021648604
1682264712
1401536540
1601516640
1181975268
892535761
534372650
1759619731
1125975938
199244200
767705329
1241506312
1178914693
979916506
945812922
2131897771
1421939193
648408627
1188875799
1300734389
1561363632
104978222
2104041352
343944095
2121977492
662211021
1137253552
2049143591
510984522
2081866589
1029616401
1650164172
2109938715
1800303060
1119416864
1017394053
1424987610
35973344
617740515
1539337927
2043801417
1901813257
2118413392
860235028
771575165
1657973940
920745382
68295320
2014321471
260792867
573589715
836007709
1342026998
579015268
1233138230
822549959
1888164099
1540355138
2119576944
901697017
1314366353
310101281
1109328749
149424793
116051907
582940173
1680797769
715180831
274727579
157097756
1865929300
763360244
208231621
1677966366
461299559
2142999961
1602393418
1236021541
2067457054
608106044
256695171
1830950446
2057570559
786522362
1898758497
1055837170
358490633
739163840
1550003639
1259034452
1325826983
1968371238
1627018868
1507428056
214852008
1364792335
1996473083
1795513703
1646966155
521091952
799299112
1947191371
985836640
817913280
737894646
1667471809
132488556
1695857612
2066857077
1140182612
938575879
2030709921
70642671
2089949321
1110645250
2132094849
1156204354
152352151
2045263444
1555808928
2065313193
854755618
657338943
689636425
965426944
965771783
348398870
1139317412
2107874992
168511023
1437293837
2107696227
272514477
422586082
2110645888
783478985
1449536782
696802651
1693763994
614154171
886175694
1115131478
1266075834
1493060186
1259865434
1552848679
1546168047
2012467960
297075672
1246994827
255325677
1339293096
1344100914
736133084
1572433054
1576480794
1848812151
1188581696
97764519
1224325697
1452682301
1800760904
1401954811
976504383
1970374244
563125476
2054750094
758780110
1500385839
857902259
139503294
1968040328
448044173
1038129983
1497902342
1709112074
1844314406
1568006232
977271477
1010719575
794678282
469336607
230348860
501113814
1011880999
1088639361
1414301067
931975657
523429331
1088401044
1768740783
1194897166
1691702428
2339837
431513416
452264192
1734614342
1275243646
1875351213
1426670104
1977450873
1738919485
820353067
234922324
2094342111
1122451266
51338350
986254090
931190857
1903256065
432308329
236124341
1982313745
996370753
257070080
1631783245
824958201
668742767
1013182550
174481870
1846054489
753693686
1874531623
1639634240
1841111238
1066472776
1545834572
444323064
842928037
1366751162
1791060793
2009409750
581241825
1634265055
1544036634
1333555007
1945704151
510190735
1103240668
978478719
2122818582
1016441481
1622262630
1091369761
1307034592
2115864869
1886714066
1282089504
65033599
429882986
2087993357
370374637
344604935
310090651
1489392678
1444849897
1948760660
1186181246
839995422
1777246780
88705639
1763524830
932338660
908298493
1878745802
1439023090
982836345
245332876
147863176
696915228
1589794897
2091522376
281517470
1157785541
450064047
1281676004
1562721782
1711485920
1363932567
1608581763
1618165509
1242867169
889858012
1598606429
470336316
1465991058
2106756078
2058077754
864905706
415023974
589388221
320891061
840096501
1820617146
1923770458
1175144103
175986481
490298447
1175496078
2122124842
2064929860
903248699
217977636
1572360176
1043602883
1124231187
384126290
2098204732
1480163390
1432279965
919968084
1081089704
1558215337
5652712
1709865705
704657210
879688116
1005099536
2034226075
1551034660
992254216
2132323433
1416857652
984697014
193490470
465204433
970829641
1488217641
1582160466
1535370085
1976059739
981307211
682190062
425779413
571438406
725505603
68066796
288070005
598952577
1205953267
1886390195
1661604454
1275335469
759499453
742001015
1322386817
858926150
328773781
727837120
1995703638
1915380255
2104356328
687984777
160360872
1439160033
36602404
1696256314
23888887
2105831412
549981099
1513487654
1204329241
334548249
1887340318
347962820
1524838407
1868351021
1928763538
1476835081
1014958619
1832481158
1000905585
1663463819
1317898898
1121825388
369982109
1908935829
1802029555
1249267488
1291210943
56670388
1914501971
51023613
849334441
87538086
778180909
245260510
171079067
836546907
1996937581
1905985937
2021686015
1388638425
346941866
851925464
720543124
250139643
2111730483
993553551
1890886362
324674164
881387507
2042883403
324184508
686586634
339809778
1436345905
1360544384
875087161
663651359
1743001215
1956794281
719629131
634656312
1142214900
573877643
1022827931
175110429
1264017722
344236737
1134746495
1221908336
518126374
667490448
91227792
2021479705
1102131390
989960973
2051914855
1857737806
1510010835
478486872
2113190182
461406559
1192167676
1745460697
1151598879
560703222
1741700453
1903515319
1886426198
141183554
2069943719
283837848
1400973031
360779778
1947844404
1637990551
1034872132
1095853975
1783837430
1178184162
707017983
2048982978
335406074
1247701069
1001566075
1430487978
1113306353
1118332773
884518016
250060187
1732310755
1489887261
2039510055
912802933
124202942
55879684
849412396
677597035
1199204221
1024838413
1296694059
2130072253
1839857572
704899737
1761849513
1805828875
1101402354
868574728
808196625
2105172658
689066345
164842290
840557261
693433610
915899104
1441664609
237927557
15743862
500984160
1591282460
499136849
1627076845
516901136
1080937266
1289055450
2100150052
2127096967
1362630777
2009700393
346898891
238170944
1122751474
1846909632
1075835727
91563934
69572293
680783290
904866144
874683718
1728518625
1404691657
274335886
290805650
291530418
73333269
337213673
880523098
1077333776
1204494132
762733172
433123714
1905962446
1038424025
1423126711
1441713510
350023363
242867247
1254727594
60098
1918197532
1354105637
522047474
574787599
285918579
1711944832
1021813311
1821376689
2041430598
1473487639
1098079512
888429436
1400338504
2034339579
846894942
104661126
2023554183
1695600670
997617104
347832374
1160285761
1758881838
1894514412
1837043790
204052490
229776684
867446519
342788881
1280079625
811735883
761246786
164361587
1846217788
13672278
33057814
1472892103
180818796
1263839536
981530061
1426087388
1967080747
469677513
380868678
949772892
2029010315
510296395
1671523633
1902782358
118631669
313446858
670225864
1758198970
1292128330
1243891908
1839871717
1995745486
2031563223
1557937815
745143729
1305061688
1069985836
717267787
1449061101
66516877
76861406
1098246594
1292871759
836589783
1591104113
1782053419
175285232
1042559614
199366618
1896557346
365638974
131590474
1026835856
683296048
1794050089
270387153
305543129
1161464922
1303696106
497445913
1920743721
1613681225
443371686
271040032
1718223651
1499631932
2137491256
977759920
2035222076
1194724689
715215313
478084205
556497429
1360297935
1508193988
1134707498
493827676
405620851
1656128238
1506906482
925061617
1086924870
848080336
683689792
1242532999
1085572055
1996424815
1616444463
2139913627
1297591520
279029575
1827155241
684952836
506869167
712290905
68580285
800961620
917391873
1256641907
1343963885
570557759
200348288
1921783567
1152462648
1814362912
575479377
1607068092
829733619
1852412726
654562620
1440319669
292990475
792013845
436400692
1352768581
1743451036
192360070
1291519501
1577592352
771555308
1724218910
1399586971
1753068837
1844625227
33468426
2036384779
362996189
602344486
1214451011
1957871195
1997083310
1552198915
271931741
1187941429
707758263
1313528517
2098488116
722641512
670937855
1376014153
1734237530
2013331816
1796983671
725212021
1695481369
127725119
1068153575
25789744
1302947823
225293621
2113684847
1072377377
1407113623
918516880
621575836
1191952816
348333641
198897287
1084065109
2080893700
1166014022
1192059703
1106675995
1022317541
1972883136
947483412
1902580999
681142899
753525281
1405749639
1640998131
1869918015
29862070
788549226
1452310875
253332608
479019068
129343789
1465901964
1787409237
2068681858
1447729727
1017668160
623182350
692277298
211555833
1378919809
2122117936
47682529
1475823181
1156408076
693080896
137328500
472239526
1811849900
940769014
760304047
1602936980
469322261
1033529691
135448687
107638910
381546932
679324209
824224148
93543752
1363017831
739005622
647072355
583381118
867176592
968185075
2073309320
1800265327
668244732
569120417
569033240
1064178093
1007414388
1806971685
520338690
726563952
1495163190
1310500875
128039164
1145942781
62384517
1997772059
706932248
1672089049
1639437818
1864073849
1620674040
1570575466
1050012475
1904946956
419804142
1042411285
289259295
2099308279
992122119
583000309
283204595
819093831
810997849
2060569317
895757726
1021454101
1937387303
1306768677
320812350
1214480553
859866584
568287783
1491043773
662039699
993788580
954263574
1377830890
513875355
75943939
548164559
782206673
869957908
4565714
1943884476
1939080133
903695596
1666464777
923395302
1641829123
782112346
1938569217
1781602291
1202782172
1707274159
339232698
955173045
594901045
1814630023
274970601
705523054
812286469
1637939877
1725428277
1227810915
1831007964
1110066131
616086792
56975963
1723582426
135774048
684737480
1370827697
318261934
1420120106
2059134808
1385736241
1183042931
413676310
910874108
499073009
1538880189
1663227418
1686072230
1801476758
1769166410
195376877
2026134254
446390522
2021783804
1652738082
168205361
947767162
2039280902
1762058372
1149576842
1667768476
1413347989
1341173979
2051502088
1152071346
1136071540
446677445
625718674
1549151904
1400188873
1232730867
530451302
21934598
853539413
1446260860
1252603313
1105994073
1021834283
415643979
1479690242
1064226299
2083772812
1542688315
1687162413
818691265
595480087
2087808742
315571245
1869181068
1692717173
1708364104
1620338403
1249655701
1242101564
478697202
1890370464
1542232643
704967933
1145932778
408858952
1001330128
424961104
916892826
212535151
884026760
854744195
1157477460
567291778
143706658
1628294496
775385907
679478560
1568126764
1456808926
530869440
291077497
596911473
1006253458
1297563174
542578707
365376983
498038307
1175030804
520296307
1933740701
268399264
584612165
627212379
770564685
92247671
323069142
1051190078
193837614
1115633242
166309932
1608444744
499382228
1945364051
1993690536
1541519276
2133040000
1501828288
131978927
956889919
1907391323
489746188
1481271734
170386667
1296303102
1648397710
1284935901
763678717
577766449
1210673263
261058545
429898752
278429374
358617925
1108376261
683118079
203260922
2030584309
1858646928
555685707
864949507
1370100712
932278440
160622393
1492979161
707570085
2046798806
769712667
246486696
628555820
1425594111
290628199
1418239902
1547179332
154418188
1768661209
1972035939
1064784953
582083132
481043433
993978634
1705920865
827325444
640284983
1451337999
1061986109
315088577
670037171
1001657354
178741673
1887141721
1664432620
842678120
2121567023
396130712
1050495785
2103741603
85186761
978689465
2010243819
1325128870
168158707
1958741851
384275141
566872339
1175621871
546093854
924724533
748021513
633317280
376163632
967701508
1412501873
1490606888
1952059271
2087883443
1564981975
1357511762
1545488428
929357016
483674166
1873575870
1566502743
821319442
136999544
1703496291
1658418580
175212425
1270133170
1131398613
40112787
2061110849
2040311424
174275562
2072189642
1735885979
1874312429
239041545
8052164
1726096924
1177574863
1347798556
434572605
1545093309
1854261844
161677283
218147215
2088463611
614106413
1937780944
685472341
1017417251
1907029254
2026784315
1057229464
1293916870
1126500176
1488854930
1342648364
20982859
2105137649
1735779013
478943624
794810437
2099408261
2146736272
1472849005
1391939497
640704564
1706365066
675396448
1982023592
1961078556
1135676791
2009496856
692464061
2011070744
696629680
1274734926
345476088
917502215
1587176186
2089769013
2022863103
1167003624
508198740
480770128
1062424912
691959612
1328806047
1358206006
303491518
875725411
183157213
337830333
992662819
808590031
1383248343
393500481
1975577705
1976285204
385919163
2103479030
708210198
85418913
1302592514
541923348
1988095817
1230946990
395913866
1870925232
1200296867
1801725902
539416779
682747159
830934459
1948364313
738596105
1414791019
572843695
66673405
1970725936
1872801003
2030079930
141510757
1396839728
378649145
126073081
614913872
1342791090
1289389786
1924362956
1862003120
1114029758
884122546
1853461911
942744816
628895730
377354562
1260057006
1187789903
1689556161
343635474
1386956945
1264140897
77002870
1103315929
2104495100
1349387362
229446077
335382370
289597222
191261671
1570639865
1264231820
1361383012
955443433
96382656
1953894938
2002016196
447865950
628593299
334276032
1297292037
959265324
973270170
1536130181
1383324187
1068809236
740452159
2101107700
43626738
497990380
2005817960
1199874398
1946062446
320313872
520046586
879474655
737162301
1812555868
986881885
1923487507
932511433
1900315485
1332464210
903989505
1189705264
2043822354
999457006
1119975563
1028105701
335192786
1982817895
928188265
1676229971
1776684702
2112351356
15379653
670398406
1482953213
1278902258
1147902741
248237353
611331064
1356594598
908537539
1348233649
1445830608
1899457969
2057020426
1350528621
2117291671
1125189662
695948714
2103179706
203463164
946700602
1887797910
1779431152
1670663699
905878985
467246301
1374271289
113153029
343281513
1972248337
161763716
2078731285
1480562788
2121526167
1094175462
90124222
2051242105
1980707278
1508771424
1501338692
1869750409
2146360697
2039316019
1112532177
872034164
1890290618
1821033153
1794460815
2049553890
1828129355
1448199148
578144580
1008452285
155540815
534241484
38939906
1383282516
12078546
164085773
821123385
1501815684
1712750469
1085796358
1716156377
426437279
1639387099
1325223782
1799634602
1421307555
594197333
1221213442
39991582
1415873838
663456906
342593615
41490999
1057321880
1249645008
966023523
1782781764
1143288576
1711217674
801728961
1439517234
1677344035
1475413065
891135003
81206021
514826172
1510701740
1267733606
190624559
497310014
2122112000
343724254
1403352826
1948384609
1966870734
1588699532
1263503338
1680580800
1914827426
1557623016
1794199444
656805314
603011879
520192994
1107956001
289030180
680917413
324237936
1327137822
24324565
1258656290
2127501094
769553892
1874312841
457720520
276484272
197162323
216156435
425013926
1714563179
1556120408
1347814987
931792882
328256524
2032586344
2039745168
1772553693
2022276474
511407208
2070965518
1230549776
1985593941
1146899665
2041101461
293079133
1454071108
1340717750
2025634625
1296705112
30707196
1856210867
453665793
422089663
1850218603
1135527319
1162753310
907740099
73799362
412989658
1204340120
2047583464
117346363
1827850910
812294401
1381955080
1777785321
230130578
898067568
517481918
1570946815
1352699274
934367601
517142427
914518362
609730023
746435417
50082625
1043742905
1638213661
1528048442
1909562074
1670978590
659568514
780717065
1834117032
756210107
212980318
19050187
208228994
1095976610
487621283
651151137
1656299645
1338441754
1476373066
606535552
1033157027
456594025
1629141863
1786354967
218875790
1713660587
462781499
546630660
1679088436
26205693
607801333
1928672372
1929255728
1140879855
1989118547
491451903
997030475
934792451
134006946
1515416512
2103014772
1546053326
1172919603
639982052
8608287
1741901918
703369263
1110646863
1713116276
217992140
21586772
828577780
442271216
1551805913
319666986
1841247890
1308254941
2136900713
38734225
1750924040
327326042
552437897
538759218
2000593433
1422016270
135877961
1524773529
739156372
1351026669
133982412
386895948
699821467
824198090
481618999
2131044189
1844544638
271148397
984892355
1045937775
656261869
1682378720
198731719
648566557
363462736
1637854670
247464988
1785194436
597947143
1173917310
1240096873
1811947201
1275485352
1568705770
89395470
368716731
512261677
1165049362
1113681642
1255969275
600822823
231712449
1929893805
966329155
553982827
1538619998
1044821468
1166230001
955096209
296476653
1898008938
921307751
734642448
1270923824
275408952
327878256
2119823066
689939611
1490193783
1278920327
462073024
1830224223
1472877224
1597621532
325652207
1972580628
686372799
617574247
1830841055
1563940695
1219126030
904149383
417485837
1533073981
1450189185
980662022
1773789052
343138214
215953369
1875885572
510341241
285955205
683854131
1556975996
1671449862
2057566810
1808433394
1947603629
1623472512
144047396
1637016089
1391590542
1275944360
943887113
176805736
1561011538
827863009
2139037919
291495101
733726927
177416851
543615514
886502794
564452009
2140997413
568083740
417361621
1902403722
513164233
807557960
1058694723
140825826
482799148
1293446788
2011044664
350130283
861518029
1069524811
842008158
1212431578
1917671081
517237506
704821729
91442927
1864179721
576993896
291343052
1545701627
63045092
476649413
1914175461
153126096
1707908895
278099257
721095343
758138419
880407499
1602988679
339281770
171562268
935522976
1511257148
72189316
1491787658
1770562543
1418983658
527816613
785081534
85816972
2075580534
286485587
1996908054
1082973309
920961279
124317002
775856816
2116169195
1434521277
121841916
1676171498
869258980
401993865
1849606577
2042695835
2033699489
1572247521
1065068189
874409320
607535110
1568730580
531583894
1810696586
384808459
1296552333
849795464
358111007
1635991478
1129242363
1567207089
1412729653
480385141
1646312636
1162757917
23301990
1768784044
220787267
1030845481
1385037061
1310450030
1943684826
824282580
1202265678
906377485
896181857
2062442998
400750868
786354039
927830430
2100227416
296575346
334639594
79041055
971889490
1069617946
863205416
763968103
357420646
655479977
418697131
524954519
1586917477
399286547
189616280
1521001292
825969351
1436080719
1934432673
880480801
944596679
1232438074
1270920370
17644062
1541977527
28017228
1784988258
483153065
1632518411
2054024105
1686826878
1031389430
192684808
65098590
156315583
1395472949
1395934925
409151262
1718371127
9410029
1518530628
403313014
195461659
1440156186
1358302448
611869584
1146351891
36567894
316033967
1111066486
1159503258
458052507
1725103439
1929607738
1469989317
1798528954
1521597613
777342481
1552298306
1744844334
1622335201
1946924386
266636542
304129390
1954262011
782537762
1385807689
1896917378
930569767
956996185
1457471759
1193175857
566225741
501343895
1829545200
1488373101
364876882
208580566
1356459024
1273254907
1507605948
156170321
1048584842
818547135
882741176
257967884
1111048988
872566413
618585799
659188388
599810996
1340843571
1891490807
1917338475
43198961
168549874
186059806
1055364396
785745668
1708311341
411109814
2090394153
98090005
908419423
701991844
1158171878
409380436
1530579151
327628451
945324738
605180840
1114856534
501953769
326675911
1877925504
703834008
606967329
904818442
1747817034
971750867
339441740
1049420126
1665423288
2039750612
595458020
2092016338
1314744489
2114529735
1898506120
767616881
368135418
1833830960
940593456
1555665852
2056003164
266354599
521518441
1004166678
551490703
795123573
677266516
1987115479
257907215
1763107706
883058086
1124878654
1926440895
1724170365
151562446
1818924879
1850616308
557679817
1125909838
429710097
1782459272
1665089078
663687989
1408761985
1229523750
1007314956
1033699972
596458515
551352111
1826955686
838425859
419587045
242479579
485944621
157256865
1036210858
28024192
1124463719
1005792548
698700237
1450332460
1019140197
1740776437
1731562347
1638560910
2001733488
1641643987
1577813216
499459053
1564580503
176038378
748200209
1945443668
1905441912
1782197674
822979083
834335618
407214003
1116750127
2064606271
296455115
144887033
1715828012
2115184639
1500635340
1167945934
1515398534
509379637
1848446861
1021350574
1907458438
414509067
1668000625
1429162675
1263264765
1326863816
1881496225
1088442273
1385165602
849485061
1614002783
1499338270
539527717
1432132680
132877075
481588662
1502963659
608635993
1922507778
508876819
1936762764
1687179581
2075341070
1482288887
55771616
1286985052
1039054171
1253306878
459789378
1955425212
1108301962
969303424
2061627767
1565604243
452655781
639658209
866269618
2095491447
591892608
1125682230
1048640323
96036003
1540507579
1110781585
1422596676
379803184
2046751473
1030382859
1185153385
343585892
123780782
1649829942
1797085657
687805351
195898613
1019579096
804621137
1090420913
351951291
518436794
1007551724
1705746960
292128504
700020768
147475690
1933435784
1350496583
1616806576
1269356925
2031396686
696773656
2098450469
42381300
2109112583
797984138
1858419512
1914621559
1931835288
176681780
2050663807
1735809771
1579241335
5899695
1913431867
302423055
219208991
1876288946
1420346300
1435875691
963338070
2053887956
1607346422
2144289685
278585531
1490929817
1292629403
1590527051
1735435011
1512399149
1927939800
1256494895
1164218532
1391485843
1921339051
1327516048
49854259
1328828015
1770566392
956678810
1757006253
645548498
1418424962
2034889790
309701298
648305435
1711150126
1682821735
1415642814
1611456872
300866727
173102184
2114242145
956389847
1863240961
208551001
418185376
1303997354
1367353590
76261254
657544496
1158364314
739738745
1268475710
1880147596
691932445
1356356370
580001794
385444975
2138840142
429272352
2141926171
192230832
1199887593
1438852863
44658030
1452585789
1080049924
311774812
1474658572
1687218556
1173669432
1858812169
454771829
662514425
1451239927
729369381
403094353
1375861514
1309990524
258506075
402777808
1866069843
693933445
2058332892
1089756519
1189726773
671161994
877684793
1661315993
1265378735
1916569948
197157062
1872985030
1087030445
1949405898
1550335500
898401992
1654486531
1959614863
1497437406
1655786480
141045315
85154334
1121541041
903582085
642851360
1070903882
1244293682
925740254
170387701
1895018176
1724349907
1068143171
1524016691
510959170
1326401822
219655736
712391861
347926122
220793135
413762636
1499367478
42045326
1538663686
1678514424
447455172
1610981723
155276019
1903697992
550576237
1349150488
429147804
547747689
1391754894
1659994968
943515618
865035259
1776771377
355630361
1336611194
1259412683
1975190401
912558901
1013962157
1016928793
319135534
1325246714
474435129
927903074
18014010
1997009568
615903588
1204904572
1482184962
279857470
1025667340
1739302621
1386680365
731987698
1282744454
1704868423
1823670123
1763003221
1113973448
434726811
581544820
255543322
1623302349
40436686
665894181
372519977
688932838
261633889
977642463
1470185824
388255713
481168943
496451445
756098953
2034026873
1109643095
1242731169
816562504
1115878360
1796611563
360414532
2124214351
617372641
1393680728
1695186641
1155516776
313164354
1392374965
1915256842
573245644
49350862
686989382
1149347307
1272958550
1794861449
804247815
1112025908
771465695
1696281823
1233340637
429933352
925810635
1555552198
210706167
1280181234
1180150876
1640556997
562210829
1356748888
902107318
1903428447
225816336
178518589
1270800160
297213128
179807403
1275163908
1727512362
304640783
1854115803
748236709
279429448
469038946
11126302
924614404
892427333
2003191053
320891920
1351794771
525447293
223944570
344702260
1024555672
1895633994
791509068
1240407118
1274972659
942205219
400096921
1356327874
1397067
1692645078
1692742583
74657269
1971844295
1362923481
1984039611
1562307822
1521851332
983219763
938872336
1663593352
101628743
2135340855
1356140062
1384651973
232810534
704993288
226907837
378299593
1155510693
1355180461
524512905
1367613593
544080670
176647504
1775787192
899282552
1404014204
1135325314
613316286
154234521
1420607181
2133502425
2110437220
1245106818
249016899
504732755
1095277785
15914575
946781260
370508945
888835707
1947404350
374665238
312626303
2025376647
347605147
1947841106
1406420946
822600054
578456415
872961122
953219061
627026303
880287506
490255808
1123293346
1048301557
93896069
1941565095
32896081
2036261241
392045679
1896874491
1081081823
1875960308
2007889198
1633523655
1933622997
121793134
858234096
2075312061
1567617134
723341171
1052181935
35240704
223609689
799788880
1748307361
1343934134
1322897798
383731815
654755830
1016077789
1777313071
1885304653
1926005965
365071391
53773495
1919630624
391225762
82356135
942458588
825486836
1376657852
1346411445
391966456
108799528
1588268502
1092495946
1607192943
1264790100
1964678394
1701162757
42795018
2053491695
485827680
2047682902
873758175
666753076
518770748
106712633
1916058507
2053705426
1178739377
230990556
1053285295
1883283285
291454436
1078632168
1847934846
1001009063
1638396651
932763313
1269062131
1904962361
804428388
418786635
2106445117
172562314
1141224631
1652035358
2096877155
1757066224
1790071408
1005171607
625660267
773562154
658195535
1510041642
1373339197
438486412
1641681931
1553785406
939977690
311023540
508740520
249403531
642131338
762120281
1386698400
303966027
279836438
1040994948
119284111
1121564851
1442840575
1805076585
2111693478
280917965
1873940712
1171024106
968532447
289671973
1248645037
458554971
1484675436
1178539611
1403167437
166102098
1453614504
1745536182
1543497316
1481807475
1999551923
2097240971
1167419523
651060813
865334047
639423559
264121577
1641724346
1154808595
1253605016
836860311
676688075
132889999
864856820
1498557176
2103284911
887320216
790453349
95178801
718466431
420195736
133497765
707923843
693772402
1104637473
1730429029
1774768644
921589356
1192798334
866102257
911718578
2099866101
678023402
422882224
325605321
1150000548
2058754323
535710495
1997192133
841734754
1878095656
518200777
1126020414
1901688221
338786094
1535453805
339504402
1926790974
1886900807
1353505881
716325178
394369107
480235424
1723334084
2096490504
741233038
654273710
1479916266
307027349
284889244
426593486
347646721
391649072
1040678714
1216115250
763880319
896204764
335446270
48151966
906498539
279821417
114209189
603928365
64331278
1881913357
891055104
2114264683
1621677154
1980725345
1729517309
76595688
171776115
1970059714
997555383
446898346
1251221172
1578750786
2039605450
1665225037
84815621
1715037037
328519175
1971630821
1257271071
204817423
1542534468
1508435284
1678914636
1124845216
1298936616
1070106860
915037704
368064730
85829280
1729742672
441825385
1331671105
837975899
1268491132
1812948462
854269752
1163496237
868553123
468996623
538423360
484691361
1592186981
76196732
2144758643
750869829
722548723
107374082
758391177
1730398709
745429753
1017365856
486711605
883886966
1424133771
399568656
1599877753
1312946086
1944273692
1260356756
822238029
679428210
60150686
970409481
834202624
1704983146
1768363600
2032319522
2011059066
1782098694
91010456
74377818
547502811
1035591243
620842767
1891043629
660302472
1335182868
707550388
1026902229
1033762398
235953994
2055660761
1443994306
282243302
1944953014
225309232
2009564401
1630595364
1312108877
980669534
1612446367
152792511
2072389119
908142607
463224881
318888257
1249462442
2083956547
1153356839
1057433381
1690199447
1002488279
870277680
1624149855
1623007714
846068933
1835973865
1223666400
597842528
1102650353
231727247
2092097452
836962600
1771573499
142277798
1373050212
1683862600
964736015
1243580162
457290030
878928736
833897634
731796857
1855576696
1896947393
2078453999
634699753
703596111
880997681
1398187635
1548864302
1135791326
1468631493
1778084466
1596873444
374473801
1856711514
279804366
1918987261
1141974631
190411102
1718022539
990467684
2125069279
275014370
1392033595
1766004751
1904251052
1624515875
388077677
1330161336
1145663645
208810266
1156824139
1420773868
656616312
1567297976
10123878
1455357495
407118140
1318169330
2058388472
1291574815
377329186
2045576994
712508335
1931122071
989138877
2069474791
1734704665
1203297112
1066727281
321356256
512653763
1632826234
1188399339
146614129
28110802
1896823309
1285489885
1701442198
847807366
1159247054
2133208385
464477529
381059915
979479904
1506020066
258672072
750891107
1338463322
988411923
929707274
1827327955
1924098684
1366488487
957344863
1959985536
660140872
615729008
1792441507
1988157908
1564012574
633821156
446014335
542208216
299639028
667084058
1217802764
1954923247
1525075914
1333883915
1083980725
1279162691
166437500
49876389
372296540
181797319
1525839076
454050559
160703103
1403690846
11025267
437811452
1054965449
1703492149
1733356797
1814920509
2030921994
336197706
833910107
1037787592
914852570
810523936
1096789896
1082892802
493423833
263893663
229795828
1130008131
423132599
1078032573
592668258
1511391350
1684815715
1597873646
1606648062
1665554343
1945402944
1889583075
1525200257
423804348
1530244736
27308819
1921666195
2037494273
1123849013
1393333078
299303653
804708094
1981074425
1016830954
422460549
1563374869
1380641624
1940310063
948256420
1971081220
482547054
1558068044
551645562
721429218
1286415785
296448260
662743815
1141500940
1467964729
1192310161
1332248896
2014671245
1711315269
1291478487
741713013
1750959443
428544349
1778939880
858013910
136499584
756063589
1762839351
1433037164
1273490715
1166640180
1118290063
689801811
1040430855
831967598
1711315700
1945887373
571145176
675361834
1106847546
496174771
531783930
1256023268
1337732193
1683778243
15309102
1178538975
99984477
730395831
1712382276
1803771746
1148959655
1431606994
1850328036
2027672040
1971296712
1608184158
822355358
249751695
1383526882
1619393958
151558562
1998790926
1880054385
72335281
409009679
1822003279
1838968266
1764753561
396386210
119341143
1636938309
1999573193
1915430499
1051891381
1572424355
1438028465
1681951170
871957179
720924280
869878869
1185303866
116601818
630368621
1483407754
1861731208
94082919
1878844691
1356945244
179903532
1607000021
57751517
471252158
510654204
1443713444
2056551860
1479040444
1495416904
89758494
1268693167
1221074333
935089582
21770481
77019298
2105252063
50295199
1664497173
2102758403
1969303563
96034866
1274996929
1477982165
1479809308
1881570108
321821082
312620926
979925506
947842645
2106206448
1458587041
1683524605
1741701993
1506283046
733408476
983286696
627324667
1242031363
435838547
801179033
2048250796
1289061567
1446056872
365223628
806737899
1218485548
2021799560
935118902
1656709264
1890704956
1355862201
1515220977
1161682525
1388750161
1751434421
465177692
1575309695
949760966
1277332867
707179884
1866321549
1221815725
1197656014
1768933383
115558838
1991646933
1218085123
1732661170
763014095
1485228662
1042632818
1728673884
2048732811
1747189878
1386362627
1554057579
1455095937
31996988
225724442
1607788466
303444322
701450801
2098731172
2008719217
1863771762
923416409
907999529
401733366
945411686
38454726
448853046
1200195719
2046430763
321875087
202807207
730096944
1656159431
223927536
1462469830
354008548
1891092354
1171394780
1698351196
1038587688
1967974122
1972625772
1871051496
175211146
640747965
1846355168
878192958
2103730328
1642742350
146298158
1810203693
2084055985
817811
1122483707
14211429
535349836
2101227482
319894170
1501549406
178186445
234911585
84036885
1269236003
490855434
576408302
243676035
643213312
1846250364
665787549
1445324651
297884164
190276428
1561113297
1372330677
1591039830
1678069558
1502891420
859147939
1023522359
552188894
1937576312
204929629
769676096
1357095377
159759567
1828812871
1939179924
55678837
1202693069
2058255678
534164229
1254026047
1531245654
477910522
1453879467
599901716
692798068
1648635389
1225112316
1646482789
2107858098
785554802
1623243151
277544396
1345808536
2095824741
269378684
486904974
683165191
1172557975
877521713
1054974677
1485520066
617960625
2092754460
947498721
900263785
1235076495
1256803771
1906675576
944674999
719964373
198327172
1705755878
1484951320
649719433
365457976
28040236
1200427316
1692989198
675261858
1452988645
614881878
1465688520
1071758153
1812637622
322633253
531235540
173300293
253073349
608669066
1914069438
1648550977
719773298
1399620241
1107140465
1566358693
242819120
1803252859
466035918
454658555
2101609335
2103350409
213014700
741618915
112315122
794522054
1491312122
401453547
1649801137
164758891
70965809
893947983
1962799926
163120980
1520206758
1133400893
752140824
674793896
813053908
1720684870
284343776
837017118
73914687
1747967371
852645856
926138588
2132424125
1643018107
641917625
318885386
107754834
909951587
1049781429
2061909345
893357984
177440603
231174787
1215882896
156109621
1079507908
82055564
697732445
2089828953
1002541804
441098547
686519804
132051523
487691611
92130848
119816556
949473702
1770881337
1838451793
675680699
321842710
2127377195
1507530847
1741616604
1890947728
202233373
1245315998
2036309592
1568650731
844798790
387728400
315578759
993063223
1434204901
380457182
2007717783
144309632
348142629
124273402
490878711
904903347
1405683137
1712390202
24959048
1409596633
817346017
525364523
1977973630
961438607
1042334330
2068621276
190718598
1738438558
1415340368
867584259
2049392520
295325966
1323546897
1524871140
1425516365
387483117
260823226
347296507
218550000
732831781
714045354
537795267
1208635128
450124820
729317141
1375913224
1212657730
1093660225
1947883763
1771261228
704348307
1520620090
1273891087
225271855
7777746
821141642
1329663181
1390859690
1752378103
115698903
180880404
1605841631
1950407738
1341336729
826679420
235353313
1770769239
1553048712
2115657343
1955553830
530359248
528932834
10716641
1386128853
1746171551
278277625
965472409
570552560
1262798812
1964484679
607001737
1994777981
73720024
2132951486
2070086369
1609271351
285568699
1074879414
1110128853
650705656
1380148413
1531897074
1438898015
602881855
760949241
980090868
265825364
1305345924
1281166434
1001009313
1151414606
1181639469
384040495
1884492637
837012881
1748887231
902797569
2398730
1088347366
889339809
1948412754
729666556
1314521275
269436416
306547502
769669739
19281811
1459086952
672298009
1855293499
276905539
974331131
2099522091
2103580431
955037629
676198104
1309714090
1296877183
2133466278
937663797
1212910731
2007329204
1177318640
800351972
496182339
227720638
636540642
857010921
1793630267
512812994
1582215206
336480909
1312073995
510229537
837866855
1982335984
1759064511
1028524913
1791515400
905288677
881955913
282999043
1114256798
2009030788
2065823087
486693469
1709744329
1371603765
1886843090
1604557647
1306087876
1016445649
1643548162
2053811837
676949403
1317772958
618888246
1909326314
469781001
1152843600
1758696966
953712212
936506976
2126432927
1381674774
1697762374
1969392368
1484452999
1160423128
1863394244
1199260102
916318687
201966944
1289986478
1219647109
700582670
404775060
177153470
981905202
1028926783
1614726771
811252124
649087949
1576281490
2078044948
1705344595
427196253
1023695662
1823575061
934617979
352120588
893477162
619422973
