6200 127389022
1491508779
2078163645
403006956
291054569
1808763037
1258569500
1942188907
1708951629
1130770484
1117322229
1285754671
106245886
1345179671
925135524
33421394
1590725787
1970482295
401941371
345864836
1079584052
1436658528
687441683
929090093
1288495427
1149973724
1224575405
1564125311
877653280
1345575520
432344262
220680213
1483021830
1909606499
899445120
1474013401
13951358
500563373
404237000
571393085
1252766325
316951451
2111592391
291414498
1505302694
1960648386
1097164315
1223769011
421015084
1914212183
552254374
1175640539
2137697715
1714305210
1670670770
338865961
1469024545
649550385
39642659
985578885
2126382966
1671216968
1259851487
914358784
1561226062
1168207809
1781969543
53995778
362356960
989538277
1644487855
828377836
125138136
719952115
875779677
1057828782
956354935
375222494
1689090283
1779866529
720864719
2095065887
47196379
1958912976
1493701646
839756085
272342814
1566148951
1504315081
688951689
1788439517
1411358371
522276958
414349711
1338996938
1247261575
1337405486
1001444432
708383491
1208928520
55681503
1445440432
211746261
1301417443
1890734732
302194765
600280185
1620058787
885399604
831042081
1704445012
67544693
1653481133
136925228
1809745918
1027410542
1917527856
518861087
855820352
1865264812
1924459895
1659532072
1659748256
1088308743
254123718
962037051
1521103824
1917354741
297994196
1441420772
1834074117
1989413604
13517598
894782683
419506038
1635955505
1382215384
651364886
2125246282
823133453
1913580565
1557262115
63799674
996477446
2009834479
233860756
1291916818
207708147
2013386284
1151018123
718513767
1159370072
1080094781
347977479
537831139
450022897
628287974
202866295
1527007534
1644670531
955624791
1390736617
1366361742
626692265
1495466932
397340551
682373749
523436287
87035099
170958393
838898707
136085737
1131232327
1449481130
86378819
184587407
697294956
1106187853
687157328
1400772201
1070477426
1126627247
1150163644
297718664
60219942
575157605
21694111
2051829815
1053640943
1917264240
402137554
931500927
1016265688
1879363964
2045334522
1970560114
482870042
464558127
547819558
669457724
596283271
692602107
1292578793
1707892828
1646213097
843590659
1623643395
871576609
2060107669
1673263005
57299981
1550893072
155608239
956382886
1848124937
1997283177
1704441444
749528678
128705494
305235769
120910561
639912493
1803437833
2064494849
1115614789
1268460431
244266298
1989316708
1924759609
1162308229
1822347711
1413893670
1590393381
1740342832
140417010
517836122
1194272259
679011428
172195307
1304557328
261901432
820699788
1881284102
1036390085
1595196017
1494986136
164489725
1583828741
1562148903
1284760074
1830052820
1814007023
1661353738
418772248
495804880
1063691463
207462439
1728471920
1524193140
723873445
160946733
603040497
1644603388
477821415
1951657943
1774258729
1828127028
685052491
613641714
51316917
1555938553
1987906372
712290840
1999423301
1108364214
1859769625
404207740
554244210
1627498268
1892178067
863400562
1816813720
1533135778
1149967248
2014946423
1898724833
1597651797
1643261206
78859384
1221720319
218138542
746346824
684167228
417250707
1127736414
542287523
1118647179
2118424881
458932420
102701347
2119079561
744178978
637889314
585088751
1228159900
1181726202
1517992463
2079786190
2021774903
790459325
935050977
786059806
699326561
1105377777
1133215860
115338546
1457764893
679502054
1708637359
1791829930
1812221439
1054248133
354399063
1860555421
1636909384
1024403027
1653733373
1331559058
2124982416
688331539
851069952
1378806808
1670334230
1560765938
1371046381
242253863
1649103905
1123999410
404317728
1517793308
1928972950
948818690
2139796087
689664423
1034370390
1767138915
1422067533
1772149787
1133852498
1242872439
639037208
217027332
636821630
1079631509
609478472
634354830
1614916772
1735690623
1704620985
823180185
142594583
1287559201
1477457906
1839134023
1204831882
1781946119
878909999
1268833591
1104840465
396530049
1714842943
1558513977
163210423
529558262
716382916
1476201886
255401004
513539629
328467815
713548315
523957010
1351927380
791083919
1179422025
644505200
1882115737
1272729822
1206262068
1565110631
1393666816
672991451
1289867217
1626624794
1966487694
1564555678
1246805725
2079882323
866395308
1990159670
1944945671
114458406
130039459
1808665698
1192714769
1337103347
696029035
525324570
335780861
1700147218
400242980
285491193
1789270400
1893590148
609558724
634727206
535974979
2124989294
1054170339
1010449603
859146989
777932501
1696231239
1061914775
845888919
1047522992
1097745480
138159624
1468854954
1199239000
835058463
540398579
2013151993
1075054515
561673796
1521393847
39202020
161834778
1424667787
1248960114
770093757
1395149872
2138632099
1102289880
713276555
245572303
963872252
1605166930
237651569
175450692
748333508
609294496
1900598146
2006492069
320068219
484303834
562703098
1109690397
1841046391
2048520863
237198172
561432282
602547726
1128056728
264636355
697306038
265349229
1587062631
1903688676
1867124074
1339321983
1396673518
649136141
2100388785
239147433
1962679884
1715479855
1726735657
1308021228
504871114
1889067442
1026854489
733541715
814117237
457839975
2090200921
1760825420
1379019746
1384046049
1294738039
2112511600
910013553
478864031
165104068
1582830104
1194910028
1252188407
157783700
213935451
744406376
1694662954
208393790
229929299
1846983420
132149822
2120976792
1166331755
1813114010
1370606996
1769308806
1206845685
1769818371
845005900
252447389
578264945
702673976
1579324082
295145716
792876347
1936495093
1577893036
1974001836
123247878
1232380030
855741067
41148285
946883382
1413274147
1065221241
755749653
1935858938
822452233
793415365
1107964018
2108068175
1336568879
1535502169
1835594010
1228556558
287525812
881217518
276394548
865414914
207839461
171158563
167828062
223029377
892169726
513453360
748881791
825691445
446129904
1167740290
467994165
454797188
286657509
1873581491
674238152
449609033
1577683803
1558947950
106826901
1913610096
1625566327
1486100212
1735961380
1619509871
1076101427
1147501895
24374598
1511841417
1316528297
1717724711
164449073
1634441329
781052342
1519417261
1998084198
1089810587
840223752
1031399273
379712049
584825964
180558854
458307141
527627748
1344103955
572746689
1790457283
1813741350
761230550
1328410082
1498108641
1758441005
1551506662
650338204
1932667825
192869773
1058412741
1313012431
907438709
1471082857
1875707936
93614315
1795287724
181413
610113823
270462073
835003620
729284642
1285846967
977673090
2074534690
1015156774
657131272
1931887204
1245592947
877474577
1832706246
1349014887
1652022559
1821505413
630529446
1411848968
1122470440
1719812823
500458942
1929270953
262602556
1433984713
1099945
578615889
1294140649
1479839848
1928355306
642998607
777508707
59225567
803188025
1689686575
1780339165
1971678379
2081742349
1083279772
2118607575
542457974
1982902567
1379765060
2121353383
1475764407
862863279
1436188122
126227918
1851481905
879920141
1182813173
806747250
1298626022
1257023926
1789021905
1355015015
108418565
509093378
1914552505
1193853625
993492380
391223314
1712076542
1622034058
331748737
370110658
1318265928
1778498738
705059076
2041537488
1342792472
1927301223
1785823833
589930216
2028717976
756899468
1721319945
1205521174
410630705
1759807981
1976286453
347460608
938662280
257390436
1147212405
1414428969
915318047
533285568
442198615
2131600684
308752188
452475375
774015952
1442877095
380622636
1925607996
1212414766
1708367915
2041646029
68371336
1363189868
279587071
1797395828
1400215042
445707477
44291188
765061266
1018733803
1344846377
1040247523
334495641
1835918
2145597500
955668967
495336734
393734577
140575608
1482851390
1922356956
8832811
151014108
1739840023
733038329
817176814
414756466
124926427
501827315
838382693
432250310
1761351566
1458229665
2001724546
1947876816
254307790
181546409
1252683204
1492244229
815691222
1867972444
1293705711
1837091877
1104422725
1580294929
1566338287
1533941759
432308612
447745953
1471045894
1233736724
361667264
1016627423
91949810
659637917
340687085
210381037
972443017
37025924
497070523
205368186
72648592
1264800898
39965367
1998135076
254819813
154750097
1213895245
1035098340
937497043
1735821349
917096223
1492663544
530906056
1971428129
1641883786
1339824577
1939656753
572834683
600430424
1819544160
1740442619
676081570
2085989719
1672437913
1676929017
678350019
1837258186
483792510
702920247
376085849
2116759129
1412188582
1153467754
1941804671
738651655
103988606
1674055088
35915706
916330170
1729979477
1398465642
851806023
1376201862
607711872
525465752
305752648
2035922616
1259895032
79386467
1372307883
1172899669
1954809487
940652582
1384898841
1635240886
927027930
674123900
1053650053
1588946167
1894740084
1298165978
1256517558
2088110049
558794511
1058695275
638122738
355902873
1718392236
971387375
2019609119
1033739035
508574940
1918396261
57242499
1506355806
1289392468
149290599
368745695
979155443
582546874
765283515
89373169
526245241
1684012268
31675387
1085985694
1343366657
1982354669
158750354
1565906223
1278130763
2093398049
51819363
604463844
1942664842
1333258362
1280772766
993540281
1621448044
1801040040
53782763
2056654695
208723841
764014558
1798913311
1324420102
1156801638
1405397588
856085380
1350612361
1475230244
559555859
307173922
1308193564
1306347020
141952781
1465314711
318476833
2076118181
1573946382
1581722743
411358565
691440183
1728220864
330028134
439192122
24629913
30806791
245523966
991569668
43022812
889927648
2119733413
2041213554
532464720
824945227
429664175
688861206
1352310539
572845784
1985830376
68114415
1345019831
813874222
707021331
744871010
1538608424
859987387
1402647276
239126585
1387655066
1498946868
812327975
663444656
775301271
2082452845
701909460
516626531
1592857511
1511050262
1300206764
1702477112
1054781113
724595813
1997678399
1441050162
1674791249
1457043811
41879856
1421532776
1174715953
210710453
901096357
2056406761
1449554570
532910170
735544916
701359421
1307385585
1215257137
1795715705
963461299
803954373
1353678225
1897639921
91126296
785910160
1100025117
1786751388
1099686136
1542410871
1332344933
1911083266
1530794530
1195356241
406245187
643615457
202087916
1993576176
1016498759
408871859
1968125556
1623770686
1981636173
102681401
985490882
1564924701
198678098
430610735
286444588
1382352738
1744139710
1531255244
443803265
758188708
398008890
1294033350
841440384
271040880
685741789
753183253
1970525908
2022737573
635280779
577729780
1737121037
2035047132
1684656532
848230860
42351861
180999448
1877780976
525851000
1605072708
1424939795
328174503
1997216300
1563211624
1089020212
1707336592
1837526195
1205981375
234255100
960186651
996194182
326616406
357942057
2104076365
552856541
331567983
1588724827
1657435134
1387602249
1979649283
527943822
88203324
2136734383
1759376681
1017555537
1897079914
1333416444
1987814922
1741650942
218416560
826616939
189988848
1963999436
1315694817
2054158104
25452321
285142260
435662089
1696271139
1205099027
177466689
1446350300
737573291
1609303970
1984264309
2062011626
215621707
2005126621
77899327
1382475141
1077151100
1279375134
2146259023
812058075
2127428692
1513378156
18463454
328896822
2123075942
150148224
237700026
2110433945
1642151632
596463549
2021088196
1209976611
1827006451
1670422547
2062485171
1466714122
1845468768
932179752
1164518159
1451695284
659336762
833878277
1395210912
44854606
688517437
855530155
535730983
541084867
1951886494
1946691471
134116866
1547137901
1759261664
2082801925
1555679380
816185533
1860867716
1811145600
2020609141
1493976498
48599765
948307341
1631563782
2098894722
1036554953
275111200
1408587372
1992632712
835875054
602289957
1559945205
2057367321
1903477583
1849885847
1988573668
1872922225
1506308291
1698474271
2019555210
1836591800
1088982208
553046559
2124263877
651669020
1941207993
503567164
1241788337
2000256049
2107268939
799378994
2107594294
1637458984
137022049
275570831
41279875
133688155
928431601
998283683
1128457309
24110771
1113123979
1492449577
1598492725
1994530292
678119207
196916520
1684194899
340211103
1133105428
1474070670
365555567
652615803
581155904
598362467
1036164044
784751350
2143014342
117475044
100625462
1003957435
1436092867
795848582
1397145926
627372850
197699552
412467224
641184946
76903242
1725058940
870676663
203282559
1489253507
1704958851
1531321437
937738252
1589109403
1949820877
236238366
1817989143
1774827453
1594975271
3139561
1981732572
2016931595
962097443
1859600610
210365498
1241268000
1940800555
2135366480
240851549
1939823514
805295149
521798348
799100322
1017282489
1916144964
1989714697
1406405973
322437368
614485342
2034318698
2013362916
2099505231
35268608
15706069
1042553728
800953834
1460499354
607048290
1540450105
1596680724
764517456
542955090
1670521307
1594980298
1611219350
1013615536
425032438
1561083852
952047922
2032117666
1066399274
1332769219
874716334
938238736
196549527
686339850
778632378
963750072
904589259
2074772735
1013505441
1896401650
1623077916
1964701477
717446174
716423849
1663987393
2094838063
493475917
1694430543
1341963243
1214237098
214698879
142443262
1790469302
1579989980
1695277979
1386814652
334250057
1380147734
1454941911
1510892255
318757871
1996945522
2008179038
97438564
92105474
1414538823
636917854
715198467
546144259
1885212935
892815047
999892047
1520012220
1417639463
1262297560
488682514
2500066
963431835
1849042002
749283821
672538176
1835824082
724657173
2009087226
1890014049
1350163472
1646865750
1766852389
1738167380
818465546
807167778
1676911697
2098579330
1679661270
517488687
1416189702
1643551835
814971539
892543550
1061894216
928907870
1904858621
966389422
693595309
2121148950
1670486654
1945142088
2041635633
1145490723
609461265
2061927864
430021458
393379434
965289313
469858288
495416155
1763033683
1547639251
884806887
783580758
357625632
1404944370
1581446241
1043063506
1801835870
1569528787
475690881
1011106077
793915241
1982824685
1397881986
693674126
867162837
1347101916
532831131
1339090780
1405867891
1713092900
1177397955
1475008277
1124405386
1394937324
1335511652
701273259
1470360671
171949003
191576399
982103344
746300763
104388137
366391439
1826870534
767977703
1096656335
763103441
514831835
1657618756
309095101
297395545
1340597395
118277270
58926732
1451600252
144041961
1252494694
1371893495
296039314
1054537472
1528265686
43140968
4973163
2122397430
573488176
1564673064
1127997677
2006876431
2056886410
512504801
313309742
1643229638
1848774820
1689883179
1381512788
1321434793
1805007312
572391857
959348268
322163774
1033004937
1429245581
1330808815
1761393819
1880103863
1542420619
1478478563
1003736495
861585039
1916945714
1427782834
1437802328
933961547
1228135007
701076566
1014155695
1745533993
654155752
127981324
389802907
1556075229
637315848
741551354
1518221391
1385379941
1925836567
588708953
1160842846
1835071986
1473149125
670584544
1783174466
159695978
1993126028
1954250029
359359584
1624446228
1190634519
951133007
1376202933
1290809865
1213290718
872176957
941556509
2046159353
1529423589
1600932472
1646950051
1769544877
1286806134
1504303874
328826732
924846959
1875992097
1203430241
530724778
622489805
55094745
620460239
203568881
267149651
884527197
130979084
1014788116
102560684
1104288212
799474544
612144919
1635365080
258012684
1143575682
459870255
1690291247
132676378
71932673
1670145402
161227807
832897690
1063300854
1520387335
1477642726
770690239
1365424920
194774961
1367396965
974957200
2121224210
44351265
780414401
1409986470
1898004896
1338297303
1749239840
1388375337
1243450022
360119186
1117565405
361771852
511867056
1408839618
1307905803
1649597416
1979195645
1519815546
477270292
629382373
1346575504
1680943518
798438835
84173326
1968868413
1685347262
1883951083
411971543
1377985816
1865969558
1418057726
551750968
1728775357
1807809986
720241567
1090188742
1425476913
1906229250
1574282913
176477397
1609075180
1025371936
1546574532
557090430
1310087963
491399572
941846520
1316414121
1563093622
363913555
1881318635
423939987
512567201
707482303
1079355159
1408129743
1723124745
1796801005
1200347839
332848399
447407962
1553187333
1003482153
758850379
167228290
994460364
1609999978
389718320
710848918
1840129741
1687721179
175942668
1978273018
548577779
1543989941
1055570971
1525041323
580427673
1777349522
1662564195
546255700
125661483
1551584185
1108624391
1515135660
2124481502
1708859397
175383022
2123462859
2145951431
979023548
1268813190
1967747050
488843874
1746730787
74295807
1970155204
1253571928
1390275130
138474244
1338844331
1602827038
1462127317
236632077
1353952742
1542621904
897809805
1862049128
823197645
1005440277
125032938
1866868562
584146333
814070287
618195339
1757432730
1532203905
417366045
165701870
1227951186
435797088
1934277009
2054492100
460331564
133582094
1120662450
1365778717
924155461
1905682569
233684050
514114361
1023102080
1080720631
662583300
1893605547
887840313
1221469895
1647788292
1682526166
1928467409
1819303526
609422587
1360266083
1626283875
1184688966
137845490
963183279
1662867241
237510809
1400908429
1609787901
1282051919
335405349
231930148
1022472759
966294596
1148513494
1694730519
1493795338
809475446
1420260090
1412640500
1781351813
149761700
1278341172
800303304
1745129124
2041914200
1725518308
1201044439
711474520
145827843
1488544464
1190255220
94597118
1141222640
1388084937
1308889917
1028274984
1462106154
1010667441
25069178
261565159
1932541937
1909805345
1767974102
140544503
39505149
2020859180
2112845184
1003909685
1149969559
1996980241
694690967
2119869789
1028668090
1880216767
1363679419
669199571
1234742459
531376461
704778798
1853407817
1167983468
295447245
741593262
1686241207
1637743839
1983502853
2055324108
749492011
505077607
1946666806
1667380933
2120471638
1719391067
788436621
1782653879
585802544
1661355356
2108476518
1736795215
608264605
1632194735
1198252559
1461750772
2083600016
473182599
1309384885
1500658329
719893341
993050476
812959508
979893047
968653549
297463534
1122235597
115518162
1337766595
2131647626
1820188459
1351247345
586169033
1201856068
287165709
1012530912
975613455
1615928995
694115135
1481309383
544352807
1696087656
168069302
2024480896
1551491198
1537048327
2130250485
96760966
855010716
1805579394
1163127344
782295429
1959328332
1706180770
450389338
1708281396
1446912860
1120424938
144121597
1632125949
237873505
1024407761
1097896040
240918204
1086843483
1022027213
1683605385
123519454
50470991
316544770
761555345
402839388
280128214
1499214216
531300363
1112970592
546086623
1604136106
1969392908
2108689727
374398573
682394842
712140598
362479897
748485061
1477195107
1091788372
512180763
217159530
1466219363
1863788308
1783535407
765207426
383459084
899223522
1052322606
844532127
63309550
2079915212
1279885972
1972220728
798675330
572631993
62454350
1298125163
587970486
490422460
1823329727
277048515
2138044115
353049169
139699545
1416117516
1521419130
526511621
379563001
1459800583
805815015
572074990
1160326670
64213919
1378668152
323005332
1654636461
81559950
21937237
1111334839
705161880
1431329995
567112455
196858569
352805956
1425411786
241795933
1433545624
1688849678
1749543442
586058229
1843099799
874968377
1116027563
1651481185
1864664323
1901308890
201678318
105820513
196113614
42341710
809345845
1365782086
901015710
836143437
1007350711
886789688
1653303914
700840065
1441809241
705224104
1032036805
1735580666
2132461571
528513885
1963315120
44411464
1964833623
1958117784
1746408303
203282052
963731685
1115324786
1499264501
111695451
1962285183
340260051
1875885867
665366517
582104307
1084878831
882839928
400396427
643161380
1024122033
1755762223
1565125340
805712929
459881425
2066366940
1800117487
270928158
1451913302
512727165
235445868
1659654074
728010911
1862113736
41662348
1152999630
2090352981
1507634514
210353678
222036453
519280490
1952196348
1084775572
1620522547
1947665128
842849016
2126471327
987354659
1651851318
1967258186
1208848535
1933111348
134697742
952710900
704252392
295563504
1999472743
741027835
1809524675
842633980
1666613567
1638213109
98300246
401381300
1562723356
1319958251
591990544
2004305761
468670370
900752241
313412208
1921038713
1418454295
811637157
172856085
715580454
1133306392
1959463530
261655902
1239971297
1528513368
379618681
477472897
1457091730
1926182588
1898683635
1295629723
674473484
1778214179
362238684
1985950872
1282654469
1662139855
205982737
2032382819
1062495292
414467845
1864420712
173364266
1343739773
1267104204
1573568510
1589142280
682726270
1770234700
201129005
1418634443
1996526200
1443614519
757637071
971580625
1315661879
601668217
1205151970
999132060
1901011514
542002344
104143473
1482161391
1322381301
1095506736
1754458240
1763868209
583701357
1571091174
1364667684
1700455469
1250793809
292121228
965288821
143673882
177297574
1311931632
2009754820
1566641934
771341326
1497967439
1659837642
1985109229
440193337
1606952862
1014172983
1161442922
640753971
1391494812
908950255
235211971
1022808365
1829403163
298051915
1639964473
307006051
290132890
1199394684
1659887542
1862347366
794299853
1429637957
1281401442
1632844594
1830985652
1297686240
1337054081
1714369429
401757689
2027238494
1628271956
1834844031
1066989092
1581246831
1771021998
1808879691
1692952618
1129768124
571011375
74003692
1319348452
1162490269
65281894
680688070
1715717183
1867342832
1310235490
1868583377
1879693151
1175520624
271733882
1120388576
133634953
300239015
93859220
1741778424
123991913
1214711345
1197077505
1337061390
1427053140
1371013273
2062474548
215632326
597531962
73625645
678268179
942727237
1218784840
372234352
1256629337
130307976
544817819
1732190958
2041239191
1365849145
1628721119
2013135954
962955435
819151421
1352011741
159623357
404027204
165398098
166709595
1528997716
789111930
616920464
1417126742
789331789
36752995
728708652
289144530
990305152
1948429765
1535551287
1661983041
1767432039
711146328
1391161575
2087270153
1361623692
1167638252
1888771446
1749718178
347292934
1030841650
1567045726
831546012
1591305346
2498130
1838446483
2115732979
145094477
698549136
740797296
158458926
42797376
1048462961
127776356
1687024658
1950699553
1392944644
1064423005
2125879517
557641615
1725066776
1605518240
1029080016
2127201545
22543481
1221464708
1324441412
207322389
1144573959
1995192899
1869021295
1694543427
872947346
1966988895
31875357
752500443
1752560419
651963941
923018011
1812189084
686281855
1340282240
1804556607
465694957
849867394
244954253
115170026
567402335
32759319
1033478252
1566940466
819758763
2001978717
84274077
2124846497
70111079
381893538
839054641
1533846671
804336213
1716815587
1086325375
1538524872
1179948243
504853961
1585684111
1233047758
1561488718
1798094484
105628202
1746399231
235155311
2081350854
1001571489
626800095
1618870348
1681500154
1290408965
214067505
542421648
561576279
1841018053
33251652
42928872
759724719
1789102774
1260595212
383994976
147620876
607217943
412885942
1749158963
437105281
2013588040
47008018
1439649403
2101345771
903090413
1679578796
415951356
486430595
1007529911
127735335
453588233
2021904377
1489541423
1527686855
884799837
1997227428
282106092
752865191
527675396
60726042
2009215825
2098420318
1732576911
1824421126
1363553647
167605300
1649846838
661356762
1151196723
133372360
972381409
490357293
13714845
1562675261
1470386551
423258674
1223683494
1224456173
329502477
932885821
2096468639
276291188
1368399539
1880248545
1426297596
522123629
1255784017
1798884073
700458886
104751062
502783515
1326810777
1305240620
1649630471
1414931380
256883676
694288340
1888801547
1881061150
294124776
2051663007
79094839
908170967
511984862
1333561463
421635459
1329214455
620203446
282922190
1643370904
129259197
1120792275
547366776
491434532
1649494568
1577468662
1695535683
1365744328
1739477347
1312970459
1316799442
1131219588
300769978
878091983
911126442
797662952
1872833615
490894823
1094995473
764853757
404578534
1914299288
1075064027
857669596
1315720123
2122967472
1589593903
1312989665
927640587
62937959
1275487885
43368675
1370151655
1570782031
1603488286
597039712
1885353479
877371659
646354734
507844596
1186190506
204220523
591106560
1570824453
818119654
1120069360
1983028643
1406498076
1001130655
648604331
322143257
874434007
278902290
1565081582
383288932
259328481
1227501007
821919695
1171469801
1346084555
1510117364
777381555
945558283
2135724791
753718753
662041078
828241560
1322827816
827031565
1217300085
571359711
498474534
505580091
1621008096
1606604360
2144670842
1466738674
1573093942
452384395
1454756945
1673775346
1015120145
865021478
651606978
511566999
1301167379
395305493
489996181
1434390335
1036351103
1855137954
571923730
1226954205
940663437
1836272203
1685951688
263643601
1227852242
1253591334
2075094233
758965912
1633365544
1836732991
310082175
1125241907
1745238395
361362590
166393303
310269187
1374270321
1691296295
523948552
672960794
165068833
1592785010
1662411043
1698380429
1087448633
628117352
908852715
1065214500
1646025912
1805325200
156548580
1981518747
1946427943
1453745254
1302866843
658290907
508140031
1000570383
1391790370
521750425
1665004399
1844144288
1228413494
1838691493
1353946916
366571827
868873805
1179726090
168746527
1355049206
1528619832
1777446216
215961378
675786478
738440932
1462117901
1972004435
1074593512
2040185373
1145616579
1370546564
1852312260
1091289707
1781923708
974624902
1295309246
1552276627
1942566091
2113722792
764014923
81960607
1956684093
501436754
971982166
395381298
485182967
737900311
2011885591
1350543137
1998651968
1685357827
1121235675
98475309
1470465964
1881011536
1191263709
1974654523
1165505916
1206028461
1970684071
1532176695
103859519
398840900
1568162418
1292405721
514486160
1278040304
1382236731
1344949421
81678385
610148358
1096752888
607082011
1854804370
959963846
463521796
2068674472
461365755
1599518787
1057568114
828356970
825011950
669272989
1343432690
267171029
954313345
58825101
86028614
1346762796
276174488
785528908
1952023705
1389981803
550918503
408036381
174788263
1827527443
1959090727
1530861128
1771787801
1008943414
1431643383
998138886
230662966
556824799
1622660837
1116234563
851964209
1500950473
589943517
897735215
548414861
690224663
282475800
416281770
684200041
633208684
1521926109
1434796853
1298347388
1930261985
2005899182
1497514070
1042373371
713290961
1565058967
824238037
136373123
794071441
1309037878
746497047
311160149
1603837722
1199435056
76201213
1024539180
1694068704
305090383
1503767998
922345724
1568153513
557589204
262110140
1789707358
789341814
1791152782
779183011
579916904
385053186
465342865
1817188659
1499403839
1739049137
159360704
1798015979
2031449057
1855664995
103219679
2062628522
551245147
619425819
1145050872
1584788752
1665728515
476867495
1094714144
552362400
1268957210
209437822
1029765349
2112929106
1505285891
2017416288
447280119
911432640
155006470
570360722
335197687
1743428478
1652554809
1568154059
405932548
517300897
2141437977
1428261236
879514178
1521952310
1652203406
2088356245
1539201635
714504162
1818040294
865622033
28865863
1311186026
1114351282
240831474
1748623575
2070456739
1707880645
1135026084
808743357
2074258702
1217672205
2136734501
807503997
1256675838
758169254
732432008
1242123526
1097187153
658321282
1151419327
1981625188
234129088
567918278
1796567382
1980155925
1834891860
1622330861
833385533
673956674
303567532
101318575
160811619
961046192
472665465
1093802224
1109001475
2111905899
1363217350
1712236731
1082739351
204240869
2026158152
1330149366
1814028569
1110852169
1483273480
302498414
1134149812
991763988
1228214853
858076918
810429784
1365981140
1033440470
987938500
1825331608
732649045
1426723677
895291197
991039639
1937452704
1104254436
1661403276
815097952
1048314105
1373100847
362786654
209353777
1537375204
1532174207
1932813269
1584279109
646375863
576993788
434061999
985592627
896967610
80333898
1679017352
1382851288
774360876
1425209227
1449785894
67654492
1209033000
1306172338
217680913
1549613877
42035997
1832131697
1333105561
66821063
1472704184
1234350315
1213869769
1088336641
1035106920
643053775
882696611
25605718
251776419
389585784
1047576101
1493160997
140297514
2041490735
382686399
1768898269
1452363455
1644142265
1184328689
1960787537
1258169969
1453453889
422740386
706956015
640162248
1411185304
1876038312
1171074902
127636653
403038394
1031121684
1162621636
1968928097
431960753
1628094058
879709068
339618098
1673787767
202852400
195254433
364515232
812078860
1635791880
661021972
247605356
1091677510
2031914441
394850515
1584661980
1596214168
2045147604
1593197595
41421374
1372366226
96138613
987547987
840231897
1412436152
1052335819
707751714
1477935386
997788487
1064551890
882447119
114283783
74386045
1950417798
1511715592
1216643897
1818349573
1562483492
581904506
970808355
156322134
1556636040
2003315238
719737223
156955950
1517809219
1151751783
376154770
1502990832
562418520
1595704687
378568754
1889915978
309632411
1132241825
413172017
1500505351
1723178162
180704229
1899888231
1584883542
2034463757
1397332330
355286944
1586382636
996569724
1756072595
572399308
1604358101
907260516
589499042
234155277
1686407575
897057500
1216973974
1110679212
1591238660
2103416395
801365207
474234731
1310085405
709590150
21164914
1116057291
958947825
740680230
762629914
2031854639
803512006
346429513
337532527
547551970
1710940108
1150641612
1572291332
1275807578
1090328619
1480957752
838931273
1643557390
1598761997
212502119
1160905829
153164966
768298682
866579417
657266049
779062791
376957207
792643024
1449136386
1181279895
703334343
1350474151
1375772459
49863714
1647792515
1611287408
1166106773
293486274
1029866797
56835529
1765281803
340100266
1915584518
588737355
1515040060
1840291394
1773128861
1797930431
1982967364
443355916
1956951987
2015899422
870923021
1127834867
1665921005
1081487554
129199659
1574616505
988261205
1250811184
328966217
671343085
1006720370
1173843680
1102232003
2114874953
1220396572
636649830
1657310589
176642893
2057961219
1776195911
245250547
179292578
1535734560
1351906436
1219138813
1731401400
1020187471
1224811104
1453956313
661862350
361260519
192144509
1146090310
1357668405
514385006
1680856555
1100701544
324070333
431350243
1492278361
1599690677
891196336
1174714636
2017419322
664573028
193850215
80675498
1248087112
771402385
1675437022
210211833
155375366
1972022506
588716104
1341719582
1964282291
1891489590
77046383
1708571559
1366835536
1766539238
1185822373
1233750502
1329200868
1283953338
1071630446
1042334550
1684479801
715248275
1181283920
1886447639
1432282007
761144395
113344000
763941360
1991307695
1694998602
1560410522
516319933
2025493551
141700428
2941546
2096360073
1528021738
654664301
1299963504
267820604
1996288766
1374253438
1156731850
414725289
1696509580
1804540089
1335248296
1863554744
1544287836
451649069
852522961
766395321
35154129
1373753539
596958060
969357506
238236378
1819349826
1058292499
1294229242
2023212930
677604952
1171807977
1684504848
1699045718
324250300
1363869990
338938448
1598966109
251949979
1523165779
1269615689
1831856178
841056387
1317428467
1928859033
2072288806
363055194
194427631
545922916
343958295
221362884
498231449
1344814211
1472802540
1525973779
742504826
447180602
660351552
628838850
226338042
1704083299
55616993
1348841429
595722650
1576921323
392813454
1454233592
609421888
1375214129
176715319
1737234764
754395639
538327497
825025020
1292648890
48631816
2093954382
1499161686
227414007
774769796
963172133
2136145172
1200205264
567325827
140617023
1470631349
2031170189
1995951739
1868580497
1014221321
984100079
1388545469
785478213
812216546
1865037263
1704126373
1669162387
1405242202
144280070
231188419
108912996
1410430415
1137618135
119942059
874361309
288387059
589435394
856874775
1246411558
1721070900
2051592322
1829621932
2070122839
1099209846
196959309
166565435
1648989353
1772929294
170739803
259684436
2025888246
585183852
1183125975
1697310588
155522786
331426977
1834152301
904017741
1369561539
641603735
1952036383
1974641659
195970828
1678873620
994879313
2109971811
1975394134
575947393
1758293726
1939692583
1013698115
612787422
920980339
943373675
1401307326
947599763
810601299
1717725028
1544241707
699934043
1377586593
1994929532
691496020
1274585982
455183754
1956113530
1322544216
1101528393
1294463935
1084896949
1594837258
205638527
24867177
1136978132
507417131
1638546766
888447425
111644006
1998753135
850340349
361428203
281360773
1648868792
1141040991
631890347
304916730
1062533240
874638395
933371911
1228907125
1328415957
1169438360
1437592486
1138402271
301187332
1192983833
1630489947
246273700
1141559677
1962878683
230125086
480791535
292673111
1053232135
1526067435
729186437
1456482805
1628831109
1380144501
691349938
1808148333
1534399977
319381903
580471086
2049439888
1535168776
590648394
133073241
1374415868
1359539418
118071206
577560914
2041926542
2075398391
1440213849
1652982203
1879370497
1675116428
1461853739
1122961525
691520931
1431899540
771076462
1396505855
1386071201
477930132
910854642
405181759
1125160334
1908965621
2053348194
1316667519
1167341676
857151220
206148084
1092058488
313134570
1027020259
429425800
1228829883
1495232027
1921356624
1039773526
1003019826
658556383
940830821
1791112647
1960553743
1501183401
1946848028
810544467
1725760428
1804527644
1561933207
1339895505
143388732
632256327
870741761
983871866
960196814
517569548
1284412326
89025742
827441145
1913137993
526605548
1555989266
1481435218
1272950035
1832765979
863974259
1621991717
580645391
1557288897
756995054
1430877012
2049708653
1402548563
1056625782
1386554381
176370655
771432382
336644032
2048420482
1984427956
1603551977
2072934296
1134291841
2083221865
1836945836
133823619
776109526
760259717
565060042
116056791
1853797894
927828838
1202010161
527258166
477477837
946775284
934158760
793264701
197158153
1627785962
1865339576
1837085428
1629199021
1420759229
1905414064
1787555848
698942677
1385130167
780131716
1021237971
713097032
599708586
791673295
40909952
1450628415
723408405
1439701674
1579819141
1393575424
839382596
117847914
976107091
886133019
828376037
650451125
1577925750
505236051
1588651225
1724018908
1378447849
856569396
823815160
2113911728
396169519
1606643278
1644017561
2113333123
1847448037
1036553625
560895892
454804657
930509706
2018878448
1318288173
1669545554
38752056
1716106081
3991602
128014846
1679749754
736129996
169703494
103743669
205242572
356802315
1865113555
1030262433
1613209297
2117993894
1507097547
418786213
2068751269
39955163
1053681722
1290726210
445764569
1547446404
1063788129
1267184946
1310122801
1226841161
879795033
1679750511
1106640620
2052348579
46796112
1064703091
142516335
327461924
1996753720
906606532
250373954
1903546633
1700483548
1251592631
1199897348
1931333133
799771226
1678920194
439875185
1113686049
452696303
925230667
1459214511
551057694
174944988
688609663
858980389
135799660
1165655076
1374590121
1304145091
2082942759
1669689149
650555317
1258162726
1104823697
1324009812
929144989
1425490279
1106970005
232309305
1452719161
686855254
1027229725
525846973
1873870497
1592360554
336505956
1057787514
1027742499
1019994260
1220570085
1247578956
179262684
832778743
151222075
1304305373
585702955
53459774
2007030050
1897736226
199131706
1246681133
500196449
240987724
794645423
282149482
1594074809
891424266
389031590
1031299959
16983514
992489495
1802178415
2029235846
1432281832
949307221
1861757863
1490486284
1347627017
1942656844
1200943651
1671633478
1549966091
1214366297
1938901856
1796796628
17210117
18685815
1757508045
1211189782
2113332138
1823775059
1966315948
909192738
1269398001
696783813
458908044
1618244819
80470091
1012947662
1216154327
816273224
328635126
42440742
1834908043
155716442
419154878
1872908739
774634715
1516856569
1657966344
1272049707
266657540
1691320508
1765736361
1321847990
1049345619
161445379
850983689
10471353
1083354232
855314913
691141965
960587450
689117040
872519725
1509641778
1805023955
461535584
1959693949
1294824603
561663704
951374168
1496288841
410121001
701783446
1444799140
250224533
204491962
2050592769
761413183
1384815144
1497321434
698287110
57217522
1070928083
1348185068
835148264
457163114
1829847866
1673841942
1362332405
574637574
1586141166
1585512459
2004895673
537614236
1371348749
1407835880
439934582
1443322719
1976081526
490866014
675850477
1597316617
1625463202
1379208326
240386906
1246450422
1889566834
71487399
1583466862
1428806633
1158855909
607582257
828268086
1641405179
751429601
1542312426
1092696288
844073208
570358017
1304913776
96336923
1907545847
1731690767
373941780
1359614776
238278159
1675553810
462703238
2002770380
1755834251
393071585
694310115
214452376
1668068706
1406675571
260228445
433335439
1671295600
1847321400
1942019878
1804461282
1688920654
904398442
1197618821
1175234951
1333570130
1266041641
1400488919
1230133452
1535011079
1422874872
376520709
1144835623
1492653881
567513736
944359806
24363143
1632448293
8407121
708103912
1314662382
181411365
1493920285
424035741
339356845
1660648312
596513205
857809764
1472896103
453118292
1729567964
1453270275
1404889547
2143714637
874434495
697620684
647410043
124522506
1920237460
804451229
883542220
1943066100
1692353492
1738927440
1793447089
1113775833
1925886338
397730904
2137941682
1591811842
444112109
1883294340
553559079
1337532193
1683022872
1277483321
1044608086
1473410058
1242054792
1545162034
712324649
1387855798
1115103855
1046047597
1687813908
1563883791
85561824
82693403
720986304
764394607
508631611
1876685700
1282062349
1403806570
396475105
664544521
1430717042
1923819031
1162011407
257331405
1172782303
1650622937
1014854428
1435024190
1958234522
143207125
208651974
1020539375
369974980
508806078
217106477
769099958
536476870
7953869
1969948970
2115148987
1620863950
347062751
1873339944
1995907496
560054981
1087405908
11186250
191264161
434927001
1693959700
1807736649
1358806442
1097231034
1124992238
574377036
1035028767
1026005506
994923365
1682076581
1498955552
1069167382
1181983029
1832632220
99193353
593840934
460500536
1622661566
944454625
1736905577
2005846916
713819727
1991557813
2015860552
217932669
657163701
818283650
1263338145
758401335
793902877
143871041
1740271772
1497026990
205058634
1795665174
1424113770
2070786994
1739666060
1629398888
1140127089
726052898
2107205673
1385567360
1981127683
2094596685
709532515
98130820
2078062741
47421384
1806943797
453907
1718795557
1392120154
150826661
51447685
1655375979
170232391
1454262646
1192936417
2057857945
2113808833
1936319352
793930064
1655977984
2143189629
1669485764
564791696
1108399867
1282509416
532019863
1408198077
1487988272
71095353
2106734974
1340348775
920379241
1130819227
1309951900
588714152
1944667669
1022100692
692125435
643842638
1834704170
2140215068
462206888
67089845
398616220
1535574647
1275865758
578866664
1324443732
802050457
948394637
1570954999
1529707338
1001182360
1319602155
2108164391
220242246
1772486966
2006526399
680222235
1652106122
1720130435
496693441
398412813
423524490
943203788
1225969922
808801148
1879356109
1830983956
753014008
831521237
222787240
1713300702
1473345141
209729261
676690123
704231392
1125007952
258912429
307594354
583143544
466715045
2075320140
638454082
439424012
1886006495
1018692108
1899508408
1134342190
1459840302
1704037025
440894578
520487497
916436798
1218431594
430899803
32802921
283272451
1879434726
1439489504
401545451
90159414
1959924113
214281393
897819364
1162698700
769201538
934815271
1710143259
1351338423
1852185126
919759534
747886243
455185911
268418178
502387038
144149812
610403562
1235446310
1704345105
1644973930
387412462
1643644334
336723947
625157303
1009440220
421057186
654260213
1911625288
1600213197
968469113
488883857
1761241167
1072217345
411400131
2097988145
1289001317
1150044456
1673001862
348812764
1435511731
1837767104
68409513
1935009420
1253782617
1680012355
1937107144
1145627261
711832562
303886578
1416026102
1118934693
1576056612
1502754082
1093404997
1743433080
965820103
1468315085
939049741
1333851312
1179643819
298844477
1023451900
21990345
423529312
187830683
1112300173
1864080032
1165766764
1984178066
542225185
1930989269
1122066979
576498667
1768938074
14541510
1955387771
1131616760
630257201
41380774
1336024177
1614737978
173146463
123285384
2074795881
2146087939
254930812
2065679322
590097578
584310862
1281956232
237384557
203445432
670106484
1714024874
1377463537
1965467249
2056701926
1563164703
1222195426
492433442
1114968080
2021795446
1140504685
1239336626
1371871503
467479847
2006477509
224040515
868328475
1081841368
183876681
178551540
128068053
1848097912
1037311006
1696653439
1114772362
2093298292
1767610984
240708226
71106115
370046037
933302113
561947978
1663632572
1648613553
1693632713
45022612
1765282064
28102225
976535599
14844038
2139699197
1877761964
800414142
1184752896
605231707
759824231
1275308457
1989368544
217075652
221224126
1517306706
1720034177
1182193862
1346240360
16879361
64877125
1735629048
997747802
230991904
176526490
688052520
757633402
126075852
1471439331
94294542
1127987736
638262953
1199895735
2099068459
2113555347
1380283301
893364679
963966000
1696237762
781777312
1668114869
306481388
340762395
1812851305
1105409892
1395849775
932575805
1491570657
1024952901
862150762
1721622627
561568697
2066902312
441755984
2044024611
740131919
677996235
547772867
1655852850
1298181047
894970467
828070079
1140725777
1232735692
791089179
1247002754
2114133449
879408766
577786919
416725503
496888807
1109540784
1190469755
287661566
475167306
2083887151
55794696
640655468
581353781
449859877
755843952
1889812910
86218133
1789490510
1112787195
1656015283
2138885448
971302355
941931855
403081629
1082239865
971653687
1483587370
1734976990
748066002
475682087
285537221
370092328
1402538846
1835797388
2104002440
1779899993
1915679613
1310323387
1649800636
1550824082
1973559111
883506730
1131026628
1344167809
1552491538
1110660674
807076580
2133597662
1973318900
133885662
1585225237
999137131
1766246546
1198892052
660673614
880841031
694666416
1276322430
2022047748
653715026
1448079923
1978323933
1453286430
969484572
1586559538
1754863145
305228866
1149818524
449653030
297073105
1598682511
1642840011
1704541221
1583843186
290119124
1961456803
850621605
2144177767
1360403685
834909685
1878062267
166525773
1024238715
1246949235
90334045
153531891
2138114046
252688966
424728758
1580074895
148827484
745695102
1339298460
1219397897
1101546750
643928457
350416994
82418048
772360823
1367914424
450836306
1085561924
776227814
1284497100
381525737
1885290292
886455126
1632451861
1712006490
875563165
34932152
1076489009
842050281
188182072
766030922
907190001
1333122974
7025333
57693230
1332571555
90457567
1393413308
2055448301
1353553496
558626828
1401721826
1377999542
121525175
717886526
1243445411
696486402
865973975
1297279038
1015365932
881935654
799049950
148911597
1284460641
13230427
2046309827
2131019783
819983334
311382336
2050211486
952520136
1978284630
2086323641
513061619
213811057
1156731261
1852036420
1731277961
1545898525
1663397065
510422355
133955613
813679802
1928344434
1283623208
90931388
1524935594
1037874836
313045851
228124948
280831379
1835069329
443960654
1372608221
557649670
489080392
1155571707
1252719609
1103367950
427204488
1165865903
451694903
378385286
1754100464
733081810
863719635
137417999
1841785169
1364821860
1827715049
630145925
162005825
664707143
22237680
1157020307
300467952
1607292072
716917115
1314135299
1490515587
1997958732
699761582
326760946
996986535
961671288
408945175
1520130196
1369754645
1609721721
894979215
1111215220
1690401465
125436245
1001710712
1828049414
994134811
1323462103
1801633130
1855484557
443675007
294160063
392151329
1128083592
296274689
1296875609
1701533893
739720160
994692477
1807311168
1692794667
618458694
468057027
1310688052
1085856691
1070370597
668624257
700177071
306078593
359489658
1006152900
1913931713
1095042313
407761475
2111968344
1155477018
1734662429
69255049
618534430
65377469
1526816259
1253577252
471171274
108072733
1483749680
1350708999
1127948128
217476391
903741939
2101791448
1254811161
1724789540
682234660
486983053
1160292671
49011230
1628595747
1207906206
101145436
1906628677
589853797
133207322
1302451078
783839578
170402363
871076551
91102119
1609125383
1298772125
50573872
1328824
228187543
742897593
560565723
1049743051
939293933
410134872
579681571
814906191
210265918
1279744613
2114587002
1042796527
1686400576
887887470
1547462951
623378972
513309494
1979430982
1384334640
1419605770
1383519576
1321815536
1313702978
1959775077
1322136571
1330299219
1362419680
848257013
1188402569
350686166
1200029747
814510203
232972511
897609661
767418305
832746061
1016941588
288602744
1753774392
589462022
477924967
2036698978
639941067
641755726
996529921
1977006600
1458290403
334801278
307727999
1855489859
1175542278
917676040
926211542
601499913
448257142
427966370
585236426
581443474
211364884
1411633166
704796811
1339468828
1587945337
671565349
1607030362
812665574
1025319466
301998707
930027759
1226913242
1807294691
683595422
1509548789
1144581681
1136246271
943240208
1261261172
133877541
1487261016
105341562
563108902
85370918
902371432
216587608
1117462001
1195532013
93219724
984152921
1161651455
940415455
385280265
1910340397
1376717643
237531734
479176247
192781119
295376428
292957864
728141592
310261390
1985388402
778372235
1872728776
1086024745
1895073028
1227088776
1063983211
2123943013
1659298202
1534019323
742308381
1117851692
1811893324
634261510
1834043969
781080070
2101273078
523725020
2105221030
725871006
1812403191
1413131703
163293519
224563361
368853440
283271131
1422215869
2017485456
2131433638
2125144042
2131787908
1160586676
807517149
1376235471
840387820
688666078
2119021750
957021385
7990011
711783074
1192209309
1995518590
1676528549
912963034
399894324
1986057244
486005276
1119703384
598644146
509403042
1469253408
1870861676
1533205606
1543567311
1526996646
57499468
1900785733
490771900
842785477
1763225420
189887988
1728201755
625504507
75056863
1655138856
1125114026
192343340
1264930466
301191743
2020927259
1894152145
73762236
1471542156
1526973142
1097689096
1796568725
467326158
2094737784
634507658
964441663
345097619
786726097
2138460154
971418128
2006036180
56898927
1908153210
216815257
975186636
1876251897
796615917
996652209
2068538871
963174385
1309866518
2085294388
1357366920
161636391
783299041
1247474173
1359109493
1588227995
563093783
2113340622
1452875146
84953413
1041962315
456824145
696900956
1725130024
98261728
1692240852
1590238626
1034819876
1198540852
140440233
1997642502
481969097
1505661367
1612842316
2002625942
1336475351
784262905
1413924298
1872445665
1004951752
1751897669
1395071997
556535086
1109530541
158333262
780237503
937555632
349602598
240478401
1652166371
1296674290
310785751
857176507
1740338547
926148818
1888091262
1679278182
840956258
1871604214
1701293566
1486315013
1634490976
884855116
130752514
401970069
1908742825
1456026780
1096422527
840212282
1705465309
2127068899
45888447
1046863806
1934499380
455514679
1481642010
1144930607
864904217
2087214563
354823985
36958546
676029284
323569848
66788536
560356132
752982556
706674529
1812563012
1018260513
47072776
1620350646
967660609
1122836367
826240035
569287090
1089529657
511333182
1444963825
1126763506
1513961161
863888293
1400043450
1868544084
126227962
827002957
1943858927
101902752
1651208840
1654532089
896747833
267940751
1239982251
459832466
1642848568
1948955104
541764589
437166109
2004788742
547768687
1749463575
756672601
635394264
1713876932
841565535
763247331
1188615007
1486453860
272094816
1622483622
1110627896
442793952
863840051
487533158
950754972
303211734
1616495732
364675674
569148803
651532194
475105363
53341084
1032316213
1101150091
1286546663
1871637697
1327531909
1974586796
2008462778
1178226289
437017789
1549405868
2017483432
1613356748
1893087471
1565319596
900979229
646086239
1898535668
1299247538
1484671702
125662251
751794809
61080763
2101003919
1628441027
210394569
1004018914
384246906
802320362
699529460
1578918009
43891313
1070000682
799019820
4377065
1164781769
1338131487
236090777
1039376453
117910295
257330264
1640800555
1277147005
438268743
440474092
2028080506
2044885115
1165200344
326948812
1009905213
570732890
110412139
1161419181
264077810
1701916197
833426990
840644555
1738664029
1611405418
530070266
1329345298
1604223057
1719541776
231313932
765305363
389074510
1017408236
1771583872
750560360
1819208286
427183573
2057968948
1731436526
1810462341
911330277
1045893394
1701217211
1811815779
348119015
1207759768
1096504706
1310955502
383880101
543020970
1241515402
1222130608
2077667456
1749104418
1530825341
1761349957
1250930639
1890659673
190858760
696218327
849007286
223131717
2103554359
342831494
1805548222
457704516
452415538
1485260024
558963236
299089228
807726913
445972459
48231480
1858365748
1567106654
168939557
433431693
1953680001
345449885
1686078360
498168062
1944996435
1471465895
456070907
243294232
1220176534
941291534
993725424
2045319918
963657850
528237287
127813519
1799066710
582809181
996005298
1768978514
674593113
676746817
1992993146
1920009343
21785026
564026454
1159790744
707362935
628029493
365875367
469445607
1041280169
374174285
1571154392
1498715697
1899428910
190542076
1722611379
1982601331
1344643754
1188769984
508694912
1292146366
968436537
425964047
959306132
1724179408
1038128522
225616168
1559115019
798485920
659160449
1975191266
696196196
680407570
1025886292
1577173138
942304128
568424970
1716083542
662224978
1703394485
1155260082
1461344780
1722422619
490031718
864228683
1472949466
1780726799
1685248487
1195967398
2022936104
641021626
181906760
2132974698
900260434
456125755
914128337
2022048478
484971541
683365712
1930591737
1576073076
2066824276
569238419
25191415
146312309
1872973642
1526448836
1606319134
721625501
2130645901
1382831262
1590346362
837658765
1637523339
82278823
514721193
788345108
1248747668
1808507511
1856704779
2065546674
1306830997
467510845
1506860749
1821335418
1530184791
1921213598
373871158
1682086424
1798478424
1025125660
534378944
642060536
463196149
1192882072
2084198908
1677687470
1712027817
1087779955
31932137
371580298
2111654999
2043534620
2019399376
1062933433
543777846
1989847994
179000459
1873319879
1193378471
2075235326
1265817934
1678481557
859365591
994366249
1939433306
1685607899
916423819
1840828465
318348267
232047570
1849302818
960283711
479392249
76249189
1432318785
1849174731
231689151
527949504
851723180
1130232267
1788314946
1913435082
1528744125
1700176381
1712328502
934660707
636137229
1527895895
1375113250
26613606
886480440
1894850786
1421447084
719521399
1451509294
303837633
1887643644
2134775201
1499723255
812648516
328187964
697154031
328514010
412735316
1011470192
1895205847
953287088
1359918474
834905622
2092284655
1335349035
1739658968
1799897154
1321061069
851864519
1528105791
2145132702
1612093118
221161320
427051176
1487352277
1226939989
546283095
1619196291
1734390132
587438444
1907296184
511071825
1274421669
1452561710
525667261
1303250201
583418891
1482020568
974430608
563167754
652811133
1611909475
1726576210
1011929081
1780348489
2112631106
1859410545
173977504
504922382
94529655
431962306
1233953122
1225121850
608002722
1393660990
786590688
1094898286
319961641
444501531
257748436
1918622611
1048314786
733312149
1692857525
932214195
1570892391
331208901
33349225
103959680
1674351721
451423561
1133248703
878280455
1659621191
2119953414
297720334
1585899947
1779270653
1819034804
92735676
1223522514
564589250
318526178
299240500
389776151
1655781496
1331420352
479579466
1474112333
1153046927
858101924
76672478
634440491
573183831
432536530
648208689
239494468
1495321484
1988202651
227265696
1969430288
443059447
1387910207
354168759
1738654577
1730304952
683646503
1782993918
459885826
1894454540
1595280633
1996195235
1620211820
1734012977
614006069
1908347888
1505058338
1491092016
1306658833
1979783380
490214765
739674734
410454306
997329317
1110924714
1507509872
1617636517
933236676
1736593772
2004750005
1631290903
776939480
1895964761
1268218511
181415353
1914505920
168219022
387337354
1202382798
1478614526
1897008565
1867867827
1231835710
643738364
735637842
2098267810
217619132
233480326
5629712
792709653
1201978700
250616461
1910737380
1877998299
1391807143
1974104500
125407187
745153286
1956099657
1958057172
1246018363
150596071
207563841
975202350
972215772
1675507499
1110306969
970124871
1714139863
1510055935
1104430103
1224292350
1926248620
1396447975
1796068300
189013164
112751723
855571534
400993925
468761213
46772847
627849779
1005634449
1235730080
1633526298
536475881
584247398
761624021
1142128390
266559370
2094688166
1505469491
4473825
1472705396
878188201
1490953629
1752360067
687389990
917632009
755717666
590450708
1947825229
1882344973
134300248
370473802
533591051
834498774
1934663388
1164882668
1801303847
330750969
746490256
128415138
1581849729
696189434
84283714
221419226
1693659889
2098367850
661292621
70477883
1033948636
1383346174
933990931
151891041
539877703
514455522
1586239566
591008148
368715385
1849110330
1815928503
1071100548
1185810325
723239142
1612446972
1905500788
295228446
1250043955
1213863297
933199359
579419538
1717888519
360076806
730858949
1277238102
664043446
715275935
941408628
1355118292
682034412
624833315
1624877203
1718345740
578428517
180343458
757323306
681970103
1058055046
1165170815
1989820929
1466740035
1605679451
363283418
765166450
810203094
2003269589
1576568821
476158791
1655291173
1388779858
1988592897
1265944201
388019600
1119137791
2081392662
1749964786
1019609310
522347472
1559007959
1898224354
1319482094
2073246202
927083661
1861795145
110962840
787833374
1888746026
824164891
2046616281
2090863715
1212227171
1268742954
1735502808
1012779342
57893373
198740941
215352097
1401712092
842212285
756445994
783077740
695960359
1920012663
1354669546
304506147
2102541486
2130094005
469205338
95467232
602273176
1162770907
1589689467
859043110
940193721
785728137
1318404981
1513904443
805521892
1044692098
684757319
930235022
384058826
472465916
2133844450
1239522357
1489090153
701707490
48788687
1437697997
616676882
863318065
1491850994
1997361917
1613939942
1598029546
1544762705
1327477424
32616300
7167239
806008533
1344358343
1837669341
38436825
703979303
1822125017
160377120
812868982
1508243490
1897940003
1425360216
915402267
1784382698
383328060
721519311
1258535719
422296479
1751914560
904656801
354539774
1061357445
1641677797
1142858682
9776509
853382091
1192600559
1279548842
1422831987
1240391043
70591504
1752124226
275411034
1620135376
88006103
1891622375
899436778
158784574
1387422967
571824550
1708500286
1953740941
1661918124
1701897014
1609859741
559676962
2025295600
1490294379
762176137
596471083
246930064
713303158
134449751
211692805
1174885770
733641122
1119271899
180983555
2014267025
938208441
1170779442
1641285645
173170560
703558539
1991887280
591313743
1513603779
409821976
844675437
1824828559
387600028
1998599218
1343369730
2050589126
601698754
42980054
2060619402
33783342
543606697
135295978
82456521
562658281
109231319
737014676
965059828
286125736
1422686925
1137490794
258644785
1821371783
358800555
862531803
97162846
426460628
625355555
1979624237
1562145031
781227139
2086756628
515830302
1259185480
1196321174
1432336151
518210520
968645647
1321496800
2005891216
134210384
395003370
473540087
204677063
1298345592
905984877
648973526
1405204860
929643625
859743507
673477962
1052217829
1338835917
1791929308
1060291714
1622681778
102762838
1870803177
2007189490
1810001188
665949512
426282698
552504961
1566065297
105804359
1071784112
2073119783
1125796930
1298281424
1225036639
206816031
108593753
220398508
1285618906
1320957604
1836846374
1871771878
576503111
235234618
281078395
1530000885
1332618949
1578240570
1383192822
2073235003
1773006243
66480453
1981156541
1069053292
718168359
399564675
1344023434
1522857242
396978929
1204452967
522195343
859958009
1287018457
1714990486
842897
1905315663
836266012
1392039322
291258631
103760698
215426924
1514082708
1087645246
211199655
586255744
1362160122
1782811141
1604335419
1461511730
180688494
1558162942
141997430
1939898672
897665204
268602031
1765708808
316615480
1288633797
1194036355
549301638
1681878371
113269063
541300786
611025630
1464047250
155059966
105207283
1920139565
134384208
934749533
1166722752
89051343
491936199
344733593
102834352
1590242012
571843729
2140020830
1000600116
273168276
1077722981
218768182
692096801
443544818
623617617
1190916068
1805829323
1447208052
1012249346
1679733721
296474185
1443414500
1442848423
1588999251
670351464
1281982793
1027361090
1460203881
977061501
205313252
826985015
1403277173
822429157
465566668
733497394
1000589797
414962448
569743468
1436883460
1431579985
1257479457
622480884
197701285
632019335
558832270
624355214
1373748483
1127287896
1289420096
368641485
459554035
151466715
599486149
387667317
1482041005
352076961
841782425
180768114
1114373140
495920625
452418646
1299346767
2006325220
1929908515
1453035599
1526018893
72337063
1759250878
663761703
411116188
421602974
1924421164
622535934
1266872754
1139068940
1922237091
224464507
2036582558
646071716
195914409
577672743
73021225
1240345825
1203096517
756800575
1435675402
1432440214
2053955426
1540046518
1159229036
517430024
292847063
304375214
872951221
990282625
1685866395
1644992550
1974797887
1746979119
604067860
1295865711
814292082
1741693417
855244825
435831747
1334491577
436101012
166102960
1955023091
1905193745
1796857932
937424980
1243615673
2067978115
1839728416
811462595
1095877806
223618532
1075215246
1384937943
1857554646
539134797
752628263
2032857646
1681805474
1786931516
1142635837
1745678279
2082893737
20587488
51668006
376845886
1211463103
1224931587
1994228849
598388736
1485296597
1693867295
619428218
892039563
481150956
1064362577
1696746770
339329658
1959858598
596878926
1043820468
442052640
532999804
430786859
1046460544
1521068217
234970424
1492347707
928083403
2014485516
1084926845
622179009
902862084
1045964528
1055279353
1448303490
34917247
1582515468
1390273658
383536072
1870259714
463866717
720490245
275165991
1057774044
1281681810
716941789
1493315892
1503816721
1095628276
715282612
1716617834
726870737
122109417
467681125
712226842
1933323460
1895637373
33342953
1040577825
1739004386
2040116379
1910121452
516339127
532675391
1471031863
1234728459
310615009
1227707200
25642483
464460107
706398101
1224408849
1917179586
1388138437
813216520
73981104
825506032
1655909510
94083826
793656702
1928454185
1863567496
2110089999
585309315
640543281
624016872
1495610768
1759518878
1539946766
610725148
1214328969
1409704613
1012700382
761825398
915029271
809500596
590435984
1962436905
958526608
1235906553
16194022
1565829826
318521183
1123788648
1451096023
82218999
652571553
1892875850
1777911946
131182202
185989822
816243005
1331490322
86270842
647790417
1998604572
1989748284
1871351805
1577559206
450165664
813458619
1820564675
1421362242
762418217
2101720597
71091989
744829932
109335258
2113284418
659600500
1954124831
2017047876
194888216
382553830
655795882
2138822501
1174172529
100723156
564276302
503683789
1559241151
1555017071
2062175121
1847236489
1850256602
1399999333
1896349268
1689572429
196805336
991886258
1699285198
538527384
1523333512
457031472
2089449391
233052840
1118679407
1923673572
2123146639
616416394
1109606266
1218120176
1995033152
1661589430
1370251141
1670044635
1719144568
1023452980
608792251
1716967272
67122187
566537817
727051625
1130416033
525445271
1076150492
2014366137
1750778580
836585258
953942690
1871425875
1017538348
69174556
1967171873
1138388107
122117760
256061879
1718780449
1199259613
277490480
1720040682
37373216
1980847672
1453341626
2080769493
1743432460
2007642981
1938966406
13021129
817122999
1910976226
1577710320
1875706395
201151694
746845417
2106833743
140856577
1768807646
1691554178
505031614
330684690
394410023
636060395
628840636
1307139153
1720970149
424825642
154772685
727316838
225081045
105069205
1634258116
1984283968
1032119423
460016276
421018626
1773524422
174924681
697605858
597403720
2053167099
8791611
594680081
1228076667
1852976509
82168461
152183099
213018249
960402436
1491831714
1536127405
1592526875
1208963843
1634007231
1337518257
1270576687
156037629
439416375
881418791
129293322
2003990031
1819460786
1684576982
1150828823
1431447996
1854264098
508434901
1976179952
290777535
1778603385
1308566332
892482600
1904016347
1565173162
415281704
1140964382
974482748
186477480
1979087759
838977343
1964439717
201362886
826799956
153811459
1483437155
976414963
1845785506
1919387115
89704692
975884489
564080340
595619492
2071752410
1319852033
2101115291
89593353
501249360
413294798
1684594923
1688998036
282267705
1478522075
1496539438
651444551
55160465
1021011311
872652709
1725775370
649631928
1372370003
262483184
247593990
745018876
278709052
136367949
1936770015
393223195
783010965
1159517448
830696955
245597307
1051304888
1184722505
61531757
433310393
1322073285
220073967
183433719
1509315348
1021115857
2082266428
67332408
1406417096
240702902
1079056934
739460568
1359848320
876027260
283485814
579049030
727295692
1053114470
1429241480
1682850450
168535856
660417474
243287836
280381350
839338302
2059437987
1605950968
2117481585
74180503
1477097197
714601898
1101655501
677417153
1699389262
2090514220
685030063
545885806
200620588
1805478784
1283758262
886075986
75623470
208547670
1169414081
625454510
1906419225
1537977254
1009385275
185773755
144821341
1130944956
1950152997
542869332
95152117
1580125048
879986551
1618942739
1874009789
840269669
1391067016
230217059
2030072481
1556920879
1970949822
699852917
376359866
193849414
248006325
1386222151
948422200
537921865
1702048073
1043590187
1725058189
230072733
2043522404
953073701
1455683328
1213510791
1771885245
507111343
1961243622
268224288
8363493
911323565
937441205
2071390668
1992271205
933875847
2050405748
1561709264
2003572057
1853444434
11689765
2076430519
1639969617
641144973
1082011080
474037363
1492429765
2020600259
1764651463
2091668328
415360306
192869696
738306800
780964393
736861396
401731089
852240632
700048941
224365288
998353110
908030907
77131870
1803734769
883441983
593394480
1950699284
946922413
436062472
1217368142
291696876
1762450371
2091154967
81601624
1550806660
1072031185
623741006
165040654
512519370
1074796615
1048526883
1252011321
165414699
1731364457
1248197823
1265163055
1722303023
355179528
664300213
479032223
682526084
315408918
1092118794
1778624375
2047352319
2018396779
855208192
683160210
524863587
1195156605
1219855239
280171305
311182140
1656740184
895065872
1005750882
1363929302
742281276
1173536483
1863181408
452285023
1769724447
314859629
1104218214
1146814864
1014368033
1542558200
320983491
1312297727
1549713729
1247906035
1822437145
455079906
1781936717
1036566435
932318049
1934834115
715452000
618634396
1707867619
2064794419
567765419
351248132
1986511471
1512518276
87798772
1912608610
121207197
293581953
841120954
2030789480
1897181457
1573906024
1466195927
1640347070
1041380298
207044560
1129085290
362701776
505913988
1358988582
1311326932
633650165
1468126157
2067120740
621065612
974742481
221445045
1491160213
1193589019
655703700
400923972
758434854
1544869290
818862847
291848683
1525633055
521810359
1030187545
485358040
1073440529
2014500161
1497906417
1666425871
1113473551
2028025629
1941556009
724696927
881909477
1503989657
578634096
1786151411
24918650
891451002
120690432
666171805
2121370172
836257338
560802969
2128082074
1402437457
1936115811
1821700687
501084411
560304344
587704938
546969140
326391266
1676037433
351811791
1223113261
1382101843
312063315
198632546
619065984
1506593162
502308425
1511329335
1772571665
60545845
830086181
616438627
72555025
254526386
201061255
1374999141
1764740402
400644306
1288639543
950533681
1260589281
1142657507
1207507796
1981766363
1270444784
440072453
1218174450
1629604353
1272729597
244245155
594803384
1771425600
25119506
102329910
423588971
1318933459
1454263169
926633420
1258640497
1951249209
1518666583
41441148
1750553751
1162153843
884538544
312859734
1237750189
1937632523
410988902
1291045228
1474577843
383915961
599140415
1449234413
1900513733
389926451
1801296786
894424464
2016485622
39073501
780445535
1526721553
1250314690
1710627680
1157070770
703730327
620468612
18607603
1595256562
1530100938
1416158582
505681000
274324490
1976378415
509543743
729185654
1715214483
1621385108
1949898302
787381288
2033694524
1883128730
1375806405
2072767708
1977461138
787925744
480400316
537698481
268199761
2136786620
1761666746
1479479992
705059702
495162971
1337019357
1635738414
922737451
1832626308
1327970785
1873779878
2103288813
1883423405
1079366246
463224794
1700585857
815600048
131713922
188618656
1702739145
1617428966
2011603429
938104368
1810461008
1771560825
1162859413
593623005
1403841508
623984339
69673532
2068934808
147910992
1924082792
1451809890
503422974
1987627896
1835476408
1380921731
706415835
911245493
115071068
545622682
1048341060
951292317
1510976435
2073357477
1313170316
1091911359
487067645
2000839711
1884729442
441669757
718444349
1740142110
1487433962
1388090101
964482365
1257544279
888656531
531850897
1821378506
1242676800
1970076616
1022784695
365004607
1040764782
486162578
867661459
447282710
497044589
206937686
1909044086
527264259
1482940566
1435336902
2035351288
1132061606
1688012078
89771480
897203993
1852518172
744860844
1919564173
686193321
1619465121
269349831
169009877
