6300 915500920
1932426461
1647172854
1020802930
907849877
853238266
333189491
477831299
1485327471
1029404372
1034071176
1883666108
444726199
337159103
1273695608
2071903713
496227959
1533035948
1404678431
1828006534
1100714795
1287272208
1991447862
1843326128
1007897929
1937809224
1132634613
154256719
852808345
537496463
702323784
736551337
203454892
1456688787
1735663803
1235550328
902856939
1581558148
1163797638
1081269511
432141284
1857141638
326795583
1764942986
1302075916
1836497587
161220007
1506357717
1212116128
85554052
340300111
955044190
121968000
1501729216
352990628
583355982
320337097
142586023
1147822351
9799134
944779055
467612357
768610455
1557447663
421151996
194437779
731515536
674703270
1771220746
1803967134
1542332597
323374890
1042220597
1636185512
1020688959
323701800
1257091305
93652782
2019944019
1617616890
1340414376
1460870050
1740387911
905248657
745237778
2132672561
1977851869
1560846522
982507667
691852131
1369450310
214748437
423526385
1353604504
1198133711
1923088250
2034730027
2043277528
720134123
1069467482
1361261007
1812205869
1770016562
1761785175
259735081
575137042
893314275
1484427210
2091040570
1282829668
845250683
666685025
2001051709
1711048202
785020220
351624996
414753010
311471644
766422219
1137685001
292740011
592025465
2004439486
2122190185
911856546
1532919821
1747091745
306129540
1135151828
1157779861
1683097002
232987002
1247682665
602573162
801577210
401632642
288520013
1412622813
1436429889
1160425824
1783325736
695136600
1831716135
1331372946
451535715
718936842
1146307348
1197259377
1921177599
1454893004
1512625570
1552707734
315150707
1746185472
457006452
383703282
844126592
1865952887
2055692191
1744567132
1335348149
1715141830
1349255437
1122138206
1515958776
1213177744
1532167977
2024994259
1296084124
326140997
1398858656
1818546987
167501519
21214991
1024443847
1178936688
105047720
757424807
75543842
725678925
2011978177
1248467305
1836954510
454814257
852085982
2131354720
172353417
2077483409
1390698695
1812274349
895274651
2140358580
434428391
1710492379
2025158429
2108841418
378551724
1565675440
1588773640
107539560
1096939752
2000098414
1603645948
1810970431
829197938
1548419790
2014491465
855456277
1758055673
1290601783
1944518808
1467952147
2013498706
378982167
426180524
300305732
1543371035
397553043
689876316
1276180912
34363528
338697969
247271137
1012205057
1241082068
911389619
782478621
673145934
770456202
876262895
1838355889
516689780
1815254962
870980255
1712154218
276250571
656011782
747387048
958914210
2074666888
1797249356
754240118
111442517
131823316
1810037087
476493035
1514967815
1107224534
207462712
1003722885
1118145471
1396249392
1863503827
1659185521
1329103304
1900301424
1459014495
759254903
1657145337
1928152514
301744096
161091147
400484355
1649491212
2051990538
1564096145
1819995660
429747944
1399105750
870309057
54966616
1848693840
1680764660
1020631724
125933440
690038194
802243982
593204964
577005282
189016034
309407861
563172746
1999273954
1576943704
1337357764
36786221
1156950140
423055613
1289123055
512710218
468061422
1912003683
1074332862
1131066659
81740703
877163325
326326513
1212491964
294868522
506029749
296841661
168792914
76338234
140559888
776409317
1662877209
521203080
88253095
1549875400
661676398
617780291
1014995906
1785803230
495695053
1267705658
776057661
1095375232
1629669241
382804929
787966395
831125600
370237520
237461768
1481515615
708272119
1328555605
1314607400
1526517793
1201443206
230019352
741198762
270526803
562637846
1123426395
2036195452
1611113288
474178204
1198496971
2060398931
259618822
1066514960
1194926180
1086936144
1132851580
996561039
889202256
1483292278
255049241
1238673990
1776870232
930985252
627117235
169543905
834741678
1378339251
1415328185
1084770563
538377780
2075679219
1070895659
472336641
736374738
174300132
1625610417
934860520
882862071
797159262
722956753
245704397
1017396983
339949547
1348882391
1978519711
1375928328
212402217
2102851358
1950963640
1340684884
421372637
158585539
2033268485
1475614644
2024029622
2139344960
2144041368
467500642
1008675764
201409673
446224123
1293220013
488228632
1332811529
955275915
1224041705
1353724871
1163605851
795971949
1567125055
692990390
1740986368
683032793
1256770686
404616861
1915810860
598516679
1978944667
18878704
641571577
153301591
186556612
1527075217
925926296
707718943
773191936
1040432722
146958977
624246189
621437652
1392479298
951366931
1065500904
1325986330
109126056
2043600159
896844071
352039116
2031165627
436545297
1533582021
1780438890
1622374597
615095282
631813042
1507839417
1834648178
1822969668
1305573953
237793785
1145774010
1777330888
1345121190
712321517
1284171708
944210598
1672552809
1285634850
1351702618
754102687
1533700156
2121329401
1737822383
1671757141
272227816
1591404144
720245496
1382384255
99719199
1276539715
1915096954
1730406922
1995919857
1545824166
711964154
1759486855
1303814815
2059463341
1549668492
1365404473
1397472131
283376710
349496744
330241317
2129637066
719242746
743121508
1181065790
1506753855
663335532
1368935636
1887279982
1461005396
333401823
1269169623
1104656238
1343300918
1939599869
394159081
1346880877
142875225
1485974695
1582353786
81257084
926627349
1334117122
958741006
1009120570
188895406
1383656326
1444410909
937193995
102166170
495753182
1427520511
1583835160
1197786869
1955235036
406118115
1764152372
250925464
478434028
1306131678
142556753
1167580438
99149490
689092852
810130844
1307946459
1621512337
244186587
776176586
843686675
352877844
1926580095
1598067304
2083907136
1629859258
1081898585
1325283018
536223978
600422525
1528932414
1234873858
1683667598
720441487
909515703
1691373920
353738516
755275446
2091457043
1245063843
352423301
1764176060
1890445709
317116536
304934311
1141254846
2029373245
1343130062
764489413
331177608
1121380775
1795275720
1551871341
780149905
1996065586
1520213050
569188841
886574004
943979461
1120743074
2045023930
2037012832
48151512
1850247469
1904928406
1431655129
55156197
831283090
1782301298
693521333
597356886
695064597
1852391543
1091141602
1461826589
1855367102
1258746205
1186247374
449039789
1114732157
1349091179
1932367870
848384133
1764133765
832820374
646775640
1663419680
1466548613
1904920537
461365526
1066433447
301646586
682120463
1881601741
580707905
400068014
797399458
1284926101
208927699
1867071629
1558240277
2495498
1672454534
1895247419
257153330
65246378
51977659
864303708
644913921
1771517772
191598960
85228903
1593874161
1542232336
580090836
795947311
982766458
1970280774
537150181
1451549960
847042368
1496453684
534562572
403831170
1921261286
553703524
347339937
782525862
935074559
1649050600
839290500
954188401
872331045
1003978741
1868466170
1768595277
2126341917
330228508
1852704543
1255677546
669826539
1704300604
1014364090
1846597876
1911852093
1069096410
963761231
1222380270
195921260
1278707415
1705079127
1028261992
1536520046
190096158
1881788221
971045052
159569808
726558356
530969655
495770427
1950437881
937487133
262197044
158585757
614416035
749420337
1141973412
233815431
395712806
1254489952
1041265175
655231530
1700154677
1794946473
187041155
1209459468
1528796750
1664811628
983491400
1153210106
300868960
1994296329
982244773
968117789
1680527158
784250802
1478403325
765003449
1620541989
1591421280
2101273007
2115623056
2029733194
214043684
1196447466
1284800980
788299294
1524572711
960695291
6110008
1776434819
302292368
354844449
471127002
1811962861
1537130445
1469636658
244192740
246942907
1008943863
1636520428
1457746707
1445569
1584236770
317994227
1182660635
892818940
1171821665
1932032416
1659799898
549274069
101173531
28637854
1687840661
2092588137
745501529
1823530674
240909175
463511609
416160017
799146905
492366362
1004160586
384274908
137129895
1466855723
1171660076
619898614
1004915878
1236601760
745563741
1867250578
1556474188
398220711
1539390563
723123622
265110626
1329621079
981041853
515611955
1402642034
188286723
1041717647
1340738936
1657312250
1279570616
1918574126
2091109529
269238265
1267699341
411430960
890254265
1613620748
813153354
722124766
564973621
806659282
2018506888
511370272
976585428
1665019917
180453021
680999457
1859676279
1763414672
1684944093
714000801
107383375
1575745791
1955864921
328463516
961697365
634291269
1100162474
756100255
1517084412
518267571
592839646
1105605105
728949789
1769632627
1639950640
1983306062
1285202544
1264103489
1214104654
1836341712
192113893
1567072178
1203871799
141173778
780667894
17665928
134236316
355942273
945087927
213341912
1593505416
1060974947
2101538604
891772963
1882244305
1697475246
1299735507
1933818981
1392159676
931020299
1550861727
71056440
1999815942
565206747
2104075759
604082830
526899596
82699908
1021293948
1210482543
719205378
850125773
1415289919
1801716065
280935920
1645703134
1863391747
1746505766
1492476853
188173727
852946760
1916952341
241156387
650841835
36441140
2004395720
420287804
1242612797
1897564594
96466936
644906717
1908027642
1877567843
1475319160
1082556631
259689398
1001266787
1219876455
1947127279
297124651
904846522
860721321
1763401132
620383392
1504096751
857639702
408274999
1527675597
488400297
1101133632
1383852639
863656788
756883881
1677980862
515166864
899095915
256631212
1880824312
125760647
1682767906
1582738527
1785661435
1159243158
1338558601
2080543410
489096070
1331945709
1771159532
1109359002
1238996969
1080448009
59324973
1821681730
1045840188
329691961
175940501
735519322
513940958
902321369
420681690
138069672
1686153664
48633485
1879015360
2075080831
1728151708
1095600428
880818116
1754894217
850142974
1499161829
240467414
1503383442
352509372
39470541
1517676537
1060841859
2083879867
1466216341
669983408
762708836
771575955
1181440639
410203834
1819986038
1589317107
245417727
105125807
80773527
1544534717
178985531
2101426775
1214395722
1279896815
1310540351
620884544
922620011
1981713386
752378588
772102474
2113492497
441146039
370575461
740342818
935991218
584288771
1140827583
74814041
2038937084
1236800272
466212596
894958273
694364220
1528797452
965078810
1118749694
172494170
1560843266
98126538
2037774387
1576502182
817791740
1527115300
153941294
2014169479
812328396
700573693
572066317
428057912
1564262390
1031732681
1533386000
1834784066
1757045402
853778768
474667644
72534250
1040137846
1784032104
528738948
913432631
766901941
1000038698
1753067430
1588687891
30223060
1856585718
633801957
1975543531
66949341
15667477
74167319
642907386
1817950128
91473697
1677884332
241023915
994924902
2034999631
727203308
2112033561
878437804
889591846
834682405
618777927
92081023
919933334
1228085187
1196967731
545934303
1481530641
1904555033
926445611
1791005618
499677289
488491116
23368420
675339975
745773911
867654881
1810163085
1873469743
393219041
668129939
413589849
2081077757
457358107
2141593845
1496802208
1634905387
170469577
577709334
2097714736
2059003464
451776537
255104967
620011118
1559839400
2130467675
1511854899
1808668327
931078993
463200449
1772474799
2096057920
1158891349
2101831342
1830939617
2128171298
1434693186
458125130
1779113697
152287508
2090041956
1157188954
97327784
832455963
495258354
412352552
1574197219
392509904
1486333419
803231858
1338603223
743017116
1374866167
1016095662
134358289
1651361933
1603736899
579477713
72387572
1167645619
1712215559
886406336
1970947796
1923056273
162770559
355833384
163570062
1273338601
1552724566
1435388395
788389415
992489979
1456247219
1565984616
1125139359
1172397111
842681298
1014754457
1967240160
850843199
785574106
3025476
1269762572
2072276102
1495317649
1296347415
1403551971
1219701773
551596101
1995318327
2084135149
934173204
1756271933
2140477207
1981757075
929510627
898727554
1828163862
882479199
1392016406
1197548539
395499928
1318798763
1402650595
689785838
547654783
134628480
943356663
846216585
19002934
918218722
438366418
28654368
791066786
123983405
859887627
670827661
645641802
1510434496
1540868313
379740432
871843652
109547926
2050323974
1480372691
983020997
1431921611
144289217
1017547875
1146683723
1490878311
37363944
1647598703
266791938
400498851
966849400
1813974597
1869368920
569191581
1337267537
1080213824
870364028
843368266
1004364258
1432977903
190135653
1984426521
315590965
1778060235
669110670
1618915744
2059124504
2013959271
938708148
693058739
10892267
1293655357
803045130
984986078
1272927519
1897319745
531411256
1147426278
2041304457
1720177856
1331720114
433412662
1011711103
1432180231
516415329
1140271837
767410027
1533270115
761649739
1547453683
529211829
198492738
433853155
1459066103
241851468
426924956
931037455
1460558976
1093422802
1019860936
1808799234
2099814834
2146023300
575957080
2093594892
1621697494
961917738
173037164
1944881880
14015216
1497892382
1179330140
1497395857
12189016
78654251
1718992972
1820324317
1751813723
1682058628
855352263
701645041
1920365575
542001175
2075533666
1385476878
476779984
760499533
1521786133
1641308890
1165394632
168024182
1009965092
1194927562
508567425
343557431
1488340004
2051197405
162585802
632254485
1277910234
1926862905
1287910786
790773381
385616354
1397957297
320419142
670429115
473434638
321673058
1371653719
735130569
436757693
1088019818
23103418
1190137129
667346005
2083502125
1997990935
133789799
1999804714
436286688
1482121030
290053070
1817862802
1958354448
1036399983
142819560
435585585
1154627458
359800815
1817465785
1309291917
1998324620
885861639
92744491
482760904
1443876426
1324305749
1502140932
1036390527
2119434924
734749132
968541744
434011143
2112079358
153080583
1140771184
366637139
676650050
2114694785
1712265658
2023438614
433968545
240209259
911407450
1094149205
366837935
1383039611
973156083
1540395840
1690609743
903499888
2038515289
1643730428
274929378
1287399536
287086626
1973685310
1555620760
650686498
1026562713
1270075571
512558445
1288310799
909113562
627600161
405418122
1118947654
166589609
1174293061
1338177977
2014712983
2092141901
1677428249
1646150429
86296588
1575022799
734194266
659353651
1781843362
551662402
589695140
373940800
1144975661
1952993327
466572004
797260969
145207022
2130801030
1685929217
1434185859
1591863656
1496318244
254240747
1570542092
378839063
1382219773
1816580866
1255830386
84671868
120989451
1234835308
242223652
1155462456
1284394875
350136608
1517394743
1725065877
1950524035
957882873
82914906
455269983
1965265445
1730057113
831835007
914204035
156277083
2018304419
1923088032
907192185
1659749219
1011360909
1368499053
172467145
678034948
1224282915
848755301
2008416519
2124885944
1307604243
1295320253
1245455055
7674064
2056232204
2141792303
1712015233
535821363
946727783
295836719
1991962589
259264161
1368676407
236068219
344640359
1962323873
340264138
855337558
874262681
1404463523
607967069
288884481
353114457
1163049477
1797856254
1432209960
670476975
1283236210
13840281
1442820287
210584110
1083243537
1825714661
1789753970
1418202198
177054213
1381679112
976391601
677126852
686968733
1754314295
498410578
1052717828
826168634
402061854
1769390006
1344384059
1255935995
800476606
1662444702
1265136989
1751853496
1670654238
1750671390
290401188
1366991220
630365245
1217352507
1610344742
1608751950
1951545926
367609685
1617793656
689305904
1634667316
990546628
1938664734
617069248
1630635448
1818727601
1825488373
1066935784
1728877143
470495632
1549807476
693614195
1753322733
1770338064
1663090613
331732750
438533998
518226048
1184397055
2142593373
412216280
649475014
459482505
598271378
828718725
104877123
1620339281
1746385880
639946900
1242918938
1321091332
1789713233
226501037
2055605219
1768101981
1928362816
1696862999
408598438
297562167
1072528156
2024089880
1367335441
1843331095
394498630
2014827970
274908591
1868916005
87509289
1930414849
1071686777
552229050
1064351906
1793021169
415845483
565931532
926552804
1359985665
219538375
1531795754
1739518763
220966730
1746206007
68861190
258831990
253015714
32306167
1874231599
393878424
20753742
1878364267
2080026809
136801146
1614562199
1787425791
526180359
229796154
325028281
873713091
881925011
862243452
467763637
607180330
465853798
623769590
246397327
351507446
701992026
1958991175
1320086987
1331718060
572784914
276582757
1671017389
929554597
527603108
1328594654
1404185380
1589598459
1559116507
765195226
346012006
1360582960
1073419924
381956862
2045889274
1532708238
1476078219
1377950453
2111872510
1117507962
1093239339
2001985249
1527059556
1455012872
1943333002
273876788
736136860
127751301
157493142
1614084324
657313040
591087160
1688587547
363857586
370399972
631057643
1932098034
95471724
1265893474
189821202
1766373436
1668447283
833338543
1639738430
1793808629
1219177934
1984153666
1610667180
117136035
1098688456
1898258284
639464117
1136154606
1962617559
520950884
1464081410
909278468
1815801516
1696164187
525727815
1062602462
1727359508
1432711871
1387072918
219170825
502752037
1389445663
980620275
1714895133
1219020686
1009506194
1189515915
335318169
874466474
890854462
1276068694
1809141449
927782961
892232885
478330758
283052940
1358606288
1004092293
1224373193
2079030316
1096970811
1641165529
43768924
897302055
2052445782
2129395393
418646379
1830031653
1309029542
1027414055
1271360424
1030823308
1436342005
951789173
737601464
1967637044
502599735
880898437
232469319
676883226
1105796487
2098945247
446134508
482275202
918736419
1095493990
1560560736
1552414813
813757262
15417180
972273352
1270148587
683841846
731070659
447742756
519532244
1011418733
653534264
733295123
1871531471
1075938547
919213677
1892101820
1824921682
547877378
646767830
312810119
1406870596
1370691215
521318331
834333070
1659053745
1348191938
1082041421
877807371
1808421379
1945095110
1794424679
1977860426
5766151
214012510
380344233
1883848178
1751829547
346399686
907358023
1857205862
800354890
2114905845
1526189734
358497354
408806385
2077927188
963634841
137643246
605889458
1828545731
703855252
1032404576
761630352
1818324642
1972605674
291859332
914076358
1583890622
97138476
2027161575
609594754
849325384
56586250
1138406479
256971214
1901841622
99406365
802827053
736581184
302429817
801312677
590953608
162122635
1507368
1879511879
1180373546
116267685
566101736
654320065
1291959372
1538542279
612302654
246416593
643696006
107958366
1224723648
334380164
1898811187
830022181
1619305286
979319470
2087204211
1478187295
732393141
935371834
1277017005
104158437
1258029850
690199396
222609602
94956357
2003965194
516821747
442235726
685153760
1097202212
966534974
769572326
563239159
577843445
920289574
514704139
2014951605
1059828066
229818509
95240718
1035262019
1261372664
727903654
1928940230
46835776
449586872
1771631657
1680959935
1750191092
184888412
208348433
2088539488
1487339610
159102243
1803993294
302407884
200411718
723854282
1682803239
2077653290
2019699850
1773509903
1354456955
637757850
782968328
1288884479
17620430
1365354327
1733015665
1967098768
473959146
116385282
759608859
894503726
1437075288
778155086
521639951
455025422
334284935
1648975708
785095971
234889741
2012208068
193077163
508063580
1644266331
674181021
10194242
753488484
154035883
1600054912
1562860564
129751646
1402261749
2064855368
2146066249
231024913
2082124673
695415021
504485689
1574483279
290700715
1527636296
481166271
1806276707
514388929
1208617639
1758659076
98526398
1396904065
638205186
1373695980
1192723404
1095281706
507367811
2022987907
1608260822
824257927
691532990
950003861
2142864078
1770881559
809875773
162556416
1606101657
914857462
840708568
802949469
280570156
1710867530
718771091
849207482
872364609
1652463589
627335290
1956564230
754339463
159052531
646682866
1840024035
647602494
1392674622
268105425
1935676892
2006996753
1595426492
734146390
739532379
73704488
2096862180
1188969768
988689547
900823704
1179859447
462140217
1792444776
2009055287
1898392632
1245255197
426242450
1959529805
146411432
1108492006
1643147798
1657664181
1316194953
1077790128
197694544
1140443052
422337694
1996845850
107004507
1708523745
575487766
2084748017
1216736029
986516993
1297190348
1351106157
931032821
1581563984
392083144
648107625
1304449932
727988443
29454928
220243409
270647357
1255235221
1933689801
970371894
2072298087
2077154558
962511289
2032765951
1948211568
558082402
61023640
694578749
1654705031
1129648870
1751360719
877034075
311771412
1113347779
995627112
654274145
277391820
1746976705
1000357290
1532585940
898230427
1482640504
1608889868
442674544
1087326097
432594119
1282092948
997884401
1465726099
213903570
1207618843
9174636
2091926973
624869058
1371809381
1383199760
378242293
560941524
1264261432
110941941
1361839310
1050500953
2133352425
20164559
1078115480
441226732
616362877
1426658964
1681239106
2103092138
1637429885
1960654025
1246316909
1127695307
639160827
528863049
1366504120
1733993838
726963585
1790269673
884419750
2135122377
1072353235
775556269
1460626900
124058177
2126490173
330174520
1812005564
1838145229
2078684528
884055322
2065560171
729545759
1761821198
2078815379
1674906312
272552365
731578406
1796331621
1913744491
127275149
1557817395
2058964549
1128935325
1108328781
730688148
2115004697
784553774
423162342
504555699
1337154508
450956959
1729883357
994014303
170660707
613297335
1215755902
775936196
825137521
1020723362
1697944450
179071615
1990688209
1677289023
1657690166
1797136146
819284415
1883972046
274939124
1035366052
616954144
1517782144
745176495
791345888
2058452355
1471502610
1477181486
1174798366
130697231
498472716
1682391427
1693224149
322755505
53436540
556911876
333152977
1513580404
1258275985
934689368
493641377
1492281595
1192217910
1516024644
1045612642
1154700867
590369469
1103495929
1516497785
769806487
257365988
1973562070
1670944535
1810619859
733654706
1393263147
1553671908
1304931253
141468692
357522313
563229317
2002606407
1027667089
1582117675
1727596108
1965050273
364496971
1471505794
662102878
1239121427
138311525
110128422
113641432
499546107
779671132
1318562102
14385002
1006379924
943966674
1795730266
295746328
898419218
1501438779
1320947384
1521480091
1334053781
2118436085
1835586876
698632248
1398530524
540348127
1679642242
581878294
1869982160
1786286516
1326876195
943782159
257046261
1903889476
1463761257
29269492
1902242858
508276622
566187528
1883684968
1113972586
214608440
1344602145
1371922310
746259167
2128870802
667951246
128041500
302536544
775461293
1130986338
1332745791
451487621
817283483
1632521638
2034817790
1280067859
1405269855
1979282497
1751486160
434202338
1152430219
563288456
1071524195
957174916
342954708
66055167
645192387
2097047386
527431441
711515166
427922555
614062258
566818550
1997824889
1479432461
1230713117
1125138474
1762283990
89478311
140425632
739373463
427500634
930200949
217052923
1141423724
293856028
1261730661
1444227697
32299956
1355253758
1852676368
1722867113
1369191274
1962339415
2115730246
166884308
1673322880
1854947308
2073092607
1945027641
1515911143
255788643
163754029
1213840519
593660554
40214059
351173627
2004487019
1966539741
1752780317
2078992126
1804587536
1221116121
1509547082
1267908351
789012128
1470756338
116239405
1507583337
99675971
331602489
2079024254
1330315436
1800829753
1097669755
1306140118
1922364156
2099807618
1405263622
162601175
1398741958
530249760
1715698813
1168112685
1043292076
48956563
768693066
354982754
884799554
1017581352
2119555723
1775453326
2062748953
1337041306
158252483
373724844
571871972
1280861193
1168163301
967565381
1486681443
603463808
2092118207
1298728225
644810232
1640418401
1391758710
1733881090
576173191
880581434
810127665
2127264158
379654212
313858106
1325887156
582354018
2011565847
1174489439
1404723029
329082447
38641248
1321458020
874083962
467829827
1182759682
1561348498
1518911135
1295672985
1757663669
149302334
1588239554
2050676359
1373546331
104949622
1520532900
1459914021
307759308
1201176270
1472383196
607369522
1040319488
1535239599
77340164
593528137
246245230
1348032927
1632360620
1419216485
706628234
182338708
1313725574
542386690
2020695644
1122248497
1828563401
430275725
222496018
1129188048
137279795
1883668234
1057567571
414055465
1180442760
2056455672
623974215
201428235
907050740
1935810436
1454475705
488922961
1481060519
535757137
1742947753
716289577
598199270
236551979
1334831483
321786235
379380917
2070350136
138984966
1567739662
1298602344
961360340
1949714448
1550701989
879584950
191806542
1051828065
1283671744
1445708765
143930171
806916092
382155021
1866532703
2001274319
627933582
950762135
1648169689
1931882320
510928994
1151687409
1475364626
1609786510
438042003
176913864
1344094423
1273481797
1110015625
881046733
562945228
1651717055
875509234
125428207
1739359191
1964566685
117935089
2084102647
518176533
1745154775
18898423
274628208
941495455
2082797104
1292459910
2088986624
922495818
11373839
1456882200
1863334173
2101294922
1779773397
1577428348
22576901
961261081
615358993
750637047
1454689696
76563182
891611619
1313877704
863295685
433662747
1498860938
202677820
1537381955
716155369
1610078572
1758296549
800024851
1040639301
1438838577
1206220007
1195660009
697762221
1928485653
1727543873
948842072
577210008
1676505828
1295439105
1283387823
271190671
473152490
1431888027
379386029
1109796852
1521391852
2079031477
1092179732
1536669821
1655865602
619651629
1543910039
1216371111
756596046
416613148
547759426
1259158008
2029694885
168657451
1609410661
886188869
733454438
158873746
1030718799
641401098
1544426796
1764153464
1712148720
968110851
875671185
704894643
602205589
1328270038
182882020
839768577
118756581
1068209828
734742632
771290142
1426778844
401450817
1125798623
707174672
239507234
334238430
1095502494
470126699
476899367
1955398080
1327642192
1175074032
551681245
1806435144
314971612
361831635
1712387794
1105307882
314701692
1394348552
599831786
76180284
1941919516
981140210
418223527
2041435629
571638807
1368502810
1942044873
1250360479
809291625
428551711
442595920
1284453812
1336820304
2137789294
628030450
202121330
1227873298
1041535672
1059936280
977399804
1048533125
887308845
544007056
1686830951
1187348052
189380045
242198642
1622519671
598734068
1388568372
186802048
640256243
1561830251
901985825
1528984386
1517595245
87856699
591308959
455739833
721582987
1069575461
1270371128
1486558847
618441165
1638421191
766116219
2130867676
376925376
550467893
1550415305
1854672348
648679979
1297293676
498432565
897644995
789893598
2007050542
1866250190
822655876
257223334
837951749
2123323397
1199994355
428344944
1276635904
453799006
17510321
1740629528
2091507862
712777209
2021006478
1562858972
1656193275
774350655
2046554254
1287219654
659203890
1868567336
569260533
982254100
1176652019
2005190120
1891353323
1808701119
690928667
146459889
256048260
2092846220
1249412474
1638266604
1756328169
2062569709
2084220601
798274774
1295727929
225672691
1192862916
800047480
55415727
57296700
41918039
551457310
42944142
886959491
1665632664
1295093312
246307288
2024536997
956269264
448991472
95001965
227478049
1915474559
1092628304
2006798382
862178301
1142125501
1902791306
69847325
1424712140
2059346509
1954703154
61680133
158070797
32764189
2075086202
816388686
1622190422
672294906
491745788
1473087622
1527360475
1877158573
944219424
188839087
571327700
2121934432
1040157875
1877132062
234751416
1316571306
735896205
2035684739
1053609848
1377549552
1246658022
1272950505
250158993
294826860
412623675
18766915
1762599862
459058880
565189808
920741854
293541453
1214274338
1335859747
494047928
1041982177
1706290065
804706744
751638371
1745818120
1243218071
2097551223
1046131802
347962824
895293061
615270001
49266048
1792822732
332561390
1856802895
719271765
1136180202
1617809265
1369152986
404748330
130621436
1676543553
1989519129
412865434
147571792
2009922134
1628326843
1893845863
852754938
1069187166
690696979
1838435110
1489413341
2089551533
876246266
1141664119
266770457
799652644
1475725543
1087058533
20109975
1042430201
1516470189
477231729
1316403799
514703322
1229341291
1310373843
604854710
1577709878
825006964
1409901884
1333361440
1765218171
1297172001
835677134
907187616
356512657
1587365932
1293555187
1311256791
1213535131
1899810893
1619331303
1209829648
2015670441
1968693156
1844037513
1679260682
1702368661
815774162
1875196960
68336932
356486395
864164996
57428711
1629507875
55957290
636698870
1676176428
1709986552
1801726263
1826595486
1333087981
261816190
1215279627
1517719763
1471709741
1497631274
1404676602
1352566382
653011081
493631810
1471866884
1979992578
1918218585
66996684
472121453
1532352091
612473637
40115220
65727252
794430002
1071464097
645998572
781136280
1706434853
342335518
1550792868
165520752
2102522824
559040944
436105669
1100783254
1617690467
1569402508
1511627467
1588183357
697186021
675845129
357544883
791825554
1840552554
1288701034
1810092379
1036972236
85366859
1389447467
14958897
762064191
690238632
1187933494
350877264
1141388986
526907933
1009370876
1111571678
1181705702
236892590
76745429
1398585078
54537620
7725937
1991009604
127115340
195008619
226631245
534814020
961305411
472338460
102631605
1669545514
1003766924
548809355
50542704
1400097434
1850068796
166478082
630051651
2090661313
1811802479
1530629644
1522267924
1942546156
1916905664
1821774721
1897523659
627278406
97861150
1390577978
1466700322
1155775623
442839489
1048613564
1661450207
917828671
2026039458
1598389784
166431534
1905873957
1612017484
24807852
231274059
446578174
1631555242
528855770
709833828
148618285
987506889
268831694
1915302678
1817705538
122805375
1212979758
591346024
92787018
1570697645
1597684947
1542281550
822427099
413044136
347019882
1073719002
87361106
1336422344
499783676
1164261636
1572096904
646608150
1450366568
229306929
1921461330
2046960825
1017493814
1651445725
2132897907
284066882
1110799570
538870436
125975107
1638134935
231187572
325914574
2008793523
635294856
871753882
186202121
744494478
1727049488
1167887725
548202694
1751901841
1593683432
1216329947
783278
1466456384
50878174
1267736715
1052856152
2023546948
1156550500
1211648178
555491219
843718397
459991427
1715161564
2085455167
1376178850
558708617
2144214879
970471199
1769457193
611149910
1874099647
1505943977
1153157933
1203153873
1128935577
773738252
704953560
1795219210
1585578179
1804621922
670468526
1584545962
2013471600
263494858
1921336932
2118872289
263073639
121897634
741033927
790536706
569547780
1796472644
2070955289
1368607823
1585301168
471770901
1926922741
670489222
283935213
2078574122
461570277
1325128319
910699289
2006532285
1621474795
1445485654
1782073612
430701192
749137961
865378301
1794224589
1448904754
1042699300
1102776419
1795963273
1294886548
366575346
758798471
1149757430
1110080365
1543911211
864761570
1617606523
520134004
1050007542
1388968645
1249893077
1564075281
249215807
232111970
1893829460
1338819501
1346415489
791003376
2065063837
1535370491
2000772881
2144731204
1957374293
1254676114
1242953900
931934127
995253214
176388211
717132644
2096490225
951187970
1121924334
202953728
633413503
1814629662
1743192422
1910408023
1046632
687186527
185149049
495267993
1317585758
826560844
1739837310
1880611763
1128486982
2127710903
1515938781
323200840
754233838
367717926
710649541
703632267
886690214
799664226
1279565639
450838444
2063789208
1552603583
54806790
2112140386
297787060
2020574269
226364422
1316828894
1343154160
1701151256
1346436352
1150230919
772714595
43287397
1177413139
374786056
1570018283
954078562
1115559531
1821663345
338179907
1054338936
1908144869
2083845447
46490474
1642711600
1499364926
114254016
1122314953
846708073
1960325361
1970163212
258954354
1696736952
1875589721
1463829591
1934954875
323229499
1647513577
1206302754
783677494
1090079181
1551169083
524101372
1854949650
789881404
2120763561
1318139830
303921880
59781677
1166510621
1969546921
471600759
991938663
865811660
32749206
359115735
581895832
1750041395
533982115
291538334
1202978730
1162184580
1227672880
868418999
1650417180
894545006
85651515
179356051
886247917
884442347
939231624
1187755555
917014436
1096062270
1752680602
1449446541
607085960
1724570159
2118727806
668902939
753783466
735844981
1171270517
1518710792
84624588
994508230
1840589895
1816035586
158258825
999747099
1106147673
2106293327
1987716632
1719123764
430081505
344637026
1701427871
289283882
1132496141
1521307938
1552151518
2104872709
910687226
671655983
979336877
1902551566
1767398313
1245930772
615142612
1168197374
2067899265
1413374898
1727677001
1170528205
846138353
1723534877
1448080319
2010001942
1847900068
1231026517
1511361869
375527147
1277783830
1453115660
729925574
1201869855
429220229
739138718
812160980
1531196179
459206730
1143226912
245521374
531198539
1432256663
350778412
827494907
654771446
883053884
183131311
2037847777
579885826
1678471688
913187321
927525825
1256714799
407668003
1143028419
1377272969
572583277
1250154923
1639271099
812097009
885224910
650727893
2044872212
37657601
1550115413
1713989944
1114693237
61042830
1736747024
1638285052
1779316460
629016813
1870598937
1710729294
1254744165
1193165953
243713521
769870440
1631526253
1255371532
347472487
1797635355
1737125623
1411209859
1281931682
1812313188
1447847996
1713358342
1395680368
902443931
890948440
1696701305
97690340
1517078207
249621810
771783122
2061739509
1644217842
231760401
178380823
145579573
1449696770
899871118
1116396160
1479832864
1511138426
1779356388
1659320798
273419579
814936218
1785606544
426332229
818497913
1109245394
716896431
562772354
1191681679
1760155322
1965025389
1272620918
974056182
1103464000
109048158
320354561
97277543
1194103585
1668602066
51599464
1508834079
811319501
1919296951
1766564222
840521167
1677351634
2054771738
1602277306
574127361
1209189924
2117882364
1014641801
988947156
1462967421
67846942
1466873322
389700634
615435607
1028820369
1318474777
1430401219
1612335370
552480162
697186327
1913648407
1916384052
1946637007
1012419032
942827585
2075892725
1743864529
534728389
790601251
1345897277
1655080764
1762168791
972074692
2115101261
984047754
2138834783
1498099357
233078418
639271813
292296744
1298755326
1651491681
1479613530
566610671
575833719
65168559
1190075231
307401985
24322239
665487589
1452853773
1400153820
2028476185
1879096153
791061996
256295190
1105973440
747038317
1262519686
906531895
1828154117
1467241960
1600193779
1172350531
994617718
552059320
182597966
1884384
1386065430
337141437
1540664781
2050615219
1628928457
1077869200
161589006
421320328
877933742
1362107684
1771679891
151259074
938622505
700461841
61894583
752632539
1154286837
1546305446
1422311642
1270919556
593799159
1255511952
923015963
1938784188
553737693
1307124333
400571624
463208471
407086533
1884726773
379461745
178740057
1391607651
822450094
1561933517
1600702011
871820108
855701219
2145775050
1527660478
630911762
1771941825
1910930190
826201951
1496611188
330499325
445968556
692550488
2056622824
1126039960
1701026186
1211846341
313402852
1005122669
733257063
200312939
1911657125
680522122
705293669
1927469113
472982504
1996184695
1143896029
623138227
1421625081
736721571
859415756
245757688
314018778
413142474
1399724640
457215405
1388014972
551482830
655673583
151473881
1810621082
623696733
1184186148
1837948764
1138341144
800514567
1563182672
384035789
1973330657
807166575
2093074169
1631864219
1036338638
1688186003
41874558
1851623868
1034798117
89444903
2028323283
1669353264
1849706688
1611102426
1531616758
1877400767
1658733355
1370534932
1504802617
1552312229
1252225065
1819666489
992938129
1257363778
1864870356
524923823
1074752829
284630582
1158840201
1583866414
1814232370
1254095764
2079430368
436561532
1823633767
1298099722
1474483008
1118657676
1555779585
399806434
12797555
820253760
2100666524
950798107
1471408355
2143888171
239331389
1518926632
1290082760
1217494784
1364094489
1241420957
481945462
785555462
1529530327
1262682617
1282678569
1404545735
1083223307
2120550076
867837556
274309935
1312625780
1556943144
1499961859
1167304124
1766102848
183687476
1731835702
567028396
1664491128
1297122795
2030603008
1934381044
13555213
1740397604
291367826
2011048703
689990073
175240463
106641337
411771898
774539595
808713122
1191108362
577984161
1594406136
1963946984
1778037487
1406598690
385175725
1969850400
208403955
2123032068
1132659193
824238089
535192747
254862661
1737314957
1051426333
1684180409
2058182663
1870765509
1312433838
1807847915
1769132588
1052853357
352996805
699806951
1918656890
889071803
892308870
1006953705
1425045399
93483793
373138484
1143702376
1694786819
435461623
1734081136
1554117903
1071254149
1535691367
728478149
1761901085
1827703807
674257916
1007237900
966315684
987826770
1612242263
542274501
935269061
2059429285
1785408562
1752845717
301955927
849283104
1100738024
2001926949
595970297
2044704582
255740736
1058514896
469469604
1883139913
442103167
1994306799
970072201
578831449
1248162080
842891388
976065976
904220029
1143319596
214348474
1992371981
1570084417
752081056
1194071396
51302461
1801591299
1795854775
1139601822
2006590196
1062388986
1276856229
1167717728
2059437902
1872396006
1200419975
685220664
2080820174
1017789962
832903052
275269403
2144185860
1128013864
150731390
430339412
1182671511
1615826349
708656278
871960854
190735628
1630495629
408266788
501864900
207671527
1673209290
779046399
1453818429
90014058
961296737
2084366792
47992398
1179105783
816850598
1010142868
1474443668
219158000
1641079772
1182898799
410887465
1359249854
1875125922
444199859
174558794
916388426
874168144
330992726
202394751
1876170142
1751710244
518598235
371447661
1578259239
690031206
1165070465
2088277580
1615016909
385383369
781693507
775009426
1346312842
1781640620
1063354348
83755379
1346696207
2101498953
1375256276
1736201523
707176348
711984075
273039819
451837964
654003928
1377550925
1420256678
478396583
1867003472
2106958307
247387393
983810337
816948696
1416717084
159487116
1791172348
2003071007
7675613
314660707
6977401
1586056189
643496307
1804934054
1983446957
1949496218
1203690453
337710572
1774952925
1784155475
884029102
1952364187
1066509113
1871305745
696765461
380005562
465031999
1329116942
1336246833
534451142
2037596502
1115114072
370294037
1815682788
705985257
659398470
953925965
921296254
1768706623
634186839
1415093808
1973161712
2099981381
523578736
193339304
411222017
17028768
480085160
383404308
708537898
293267135
1336959489
50517771
1513911288
2070650590
422343601
2099923379
1334623563
1852530047
1845190321
1148974903
950387747
1817482075
1557085839
918562266
1753273364
1348616367
1666706994
1879649792
1878038248
1281686760
859903884
462071129
92793134
582648816
2085227590
1574146005
896464341
802212999
1239967222
784636567
1034394294
102606607
421419
196828801
711071021
1939071783
59657858
546023888
958592442
1069481542
546507216
1610601122
1083923649
1305369083
1225276165
45683011
1446280830
234420648
1410965145
90759811
695168849
1304611300
2001953308
92041657
274348107
2127326596
1206664378
1165167313
125514445
2012648595
732057506
809014636
1924377998
79813207
1035718105
1694307911
1002100817
1257515900
1306291401
723663253
2113009689
648852616
1132502168
670557597
1181934535
422533135
1510967241
1310774494
173656153
1188080863
1452596377
1083717575
1416311973
1149994053
156457995
1232166970
1314352706
501807157
578892507
243954155
821824888
134480326
446634420
1552621270
1378148612
647075675
737885520
849897284
1970084704
469127844
470871681
801531414
956417637
1435672418
1486232330
464593213
1848016754
562983195
891784494
88433959
1753054146
462258564
1671754860
1350739688
1312019769
1641355056
309179786
362737138
911416731
1284264724
1892647633
1549125197
1771649943
216008543
857193594
214645680
1700237066
703796571
215521432
1635506943
1325030601
1168397322
2031293434
1003666539
1509524215
1800601099
219588978
1998493342
957576629
1726654447
2080887599
868145101
248742657
1117765292
1579045418
377604414
1887723246
233147868
1070350004
508344364
1909454843
2017905956
1914626216
2085038317
1450021776
384415823
248139681
1222775115
1918841323
1537780620
527490008
36968972
1885289036
1489521326
1490500841
1984162258
692023240
1685335952
1607896029
368670401
1847209210
189472719
385679859
730816986
576120843
23317393
15630831
293427122
1101201382
1699943212
1421207464
1291090913
1897910228
819779038
1985486975
1495718677
36113250
521684981
521800677
2125653190
1478910856
535875784
503980846
1152118256
1915974207
621572535
981395922
1591262040
1813573404
742437653
1734026828
1994461960
566110965
1742674939
520675732
1279481869
988402942
1161965350
1832660939
1762339675
1149306484
1445196388
1554956434
258086516
528717573
1231485961
874854057
238239170
1965472070
739969312
657410331
1497045852
177135168
463871126
1546889910
318521306
1036641014
1713054739
1786297000
758259169
684360430
1306994622
939195676
1585110128
1581651477
1109262165
1744984661
1779511271
1869976598
1557106879
1485252611
412040557
1759174785
1559140078
2107111796
1188267182
927686651
426897150
1058092808
440455742
1839256353
393834334
1444380490
934427080
781286460
2103395755
82169497
1285298330
223382072
280943932
1688235951
1341333260
179817834
1167740071
1778234428
445801532
1809560676
552029427
716534791
1425636987
34246481
1357690690
1523078823
979085119
458759282
1643744125
1775231619
1461249014
905337986
1579056553
497571299
853162356
935112558
1924337002
15025839
1151985029
1449015144
1720656775
2023885563
562078054
200312346
1073887235
1449060576
199289770
1719898287
1907425529
1069289425
1698257716
950791181
1101178925
1325618968
2145843403
738218198
1575389714
1553057730
1926275431
1974167574
911965003
1917971454
1437888829
1884479253
994154330
2140661580
929051832
632603671
207591087
2094028668
757982114
1568418288
1956949277
1267923905
222110565
367924485
1112534957
1086989954
990040298
1580183285
600196050
1807741974
1743229648
1627833123
761254958
1442990999
1204712425
169181936
211161141
623814536
2071758233
246583713
823865761
953591256
1492814268
1184782750
1552173853
332291943
1143579877
670476092
357490179
425036180
2011437398
1693027847
1781201251
1672240495
1914898401
415798524
1184030568
986007680
734149611
624765503
1373189162
1994679538
1587215390
1467965378
1844884424
1679669651
1523508543
680521629
1803579570
147014193
1312541871
1788249957
1817155949
32751619
1731308154
2024103480
914606102
2124108354
1705216891
88280821
1705563866
978769240
2083294078
1866186164
2011774894
919276534
1415698405
324699159
693502517
1394642763
537573838
1691100338
1735201131
1182107340
1526179866
755763232
1663519349
1798711563
1062297989
794591451
1744237218
913114007
1884884947
183195489
574602777
658246442
95580343
434347803
1743871304
1875866665
1802570027
852349291
1645057017
305877710
2034327362
482292522
637720369
685048686
891763836
905543797
1642361686
314137254
1818884027
1069277305
917060199
1112579496
661112814
2032542299
934918911
1958822524
2066292311
774848778
1194786117
643987459
1571620892
516960203
713214540
694122220
1745328509
631500371
984775143
1490852117
1535860582
1281221837
11880652
2081372674
1297537541
127371398
1561802436
165240843
230620895
580274249
258567588
513420020
925876909
1992998823
158936735
453250479
1245424850
1642738787
1990084782
199871906
1521709150
144923173
1066014680
672353209
331255468
1393516169
387975604
1649087392
1057882597
857751033
1157672234
1123398917
90304344
745365297
1854949452
1973674817
1287348411
1071609877
258078199
875584968
1790117864
1289533854
638602376
2048565302
1468925941
750142573
1387039943
804215489
684312571
1144513681
1074616006
1202696953
1475857648
39523960
828762370
273173173
1021484211
1111380498
1907287802
1464406378
672442191
1235329115
713664044
1160698979
888814022
608794273
1416037779
967820964
955742341
1741216642
31116136
1251694802
652960014
2052313741
1009027878
1761573516
1421399169
1247482064
2132218948
358820198
1250863668
2077358305
514287676
1963457099
566741291
1797251009
9189531
121856235
2069646117
81631250
410447227
723566697
1006413433
1419790150
2106536947
446514000
101703740
1412596070
1006244834
2045672505
1475200666
1874636110
894799464
375704957
1187918660
1652404572
1999750250
1905957406
84301235
47507212
1722852411
985742739
1011680500
1266571197
2090147878
1627180004
1121917482
1795309700
220916997
1994365643
1417466730
1635311389
999278660
808882359
1046035660
937657660
1074218399
1484209590
1463067512
595326346
354559557
960543719
721096693
1920665486
1872901695
92297088
1935656904
1861719066
421770140
2129329932
1292818538
2006886709
1572158360
815561517
321759498
1696990915
950485417
1120759819
1761842476
1853481649
1291587044
414262366
1002671716
482800900
2046902916
447484499
1821362012
60935215
79424127
1144274849
1559258348
1487694130
1525682134
1171021343
1175861671
825959504
1689049569
1219146617
358778777
463067345
761672635
582797677
2127350263
2092063059
1707407773
249095867
266307558
301280355
1534504973
1175342728
1277505336
847614087
73777703
606423439
1040053615
1774831636
518211419
1384117610
1828176652
1218489892
812339565
1236065669
1424041334
1369281133
1489814470
1394367252
1190152507
801856937
2141040801
294239520
276233192
1989672373
1443184617
2009676140
1488762706
2091456945
2130976077
2060166166
1639428751
2054885075
1820618307
885583823
897449300
1892365329
530206993
480409304
1281859959
2045666882
2122179021
1705904721
1576717655
206888293
1525139903
289065831
1490749036
1536968574
261707062
876661433
1813275481
1890659791
1274614137
1892446450
507235780
1084268741
952955765
601272116
620580281
2094738528
423298541
1297807187
164715011
248124416
1733926822
1100741559
649213117
733468501
733487504
1067988998
667569035
757923317
1936276751
441401600
87335687
1560423438
1345831561
903404880
1376274642
730365536
986642216
904848653
1275579733
1363750612
2126476138
1414195895
1231931013
754810983
208243025
2044242626
2020563510
1098904451
620114561
1495155905
1580060597
244826671
1353156367
1910192785
552610441
446669987
1877588697
317667661
1805503772
1646845213
2074977352
549038486
512958865
98274321
833997565
457377609
201936332
1979010396
1973353680
413205063
745139233
99031790
529362357
623273636
151506715
1102281367
1166498989
1007668319
299223546
298709303
1151746684
1350439033
752124996
828161914
1801947083
665818225
202396659
903734801
646300686
310986521
958930664
1716548024
1977844359
1705014316
1266042327
1663242194
925929955
1679187386
1746179681
659090012
1235287
716610255
2031371604
905301027
1371256718
99172578
2070081673
1470270812
1676863619
2116670465
1492494855
471517046
499119218
1272184473
2129856806
1853149643
234562812
1278677364
1035290091
1660224927
1445921830
2130791706
43866693
100485688
2119394074
70512907
567291161
1447684445
269149892
133239935
806798316
1004317622
606871503
43271744
1530559880
941046917
1031743456
816248270
1096176686
983946980
1605945408
660709911
2109089722
2046507150
1239164877
1871368959
2080182158
1698619270
390857117
430234041
543929811
1085181308
1257529992
1266374567
1983887480
1016337513
1813377233
1480691713
1531253859
1511025330
1683732632
160595917
164796225
941426504
990151539
1489222986
1888115243
1849984616
420001300
1964777771
2035761929
1773376833
910538490
345978455
926978033
1415784114
1742199766
842953268
1825335405
1698492077
65790169
90256732
2060089467
322643935
795928131
735351501
159355482
77897370
1848899303
810803603
608917708
916850148
1980634749
1291523030
167834094
1084855163
1374541608
34854829
575389784
1106109394
1369798912
1456373584
1519986258
1996302075
394694510
1519890715
589320182
667259844
1291071326
1121706038
1589708030
372516223
590652920
1244236918
1452442422
1347591900
1173075573
1120094923
605774135
1208604393
1220960438
533894563
189495228
1439255873
1644244849
227304620
1735447703
1383401032
1871842886
163089827
478196976
1075490529
1423878148
1261235246
1882031888
135203202
856182054
669864547
1147335902
674537996
1442210222
247546097
1726019132
1078774221
1818776522
305162032
131001119
1263787115
1098390038
1878453202
1799339522
1879690107
840317229
1898085480
264244726
921170715
19419873
1948853862
1311203497
451229133
2031303666
1802172234
1694850370
1435066790
2040109607
397370377
1948520000
1978719109
622332680
1196391070
582495144
1166119809
1481101798
1742592222
83389763
875708935
1943080391
1094544846
1408558429
23390959
1058371663
1043857841
749167119
360032866
1337764691
935691758
1364580522
54446364
1772810157
1297427802
1384109886
1878202438
925602582
1837714633
313523870
718247523
154650211
1341588242
1252689217
222649055
65209450
1100654971
160547233
1331481225
857079610
1255279533
649706350
1395856454
2145457889
1590519861
956548802
93516904
1590646900
1904752862
1773872744
1355399636
1405289108
41599574
1594602807
1106887042
268735755
1599434067
72063296
1749730253
2068670176
456582688
611384769
544868143
1756808207
1944978768
489477440
1852466646
211194927
536379237
1732486134
964020526
7506020
1158634959
1256018377
929097344
1045615196
540163751
1420100851
217203442
2094883179
893541689
45220898
709722032
969058734
761160139
642949227
743698088
136639036
1615854262
569518083
325807685
1690512057
1585200062
2020794398
1798082056
1641040417
770164424
359991102
228129369
1887450508
1308605538
1277419409
2140877172
1718824207
2063102796
1145160009
2075164390
424198956
313719120
1800156352
448676001
180574839
1782209251
28382334
708014691
604318764
1409922164
36550575
565674637
1720702485
208406891
1804674230
1372024360
1171222862
979821923
1664764543
1338123560
203042792
817939414
952845352
1392850612
1110279101
466895011
162177458
702203260
139578393
1308692587
487308097
605668271
745376927
1705754652
257362776
1283028914
141634220
350043697
99324011
146360308
1487156424
1672686163
1783773212
1004392268
1098723314
1542581680
370954319
1290025287
684518928
623483752
1724252783
2137843359
1445358709
905877606
1662375275
1526618362
42744272
1615268939
1905407865
1889625960
395076749
583932172
432410829
632797947
1511256428
1420680022
1747803594
1175294521
493017390
1800483634
1321390367
2118635103
1588170486
1296978858
1111981721
49235734
1375276774
1500191706
1585286114
259679748
1968075800
37500398
162458843
332795044
782440143
468713695
1643717635
1443807050
1309291206
989216631
888606203
14358899
84219320
1196790115
1552003806
250120880
5690667
832549637
425795930
1038834267
1371573524
60130804
1726369763
865268759
992945588
1470881930
1216809051
1101233111
889430527
398600080
1018484937
1033218656
893318741
1014738165
1313345187
725479798
1299867146
600627431
804763928
152823720
699754976
1986861617
1668788819
1611857310
1377967794
2029952422
670413487
1332574487
1312373488
249352058
1238264550
690666037
1736347032
564306583
1869850044
1371129574
1316946946
295280936
631009943
2036408292
1286682729
1214432599
922245096
1823792267
2046920758
4855968
1237224812
614207230
485667176
1339432192
1334984156
1837527154
1885076035
172227720
173330858
1888704029
32366176
180453874
1117733250
545975392
952518043
156620936
1253797834
128629696
1400717732
629806371
186026890
845575427
1362318633
1677886873
457538128
1985873263
1095385440
1901709610
1423198848
468316768
1636916371
363770199
1530506727
2076114724
1120825373
1635117377
1181186878
1900681101
1605115667
1027630837
1938897205
361071895
708236336
726114892
2044833859
220752524
271661153
850433723
1593345337
1345423720
1453928599
429296113
1764285148
804146373
1901487168
1141808576
1402076374
62856770
577457092
1131751186
843780551
1274675839
1000457864
1517670107
49993034
1164737696
1231829258
2002745790
945052311
1461566277
1163146062
1735719200
85054962
1997671542
615489324
1259045621
1160147005
435198440
888501863
459796927
570433555
2089577735
924516678
1617677575
1892846692
359775238
260217983
88283665
1342437163
1069055168
673515287
274985829
854929066
930955903
1321089375
1548806526
1501399276
1266770237
1759953770
1269770895
580117706
915626408
1277342228
1415672733
1069397266
1719701162
1611595331
578340834
150803042
225525834
1828094717
2095837674
253154699
900714756
423066406
52873881
204061119
788287720
469928151
1268927116
2024769134
263017243
337396200
1624662583
1428243063
721357052
1030375501
318150945
647458223
1225893624
1882515100
302675914
920601379
473436353
1764112050
1158854194
1587413925
1649921433
1362088172
1477195122
2050705429
1480279088
1486881008
63029075
678124265
534200096
2026865957
528322190
324180842
2040838596
334550136
499883872
1264248753
877654849
849996797
714983277
619974189
2099104686
188851781
977442395
412633289
1183344697
1313446214
1975516574
1452129986
1236541144
1758297147
306364720
368971517
981314422
70325733
1181986689
555541001
486714230
134591405
967025191
1043760392
1185243620
1111500423
1977566549
1470073639
1940702342
509102710
387688582
715028528
2109853561
2080052203
650942320
1334342388
648749296
1108878974
1280686316
459931517
365420255
993260263
937916475
766820563
367714783
470244771
1853404328
1921729532
1414998631
1301671098
1655585387
2086916555
1488886821
805535263
262210198
1440434501
692323109
194152007
395590305
1320223137
211902341
1230231039
969676375
1292154108
531855789
1429268761
1205233208
1443852769
2060172994
924433378
464910614
1336972956
1850303781
20916882
1837220760
1850200613
1830475815
627234342
1210634417
1484074962
250113127
459641889
1110178350
1148725315
717839541
2136826736
138307703
822525100
1719930169
1838934915
886954781
1570084956
897226928
1731101296
1628682400
1277836066
629449770
1904261791
1336928245
1626352734
2132245345
1877637628
225341172
568996709
691893575
1712494377
1570298832
725130318
1895669690
1714356499
1272214895
579698650
1190441981
1716218731
1089352416
1317541569
1023431404
333416145
26573858
1959793779
150833648
2099101049
186036839
1139410987
280731164
193165979
1397129185
1407043586
107225317
1398011800
99545249
854057753
1673088253
667325305
1932481165
26155832
497789263
869380143
2136989016
1402398742
954726045
194713895
103424803
1634205917
2065588906
1119285709
1202145500
262663728
1273234740
259926849
527762888
1893246337
1932501944
1675985721
1926393073
653863504
1116913179
677251467
1945467917
1900034185
1500504649
1835544348
233469113
1009383265
462375292
1956797351
91094049
942781161
479378282
1648102510
408093674
1303420620
837401373
1003911653
639990217
981114894
268892954
301712968
836419564
1072832474
1320688010
1299559440
1434512791
107734322
1805689988
434955216
234739396
1021048772
1626957466
1264163518
370072865
31754712
701823557
1676611675
1557825506
1300228709
340436770
206194119
2105861112
1621000130
218662287
1607295800
2052565994
842123646
518908709
1664130591
1596930457
1732078263
879697718
1399957530
1409104996
497499268
1067669021
929735770
290601803
798976106
1224603302
1048159890
369023995
395938245
64234958
2059516150
1845359506
1123014925
1794087666
1840147042
1341677240
1802067290
244300802
696444150
1339269584
2113676996
676987415
2061339521
1641828711
658805055
953853235
557392165
1799176816
1414172096
1700172013
362051135
563380800
1347286468
63938773
982097676
77010777
645063798
1044128798
289256018
1238665391
273095053
1964157434
850530146
600518449
3761018
208344716
1428171889
1654541559
1094455605
370540123
287894550
98495995
854289722
1445677819
1790999727
1945669738
1538342703
1857103585
1440726546
754095298
1618892434
303837913
119812044
1935111655
1808997518
1938423869
1554474838
254986705
737160804
1186387687
192351865
2083981608
1378353169
13615378
37120354
87826475
1667925502
778166028
429024616
73909984
876865307
432538646
928067174
946905265
413612045
681024092
2028359077
1552753958
570309781
1169018574
1318342680
1908363410
1008153101
1620969098
675607582
1833835330
329884156
40016383
1902174309
1230879396
1867201397
844159323
420471312
1102555478
97367691
1701927212
1214951961
1475573468
1662959021
1971160748
809977003
256991412
383967270
602112910
73965335
699904490
908364895
2018593358
1241200027
207875038
730862191
1499994867
325505560
1409332762
1742056827
291057287
463405613
82941577
1038784259
122467446
1866141055
767914570
352460941
1368659305
1908306955
1054922092
473421317
1674084504
295367759
1267794690
1375971321
2132197269
1704270155
1574489669
2075205005
840520359
978604343
2137536987
389189530
549573909
1191676805
391110781
1674144191
2079500604
1411866456
1025582381
1411151314
59370729
394180868
659303337
376778002
616478145
1690505613
1672255672
1576866568
1104254315
304425951
374741364
972298193
1865508162
342055749
198292798
234422727
1968528341
1577472592
18670600
681369756
766338979
2039576562
484143267
60458644
1546245306
646956757
843915027
1797983252
1979398125
1971729140
129506864
537942079
1498129317
1995741155
2132360969
34518296
1355949063
229519305
688584159
1856923621
1497465680
1425182838
1995710902
1111381165
2108904848
1322267211
1924111634
1328588876
1129336212
930709234
385717768
705333759
60217539
1716872824
489664084
1447024267
1069613946
364150383
1369498616
846455322
1726653741
1043572738
1101676812
2025341456
1001968895
1794457106
1524978842
1099079758
2103682414
133811030
1554870794
909284428
857942365
738281668
1240513110
35685923
2015412064
1132323945
1518463805
391026833
1764599522
1245793845
1077672020
99916592
1553980403
1840091040
1835559726
1950352548
1473657679
22178177
1727630139
901838102
1157951258
603994575
239685178
404570194
1057694458
1266248264
858656906
885161903
1613955102
688613182
676730224
1970285916
1541206408
2037914691
16437043
2073216284
1245130989
1454963839
270331714
1082716124
1883413022
172265301
916078309
252425532
1971701627
715097829
109985572
1678947819
1676637802
2132959010
1066307799
1470983722
2106143682
956072754
678700420
1684701165
1723551652
144571405
1350711046
1040581782
1526929884
1926276737
1255933989
1714939949
488400394
149549588
73034929
1352354489
314529861
1268655618
1693587917
751299373
2134079753
136196462
50052656
1473681713
387518776
1799946073
1204740729
78229386
854183662
1457084034
37785901
1551013508
886157678
949567361
79087420
789401137
1235303797
1002697272
295808003
1156251645
62519586
685722781
38507060
40147405
1777742091
678809842
1091616456
1315860494
1940718517
1631202312
1630534331
348514221
236172777
306004888
1401219616
1171400765
777867163
1442827219
1889348922
1687213748
521764602
726165229
1303988268
84399946
645121567
885475823
325735250
332732448
1444146693
1487956993
1369273317
1502962418
1283507214
93666405
369499047
1794848650
1795562659
1642520670
1459098017
412003946
37691706
262797723
367149605
1999594108
981852932
1980036291
1908102878
1150378858
78198901
779214769
986781585
957231185
711581875
1132250897
1988858363
1245886871
627044337
1662492017
584387099
2014538506
906593281
2125244587
1844949633
2010070695
1273217153
255359271
14822609
1867175559
714019606
1406428969
1726206322
1944886985
1461698289
1698339276
252821556
667089085
1004253782
1626117216
1487255704
417164266
398893610
986009103
348633478
1967251926
981298719
1944047224
1699965652
938927718
1006750958
165369098
1632258967
700183535
1396130125
1772488486
1824762964
1781056625
619861223
219620847
994799040
873245622
1620778528
717343945
12618315
839318121
1048840927
59324352
1709466913
2121361284
2000025119
1637847435
1793844051
1406501638
303203015
1220037125
2072202085
21377055
1959641440
660010001
349564600
1746282224
1818237808
222538789
2135594978
511999969
2066843628
55445165
1120257292
1293436175
257886046
480740825
627222204
2055474261
1595631660
977180690
833873985
1007327785
139219830
1017323180
1925005566
645762072
866426914
152927016
1224133417
1712261563
1654452292
1388390056
1959470418
290422844
986420446
140758754
807492025
500196459
272415125
478281132
1906544437
1392835640
596367891
339363406
965968148
840577490
2141158834
1722285030
287162218
127823201
503855976
906391650
842839953
1039300496
2015626907
1344649651
526156766
228352850
1850131175
735707290
1192264809
1387626743
1967726864
1160664887
692830015
483153813
1174323792
1245976128
1353517098
11773917
1496622374
2129118453
1401942461
1238857198
1308154364
352617768
1974699155
1657871350
1863089753
1950288767
1818738806
722691135
1736507853
186719399
877847605
1906813759
1436660337
1214157787
1493138894
1930758798
1315606638
1121775826
58999557
44730884
183331584
1665560205
515289416
1971673871
1680229400
303145297
1551463947
2009864771
1893727422
17210573
1758961486
716708375
208292266
527082104
482186084
1143321696
1140977462
605771707
188797355
1719969243
602686820
1493337141
1367833206
169963204
476513539
2003523656
578854709
383827710
967662296
1826765560
482237248
933619255
829637734
1281892352
300069794
2126335992
1398289470
2145543953
70270866
616826111
955383336
30425225
1072666705
27604430
623971153
2137955620
461017596
1499909215
1509873254
1066640203
299776841
882771790
1175957693
178957802
421832251
1048910651
1279315132
341430836
1182234612
147512676
136025135
259649028
124535089
525694544
1542931257
556416703
1894489732
72424255
1042402552
1474854570
1631854784
2130956578
727254922
532056938
1947860190
503264838
1461526759
1685492871
201622622
1734956318
700799609
801559034
2127193454
1882553821
1465388391
264618245
1045279707
1967532374
1497823081
2017979537
693680186
395371319
1481690787
405289370
77367518
108870579
451485116
1216069092
1968335367
836223570
1470589014
1267867427
873526720
248645587
1516148535
97220673
260443391
296265918
1033743547
845989851
1004965487
933781368
293257454
1388045893
1426380835
1533746807
598296020
902563037
1713311561
256258700
1006408544
2072228526
999698488
1610771824
60275834
1569025076
937354888
739727219
1949018600
1422110819
1578970685
700606948
398753884
1655283655
1107016398
1215517156
281496339
1491149432
225454297
1344682502
1424027895
1927255515
1379726486
2070224046
1019703414
1887568806
1713519559
1187585639
97412128
555868214
365839605
1391783950
560975565
1923829684
197054459
2082552158
839528291
543028593
1566846502
880020105
1530191379
151079305
1240933149
1014781818
388738910
74807213
1402113017
122321134
301130058
1151976691
2084687998
1841215397
502550374
1713470917
366287554
1321655835
754380484
1347448134
1013733429
1482937019
1399951975
1714936437
1086980223
2003843785
995751819
1271729809
2023663512
1380000708
246487570
751985669
538858516
1012512324
1227739172
2112609404
827367702
1066069987
193376104
551042534
1387046217
687367605
2046572581
685226750
1068606505
2124090982
1659128454
879304450
1397589367
1543181424
1628955171
1839629868
620893604
1928966314
1766070943
1118476911
1994002066
1336151020
809466853
1267161703
56551256
69741080
463769126
460810114
266366045
203742132
1964160614
1729289226
8331264
78493847
1670797960
2037426617
143287019
1216094604
1037651385
1715306367
1927504891
367414168
450659394
1055996024
1664473164
508907830
505155794
1298911593
1509391409
1024675115
1461610298
1986193293
843012833
359300278
730851864
1781055113
1101389608
2116970833
640400947
846581461
931048166
1793596392
735241973
2013125563
1373452323
1895716440
55749388
179933699
2079670531
424858997
1266368484
1273867744
1787293674
1693293602
1850195692
286828874
1345247136
1164920135
1459118246
1930424884
1282782230
1210277259
740295182
1018538215
1171517938
1420543502
231075851
1355802109
1874263874
643702434
1524431865
1722452220
1391354910
294402092
1215354839
1766624878
1206559162
873500263
537574106
355069469
1868553166
1654114957
1240354094
609943843
1459439697
2051034491
1525668978
1904373939
487221161
944292336
885315583
1974119329
249234756
1470543538
1657771370
1703142780
1797980017
1987985699
1015503870
1988860865
580048874
731096876
2042476961
2093393207
627444732
1039143318
1277304608
500615003
124531878
521291285
1015333945
1179964654
2131095364
438594048
2038027097
1652053055
107908394
550489229
2015223519
322284988
720079997
946321443
1054645528
891019513
1591400454
1212435947
1832577873
240829564
1890635717
1816553300
314907662
1568328481
437721373
1956478982
711100828
1248809644
1870476991
1711843598
376402745
1741453756
1368123680
468419108
1159602464
34176455
1594644357
531643649
868241585
1859691180
1190395531
1594861168
1522133182
1723703134
1063676432
620247339
587068838
791385330
1335735411
384645239
1628892666
2073267437
130731797
2060898684
1893416539
1877770064
857641675
794576463
1880038836
392028263
88905818
184623063
1028958740
1842722891
1039718245
1147037738
1273711593
1265844188
966856909
401665199
199189349
349112137
1756560604
370509905
426458073
189375727
715146410
1575777797
493504540
1957292831
333529753
133999368
1138730876
292791849
855083337
630208714
1823535353
2105533223
2040608114
2145564440
1037453347
511688112
76416232
744142654
90225059
808629937
352794511
422001893
1691868819
1312395799
756758291
1740259811
244304241
261012788
1610483678
1085882192
1891121722
1607286165
225411190
1193066507
17177210
1049568892
1746422429
1851259680
1995981249
1833735984
1408150182
964785730
567837157
1480868339
1523847397
1335209864
716831527
790002076
716992709
1527566323
2044049496
769378224
1238393231
1495033257
566661962
127929247
1780156076
1327375904
574972165
927670187
125091783
1387575449
119957065
874514524
1065066860
1801947166
1601770211
589015527
478852227
311336386
1137379166
513541913
1505820514
2022146915
565141413
299435716
2001294745
1011625212
1170950351
1842856718
1261694963
1822747534
617143318
698441361
340970917
2018404200
783369230
262562710
1906957212
613196364
122628216
1314367917
35906790
935592280
1364877812
438158401
1432177608
1070686077
1364064152
1794636028
1064667314
972695612
132735512
2866450
251163520
1684895991
58595346
1485683907
353391419
661605429
172647169
906848576
1699853955
1315351283
1732410166
256642672
730993655
925362062
231271217
36204857
1935290853
804511641
2012691812
1850209931
1034245966
1925531255
372764513
1455837394
1186874286
111474494
1578282625
106215011
1730866990
1306414886
19651596
825335838
129504063
705466409
345528643
1954680637
836074060
1696221834
1942395986
448093068
1519655081
2020331332
1901988751
2025622081
532081796
1502456566
1939186353
134097798
1265083846
635447051
1755504240
353354046
339744518
1557714220
318894309
1935518894
880373034
1385373816
74989045
571123097
473051123
579397667
970071939
779073422
802949737
745284164
679276937
1690683621
889346734
188384521
842950243
128035047
1153075863
12859809
1516905355
1393272172
1412378508
2113836765
1125557411
1812945
550957924
1117512174
1743939949
1378018526
252199968
75569827
1064986688
1854666544
1320864866
701680718
1651690484
1555736939
1667740500
1584523308
346224269
190065222
2031723919
803317851
150326986
477680968
1105044648
1622112470
2118079426
