6400 43548797
1810210878
1318447965
1493727510
598364892
432919852
347320357
702696313
1219568376
597030639
89102673
518085785
328555698
1207901952
750953498
839022613
226324321
1528792432
1228999652
2103025285
468567354
1746731342
22766688
2030848834
1259945895
689918051
623950681
104333164
1609252676
699082821
1818936089
218502747
208941404
1555500509
1832715604
458089040
1837213138
1760228763
1992301680
1548095682
675999306
1788587134
186775111
1894143502
322651062
1815283588
1816403585
599417316
1292006579
1523965081
125898910
705109014
20257815
1178124824
191992287
524494829
1508204203
1203017574
346756213
654553411
1102918161
2110510538
613425395
614367270
574827166
510764911
2137770162
1055020419
907202883
998492343
489758847
1902546722
1458668231
1913139211
173523444
1007883246
1674106130
1574927863
1819170561
346130518
1924105670
1354577375
1478241025
351849103
2135552254
1951841726
1147848110
2086909597
636161659
752494233
693144820
2026123944
1073674435
1105050915
1033203577
1342407560
1583872865
152658249
1380619954
1763764392
714549398
123381454
2016289141
1600094332
659126201
960806356
1836311937
959738953
502426620
1988960839
1217149646
263613774
1040007728
663098692
1856097476
1785679875
254650155
1307040839
581399809
1318142244
1485370931
787073555
1542397425
2142237081
22085280
1037831820
425896920
859779738
968446695
999509884
278392958
2134364687
1696603798
1477904409
1712890983
392412926
1337164805
19116521
240609813
2079487317
764183415
1764865226
216717049
253145794
963143888
936517385
29853383
512651957
88719858
1028793858
1381119273
1226191377
795466997
1891003844
1044570186
1189641281
839110324
1883183624
1450308355
2139799373
1822556282
835036642
365459190
2118674353
1370965634
157647968
1252806359
1105020086
1399619316
704677988
291600601
317732134
1051440806
1146099082
1442404537
2038617
730978473
1851004780
780732935
1434261679
110093330
101761814
1551874803
1619268388
1973725688
1336679967
1712721269
278560964
20452350
538726370
2129625702
124681193
1883304607
2058860811
1629940579
1938235271
863916970
555209754
1176429922
445459417
195911605
836754852
1620007586
1206645231
1254408383
337134737
258542831
1737197715
677286180
300933739
2068326382
1803896866
496619741
785644416
1850661800
919834363
484205576
1911555880
2019622500
639487324
1040095659
256262220
1473885921
1927404188
529086730
246545633
687091441
341544975
1238309104
1229246276
205540767
1823190683
1355496750
1385131409
1184659691
2145323478
1171029226
612852232
1397580019
630652128
1108848988
702186517
2062340508
489957164
1875471219
195114872
1074302103
662990604
1986015910
1954575630
1416244300
1209356275
343427829
1282186003
1344343469
325807408
2019689143
1163789695
226968239
1988128559
358320570
1785228819
1536855122
789063374
1129795259
1069945899
706895011
991820447
1800922628
1669836374
1765532115
1511758476
1519024178
62529701
268769240
1333394395
308852449
1743978269
473948776
1941806600
206265598
961860526
1592143918
1049564879
1794519763
624701591
264774633
1480648228
2093391487
1810269962
1819101141
1747161841
1028503771
1703135355
345097917
1076432616
893315912
88329723
1756933883
897082092
733747090
1662028078
1701592269
1756537710
338183394
1506147415
1340419059
2009738327
2143934053
1356397125
116527796
242034121
447039919
1434300279
1830273844
153374719
1595505826
947843296
654554829
1650923377
870743031
2065126841
1401519967
1745220020
342350205
1849497264
1887715812
1114374383
854297114
82949813
1377122577
643367069
959335535
2068214491
1742225114
483686821
1663473324
417757949
96952107
607862471
744951046
2132275583
78017100
141045888
679575633
524596289
1341111953
790186416
1660121927
675015691
1566221129
953283420
1262823922
1836934546
339036793
1033609583
1042562774
83865849
1491755820
405124855
744669765
352455353
1126949915
551924191
887349170
211487616
2069615902
1845010317
1050610843
1188372733
1441538678
598137165
1006812675
1632226513
26113662
478873680
1092593623
1548529249
2133662561
796750322
2049278472
1809273428
549840547
478448575
1473927064
898026162
1986013767
824957019
1943362559
287051558
1584836498
2143423250
1046891262
1041245699
1632549098
337605821
2083671212
1642926960
349506721
1672853271
1907320249
138187322
12191517
1305068061
1455910008
1174246439
1487254569
1540953939
1292601213
263293423
1685910177
290150108
385954785
1110602706
349216235
2091979474
926012403
1403173168
196067317
1676733541
1774568513
451398068
1345702935
1340340077
462682915
423658718
1968038122
1795319644
363802206
849898088
843322092
434209357
211386665
1188598529
1172160018
1801707276
510114626
634875847
2060574938
2040326050
188548666
1747473157
1184529823
327722682
396899368
1137426541
1102579270
181983941
277581400
207717721
580897944
1211651048
1415064210
635279474
1924038120
1401263684
361089595
1314964287
1721214253
1285932993
1045446629
1155928273
434844852
1689314191
1977835080
2006320991
1735006362
1045968531
1128164819
229681101
906154312
931668873
708324155
1310668223
1416566174
2103848809
1663847891
350144649
1670085845
1860982230
1979422145
1049928450
1503801686
964863213
220684829
717050801
1459726939
1175986606
1173475086
839359823
1448636095
2086401142
378231935
797714115
963567403
349691125
460790783
11727784
1291323321
701296268
963536646
683123789
475167427
1909691646
19733934
299728455
1345467225
241164114
649030674
931413072
1498185361
460002812
629807469
1500423858
1379856190
883135891
1478909412
833352604
1376409160
1873015691
1472872665
62189395
1520092897
1506962213
1870036781
1013836836
620076980
1537839221
1136851274
1071545261
1187421351
2051755338
235055648
1787817312
186970725
1264526858
1763189931
967022777
1518956568
240960627
847485437
2110909358
873375993
1099156811
1783851105
1923302440
70526807
803339235
1220555072
206802968
327001842
1625851485
1885173459
1274131747
1499944619
20040238
937935621
1785446770
910697222
1329086513
2128172476
811131808
1893402731
1306507490
1544444534
1500654457
1380478317
2043797739
903980872
1875579184
1571325184
2110721262
2001404606
469419723
1712830629
1697926673
497545727
2089242577
815143692
320327212
1190661939
805527916
1560994193
1333556223
947251186
1517292329
65333051
188600203
160785217
261301911
1274099351
242568794
932229088
823365624
908106821
473544570
1640807106
2018256416
2064990430
834269135
1333669045
283546550
410078040
1708394212
588771675
1517215181
301959979
292129359
1210860786
472956290
1961831243
1339171450
881412784
802144209
1501260560
300775092
91892603
1680551264
1903714656
1836407167
1446361857
457096094
677234502
89210143
1688446846
1792083008
1938344245
1590423285
901852788
1356908054
797827502
850173127
1796103174
1507978390
1234418668
1213472878
1586286817
1744527600
2043682194
740267033
1660489879
529965496
2120210719
426847951
839341861
1454514986
332580995
1004562542
579663998
1099397098
1524944576
2050123302
882853234
2016821466
1895621270
1356574343
1506868023
1447355661
992682104
1491871166
467089525
501748480
1098835282
1936085485
1677655160
908199878
2058219552
807593897
704392388
1273667633
237341906
1786879402
951788574
330379305
1556006402
1028147556
66963345
1638474660
242130801
1513177994
967648790
1282565881
1969969203
13243283
1307090325
248419887
1298117936
1130587349
956009046
1647572543
929387293
2146648515
2055371756
355415387
1369374879
1844091248
891876619
765784491
1802248452
1629424323
1518907422
2015628244
491656759
1695152403
1725132440
2056895792
1975038627
448653423
403722010
1507359165
2049356930
1326653965
1557506894
1585616535
1844135633
229416941
1787330175
1728691168
643402856
144065002
55202778
966007880
771437103
56445257
1876868150
1371043033
380569798
195304805
301026525
1931597354
480815030
676485077
927278520
2068591525
577377960
1268914301
2121727763
564837617
401637516
996909597
706396378
245955829
225242423
1311784454
790470522
1863828197
67240902
1250257220
527811469
1790366254
85972369
1772177433
1246263068
699161335
590786272
1961452151
114285619
1574648327
1150939939
830777339
526985998
304677188
2072771907
1276230913
911505630
1390725193
881593225
969051651
1171195092
396346256
773795991
188623905
156307394
803775973
2070761057
2026500516
769145219
1367001098
1160452168
2119888350
457664430
1200757016
308944239
827365728
17117958
674551412
487053953
280613669
203546377
1566837972
328520845
1814373193
1299044080
1027858290
749517569
471681145
1510585494
1567398258
366514626
714279884
421056220
1119192324
305390560
815095039
2103398224
132811935
187563346
433633031
431280339
318612005
1742744931
766430135
324306448
1902440579
898765149
808417319
1832117991
2037830395
103081469
628359599
61401071
1471452488
1732174414
1004902737
1338554197
1008008371
1999608282
566241325
772277316
1820301181
1655072441
218784755
1808125020
382326188
7592882
73673452
1267315281
1437002008
1320107776
36448351
2145311832
2031840623
1186532415
1520287962
1356093879
1143331086
1404272245
1621640774
944509376
1986835591
824844924
476083278
1029782009
568564670
364999018
17642613
927945620
2037908728
1340568309
1878043237
1684189907
1995887194
1620993838
2014218380
1771801707
1803266399
714766591
709929898
1540131897
1188762485
2047572163
76218291
1662907193
530081243
2072747505
1694477211
1576943096
1176007275
785142204
723813885
547967714
1927413629
2075787508
562745545
177158230
1759316010
1324349188
132791950
721638087
832685186
74792857
326122788
314387302
1795717720
1843105946
2123664325
936623678
1917523069
1794719016
1221858708
2113687512
304710628
1519857587
299046705
83217511
916580229
445377467
176654849
1395240386
166558948
1692178524
1244453188
1252747562
1133729700
295506625
1809964468
316630531
1535238822
594020470
888283602
1093827577
1077946271
107485337
585854660
258668879
543678330
269156290
599826355
1446785207
1287211759
395823389
1633337040
1323667531
825873052
1845561543
1964599522
1321615172
1626238663
225189482
115571235
1139688520
820172989
252084102
1317601902
836121563
1682866532
1340213525
626491607
1233544768
1959285632
733043301
1356949662
2023143005
244988436
1448949616
1863970095
1854916439
1785033173
596374052
1862669955
542561104
1114153213
1968430579
1214520648
1030553878
987281285
426887467
801771277
1525367533
836605880
243040135
1406974539
1279507673
216237520
11424856
1130357623
972141050
1041391822
1207809230
1929429074
39910457
1708892861
1331544679
1960557735
1366690060
565192783
253752545
1390315159
524247270
1242481084
714065081
541549182
1853469903
389843627
1258380511
1034078056
800027881
1561856775
11294227
1976058803
501018212
1268260393
1137407973
158836839
1034023485
1655153759
647660493
1918336650
1613365952
221182442
1659570008
490062435
655624925
540817529
740898188
378267735
113416962
1213939262
281660024
593963246
681423118
1078886149
1010431126
66458950
1458504875
24747100
344606483
605844237
1210179372
2003748101
2100147350
1234067691
793737454
489676478
2051379392
1578353362
1814093755
1272214685
101948248
1203041764
204432715
1734701293
608899429
1471270194
204248417
2145361105
488229042
876860873
1731900338
1768810514
1273123040
1078780595
117359308
1074559491
331357915
1731387780
253039053
1072007608
1443806600
1514796691
1253135059
1423506905
894241214
944627981
861092209
1086313720
13988640
1183557498
462987399
958158446
1543784353
1451002732
22427858
1644694011
226821227
699614916
1715453670
357595104
1637855545
555519771
1317583355
1909699046
746537397
1135862177
688308550
1078829796
1066008738
736991492
1820216129
1340548934
251986291
842483695
568525591
100134238
1398512296
906976791
1668589375
2039225719
595847293
911545469
214003637
341756482
1545164335
2089918816
1874263122
1478109450
551956873
1981527391
1594542760
265196013
1689601040
1897283133
1046689053
1655785459
627340711
1382773795
214562809
1851001273
1884387106
2097491460
101793901
1134979296
1297708024
161709360
66339614
1529998300
1556401319
433230323
937187653
1377956865
1184356765
2141251571
710125658
46690317
266449944
651606536
625888980
1349538419
79825364
596623110
1251154871
1198445306
603911796
87567758
397200390
2139387458
1529079357
202246233
2095894884
2143215199
1749188494
577221285
1965596750
942433052
1619957297
35703978
939165152
2127720809
690889947
967726848
812582627
1517794568
565596040
1400578092
1445447056
1190332388
1441689141
894269252
1595731899
63973929
1183981131
1687628240
2084975893
1731937070
921394568
934332182
1939097113
474229015
1866312712
455158841
1841551655
615149946
169555650
1966233868
917715425
1803766129
752683316
1496616035
2063818404
791287330
2039957561
653305744
1038976814
101506183
453145550
1642781500
1448501894
1124430317
15905260
2134285143
977780199
51410039
1041637431
532470806
1008318977
928189060
1976774222
670405852
481593929
192965713
1799356634
1698008515
2054404643
433074860
139188792
1943106371
743701647
1926656112
508792356
1618424438
87326868
414093904
796523482
171875650
1259655481
705300119
1111330607
437409547
1649949297
450080367
384027691
1999767628
1161279667
2100892999
276029580
2007948183
1537961377
118124875
1092173324
652427569
674537388
746744894
1273445666
1527184248
34684836
1520874051
873907877
1981838218
1031927590
278023227
1006044746
364139786
787201698
1343929823
602547438
531919495
1706949604
459337595
1810303732
172945914
1344677966
1979637095
806955557
1868480582
817495838
631443668
1398231193
1935560372
1801532127
923459497
1749713391
1121818125
786935178
426538199
742251157
1755079480
1690391757
1937875075
1823504795
25816035
413686038
713322662
1524789913
1527425630
903810071
1821282548
515229856
1392869780
134102711
1827435272
1817997347
1616456217
1633232708
1645559541
1986812193
2105206166
555733027
974687066
1343390015
1176468364
260640040
1668472232
826150597
1945075086
644676354
1968829052
280785405
90690346
1624835167
1941032316
778014682
1026002584
340160826
1610322472
1902572597
1326188607
574389220
1101997002
1837435925
2073838680
21426304
1301319069
1928947720
157588833
810177174
1420964665
1146684928
2130950656
526289710
687130845
1723704329
935970879
1970872206
771101513
2134186513
1743454698
1515188003
1518301441
1382661266
1684437384
268270094
2141530406
1100793531
98708856
806334146
1072137387
170642469
1155360062
1271546237
969322109
452605026
951735544
2139457723
106584894
87538623
1916799544
1026745653
1302215245
1679621631
1029021665
707768101
1464085833
290916822
752335580
1756343521
670910717
435878068
1854491991
86511879
1749720284
704287606
1145087039
71565421
50774957
171113270
579975914
906731791
519650371
1464753095
1549195025
2131144606
1340377368
1171367610
1838706070
943955498
413145144
433017857
1735741084
457980511
418313343
1859661422
835459454
1731255114
115621160
115549057
1317468570
133372095
1556506253
352657358
92973521
163121112
1904361950
1525805021
1600766373
89260774
48156021
1985948318
404572409
2075522798
230870360
1703027771
975410204
1112029593
704457644
402778098
1569089602
835119107
2082545745
1406548617
359229593
1039125733
824648108
1269605380
1776404639
1946406583
1554226287
2123137724
1392003667
443672021
2072278087
1452483768
81166705
1276287675
1248218198
2126572159
2084593606
1836911789
263362107
233861590
496699835
1126072227
1859611594
1865467461
1608643142
987591299
1393176213
1574673797
1745567597
741424536
2099638300
1575000082
679245406
1706506359
1096196628
1323207774
189820816
1466853522
107089673
314824747
1699713926
81966955
562010700
1053736028
1788567165
716222633
919586873
1877392685
489565395
652920998
1470402123
560467515
812666727
1007233616
753626059
1335493471
608397294
841813398
355092957
1026133092
1694829771
715167197
983573333
1696642528
220837353
765212607
1195013572
2029270028
2016473189
310028243
19954034
1147139365
768858924
1587826861
1144332496
1860942804
1198451424
396054759
2018566609
1427161196
1355282101
1219559947
1486112202
421092522
1215400982
621676051
284442995
368295093
1261210384
987094514
1942050153
206608839
550046421
474941434
1145730627
881261847
1344767402
941139476
1432141106
1440090271
320556399
1368828876
2138103663
498977514
2047821637
652055724
997683103
810031195
1248719096
1367777964
2085938489
1278897573
569224115
1408607232
842951905
1682561690
738349535
213467617
944275687
948564738
1037373900
1976489579
1167608254
1232063185
2017694585
632474371
1489552682
1877079734
512189342
2084994667
1966389248
2079233820
591833234
1035252575
1861641570
1977641548
82779710
429754032
1804472134
2072766229
1834769059
1022553328
708853406
902651405
669669909
286177708
408736662
139535572
1681216201
850079022
717217379
1742653405
1659359831
2005338775
1862090383
830489750
353902807
161363511
1137183713
1862159351
1708518851
855628833
692504232
726305894
1487487974
1835736598
522538823
1402012857
1591985643
620448142
257271688
533290260
1086665251
1565300445
1368422849
532761184
915681171
211971642
1690724902
1337522363
1357668642
146290428
282275277
30047209
379765432
1292217649
1004760149
2004175873
1237404978
845136043
1545496262
952550910
339403333
1677654569
256141574
213431837
1880654272
1981049512
118686075
1887365880
1979761795
2117476527
576717018
161271667
1478140372
1846290319
939279188
1354501211
778861232
885460101
1234124945
425538355
1559785233
1409871406
163341201
614166732
1123481892
554307991
1510157076
459032217
229692004
1524760953
569053678
509889961
2023300987
318649273
573325211
283771092
2003362850
485439552
732299181
1549766265
1042071626
1456828201
1796473574
709669696
1440084837
467027511
1200842503
1932631148
1824500054
371392519
589858560
1200345499
1379503719
1849295374
563516319
1647716147
396929967
19638999
1928983255
1635563820
426740449
1472966589
2092329320
1985866891
1118741293
215483391
476711465
1871804934
831393074
675169875
632680055
1074692135
2029092657
835237857
617461338
2129239541
395809083
1570486725
1558106448
1619268666
1539656128
957141940
1786809760
1327820994
1304359329
645677549
1736307196
322257052
1651454067
1123683301
1718246322
1769490697
582840473
10461837
428992860
2008599413
590646237
1420232154
2046208225
1183076026
448446237
1349022648
1210814870
1085108555
507242304
1485282864
1241400056
929973292
38208857
1840867748
889228787
203664542
583010824
514536091
1193460898
1723518518
1407642277
1119132818
598725365
1242136000
118816181
152889398
605822470
1701493567
951164331
953995529
1765289436
890778553
201266999
820376717
444079123
1490668515
209771516
1360576401
1713425752
46412523
1675362075
1882318132
2118906101
2111798112
1848834551
1662540974
2077477199
246333120
1981659195
1578428399
1096268826
1437714081
75426775
547103094
766159506
1712963607
395815260
1752437438
639373778
1896477914
1071270995
421417611
1043133205
937266722
270377911
1485810523
56722341
1846239004
32597417
442386699
956343782
1298183772
1710550049
783249385
414328954
1567373503
858863929
1783478872
2047659902
1360118756
127353474
1634787069
340075507
1667258256
1860404960
1994391418
1649282273
1189284017
206039425
758611559
182202124
147192578
240965302
943414779
182261012
994599983
1677373310
1077880109
1108549625
1360303351
2075950771
567037785
1722236763
1295453269
1863120163
802177413
1302426032
1234014515
1421782290
515557721
1666780271
1470584085
374388511
1125524063
537775232
1714363867
102788673
910263739
972729952
521697410
468292799
1075265207
1330875937
552137500
672511671
342313590
1069453338
127295187
2105268303
122649920
1845121270
1871911677
72444163
1402614124
662822315
2009163338
1613594603
1785494818
2032104601
1160165857
1310678990
61665539
1149176976
760753020
519652321
1252777443
2079434208
1924716218
890270777
179708785
2125619915
1740853456
869507210
727418521
689858302
1555505629
448300697
475107121
1232109602
1831028517
1411505325
83619515
1253152442
417775103
1409189597
600010392
212788572
241177912
956502665
1166304785
149354824
698681355
2122218342
494778524
293501861
1857757183
736835420
172579888
678281279
720002885
310217329
2089248718
574103164
1935864501
269493141
1074047253
10359257
1703865471
2045771905
1480966957
786112925
1602815567
1093180043
1971311789
169906580
1565616986
353458715
1059563000
1713232384
1098484295
1073566538
1298161449
109570081
236974298
890128954
716359428
1404053048
1966418988
1162608457
462817437
1633438595
757249170
893436758
829620674
875558249
554491735
1937527701
1525356933
186189490
1644746878
2071854761
860593615
1330630689
817866123
2141655071
1194764883
781975905
219623420
1207338266
1554683497
1219452969
1939494572
1248790580
145812367
1099385131
1316555022
1562916400
2099110757
2011559937
572090564
19671530
2095672870
269785098
592638952
677531881
1305133236
2017401814
797751218
2145945338
1239378626
81452462
219646560
861633298
1682372063
1084819520
1815956934
1286560669
129764002
218482303
1469987127
1197066722
777265023
878001095
479538045
615389035
1840164536
427770950
846988860
1248643462
1929180419
1015741804
1237913361
866608539
241907731
1569396219
1914591821
2134476115
1972671356
472638882
813972751
775435139
1355436099
190074625
1831323646
1876463557
1998045908
1298818563
1377192043
661568217
1896591552
1861017880
177132534
1816529550
1919958985
1513246990
1285741016
439584545
2000317247
1748967932
889109805
618901083
270140185
1069769353
1054046218
1057259532
791884122
1685148953
133842120
160223940
1839892821
234735425
462114968
1719791551
1322032353
389755643
725644739
901543739
1975131009
316712338
1914502742
827165715
379680773
1420652799
1895001472
1380272474
615454463
45786119
1333940917
498826599
1509754037
199969298
1795236681
1964748463
921384033
764179302
2098601273
64317373
2053719349
55969224
1280192700
665963376
1557844349
1914524869
22016827
942633403
56574944
380272962
170039618
1550158597
828782416
1061266138
1728182448
772754829
848911192
1469101712
1381536510
998287449
1329914796
332617956
1872275282
291848272
1502051847
287130824
181226858
1347073192
28495966
232561715
1960613670
1897343589
610631361
1321531462
781433569
1051533604
755481307
963920421
1589003827
840797998
1936939107
658657907
2104055649
1240024522
732982563
1875663370
829677744
603102498
315586019
736956924
300740944
350251389
2081031541
921875396
1494288635
785593873
1030945376
2097396310
320303348
611175061
1000291792
851667170
1979752307
877786790
2010122516
593960074
1433837772
1280484983
206025867
1468883854
267946683
1522286263
1855065454
1883758183
1621751173
1328824674
531182649
787015500
859799402
466696558
637534919
1128661783
1839289849
439086903
1167784754
524294358
486328455
256566482
1719713022
931295911
303948506
610867813
2045445172
1183417796
990514936
163125855
1925263216
1478656679
1844756308
459623684
235228667
414493988
1673994657
1211012669
872199712
482704710
1318312072
606746651
721232772
306743017
1248837149
20971541
686251323
241969720
1565044147
438942543
142107643
1874070534
1416845126
1406464641
62531752
357717555
214505542
1411903042
1425853031
2043723544
340713165
743113614
65100978
272259806
444470193
397879121
1813984772
404173596
1315474543
1483394006
936166851
1974118234
403735994
63308745
387248765
2030408918
208512403
581889913
1935802445
1604142996
297272801
1522495574
874970908
1094201786
1672627804
1834821011
1737539786
35744953
97232462
884781202
1099388848
1370751154
856893525
1710309497
1737038886
762246446
34913033
1112106844
1745370100
1440950641
1020881904
156906941
135515972
468448376
1533256195
1748606684
1110800361
1774423343
555769665
1367942550
1703708441
1822702320
333876112
487706603
1011854223
1221021132
1564296887
80896965
2097031300
1253236360
616710697
276884193
162108216
367482590
346629275
1067482972
618731799
1646117337
2137846374
1164730191
1273450203
1835525231
132940129
1895385572
1375438309
1654856956
994767539
1728979747
681552700
282004489
1041052724
575987845
1961077938
1895367884
67996647
1101315231
702507136
495797394
83765658
54965131
1554260721
117371811
2102640917
1731545073
1712227301
1591209366
227617899
1366855195
721559112
1667322086
1879906034
685736250
196574658
1798690803
124431882
1433902752
115719371
1227815139
907959515
759417640
229679921
1581108672
1098354020
1288928930
1499745354
1877001534
2026402793
209401900
1277646132
520559119
1935990788
974076615
32281351
609424508
1985025987
2049020286
923619585
1137447228
1956231548
853826285
236263183
993088140
594388441
636575513
107476968
1128175722
1160966849
1700260329
562849506
357793918
485483909
460452041
1157732153
1141812801
1837167692
740392426
1521180947
378387479
2117390590
154625285
167555232
2065887845
1485273964
719601605
539589646
259115209
1356159941
2016719284
1573470628
688074165
1845453890
179958809
1685261966
981636814
1780038676
463448898
1727794251
1727322558
1348104435
261095951
186750868
223988625
715895296
31919654
461889129
340371901
1128862131
1591114861
1024853519
1044335017
890392517
255493438
1389943265
1415582171
1598172344
1879124129
397738256
2125641970
1332068872
1243919010
894549258
768986933
1452074592
1062897545
1136996339
191303157
1154258661
582432759
631974459
2070704169
810314133
2074664212
544178628
1378882239
993527627
2093530469
1622470578
2132794440
2114825938
119879768
1323398754
241299039
300072417
1707408079
804868159
133094494
811025609
1145338709
185689412
1545776369
2098307001
2123284135
734153260
987079122
1320884426
1188193124
1579468289
1663944662
865506152
1106507524
687923363
796544944
2011839929
568234285
1459124435
1502195128
580209293
1882437819
261513826
822837759
776647850
721129432
357240148
1051675086
1007290445
135677929
1971303063
332453362
361706814
726654506
336137126
1336118512
345139665
1444356050
2070057037
804090298
1708192940
385414665
1060846694
1417868517
620244674
1109457571
117235415
836013188
2024500886
54547532
35057546
134157487
603848944
609999408
401993137
284161843
1960455355
874676472
430982611
2035162175
216939503
160239274
328319059
486056713
1020825300
967317308
416184216
1762418971
124499391
1871265791
63329919
847325972
1694733079
898682202
694296013
1099949313
84182564
574125352
1714615247
1194482415
364748078
30440621
941455693
1798168571
151441292
28056542
1199138919
507099099
1578385361
274606549
1454291682
1559381558
790070843
432476480
125392986
359270305
459801310
2094337146
1092373512
1783189872
621492299
334997926
1122862009
462281196
982920477
1751619432
314774918
1847265436
1820382851
730052724
2129333921
7081671
925141754
1487175799
1467402520
332973955
1488878447
1827051500
1388497381
1862164472
1559181057
1905117347
1162094610
519882593
1565537272
683749840
1824815613
39446510
1893229160
58836058
190139395
830187103
1642645203
584844999
1852055350
97102463
83500012
91628143
1115156176
833089434
1879342361
633026229
1010908844
278600807
1557797007
872740280
734376484
268936069
785246714
1128564889
2123376976
1310501845
1713339305
768326556
166619194
1302052886
1103409815
720859753
778388510
1649297348
1783275145
94135428
27548359
1125762951
1051088473
506929518
744640571
2076436663
1039063218
1660968111
229282949
1234651619
253294305
723943945
2101719804
1127880659
1374570388
1770885774
855975824
86469687
848830426
1989560257
1759231412
2036103061
725063364
1066238093
1103853151
837447764
1965264610
2105865529
1473377822
859720627
1703266454
745943961
253524871
1947155849
1328544782
1454433227
1827429820
1174733038
94502009
1739936796
884281848
1262938135
1129963813
482102471
1981594227
306492677
2141665487
1347235167
44579924
1781152130
777667216
1231245278
1912331833
2140061480
1976054158
1707324885
1874423234
1376860236
498955874
1782840369
103083746
414332768
1410797917
2061735797
1960366419
870101051
1641803031
934828039
1660071674
1496219410
231686253
986658499
1614910007
909228556
798292247
910321880
824099958
1549256825
1621175676
954579912
1287267265
1638351788
1179359007
722090688
1170407892
1051565831
578819347
1677334923
158763417
325425203
782579175
1273883050
2034019785
568553330
1047644718
1432098365
1595711268
1991763932
1183481444
866363434
493996763
1679495032
618692009
338907883
1047158868
638570453
1860836263
1114490930
804806654
986793460
334399162
95179846
83767523
872080038
1337819812
870367924
77578229
33313563
1011624572
1652001219
616637667
2089431066
1188018902
1379614645
1155256772
802977726
1729061925
706369041
443762777
1068223588
902178147
1339039330
1083332812
2113830455
1628286326
747771599
1071245202
620124589
65750544
1862434140
751451169
2012234201
272090549
1657351423
638572262
1768328930
1211861583
1096008148
213700476
1076311878
930577102
1851655336
1148697305
395231224
808718818
1711513721
566827549
2073621564
227504226
960240909
1758482415
1253598758
1474524907
1354900733
1590239156
1954920229
1803348128
1300697157
1961538278
494381009
1740412245
1089714746
2068391983
620032062
1994099599
509058033
377661654
70312029
1823167280
839332413
1663108993
2036582461
1288384304
432711796
1169745525
1947215911
2129356972
761122286
1592747447
1009101132
1373085699
2095206766
1991203057
1458756905
1814112349
105203126
1912014533
972474053
1801611401
28896691
180841910
1824729659
959727270
679727329
165548842
1346413850
118397265
545658698
771906000
1522896631
1886167615
1106652654
1020223320
898670981
1957597422
1005957905
1828938471
1230530722
1347488750
801090119
1920840658
1824553716
926139469
827390242
1882465954
279280004
264769185
931932902
1955140920
1934678256
287344199
1694072094
1753932510
348483819
200980275
895759254
46533680
1534448771
821809211
62272784
1517468939
299201299
1417239798
110292781
669445634
576028591
38209781
1364361898
324406138
947823030
706898183
438187969
721888148
855141752
1198902804
2098150035
910859320
460301181
625680113
793812677
446198261
644626968
1097317104
342207635
1818230122
239610927
1470784525
1792373871
221397641
1905791725
1222914355
1285335936
1695532418
913736898
1585809455
182898709
1422060197
1363361423
1587028071
2075104636
1934613293
780604236
2040466705
588093599
10679322
1691198634
1444269750
956783539
868662456
1013310234
1533505135
1744014145
722101337
135943650
1616289702
1048939044
1218562250
991046719
116386431
868697443
778568959
489428027
1514069381
1113673901
1468892841
2017713195
807356711
196233935
2132454511
368302733
1671659651
576096656
374336784
1719868841
849913069
249630312
101483635
785474798
1666316051
1487323799
1384426241
607248470
1413755449
1469905586
2024821555
1782954188
1016720783
1399604288
16478228
2013749495
648677202
1995995354
1256243994
2119675016
450434682
1723800267
20460359
58569073
2110711023
1401747789
1998695037
69889922
1468592750
841751838
1637186636
196165867
249757213
1405811662
2042844134
1514541691
525244567
1912468806
277392060
1496474518
1821556561
1549539082
2070398492
1242697452
445414837
1423452358
126369295
1330174627
889821143
1259798735
1198132139
553766926
2113289416
237248476
471080599
2066308255
1714864324
923112949
1252490189
234043837
128343847
2110795291
1130357738
2073894169
1825834330
1576854212
1999307132
859779345
221652002
1709218355
891231854
1100698804
581864164
1212623467
154821565
2113676374
1599555912
1179821543
2046008899
1247070529
280074530
1256189773
1246072306
1928499935
1735381472
399611409
301841341
322000359
1764975014
818018985
238540725
1103336782
62377953
1035844302
958291
675246702
1325647888
1942447469
1202408495
247555339
1180248832
671446871
637307296
1301658631
498936410
228302608
796783480
66708749
1544644982
1028671915
2123963288
1680244036
131541146
155154054
474552580
1509108023
2127918795
1174131585
1640603086
1250243931
2130406566
496968101
1178244354
681180735
2029481413
812310852
524372351
438182137
2065462105
968508872
1406145380
1893888702
1565417064
656831156
1549635456
1096794552
1422807669
182320915
737434690
1872387424
954210109
290505313
1101291856
458647147
123831023
628156602
704551987
1777198856
579660996
904547937
610564119
1161409338
1329571634
416359735
1880337192
1142821103
759005636
1516822458
2029493615
309078231
956978183
1455711787
879318582
1391017412
1628606270
1428197992
2049372917
527216061
1442568307
1996092542
99329437
2015738181
1485767
738123286
305216085
607786246
1779041648
2132719550
616834639
990789788
2062685355
2014813347
838016373
1185458011
139130375
2013478663
725823785
750815573
438334753
1719931945
1655797348
1294576170
840685491
945014915
1672164215
158190247
2666112
1326710014
2131072818
847570976
763998612
1835157870
1197340221
649938186
1230413912
2035321559
527143402
990132519
1736191318
176322016
1139533469
1608567250
762769387
1213297829
1727168810
1267796523
1445093010
1735903658
42294838
1339769711
672452914
635698356
2089733993
1665393979
1881246485
1987415868
239987337
1249459574
1270468061
629405679
495877947
937818438
1829106381
439412748
1443992918
612068538
78614009
2007422647
1437561668
367305496
594909101
1149556074
635186241
2071148302
801349472
1708698746
156743279
1144452007
2040858074
640171794
1425181000
1305557911
160251552
808138630
510641089
1286945219
2089687944
1475738641
78502549
1403378219
448077300
1148643778
811519561
694323495
1382601030
105306810
1824057869
680770659
1707027855
1743646748
1537804654
1999127223
1558577542
1188931618
1362060874
2004114535
987128936
193018379
1303375943
1854118919
2141991112
1642412365
1595877809
2016316893
907708149
597132022
1695846005
44378238
529946160
1988129094
1273725584
809436460
217051154
2073450656
1329317785
662855689
255107640
57428775
873626552
108191788
1859213502
498935002
796172144
1599678525
1024411672
2083774620
1439966222
1515466213
1579393022
131216308
2084602320
1344625488
405488865
863400594
1681643078
1875408435
93033231
86097077
1597868734
1099452644
1062283236
46100775
1326154148
526467676
776320328
642706085
70438442
60974531
798350010
946897834
2080960802
1541317704
469764106
1870062382
1673437312
1600029642
1185245311
1950191723
237835329
1029947300
850776893
1965412207
908516872
1353689511
223332097
985318633
1999980153
1658671377
1796041750
1084089146
1523266403
1799385997
1591189042
679255472
806786820
437925329
968359641
1945134526
549020946
1779737286
562237361
1296690786
349376983
1595274460
777213228
1181268300
2095290303
178038144
1693351852
1474292286
3212929
1660241403
776838947
298410857
1517852795
1941643057
1520524355
1523067522
1674858813
1798609486
1347107656
1222317158
1373512678
154955897
1030022612
314620190
960078278
2038997971
2089713084
1338880049
852307857
742407932
1541207691
926291329
1209255064
1290853827
383875270
1324045640
1846554745
152370585
451070747
2102345633
1586162084
1820071128
377603399
941450705
191062989
855995395
1679936019
369868216
937291179
205450753
277760476
1472433825
2012682108
1855473570
360074273
267625802
1843765508
1023176806
1500971777
1767690245
437514424
717324947
630088803
618242849
1912213658
1996524418
32427074
1216513331
912340333
1233525748
1380755365
472843060
700042448
816619599
333391440
1991601317
1397560173
2022801510
1298986301
174700623
1815294707
1362495675
333316249
1316794311
1729554638
2050824566
2079014485
1442604162
1005564909
1880530900
1806008376
1549200223
1023118213
1602868655
2091666982
174088538
979442922
1907313123
34457787
1979529042
503550434
1401663713
1256755858
565298896
1899028274
832339076
1695073209
1215835703
1777572461
952581210
1893262062
224228492
770791512
188532227
169863376
898037280
1826526038
2030118330
1596279090
1717639454
1286674828
820598280
1240729101
2027440280
1574568770
134201459
496355630
1302149671
1844457717
1650492750
1530857258
764770706
324292925
968789172
696592634
616119474
880242673
853695960
836222552
1824489595
428674003
747880429
1989523580
1746496645
1200731308
796861051
1178053538
1558052850
2007970324
667405524
640162359
308741313
1982279984
1444403016
1778566564
729828743
269318957
1864297195
705956465
304756691
2000335749
1838205373
1846624449
152074762
671129156
735354662
656615361
2046179059
1682501137
1874204692
2122012525
1601722757
1139251919
730415944
198032085
866597475
705281883
1431452106
958861895
471370479
600440866
1436651192
1874427471
523405855
1276344741
888571811
592973947
93421677
1293694469
1469586777
1887069964
629703812
2011180023
1156956994
1119964836
903776059
774227020
683735194
1612016716
1745397635
62187729
1896914828
1050210305
1900203943
126458471
637476512
969232141
1426561092
367726431
1414809753
221119941
847803800
1752193231
636226442
1904304798
166144721
1360761443
128641882
1384142680
1695647561
701798212
99696554
1388729418
188770878
28066116
1436433928
878324246
1698369231
1970351681
1356056810
1126233005
2074058986
1765740358
63703134
141298016
2140281087
80838170
1060227623
1559951976
424829039
1686330319
42773123
1625984836
1197129173
1694742280
1920074650
1999230043
1808238925
1206467167
1934337622
472787812
1021913210
728572385
1789221415
1304389428
687952702
1874246311
370288208
1003809764
1548525403
675309453
1473929343
547150598
2073646362
536817797
1321436826
1743144103
1288473476
1125505178
123919829
1011311128
1909886148
1895594955
311155688
578344958
163021296
1311094277
1300977361
25100398
2119526277
608850087
771783856
1348091423
2097433086
1017411888
1816433934
538399953
314689898
1602453307
1953663001
1530449249
608495220
1220614921
390016878
1502764902
2099451359
1757494188
150171229
1372545750
2020318561
902126889
1442386375
1073564397
1345992579
561800832
294353166
177416381
1893859286
2060980474
607978879
93271129
1064413103
475059299
1159877325
1835229194
443675077
1122066427
1368668197
294253122
1994356513
1243780624
1687785335
683354078
1518383780
1309742071
1076479419
786226658
400119294
1529167841
1335440322
920995077
387704023
1636228852
1134575193
1225366124
580557514
272970579
93208000
934406900
475567558
295477920
5844859
1271586024
897338357
1500701921
56306868
1127121622
931415619
1397930388
1269738468
1509766381
708781686
1028662836
238717091
2044687384
547877386
1633566089
765383565
810144723
971482870
650079337
475228944
922479720
1792874467
559501576
1147755346
672355693
1873547428
1423251651
729810529
1764468637
1408549375
1435854506
1788810525
1864664908
1400141394
1235927337
1992699518
910604086
1810926959
135235830
539195455
681652630
1416413583
882145054
453107619
781667173
751678079
990290592
1453336861
1270406702
472431410
1949831216
1531037785
1948088887
992087223
196331168
1642758383
882614560
316281675
1829138053
1431686938
1515522007
671818339
329545699
1826297490
2083578071
2098751725
278317139
386898978
587017883
753872231
1966535017
1930904954
1259347343
1002132054
308539233
615850190
476210920
2039489130
532180650
1615640185
2084289038
1447453913
1718327934
556081047
95039330
1290844522
2007331522
358541188
69059262
409418995
1177529228
1747825567
1033950419
831223123
797708665
872854469
809940582
721782276
412711278
194304490
1619606012
1432071262
1041249851
828627782
1953385986
828703526
960435885
1129510915
426680244
372805590
2106715276
1342213034
422986901
316249579
998939174
25126113
192441636
2063741954
569747653
1103554284
1093607227
965560163
1715693275
2054090894
1472198567
1914738878
1359908480
1382583546
1486812464
785928154
1140421545
293891088
1680362086
1305784405
1244314127
448275009
613038072
497753607
1154651088
993210811
666365682
383477962
692160411
1567938811
1165916911
1670013094
238665382
78884016
1626649768
1843573494
1917049720
1309144966
580860904
2023558455
888166271
300540381
985758091
1414564566
823028278
565469782
1366600288
390883349
1040283176
33420944
71168297
1423703953
444465248
1807229575
788295817
737545521
1662463491
1260829070
1076391343
611859326
992332488
1692397146
2122087005
892335925
917624593
1042688745
1883350807
1947306981
1613209148
1594667345
43498935
1562282045
1690391788
33031024
556958618
1268541832
112082862
1160451043
623182646
878481750
1814061079
2016558438
1534320506
1727430662
1049209893
672990182
1648864507
385178263
1299303522
446143517
1035490616
756659680
208494895
2031434764
1263173551
1676716958
1272959581
39596978
626525504
2048996717
2018550776
837078100
364669416
1341182609
2084394506
1771827669
1765695162
346059585
342936042
1270522308
1263488137
996322633
2131308665
394470679
1272571420
1187788772
1769308330
81071794
1324925507
348106870
1641248259
1202259260
1754136143
871736942
1412896312
363156024
198502486
1868689381
1149550488
1025260297
19312822
584533323
27705316
367337711
1112221060
392832643
2131194368
1369532618
802059355
355731000
1431888951
1914580016
133493635
188202612
601032328
1906553181
570816099
625495402
657547549
1914940145
784770442
1660082421
1540968959
358039829
555606656
1099758358
1689375886
1895686386
1744449838
1319654989
945147396
1737348428
1286777424
2135716327
1114236237
113747697
389805527
1937235460
922673141
1790788745
195710275
1552523268
1242139027
83751761
1788446088
273934025
1427710282
213386882
1479811444
1773733541
831868979
1170301160
1806855175
1926479393
770484159
966245344
726309536
1942733310
138192820
1854519383
1588262767
1687654661
1092373733
509195935
1815548725
1728876870
1699882769
1724610266
1667301333
1505653604
492762887
1806532991
1754764026
1129242456
1709561176
1661949712
1835184009
1223583824
1276829681
158689467
2036766842
435145143
1702981966
83613830
1193757394
896428607
2053299691
1266221491
428138517
774449429
2122758825
818989154
1963587672
332558876
2077600554
1472836257
1380265097
1882626399
2125445239
1490339940
1820756140
1371111589
1675570779
257506115
41553494
734822881
472973910
523556743
876101247
1763550568
299614648
1765948432
612740210
1650531486
1476265905
1322637863
555390732
129369876
748518384
1363328685
1475054536
1774681763
430921877
1268261273
93065456
1927998365
701724676
971554346
316954473
127705250
831188112
982316017
1184036218
1893449674
500374763
854634082
7579784
1644586549
221146061
1117656378
1810112511
519512060
809723246
1951794318
796905104
1044686227
190543442
1713851863
1596704164
1050992425
841623804
1855307505
1466668786
630468850
2070277235
369226679
790117960
545394649
1910203047
279112936
380769546
686021916
1959016037
1048736160
1252444998
1991183170
155875869
336410313
805595868
467372521
1396804852
786943994
1228038323
1991211575
54364814
1071212186
1785303035
1068837568
1146241112
1539128222
1942252558
1398561899
1407364078
848031402
1491081869
1986514414
1913258385
481136356
1680317866
929566888
1095186961
1675981580
1845626499
916759726
2016684363
642308467
775729005
150232290
2016484518
785469655
1613397565
421923720
1879965896
540796878
672214489
1589278281
702156817
1409689071
43885004
2010157639
2133002476
1484376975
87572283
793053459
789376012
98064846
1479692228
925238202
1976255217
869753746
434465806
1656504425
1294265682
767468737
1140714721
1921674656
701200448
479781811
977889004
264490746
1500445717
1007196224
1552034747
1675307319
1503101537
1332829443
1253102765
1273689676
393016570
1917265675
98358535
2128077394
79074051
125060589
887428184
405704472
1316679838
954674357
393842682
1490919555
1170832334
695796099
391054990
302846264
861309870
813561377
1908779387
359910954
1521677961
795895872
576444117
833395592
1644703613
1330104717
140893347
808140964
660729132
875319244
950256216
2106784855
1152276633
2069392856
91101973
474955974
532529680
538514117
106094687
1013954733
1672142962
838710094
1243304940
1390973538
624203570
392763672
1683221108
1299715346
1001538641
1825831804
831470873
127040598
74159878
1781686123
2075984979
1876237532
1446833587
353157259
437131799
1554108532
1603353622
1727922236
1040090054
1638115988
14318050
1969692261
1497269460
253621248
1909561583
273267265
1716762754
1594257409
535233229
995776960
1609250051
856418178
946643025
1434155587
1492497604
701103624
958555708
938633345
1908853045
948653588
770600222
264692084
1418728585
1645923544
1923714539
819886495
1974570259
306542181
1678346808
595906135
175621674
416105220
1657911333
842104101
50414423
1974362684
1754479301
1182590137
1378079242
599244587
761642742
1901374580
1883958345
1301794287
35766821
195106124
1281893032
1553899146
180707473
1907102161
1211010710
395721177
1892461439
1958422033
1794264230
322061731
1969653638
997003427
681901817
79163595
2140082826
1787574845
1887983299
446638047
1513656949
354872823
827303905
1443762435
1389095634
467556817
512328217
2066731096
1214880704
1350391561
1162498795
226989043
7620605
1678244397
1680937304
1887496330
1024311947
1519708986
83816098
731796919
508536258
2036434372
68882873
2093433240
1193832862
1622262283
75192449
1381375452
317075589
1143792685
1149969073
2041043825
1620551629
2038953201
1657349058
1175299902
361565192
1584333337
1593130352
790752653
2019639426
1673405957
113730013
1688315753
1779735754
1564170541
55082424
420146688
1256340283
170002652
1711696480
1264703371
77123315
603027593
1669064905
597465748
1147142909
504293813
1512416021
72874860
1643339523
569150525
1541224163
1200947113
1249621862
948319837
691226561
861989492
22028748
2066015581
1822529926
241729761
1762096238
309986685
93205098
1536661173
191056863
1011057224
1496876255
654696819
2126354834
80322287
1774822149
1972508081
1405204999
1520932477
1642100523
1403800295
643437286
544211927
1427310554
787523547
14367093
1625166441
738050181
424892060
949330034
1331983921
211404091
1270792433
1192677146
1208691702
229854048
958731439
1669537405
246219132
645463437
1109790660
1133576235
516285879
289236058
478811279
1942932715
1914896826
1118001539
1223919163
586947129
1038456775
613319166
2085055671
207591603
1114221698
1985007568
829317412
1629649549
1807841031
162401533
724484748
685400604
630626526
242117929
83964147
227202811
1851923944
1012475985
216027875
1736918451
1661748721
1838161037
2134171852
566133994
757404561
560298231
1629419938
924378214
1929815312
1776578335
478002989
363971211
575820897
1952837132
741751239
617982799
710516742
799695888
375031171
2127429065
2099501628
135366943
619857278
665000758
1927389716
1286156464
1162174620
639507607
1958683493
233579787
816448950
1685262685
556146510
690620521
16185356
572310865
1822473209
967917526
366682852
143855361
397286701
1391715577
930838225
547661395
721011925
889241831
769133729
1985839559
143047259
516509153
328831750
763543056
25132002
2009973253
2114453899
550308618
1165735461
1156063507
722179542
1646961462
1764541593
974083846
1094260530
309446787
797047169
1024154210
1292526444
185388105
829796122
1395873327
159662715
1011391495
1976835649
1047452717
699040544
1863243886
57475294
2077433675
1128488814
1223979890
1967191961
1750414939
713762767
94754462
425442380
103441653
26818822
1356435698
673978715
932147023
1968649970
135433644
726313340
1104147271
487297435
1805308537
935354565
226937748
815288630
1782564146
821943545
1597012230
1286548051
997784182
1590983820
759731628
1130093184
1740803135
971128972
1196117681
40225785
789837684
1862366199
856942200
1747583506
1903985248
997006241
2083602203
1924025822
1443769250
1751854980
719940739
198101499
1751129981
1450023474
918900505
1350999744
1158788641
884670795
178074903
276107077
836172528
869291432
373261741
1709165728
632797566
902573038
1944744686
764646083
1380586667
961862741
1441903618
1361317006
785491120
2022337389
1124681599
1160511429
1514937553
1991588334
500055400
1347338841
1637120681
2088926492
239503868
651949316
317045608
1270841099
573628251
571902265
136714918
547661564
1528664035
1497369642
1971574963
1742817641
1734965533
631847869
302811191
1706639502
1834218714
573104689
470279438
1671777327
495506551
24771376
184496706
1460091455
882336357
639770414
1970938075
1419958092
686779682
966867010
144325869
162309612
2099075210
399212110
735962320
1549754354
203307279
1045347014
192137076
1126776335
667219267
260298161
1202186683
1386350702
122253393
449685877
1880307117
2006642344
1312472203
1139154681
1029083205
1270425679
1647138076
228233768
743077822
1881955510
1469997198
2073591392
833366407
1529992168
1956969284
1913352748
896618877
171273821
573213089
820857830
1628126934
327247166
579015129
67747260
201499427
529388221
106864200
2144737809
913627377
1663107757
523020491
643721184
152809777
1217497692
405441312
380157678
1051249077
261826702
1836448482
1947200393
710765499
1213689531
714902235
37116806
1139274292
789262327
809579822
89281025
951039900
328841802
982576690
1303667704
2128120895
546231985
6241885
1888042003
1181136219
47223050
82043946
251111269
1762423223
606718062
473071452
802941337
558500263
1610516393
749027832
394352769
1571382308
1385899388
1704176501
870007156
1962812833
548351068
1976453781
584979647
1421039060
1436879691
1115195335
196729320
2052034116
1017613835
955873130
2060905602
628666545
1631984856
350008299
731250697
803218644
835241215
1419526160
703884260
1554030328
241502643
510423329
2035662884
951479918
1705278164
4383221
1960026544
1381716747
1466832602
1148283766
1754590726
489610372
893612505
105785525
1926047713
1295273872
392341118
1216446534
237317092
1255085248
597560746
145962617
1047407568
503754475
198885276
711952306
866120633
1333475524
927390480
356338368
1447261589
1100180449
2054723215
134093715
327851582
1821191776
935794669
1842449470
1719038138
876194150
978195700
1859412006
109865809
1045292930
455949145
154455704
1404842892
1146157720
28598577
892652484
171346486
1414572576
340622658
1892899923
1476581
1336257077
2031445776
234221239
702423345
925915285
1379163904
1074445809
1642525332
2023162785
858218316
742210425
1913148777
2016327910
558576390
695566841
634633072
2136447602
1260017613
1803275984
921195413
120962478
1051632838
112788762
872347024
198152663
154647493
271398731
376395551
733662623
1312243946
391461435
286230275
1419830668
242473843
1440235034
1047442073
486804255
62127411
855011889
864825613
802009462
661746658
517058053
525064244
1448058089
802603115
1405690940
101226589
964720914
125253550
977345605
1405509807
1667036736
22211253
2102375803
1856261140
1568043184
1272403572
1424470055
642782292
30940686
1789779168
607797543
1415302950
797688921
1212744909
1227418368
1014428217
338098031
1027703205
1539334374
984325947
535420988
1018430611
584413304
283195538
35162549
703648779
754775092
738540877
928495766
888024253
1261948401
73100574
1140213837
2014210252
483125446
1268135250
673976871
1927999795
1910719355
1853383769
1953979077
1660220738
78250619
115418720
543279475
1675422531
1724156580
910379506
1712710898
785504369
51815203
2141768465
1766726408
1086939512
972333008
461613235
1481002590
622961211
1744278284
1722613886
24701972
453889728
365791435
2031317695
152079080
1230936899
561956937
532270922
2098663755
894921785
1740709409
1757874461
2139841280
912346667
1309814563
663253788
430348257
697087750
208785938
1365722092
196721294
888344021
934638138
1408393896
288165194
2083060355
1401780535
121469617
407493071
1007845068
494256606
653678622
1503119004
1569314367
1340740125
1202817998
179746124
728374930
1331141866
219109417
482224496
2041497458
140807574
2021254338
239809952
813222809
1095145566
2136849196
1434841940
1458221131
1040291430
853379690
1183285108
1726762433
1502029566
572666966
514425333
1678204931
466639302
1132994733
90717025
1689116200
1596613034
403364387
1604328264
1985682235
1158631099
1735389762
1108336264
35696226
218353684
1657941526
606614885
407905117
1444085381
776862101
743567859
1326608834
1839279908
1236280515
183746132
685653753
208587965
187164547
1503681202
1155392695
1153710730
1578970637
1475765298
1819689525
1793048226
996945112
668639799
1715426388
1792963519
1466383581
1456856443
1340052898
1299792900
1293942919
310328769
492513074
521071253
496553764
1509699713
1032306600
43253380
748644762
1455347468
1215718629
1948386525
2083649067
1120664613
96725838
486443553
1114588513
1659999128
98647620
487802448
355687942
527875866
2055500020
1408255248
1235308823
770596169
1871943001
2106661177
1291540037
183836699
2130337229
1698567940
659173517
851716615
385582290
50501087
125098378
463549968
1806630110
240204432
730429143
1834304508
830335209
1787775554
790140240
1290981423
1200446833
1348469764
1151577618
1414828333
103343887
950600493
507507274
1893580245
1985862781
1416145379
1286496194
1831132112
1293448568
1184338717
592059574
1431442988
489925612
1668156614
978197611
907680390
1359799195
1787206325
2014513994
1784578243
491543255
125206457
486966138
1134344179
1135829543
1586843869
624724042
1433697612
635526486
164400936
1838959543
212785773
1428196070
728255087
1774795056
2119084905
2104202483
587319930
1527335671
55815422
1056762053
2059223687
1602856459
1106842389
1121507284
1362332329
1552055872
895002229
333676440
1451287135
886784673
410741782
120814033
1762769678
1896878501
1375785449
1131566263
2028374395
1949922709
430270112
1077662555
371695870
355952765
286398124
1670182426
1912739093
1914740889
1836905221
880003690
518431715
389489861
398753754
1867580266
123971768
432220305
1422821798
555506167
1626543514
307572808
403932363
1279046894
1379235362
1896906126
375354092
2057640405
439548380
2042545036
116478296
101147754
1079739742
1284383471
1027739511
1208862580
857656899
997879360
1708920039
1370231998
1024818211
1266857657
885792736
968477954
1590973228
602677074
1012212584
136706418
1705141937
1425209933
1856965971
1010158116
90919587
1248537741
2109377732
1767833559
1315340036
1844501113
1605513349
1735334689
218917091
1869241169
939660556
399529409
2098394552
1639741081
1066343122
1256022469
910806135
1420945304
131507286
1565848270
1548728566
1412901250
409984312
924716319
1614419377
942378167
1855424283
1773018907
224869779
1999147361
1385124108
1166139567
685049646
968920393
1186575753
1530526779
477382204
987076370
142303249
2114747860
2115130824
348764912
856366160
39587005
999402392
1919514280
276384689
476441272
1414164633
898727467
89646084
1880603750
1233921159
78694274
1200354746
339614324
1448691771
1399316247
955365799
6088788
144051851
1638302724
1251747871
362968481
67311623
1472760968
1033442846
814114387
159200411
357765594
1782766730
1908761071
1394290021
2064835723
1867023922
847940970
1877121006
1887258971
1169524075
1622657504
132951964
525597795
929166139
1297989139
1408514093
1605205661
424957178
1217701232
426076198
295872644
1941826177
990308730
640211674
688031826
1834648902
1184792910
360876721
2056094813
1612506525
1424366139
427676564
1767426235
1899012384
1523517363
444562682
1713044073
1585091033
2125265907
951503911
1229141174
1877003027
911771596
424058574
1809534067
448993519
1619616635
1797229777
39214298
1781335461
1301904880
899945063
529308494
644507815
553768554
1297072959
1833268311
46627869
1845631896
951747566
315682548
1214610229
1862538275
1651559442
1901156801
153929986
946589483
708440432
1349926543
1577426525
1285921930
1116043591
1300864742
262160314
6474901
1155036027
1506834503
1228258381
722876610
171170691
1415549033
415904618
820089955
445449289
1319471476
144286542
138707852
1888553285
1376468529
158875511
1996389560
1561086195
137062029
906972693
1588883503
124708688
1984070494
721391411
319502495
1594316806
261624623
1209150156
1476907809
1252782189
969018902
717301377
1353080858
44859979
2026088972
310404194
1387850362
1124400533
1479042920
592455932
1178532010
1776949986
1230791941
591538581
1804002518
552144380
379780106
1538925159
478805191
1559445270
892118282
928183612
1528064601
1406078561
804070260
158420718
1047127023
2072419804
401799763
615306868
406332422
1116578467
1579231289
22602385
1908943527
1836531916
894184434
899004531
1333740609
1765075981
450580533
1685279112
2044779274
1727484761
1731149885
298756717
1617038956
1089098302
1311695874
1957861451
58725372
1965353778
58426587
1915037678
816471776
1984318099
1156397097
1584038723
1001492819
660131854
1629001240
2061918291
1183593330
313794900
1723773844
1659172632
291648608
1236747237
86534124
968130453
972042940
1565769770
1150146716
1889024114
1114868609
92457653
550194491
1665004853
762328165
1474131794
935611493
1434399776
1958828618
1538323081
670433201
223788347
528861690
1544013004
1792663493
1477691212
999891174
239147983
1775872175
1106487224
74106158
2112822563
1135973977
594216726
170108274
752173265
861792345
1736941787
959168867
2013246174
1214295752
317950095
859863650
420265484
606920172
457373904
7121672
81870405
915122946
173386009
928221162
1998658133
2127638558
968141857
1499416468
736413276
644175923
636868160
1082430196
524602938
1550193701
1917692799
560709010
611608505
826529401
815322533
1307624913
1145310368
1280923450
1648763734
285940978
352656720
882876664
1789529363
776878013
602376868
146760911
1399112854
1146349150
302680186
1776326185
1336134184
176256264
899237760
129585121
1529351171
532190200
1634514985
729612203
639208237
1621428091
1808487512
1382865617
919702270
24649947
654307785
1609210425
1189365274
1879244191
1017158784
705592970
1624452695
1346408736
1048475839
585211227
670085412
914387819
1180151188
595424179
2082375545
394492540
662984405
1701954588
1462733480
1073420729
66551644
32618857
1372984285
33327894
135078769
1567183976
841474372
672710282
650001218
960241297
1038124314
585765598
1777585324
1015949200
1185635195
1325978930
1221723539
538462400
115214557
511150659
2012503636
1210626526
1764524015
1639448040
1303626741
2064694475
1040158888
1641683816
514837116
157354649
758578608
1979026946
1693705931
678749909
1665145541
1000286520
372355429
1861088324
210367362
453711973
1135161434
1440817574
713029950
1152178122
2021140860
1486218443
693385423
1598420077
1227455684
1205387194
1577196009
712283255
696092410
620891319
940745872
1794295595
1669630668
1542591066
2060144474
181902706
1967400076
2053332981
1032869424
1900743260
675332918
236220913
1130600441
842893927
1751395101
577347000
1837694248
1473549569
903479414
1766344253
628712991
744281066
127621433
1913411578
376250696
347284407
310531951
1821969839
1860626653
943021005
719244279
1436941342
650668565
1684791122
1554308979
210331221
1855541933
1337783463
1617872467
971037284
2026497907
396027488
1101691253
429462840
1037705832
331213542
1550612871
703999625
812538234
1494930646
1333827791
1952255524
242903914
208112475
426888468
465512234
416053276
1830701764
1432488613
396983469
2053119167
1326492744
1856710204
35122700
218315669
163280490
677494516
558746342
1895123327
967587165
2146644141
1578414070
424289389
157915812
1077382903
568502918
2130276717
342861478
208709120
663266590
547586878
1475385221
1087309435
472521726
1295304687
170631706
1077286440
90118298
1940963366
441086526
622340995
1015117557
1385004163
131494491
1298378544
1850110114
1697162308
838261961
1603946038
1894085207
1442775894
868782933
827000051
1781348054
141533322
1547747129
1699260550
705178638
2096323606
1294678518
706009530
1292967799
1725044144
1307950465
924415660
771305824
1115577029
1679350892
23651799
1671434824
400596207
1276101048
517893963
81757801
1408954275
2062531058
1888985026
707473979
1231966078
1641054858
1944040119
675655305
1871343374
1096180438
46531589
1181476091
1672548013
1959726072
1538820979
1031255096
16111972
963788997
2040225158
479910837
369347611
393692896
469120664
1131622597
1500586788
936386143
1492192488
2019105436
952815929
444301742
821603010
1021924704
2126544157
1316925189
1577341234
1642791101
284821477
2109208501
2123718947
2127753646
775920593
1406867457
1185550154
1480937640
566051321
17324296
251403502
1813413030
1347092637
1435465538
1829018283
1215051744
1489142120
898585525
1952297768
113253458
948650039
1749249017
1547402368
983848798
27672666
267393572
30724963
1598795294
799165397
1686019599
582302835
1307953729
218216699
469363787
806407992
176213521
1656404179
1094534969
1179854799
981544990
1469787567
306552571
574775779
1717624775
1970866348
1555478955
1596922490
858174048
1043869943
809837620
1607104950
380048917
315551976
601221493
2103133710
520031919
1787948377
1397035860
1999306279
1096448598
2033230622
686027504
505674454
1126604052
1709927865
1994403993
1589221749
871495067
514594111
1508156460
357789325
358242564
499770577
1466234225
127172514
965367751
694307066
656737284
1861715382
266791220
659486139
413997144
928593698
179200005
417502336
175889144
1848220268
2137630451
766835548
1910969636
1562206247
1597031543
484960793
2143042003
1834501449
1659086665
409817393
2127672480
908688749
1251490447
905453564
517604133
76752094
379503112
358652529
1995019452
922073932
731741873
1550137464
675312270
2052629951
577018456
1406208701
721989754
1290320071
389766248
170961447
1943708799
593873633
596092449
1549708688
1240983519
760762042
1204860570
609265607
1397628614
1980233012
1799239407
313372342
208832688
105666562
953454309
1607952428
401037415
896576437
164593946
221159932
152818931
92502506
932974230
1601990227
213401909
965436325
521315311
260623186
283544678
1245309857
1370656069
1711788271
1432930928
2010466418
1757393519
338061060
342782907
1983004319
692296355
438272916
1111060008
297206653
655538740
1902309679
851696825
847259242
1477903596
2012650823
1236776947
1289782333
272682009
1188785701
841559618
479543432
698278298
761176457
2024066097
2049362078
725550169
2137043585
1128426623
806345963
345478400
1018873863
1217261703
1868801077
173773307
1410050761
255246527
1640744276
2092555036
1666532416
1838617589
1490520375
2116599589
1559471059
826540259
1085605341
1694420661
1603702274
1274500589
1183666055
2033842534
1543934581
1547974870
282899583
1526067658
1402906988
1705480104
2051014036
2100484457
243489688
212152557
1968159164
61683056
549482103
818076480
440569713
162015909
1905663033
1196553922
1563400104
1386938822
945738042
1729698857
233422752
626193384
110522824
101606766
143471397
326778446
2125212158
2138277495
1744293621
974487355
1130873259
298101948
428186274
239622526
2076933385
554379202
1670007749
475160944
2071691605
725932420
1176555284
806703315
936624990
28405431
403299133
907379397
771063368
49700478
1601342215
1056291079
1043673427
1059762960
681312247
1854875303
1165108808
536582768
41749470
1122420215
1694531550
1681571236
1402397530
107017065
1978584925
2001166833
1733679218
1806979769
344994714
1776504973
1719082077
1094515328
89390897
321160906
1661766179
1550903607
1813243363
626306774
987199602
1431748797
1797370905
1269784436
1356043386
1694485188
1065192426
856695970
15385386
958809500
1404939328
817975243
921373879
1378940843
189841096
264015776
1006079477
134024265
870559236
1708019906
466449059
485439390
450102301
791471667
1968568430
1441604262
951570460
1345616017
538867724
1627398359
1025774915
35176405
1248819330
1803692566
16433344
410878496
299616482
601235754
94971926
2064047426
440443489
30170800
736104186
521295391
1297076996
334792107
879638054
1122611383
920448989
926785510
1778807151
618697059
1615236789
157647392
47859128
1844307109
527730967
366508100
1561464654
141692680
67388956
801257912
827043948
553313741
1734085774
590423401
845727591
402026146
578706858
1649198733
1377135835
946170091
244733657
314613802
93354346
415145191
995498986
1654407699
1851675933
542373036
811616818
1393140862
917457987
1152015322
487944594
844811432
1096970109
794126462
205428616
1309653296
28178369
503827041
120439097
2023069170
1721120420
1940489415
235767220
1436563619
1115425603
442821889
1765320689
2065622216
1999364456
62616504
429046142
1408063501
1928738512
1154692291
335201408
1417813717
863677053
38686675
2115042870
2029727739
250515959
404555824
1353220216
789172532
1959270558
651930950
375262429
1029620647
718726341
1902987993
1928124045
1834465219
1140016910
983834922
972707026
852429289
697102213
468247918
439491761
1225704972
293743865
452053415
1135264663
990377106
499692116
364531105
1991035379
269430366
730916192
1896666703
303336657
1568635013
61650278
1326386855
111689822
1220831691
774043686
1885474716
115012116
342660569
519590254
1132941392
1620415299
637878628
1247191231
190537452
683608902
161505128
1784411933
1855414255
1046237453
1392891048
1627002468
795498290
759270997
1538327506
611284722
995833815
510478674
1071358564
218289526
952417349
1313249105
603378795
650791362
811337565
1863800437
924029134
1516692854
1850936115
1882943601
366693801
1404950781
935836440
1486759043
618263723
98050746
1985020440
1027496452
804921121
120702245
77235379
1519581745
406100627
1105298738
1411393598
2043171492
395588595
388116421
893018942
284131264
651087225
501639470
533485001
2002312870
1456781730
272630347
1946462768
359827454
2077712413
1266931569
1203911814
698601743
1449666927
2066953787
1984793347
297719675
2054206452
517196818
1295511283
46207612
182800246
385817799
1515297770
918285652
2083701211
1175617557
197617865
1524525524
1854427904
352888879
77160442
1840826963
1413423494
1428533294
1018894073
1207125080
2143272550
54440474
1028575155
936425971
1600590328
1636164909
109862784
1777761543
487294789
820266096
1845813409
1343363344
165904721
185187409
152316298
1343628648
917378653
2055004479
7409044
1155997564
1394545862
1846750866
1995269407
997280982
1856982828
156945194
2123816484
1564517975
2014458034
463395159
1820955620
601082083
1605474498
860834820
887451550
1040380278
212926576
1404388840
1433882700
49544569
1662575956
1190985419
919010240
1681159832
1827372735
1589522993
1348130276
179479589
1325644225
827069879
1176658398
678340023
230653263
37082989
572033413
182228209
1150695061
142648224
1045343786
537964730
1457302797
759444383
1756463347
1794018821
1192697599
695395222
1123590740
1353995176
1297786298
431378638
1582435109
1012595586
1952375226
862552180
326778035
1248107799
2013326991
1037667570
487733358
164741065
1461231652
1326832940
52707556
1561769266
94438864
196665879
1944609238
671742810
1800746836
1295146287
922337309
1038395007
1577216198
440151696
2102243832
1821234320
233850628
1229106091
1767743437
277489091
1709218804
1957264634
1209314329
1325940820
793197127
485885051
338830154
1772312999
1585132229
1829260191
49394932
429181291
1103253359
279673503
32142051
2116920123
1765267511
1843844468
993368640
1821464784
2091884439
1436041843
1712202661
1422550334
1473664517
1744918801
1597643535
2054290847
737158928
1980757906
1034862687
1833159907
297180422
407593329
1426091814
1488096
1693896067
141485529
1481592838
1926470029
1991298445
47910295
360828887
505623093
429485510
287723920
163438559
766239919
1207910050
523655390
1563557648
1473816260
557047104
543866614
626985321
138537347
1069188815
1384276525
573821085
468814459
1889334569
1476672057
57375706
484101653
526877552
1947514223
549433518
1543463568
1500354928
633380853
1889501921
1608149449
504848659
954634687
1849437411
1456114512
1226424642
520611033
148672501
458493635
1050256253
40514346
596147264
1513356906
542867143
168975721
490520933
274551039
910175607
759306550
1324942972
1629035521
1534068653
1094780610
1712876166
849530478
750078213
475680757
2122706054
297366103
1671871542
1024970198
1635621873
314505088
1029943108
1558427456
1386975406
1092519371
46280737
827971479
1587129158
735237801
1123061871
1605454756
712842739
1074108589
279654961
1237829958
1452587911
1759565910
357014510
1685548305
426316015
1439396758
334877798
855642235
1398752399
1449759520
45680647
1399662626
1999617818
1843014985
767062994
1006709359
1156684607
348819449
1823054451
1640988008
2055986941
471397048
1228193893
2093870333
1165851193
1071583628
273985517
2110171498
1863127122
1021169327
668124547
246664639
1829865529
543349990
606094400
506293527
916743194
350319168
32371152
45296230
1966006801
462881137
302185097
851072338
1734534219
1974795426
351542907
1653182758
214999328
1973985304
930882736
285934356
1978276854
188334940
391551062
685639721
1566925948
458863738
865979408
1527870386
2098110332
379263382
718087938
1024415110
1631246187
1198251004
1806219481
