6800 701833577
544350300
949549513
1121262629
153342230
1896655084
1598326785
405694125
1484505791
996595908
570313335
1334206566
1376283581
1218371233
1554117248
452948708
856327818
1526785436
427837818
2053927561
1427028324
2146419840
1488058826
271324009
645579785
1570469800
681665103
1810277688
1404712567
762732389
212103039
2049906583
1920183905
1635404130
278887999
1193821757
1682939619
1131299014
1858750142
91196781
1861852417
847128101
1456459047
1370334807
858076976
2090143707
866278781
1984875168
1014977330
772502131
1065127092
33759673
1486164967
324669598
1269318512
1455977446
987318371
228766626
1539625078
1851664261
806445440
1140829189
308609616
1814332588
1133703294
682301679
1862158972
864567786
1020964064
976156872
54650468
490428446
1143341875
1575944680
270078693
211558028
1222126287
712852016
1755137452
298561473
1955841133
1967818660
193294329
1947506093
168951847
2019791024
430000233
1935850810
115362861
1779172429
706452966
1185788672
994937408
1764241949
2069672194
1482041420
1274007227
780573462
562403113
9944478
877372990
70926650
429761583
22026355
1782965327
425115738
313187479
1299988239
774437231
1635724744
1276014634
837631044
1663488332
1289273747
446577766
1138035848
6306116
1175602492
2081707539
216846669
1117441649
156323187
445488109
1142246963
1122923409
267794792
1072713918
2087889961
1993560125
2051537828
2066988500
337938235
1645827564
288926178
530701583
1322991865
1802653557
798217563
1347160887
1873518089
1347909182
453487329
2014036520
1352772188
624136494
312073264
1619549001
1706288243
584751735
423185974
282777996
1272427161
980938309
1211994960
914930562
2081955510
87818403
1053108839
430888555
1974459097
624073758
268666674
2136291137
826772719
281716519
1672471346
1661275725
1922655100
179860427
1357239593
450469941
349893066
872125556
1424535976
1197818056
963531773
905001722
609923974
1659065819
1333500789
1987845815
1989733316
1498439643
1043563246
543877880
1343027758
1294011923
312240911
107361463
962956537
175200045
1827315225
114227599
1053206953
748985554
142924993
454468916
52608292
546297080
485896756
624533602
688747499
2003221590
2100170810
1512400642
1266244122
1824854307
1167045488
1475552709
1039221742
340579491
410111948
184541481
1291746859
1500681761
1540326565
2097881969
1015858657
1446036551
571185425
94712526
1262291241
58394714
1657208888
324390804
246935307
1751820187
1743496471
1761901281
238102506
859631159
1445756784
860570791
359433659
291283219
2136731545
1165828432
1404427336
701462619
941187765
508086515
2002561392
1333829985
964116338
134290706
392463743
1459702164
710547923
1085544176
1648057038
1970810784
1131556657
307838450
828794733
748240603
466627371
595633536
1329005475
161362062
188101595
218854324
1824011138
1666791173
845561091
1771499349
2066087626
1301983044
550413782
526587424
1432326251
641915757
974527498
362658636
1659183138
1920509187
1831323847
1511730550
521314711
949905238
25216114
1956996277
879246587
498975020
916443993
1093319024
617713540
1262710776
748185953
708125271
1157411712
67383571
199882538
20118131
569512030
1436789977
635207000
2050641850
1027470084
2107009101
1304652126
2098182396
1696394935
1729609647
1990703509
223982676
1262224441
428665022
804940201
625984
1572704986
82705483
1863329501
203606941
1263800453
1408109044
709315456
19540058
73632235
1237004426
634987694
228920637
2017127122
860865027
1903656232
70425190
1050021433
443378798
2029482570
1978086651
1387894479
846949634
829067250
1152621733
2123992865
1705036348
1462187328
12618443
295424445
2056492368
1616986214
2009585676
2141665602
28718587
991167219
1435773645
173054367
305904384
605978167
284175785
521567847
1579955733
1620240238
544099624
582792601
1178737849
1633317903
378666676
1928895830
1555673911
1550741011
1292078622
2092908075
810254039
772247573
848786579
1587948004
1185595386
1598335344
538064407
736634052
1610675248
2129234696
1269942432
96376110
1929339158
200751898
195396005
1709227065
1262462392
150892883
331189426
505001323
1372345705
1781357439
985327967
1040596972
1238014513
1866050045
399045200
1093357031
828235296
493347561
1892248136
481713446
16678587
1964048280
2117866389
2102957870
832341559
690442262
2041236785
1120778652
1141337757
240887712
1067661863
130008733
2050222857
715378991
107409183
1238924434
219724532
1157843681
1184573564
250713842
1744536559
278350676
1935739168
829740606
1411822483
218565884
56582279
1327288346
102853198
2040095459
342292697
711428065
664956343
1062245568
528116962
673959678
1201086976
26051442
1126336325
1877109842
196578650
333124753
504899575
374607247
356540630
1721952102
208450118
528285383
1150028811
330060070
1434059839
228043539
1701041783
241606841
2030236521
543089750
1342308831
455060260
1309496476
1488516078
819852553
325558279
236882062
1243378362
1937468701
620963283
866358182
1008724350
982890673
602717583
1114487689
465909994
1646262705
923168694
625781954
1026673203
1035169707
440188932
1139747443
1940162330
539281913
1744562755
1347633900
245012976
924418648
1459119585
187633487
1479800444
1737899653
409711281
1658517804
1107863955
513751897
101084346
1483114680
46133601
1931722226
368617656
44088097
2145001135
76386073
378640485
1459413229
2084453273
862813376
35092287
341640198
624721107
668853402
1318632711
1139463786
1020688759
324290045
1956093029
1078470621
1228811187
968547465
43042105
327148568
1587329223
264979045
1920889267
1077975536
1230110988
583211575
429439649
856262797
335411309
128696653
1907635058
605238860
499435288
1049496183
650104441
584879786
845066387
1208680362
1107495230
1483049199
1453638993
569552091
2145214650
1161844138
1097554463
2039607561
1407716757
1556223467
1100695701
546331255
1518012569
1589385378
530249562
861341396
1974883923
893821336
1496853124
1712951033
391158850
1682323175
1818467270
398063729
1066138740
1148483619
1043290714
400601078
80886157
1406499833
144765897
2143390642
110699516
1503835741
453534699
321312075
22039788
1943299900
497863938
1501256827
1345913849
1620217970
1925183587
2091684043
86612500
1979085907
1000971841
2111677612
1566371512
1051040637
2061203035
1980020382
1032799156
435118926
1065291632
1655374942
113858979
171316281
1097756919
1831412913
5952537
210534357
1359511945
752372163
1118102897
1754343277
2140289246
449940299
24527887
1605364240
1777702557
1207187760
1272538524
2131966610
416244668
1678521617
1381368822
397270566
1977399772
1192318248
63367414
65417896
1744393292
1939394139
1409614608
1787559010
1006610390
1941022270
1187561821
451001649
435929813
2139434406
1682094022
1839370593
1665267164
255099666
202148810
1259181940
1998210017
1334582281
775104482
236969341
13736614
1799772274
1228617909
2034620230
455201312
951458862
656470048
1357733197
1107392016
500330905
846467844
1954624087
1024218318
1656501023
1607552079
1987514837
1641404619
888586016
253348212
1077495368
1184245774
1269608487
1927946041
1054132160
985861345
1870241976
2079421779
1769267577
474326456
508687469
2028600065
718626927
1696456079
507620197
320054082
1391741396
375696449
266025839
171059484
913053908
1925062398
1934586582
305093441
83854710
1265379265
424108661
2007150991
687854153
2018719374
582570070
933177399
760652540
1818335465
17936733
38298684
941382179
887792323
1512647631
785391599
465830046
329686520
1235263957
2057101119
1493545527
1210614603
861684501
75164577
667981109
112884230
955688864
1339594913
1034770415
129114310
1713697290
992923606
203044685
191733098
1311045933
936830270
428444949
608859474
510556864
950973351
1674307068
285683101
419452455
940310775
1791926227
1864414089
2059586958
1688218056
381161448
232557840
144167220
2014123714
613036488
802213890
1473401019
1896642522
546626708
299557762
1693292125
1714047234
908100011
462817199
763209862
1697881767
1071280877
780314058
1215411315
1452980525
212578679
506423566
1642168255
590438925
952320655
1960123888
230613971
1706725263
1253904245
1156995990
384061211
1089753346
2028882618
1773400830
1176063894
98239409
318791319
1017587677
382084447
755420650
136536869
1899147504
1831820381
1092904057
1648434480
1918599096
607285060
933893613
1387889557
1364873513
782004558
1477058482
357682727
137823713
307478605
952322429
2048854987
215925332
833470345
80792109
1465204890
1850070700
694786421
723153914
2013531123
1984327624
2145978967
1285957693
1424611142
269291253
2086679042
896242743
10914841
2080623192
987066102
1724593381
817287554
659379474
1944731535
969515984
817943588
1308676001
1971727643
1649420966
1440453336
1685545035
1939651995
601071584
865711371
488411856
644312656
1390578407
1690364476
1028817209
495760861
1312526462
766955217
1427817434
1171066458
1831675492
382491517
1381312870
1492060186
2015334542
1487985244
1367685081
1304650544
457843856
360015374
2066707388
1614426705
1656018545
1554640910
771715380
1872888996
835128471
1631374879
721923039
994711679
1338293155
333828411
1921787756
1944098099
230345729
84271961
2095634220
705023276
964412585
84160124
2084884211
1487767776
74301512
1917962710
1491286901
604461161
1007331630
6091013
587407770
1673981475
756268432
48021951
1113516021
835027112
1234787295
1828618793
1014801932
2081764717
756553525
1008562046
2112819
62886531
1628181205
1909330774
1028667508
1065875854
1333503903
287712033
1853781172
1277896934
538595045
1196025280
1485148569
1773455134
1338300505
2137530835
1816930544
2141451332
691528779
510497655
503238606
1069016341
1627499011
47770555
1928453573
1096647656
1976566372
691557834
945552990
1440160883
425442521
2113504734
171608120
1599540412
1297234817
1901416110
181444040
593920068
180246421
1379909857
1750210017
1662071273
965840183
1231409230
258681743
2037331459
1896771628
90276440
779482688
1531301093
1895131147
1164813447
1984866929
278412517
2121577478
1879182089
1389863288
589411586
1325185004
1189172703
643705404
47265423
1849266077
306266193
1748050148
192972818
328395712
1222014579
1608142803
624897725
649279023
1252848547
327915285
1789555052
1102511508
953542905
1634786614
1458266838
1388685900
1276390053
548915071
924054328
368343653
1221601206
272513495
2025065247
2071250421
1320969979
1173921536
1906289970
758024873
1186172327
1128331686
1660887361
1242055093
427355694
1197456280
1138894269
339540418
639933860
1925146221
1303325102
994164109
522457735
1247540243
1458016414
417021497
148392616
740230815
1054472879
740608221
217741811
1241112760
117151867
1416200636
839925718
1252926940
885097589
1221650809
1180198499
1012294333
955458966
150972613
1907959887
366959884
1603180938
99460377
1784217225
432221266
897066660
156392368
866842484
91691492
1598928552
1831372765
534221970
371018053
248993908
65670480
2139828459
204154833
447597194
625290628
72544016
2094376461
902827432
707527642
1439772701
1765029577
1661009441
1044334871
976392402
1076598897
31848271
1270177910
1986818244
558982191
973044832
1778297798
854458475
1813604171
297069646
512239525
1032640227
1606271589
768359049
1780305699
1905660152
1299370679
130462267
210389244
1661793950
530047246
1606139851
457136920
574630256
1035312008
1214956571
2127996698
150887326
507204812
1784474991
645738158
47418650
604769394
2098207555
1063264162
634901117
923549558
2068039479
23029830
968401670
1543602329
1101068196
694588351
1992666963
1765070845
353778334
82636201
1458192125
1382607950
6334196
20836174
1184634564
1742008942
240838466
72020764
1541990426
1224041869
550194349
1810313582
1978353026
891521006
25814897
1802437749
1192239709
1359260369
1308076791
519795841
1354094648
1761754879
48207599
241372306
1053668710
773565498
955967995
23655946
1581847477
1669526197
275864522
1906007376
423294286
1888817809
1540251573
360848987
2008493277
1272921066
1359244896
1943975930
479726089
956418045
1631017133
618563902
292786457
1549924447
1445372211
1648383148
1965635550
884703170
1982914393
1183714639
1150365021
465752733
906569888
514583219
2096506586
69811812
1767343111
2015216829
1143125766
1148439255
1906139984
562280599
300624782
1530257747
483861978
569316421
188543964
979418578
997433897
1053854677
1457294985
1282975518
1868216616
2137044055
807076098
262204953
1406922695
931383623
1542182020
1334818666
1618874697
55162888
1759812803
949652189
1321785728
1061909684
1255081552
858565444
1430366033
1900451324
1855351990
806893633
938751601
1064843577
1400502436
1263736012
16802350
72888132
176965307
1808832575
700837788
1064661166
900306083
1279854277
392650612
458545413
992835814
568316253
192727177
2069048429
1674649527
1656331740
200260186
61563644
2084245959
2142443387
1259939523
1357004013
1542030059
965314305
1129993401
452468639
1598039953
317076318
126474719
1273117024
1923257271
1037928719
1001233935
535555482
1084498093
1150487359
1067115504
968984740
1836473267
299043729
1328897094
721763721
98499544
1737697862
975585390
1299146842
1746821235
1047174933
1459909476
1738218466
1901041541
2050181326
2080812387
2076177741
569043923
1428456865
293121377
1169832004
942930673
1540936739
1078752077
1491219356
1870418893
1372535416
1363182224
2102652139
658742500
1461286646
120859701
1600656913
761152096
755497258
425910577
1530873763
1114352794
12886264
1885310087
694191880
805633496
804079466
1791555005
1888227652
1814911283
207556333
886057660
1141075981
1303162973
964918116
667546300
1554503081
1092491773
1452298969
891570071
1718600062
1050325040
1179337935
305715392
181726154
1946809995
100817813
815109558
1945860822
809551931
713700323
141836039
1534295521
389533329
1127415196
1496973853
1385542336
130186987
264585974
1173887540
1369215281
1599054228
666335727
436632482
1035640686
1885101862
1710054490
200377705
2106527278
207804333
628229965
51624893
1585028449
1915568102
415097928
911509984
2087635030
1167493311
1178163505
1889865041
286079241
1843498033
2043494416
1643374346
97879600
1408222392
1148332069
561059355
1619342746
2042661653
1875860912
1746590267
532023715
1220664355
488290817
279747942
1627559232
1016834031
462044294
338224882
823203806
1010738991
1539860964
139941117
822452631
52410917
1123841363
397385502
1274839131
1890111095
18296776
4890732
172880649
1812483419
1932902776
1636985407
662447802
1185419843
67840192
2122997187
1791785370
666167608
1767998422
480792245
1638729955
255824848
249831253
1297591559
2116518888
1738561891
1937985576
979351606
1120028829
1743133606
937628354
2072361081
273729505
976877040
426079151
233062712
1498690085
1832936147
377601959
999324687
1907190504
799075061
2117696597
474380783
1753302383
821910148
899426270
1442156104
1431308541
1136754810
191545707
1713746123
1080114426
2136241118
51124706
55502786
1371848059
710173386
354610040
257669790
961156808
547743835
2100738538
581937964
1290742476
960490091
1224768423
1764407717
711400424
1673330993
2131495137
1623387447
997884558
1306223587
1467962619
57468675
1411508369
1563713629
720923962
70024365
1012633002
697587690
1754481353
155605461
1457353703
1752975189
357054954
866888395
954512341
1651888986
200573523
1306054348
1854085266
386064389
1853699990
713036405
1374422040
605138624
1973307770
226062704
1264688070
1509852297
236333990
1871733023
42155111
491509665
1996443432
132686589
14562886
1398408953
1581801752
1137909297
12702220
394761981
1163678694
940294832
578264065
1514338632
1227566952
477721370
86047076
1404492315
1038395627
229176939
1201341422
1608119861
1742046118
492565313
1089056262
1774942780
2012788964
765784485
1321938857
8710164
1408067584
673801467
1815394910
118129962
371363674
1564655203
1486451928
778260805
472484753
886540227
1945944118
130122850
1715495139
1558545597
317768571
23368952
2084883111
1205198254
1891778633
148751881
23139242
383013448
221425376
1501576652
417576618
2055369446
776053422
770024372
1003669108
645915523
1839625723
529548984
535567912
710976981
750468737
2010368926
1440962923
1556769509
12192285
290284254
1305384134
59895482
609051153
693405618
2110977506
97605842
982849588
619529584
2017590173
990947305
853564030
1424295525
1400411719
1421419440
1669206006
820177393
1592854622
1831655036
2099543104
1364501094
1041796618
2046496830
1200696489
608230338
580505102
885715162
723659588
1898457536
82645408
146078075
1648983103
1010663008
1662993666
803514358
1222369764
2036279214
987807541
1870338102
509339730
1129928178
621597334
1170976485
864172606
1947937421
771433764
1764477828
1650736368
111627735
1057738982
598639306
1538913512
464063854
721374172
1782931638
1122251215
1303839325
801839095
64959206
1165230705
980172607
96222254
792582931
1377071511
1101072251
1557693493
1952196782
1305971161
2083261318
1989118126
811383824
638034462
1337274729
1525448569
1897590718
1606283642
1296228696
2107233387
1603717945
1302293533
877321355
2590910
1184169288
1598088922
70228960
472210431
887873071
215188396
2050176351
549567489
1360427421
886728295
839437066
1421770039
767992044
1489678340
1531805876
1991006855
1297024544
9880601
374471295
41827983
64904556
742773642
247292703
1420120713
245663579
500740765
1387461084
939972637
1753988
1826419576
826485060
1698482108
264760071
1076841424
454108418
1991391907
1845080536
965623900
339087474
1447860808
1913385358
297670932
1049275469
779262089
1408695340
455024121
1604357517
1902243847
536737129
1538726553
97770382
384101602
896939388
785328870
335451617
1100528666
1740681985
1634127713
58090306
303399974
1118729734
64833852
404612868
124339706
27857178
911359553
309501920
1769374665
2065179795
73311742
530599464
1525134074
396159064
2011626686
1606607344
1435005570
1725742602
1642578208
1453322517
2096467210
28560267
1933391724
2067838451
1622458360
734567761
512194098
1593152873
2011515868
211406870
1600895569
208415989
1440369937
1648280429
1788085090
1268836628
1343216513
1043616948
1961752648
1737827215
185332686
783196107
801772155
1725090302
618407413
755550937
1251742585
1608944421
2030112577
1141626747
1111343096
790203999
1119394192
518356436
11855103
1389605086
800588764
331877893
1335731072
405752912
1183232551
1129077593
1652163907
157779369
1489684150
265202994
1162336340
1005199959
318275815
2116008669
1188942810
737535826
401958545
50506859
95487008
1204715200
2019570592
1460741644
415465304
615442231
978227964
616454561
1704812655
331573374
259104171
1112678708
256970038
1838420761
1152525457
735387880
162251066
1852360165
1735769937
386331133
1054040720
1716501688
299738459
1167545403
1555209719
1267705368
1215319529
670787712
1253329746
1852719634
1354684492
1968698278
2003769682
559187955
1773616158
320448356
553812593
544822536
1400127903
16020944
1912998087
1616618165
494682517
2082663121
1208728156
712328191
1065332289
786337529
936836403
330247538
298345227
120213807
1720230944
1614823772
1336589545
975698361
371280518
1421846378
1734965944
122790740
1322973336
1146333965
2015192341
17841825
1576734646
1611014253
2136063834
1984437234
1977450246
1667716114
1562804050
311721200
303709958
919109602
2129218897
1762340817
1573262934
2138491641
758533418
1602302244
955229631
1518325156
735161802
1449743933
496614443
648585819
243990989
1938161334
194245651
1314945416
1604018022
600231923
1303549376
1922546046
1896827194
986412672
1510393278
730112887
1944935843
212103297
1104672567
1283359506
887803947
2022367272
490711365
876110737
664709384
426272127
426273657
851725955
910478712
858259690
1334913198
1927811643
490852272
2045312501
1310047482
476876589
1857587187
2051859582
1138610354
288395110
866284608
943289275
162725215
921183298
2096881812
193438828
1411332437
865176585
414504689
1480110780
731155699
1523097978
53991554
2045391033
1606356437
1178718340
393698584
409084059
100803499
869635669
1821580005
489428785
843191417
1202029993
1095112872
677406097
2084231287
956552925
1248756630
751717347
180696715
1021738075
857755977
1239561139
1233856765
818856621
433301339
197194061
483166403
489583971
1465912197
1882263359
1509229184
510889519
1637178479
1762336660
48517795
537094710
610504997
319428250
1021954390
344885562
966935046
2046078230
999560974
2068173740
2024339709
154716749
1519804606
161114207
1812547760
842135184
1763941358
1028715338
1423683239
1601426711
876688152
1792117720
3160512
2123474584
749859338
264051384
1414790025
1073468279
406469124
1240549444
549208054
648838628
354319871
1329853260
1686670780
528227462
1373439603
576663152
1823239924
437722070
977534632
88524543
1542586505
61704512
2116339741
1378898686
1680231319
227919138
1023776446
1870055319
820012148
1480277198
1297241506
59938550
1098142709
1825713415
78500726
1646221042
818071294
1718185074
438580651
1662512941
783714097
1158888728
840938970
1905413964
945863375
603858790
1595974950
526626055
1757736301
1836506218
1633270094
1865829061
226877401
770449285
846307446
1320797633
2143559711
1361950952
1909120271
1723264001
446655183
1665101870
282258202
1995446976
99340795
1614351915
771336973
1742153017
1825287683
885811001
1611798381
339853776
486495783
1261071868
1258111071
157647165
1960550532
1579175060
832606082
461655089
1928866287
1315276862
1481135454
835873386
734422694
1546922533
1840749576
339677169
1583512261
1902375699
1481000259
1374188523
1527699938
375493722
797863193
119828197
1793830897
1048244950
1514804942
1579589850
1771770047
1310290191
992092549
493690714
1185083727
396575125
240092087
1933356044
763225867
165462259
353357778
1838510868
543928422
1824708613
1796079766
841568479
1664255322
1341613673
1694534925
301768834
673328993
939046075
517850456
8032924
181004745
628944437
1797748216
1172703814
15862267
1147839523
602854671
2033190084
193621877
1711757084
1901180445
1700562629
375307410
1679100224
1884423672
2059342595
511792728
683137492
1074302955
1282910381
1685990679
1495049529
1515456849
1589201155
545672172
117027194
1078289806
847447729
1675964961
1461870274
1772778353
127179456
204534432
965141304
305643506
1032291309
1774591032
555289454
1844626381
286632992
2084596243
539952730
27088640
716609385
1824603166
1746744875
1392733535
266082649
922015395
1759513631
1613503017
137860140
1055353825
802089153
1267654021
1821425275
1658514097
712050719
1854814121
483848576
1835964239
481129139
177767809
120979449
629763226
1739520047
477111569
974623495
379077312
821375398
1681645887
1863979608
215007431
254512076
136357579
1428557891
642388954
478108000
1313177572
468402709
1121742941
743304453
1178785966
1663958181
165173587
1680063458
1495141286
879639527
767996281
505776082
437400960
361836634
193106682
1159500133
1502040594
257316111
991817638
1216270946
1723375466
847318719
639760844
1491877881
464210800
985649673
937186228
1404703970
1110861655
1719259289
1099565094
507847651
402465703
1993093203
894520092
803484125
844912015
186632551
1746600191
728979414
1114390941
803237056
461181056
798059949
1012379979
2147398117
637958405
1858632728
745098956
621104425
694039602
788150011
256919864
1370156619
1657134487
25788317
1379745921
115975857
1135682324
1541009057
848853725
197449560
625147140
836658912
204627740
2080810810
312586041
1385148255
1072642756
845021556
1395822472
138679655
1007635834
375790604
250517504
1694570120
1381244182
2134934938
471907784
754979779
1868829226
1737145239
1056903708
2143226630
1911381118
530073789
1622125032
840325501
1328094937
2130340723
74075851
1106019857
1702880068
1316897725
109573825
1715540908
1429231611
1072335309
2054227158
2087148345
1912164997
1223019496
1232818421
1969909244
1609047413
445527270
99153973
1823670208
814484164
929815196
978908527
992500185
1559253519
1434882873
1461354892
673534892
1138570082
1250448629
1005861652
1270503166
1661035539
871701309
1041241894
1272277108
1422181087
1705071857
1859983729
1476999973
866473064
1689246541
1373099048
634145302
1595901740
1434480582
474657052
824769160
1027784598
1192739452
188154108
737658496
1999842557
782892968
1354224647
1339846423
1442440395
839968628
323984050
895432212
1344555029
269904494
1991347549
1687888123
131313343
161272110
649583694
169493193
1811831783
650996216
1649912048
345575049
1724037869
261537507
226739531
2122952992
2110644893
1860392045
1578056768
676361305
150364706
2081550287
1220584043
1850877907
642536769
1314415740
1759980976
269325485
1509933151
165276461
904041900
194574137
1402877113
1180303385
1999551628
1123844276
558415008
1133824147
144973392
386064946
748884042
392561145
633211299
490266360
878514478
2114418569
467116094
888464830
274173691
1422917873
1886428845
23049282
1837454133
201066466
967503063
882311336
1372157475
69769142
475133560
572730396
523500314
1481240974
467454651
1025047674
2031989576
84323608
637273361
2019581788
1556376665
847273060
73694526
1975071719
1915249236
498252844
614973320
171384172
285998463
984770700
1863011623
1561156801
823580224
691280965
846177354
1201910746
2067595459
2028303937
2088243269
604851822
1974182354
54544521
172245662
1629140501
1251723936
1285647858
1462546870
23055037
1972149761
1854679153
739427031
480691709
830847846
19072999
1928706380
292111630
1445131248
1375688613
2006806223
1309170467
1749698108
1924142303
659280961
2006756242
2123178723
1229548962
1317419352
911707089
945158457
1368245702
1160207647
361639460
1780681219
626607691
1846232603
799527912
1211073954
790164278
1757799150
1279788848
1141632827
422988177
1358262837
690871695
13027438
562062909
1742844543
1549877908
879134529
1874572149
171498427
409422148
76927253
1788944369
1557880235
425101076
1736638175
1186323491
684157409
600077666
1360259667
780444051
1867858670
1151655150
2007957795
1809940480
1427461435
1800685227
1123721744
1711355029
448861811
86406910
34848905
407701331
2026876683
1945235345
1440534891
1509700188
1398761787
254900673
1327890093
1721487051
1631906307
1500821760
395289718
332287088
170996073
838386810
388502600
11235099
1828676102
207735286
1743102575
1330238686
811291206
514766831
188610903
555418836
1964106734
2141187995
1027323359
451085585
2054956131
1575616347
1804815516
624195860
1117140393
1252877521
1180185690
1920616297
1148386654
130832348
320035889
196593886
14523975
1691851583
1645995613
1095269828
370784165
1936414974
20131138
1560825179
1020489242
1039467113
92606385
1466780292
1768962896
838548526
172852380
423363508
571573910
421580699
1216640883
2141149174
1924793607
1245422894
1997597974
1754060197
1176953369
771278508
1914990438
25075841
1259187968
1218865582
2071970225
1789649052
1922047071
886899065
2088885471
2097723159
2111207579
1491097995
235025413
561430017
2111961627
582072283
689389603
732892643
432524738
1022101186
1191859451
328125467
1688596743
2023950332
1574550700
865026134
96653391
379489743
298458236
1666348118
1919463543
745192978
598221000
1498241310
2049826434
399924347
377188740
918058286
1803200581
1301814381
1049357890
2098207569
524164176
1307835257
1723478667
1821190250
1206030824
744072036
2018271758
1864321590
1890777655
1561646373
342899926
999410907
805435301
1716050384
1439923139
1218703711
662945399
529530423
2077455541
2013121620
191610091
1572344877
266667690
353020923
167709691
1043660139
687197680
1541539280
309110418
1073888621
1202167985
948432303
584870600
1976341425
1634161438
1324225460
1925571077
1599905400
260031306
540953192
2143277186
1583055893
2053778982
1243059481
941198964
1152034370
12372717
1753660896
934225790
682056632
1144565780
329479329
1216955310
2111025722
915930867
1171977251
435803955
1719482783
1927108802
806433158
1711708913
1293604230
654678577
484544886
101862511
305829782
219996083
73934585
1154856573
2113446345
1909969502
1444706747
215580909
706220241
166869765
1181144072
1740753252
1140256375
1588846653
431561079
467436441
1404447545
1696376929
1997808742
310616252
672047391
1650001910
1073917219
319029384
476847684
322942024
1144174468
1121593784
688354808
599367901
1660324214
1161152772
181967892
1578451564
1293297924
1087699743
1398392506
426122478
494560014
73948022
1446287498
1362204112
1733974225
1993399575
890393433
2009731487
615814882
2041080564
937955838
2144950326
536654557
1638289442
842533456
1220231127
134640078
697329746
1809897553
208249515
1431795441
160044770
1580453840
618306220
69761300
632424716
338384447
2043807111
1719599460
337624168
515524148
658985280
1978184143
192008240
1414355031
1872793669
344003232
540941588
2092406339
1411634570
420145530
282367388
417518836
958388534
1376130800
1004924510
666711706
1248650339
1607138678
2143227484
536655131
1745290745
1574203080
1693075159
1349628947
966954527
1333863249
539448429
1992399733
591123243
615888647
617293424
511867270
868433374
1860710647
834170722
1087417678
1244044509
121507966
2017590723
647469124
337166822
1921377338
895998891
1038506377
890791385
1073047537
1392523046
1690931031
1398232099
1941252848
1736250040
574824854
2067980379
1180876414
807386466
1612256261
1099866390
517106506
1787499347
1985241253
1187149153
729379133
1069909258
996727275
1047318605
1695140779
1138485562
1377768588
1597656428
199786861
1651905393
410606196
676564240
1581742665
1775121730
1760339113
864180249
1422646476
1117521617
1365679467
1522470157
667547023
1151645124
2042211063
1256674249
926917818
2092998428
757596320
880744876
735466581
575131102
1491516162
645715489
1196783306
1727415456
1402077244
1044518682
1594789121
1031343520
1739270974
989942866
1659614413
670372344
1700396518
703728851
535412429
418953898
1841945478
1272195590
484887760
1852397932
1016859200
56864095
80640120
253581235
1778908722
259891847
156008653
955527062
2053286739
181886495
89063719
375204882
233168831
642318318
1723936533
1063121279
632333734
1372340261
185049179
1531563222
957984408
191923086
1105664433
763022710
1082967032
1386559356
379512039
1887282170
1766605603
1230730760
1327476525
4279102
1469030106
1537209026
1164439253
1962637406
848816289
1500393171
1462686229
1972556599
812868839
1167979675
606516548
830469684
1967727564
938220691
859840779
523646754
1545970564
255826398
1534480499
1296381725
627145581
1416351065
1959673615
1233402402
282791303
349250333
1649491925
1522026760
408699118
660403684
1978407633
105256961
1353008163
1032436730
54244246
480294881
1840600948
1428191895
779106155
1279659538
17473224
379355890
546296763
70915184
1186069578
1731360346
1250030618
1007805009
941617872
1956352540
1147930767
146766883
569085754
1139164079
520672259
980380726
597973973
1403848180
683885155
417931842
1327258040
758416392
947766998
822287450
245302155
1326581426
68108789
115070648
263083916
790308889
1620996076
1705542744
704571840
679464884
119856992
1862962852
411827861
101676880
394424074
2029838016
1555868809
2009773808
413815800
982117526
1236469482
637671638
479373298
1016829877
2147373041
996357601
2058321944
2102773671
269038247
712317542
1138920072
831312903
196937194
572846429
652752127
285783214
99816983
405010755
1953192674
526776858
1483536176
116900030
1309178836
1820691794
120381341
2025695624
1269397797
1419524314
975637008
918730408
113434010
1494415399
207953840
2033229491
52144604
1082724541
1507109610
959523196
1491643351
1164505469
1125749011
1393087278
1411669227
933288799
1356698791
1959377365
1898727444
389042700
1983242329
1767886951
919402363
1381716846
735549496
651648030
1778740155
2071222303
2079618191
568244057
2011896223
2001607786
414737445
1201954672
909602993
1451634512
2105620129
575817644
1126688943
1090079592
621366787
327644761
1501141183
332560304
215898573
995158136
1567184209
264629879
278730964
289586767
1002526203
908644083
495657794
1752346549
1813865621
951489695
1497873825
238340108
61772398
687167412
342667933
1855679151
1172797332
1632228832
1142436971
685481772
77199451
1928086010
1131989242
1087808934
1764725708
957275144
1217673848
573166316
1824864793
178737784
1168282162
1950725200
1427352202
1634462026
1651907391
1311603937
2972171
766864191
1334406206
731887885
557506938
1947656546
1852602645
478759592
1283388184
983307210
694791849
46378421
1359665684
952095014
1448874912
1363117120
1655472044
776667197
651129768
584870676
2126445095
980252278
1906544904
642716962
1118216906
92379632
277569366
1201058062
450999279
218875961
501302653
782406634
1169583994
1655080816
359229466
501821121
480759086
866942585
884669275
1926318624
1945743526
2022782113
1982438923
82741910
531474461
939104914
589806347
1613905060
1367421401
1522883127
1094382560
1498507690
194415385
593096453
112956195
1119957877
1334904368
1939899937
314050130
332036241
34465919
709338906
1433755760
576045391
780325169
16360318
1831199721
590377727
1873454841
2052640660
881759642
2074889371
1019874929
397574779
1601492428
177875832
1010067697
997842481
1120732094
1841370773
2140821976
1320902708
1287857882
1813156829
919262612
1960458680
987144646
335365007
1907341091
1376284534
1247931446
1214170411
2054086522
638239303
1913083167
1706418980
616094283
1039753069
681299257
1549141922
661523924
80632041
1481160939
326957074
836988822
1135797563
1522387758
608950867
1848624065
1880909795
1030481600
2059698199
101343993
921322078
316803509
772537221
132417702
1221946031
1082474041
1750301683
906373383
1168297386
100439631
32010476
1503088597
11105735
1841966316
34404299
664733240
979205015
1823092932
190418667
505463026
1336983228
795932333
1351160518
2074171159
1228563736
1967199012
162529652
326926232
557196349
1444052346
16779041
1167317081
143413360
2074327362
827904776
1207989147
1748219429
487459196
403124882
1032842998
1432238417
2069211524
1177777653
1140199642
738278820
795807930
1839209789
951840687
74110960
1347566587
393857851
1813356387
1035257039
1372913594
1796834001
1424451586
1611016750
2066047721
1706699461
425952136
649404140
1977417932
591551042
1674142955
326695667
1019638589
1533242480
49251697
16674861
462275734
2104417658
1113635781
1145989660
2125785869
1617096288
905320851
161003079
88426969
1271894369
1760973344
974353595
467090336
827629123
2028185750
1572884414
1655219547
1167740488
541156771
352877783
1050382244
1120207044
364500693
1933608012
924174834
2105886530
1747833852
876925416
685413378
419772872
676777319
2088766696
1612140749
219419368
1019503331
197933163
1509703713
1561400413
756973879
146774940
1079656791
1295430314
95750291
1259762113
668900610
386337393
746978081
1359635281
866506855
347773784
486748949
1418249427
2130611791
380783962
41100
1113104481
274026979
353221759
2035552393
643925333
509778261
849792350
1288665733
1969496171
450080587
231966976
677304163
1972739135
1137159642
644825574
1899134664
1689176483
1872330811
801898287
1711214123
1528827799
1552936304
2018324904
1081857682
1362830290
137144929
663531518
1013502794
339970707
1878225964
1862990459
176498649
1719066515
530723336
1753991120
973022676
1983767926
385032208
1080023284
184998940
1305960136
1528955138
1895634411
1766599765
1441639877
1988974905
1080422704
2102487408
44580001
988589997
1593906405
1469808124
1139387909
1354029529
2057459267
820550127
1452004653
2019773520
1336275603
381053357
495613451
1619621471
1025446521
461427638
925748665
361833295
540710779
1178746600
325444195
1448273235
1041706768
81682708
1705483357
45582146
1249095563
1363186910
1706861874
1740474228
615824498
152483914
1880559836
1583061273
870494727
741446421
928632183
148451160
1566628476
1303626836
1575410648
1951797034
1765730546
5781813
2003062639
39447022
1109770094
1715022698
524883692
1080360682
1577089414
1352705763
44207180
966444611
1067631001
76257417
1885588761
1488954157
1758293083
1151886361
1018157722
518167949
1058168224
834273937
11502120
1160521001
1429779673
1718134949
27528665
1449843483
1038237689
1806234786
1325906846
1729586267
55785877
1057137912
1890385593
1353204747
459099034
606066158
1257080671
925810169
764337245
1596836072
807015216
643153934
1156031197
1035481506
1803289877
1023137215
225673791
2143817003
1801045478
750854350
156020518
1127153502
210693348
1157782876
933632805
117979618
1802055513
1457121834
2074028330
899148396
43718875
2044714140
667003433
1590833170
1245023282
394402254
1848320195
1844615865
1975061341
619542901
344083923
682438712
1634715439
429977557
771359933
782367647
878803045
2061746193
1153582925
2078024494
894566292
1115141714
1198041811
558204325
1314639138
2030070414
1036583758
2048385519
1003950576
314083768
1011832903
494175382
1751037813
1999513907
1131159900
661355974
14950407
450830401
876333414
886792310
1491250904
867068588
1115847733
296912819
1206130824
1464570499
1329412449
557508003
1051097957
1019552590
1579758027
1949915473
1800748958
1755259700
1673685727
1355386075
1634057975
1021744637
2019208024
603937755
1523103220
1020987123
269070166
1836499511
1296137162
1306991478
777495753
823873807
936641060
1572940976
664989567
1536175771
962239987
397208251
1633826148
1237424800
846501727
955712903
629388085
1279852202
1780384284
518250664
72013780
191660701
1701141996
1449806975
1798121840
547564462
1606778467
1211320512
105869686
245793464
317078418
293064437
895758433
2033893987
1099131352
880125014
1405901511
435588412
1115003610
156513322
1325096237
1869818902
367666397
980578968
88041453
141448262
1610347401
490128856
707724299
344356332
2029920409
1654258014
1964830583
274371163
485053164
1757820787
689127589
1928763797
545056672
1766001666
351720372
915755425
1942282927
1430744791
2106850695
1860224126
517318105
1810552056
2054523278
1526347048
1320055305
1947093974
696712303
28483606
1968418710
100047749
1017323924
1786560379
1901198726
1991274629
1196416555
1841404575
637209375
1098354212
1510493908
1667275629
1724724876
964299016
1670785709
642002329
362215188
1617987843
1798205
2014569451
1409747862
1956942776
1351440678
1210918741
779776957
589160050
746690361
1026255915
788082740
1221568689
2068764592
543748572
1416809077
1337925309
1084330090
1862338417
2070652254
2067514052
1808143271
1543297929
1517032824
1617092751
1074326574
2071187721
1302479116
1447495323
934183309
512253655
1246218351
1530169511
304284982
474641565
1937520162
1118571167
1361290522
1537763875
1868904408
2043417066
1069681076
1857516897
1149607199
1308794890
960698586
1874634844
878453111
1677710653
1157235448
343897974
964360964
1929550288
1063294643
344901653
74003505
1656246679
802020716
188843675
197053029
403215593
357302171
1851507795
17602548
256242726
1680765072
107044482
1027670752
1482473709
556360593
230632508
2086303241
599318670
2110490415
940815304
156803345
1287366381
358287887
1660971685
1216184505
817543176
1748428520
369916521
1594830531
664859281
1996323117
1061293905
216759068
493511216
1708742858
1179594447
626936549
433338757
1534426771
538121588
1909178876
1975112868
1580839097
10558811
702493102
330810231
1167079110
568470651
303026872
734911358
1813370338
1360898746
980173887
400118395
716510571
366149667
1153291355
283107443
1137560233
1215077302
171217085
1933896256
1219095949
1467318393
1844256410
1780593591
715175010
1176132842
583097006
1343854920
342423792
517941534
670351960
639849280
1463542707
697453512
1097704129
920665987
713613534
732318211
894177772
1463464912
874241034
1446706458
567258754
858019773
1236714802
1161777117
1268590696
929925023
473914462
389318166
1435799802
1875820035
2143438256
758909566
1753838193
442304261
1252812393
255378497
1783476671
1069709655
1371244705
1072494177
10499392
1370732847
1430734719
18720029
1034966590
658211412
1201882033
535069790
2030507966
680868500
729522076
1568239104
13051986
443517932
1680655230
1759273134
2085923141
982517369
825715190
568919320
177586048
1173408518
823260158
108838020
1528621828
177290628
783811857
913848285
984492067
1431486206
679045114
1803916453
1219483396
1582985054
1839807076
363594848
1278766094
1284569304
1676566973
98171400
1686759486
49897759
2081834679
732881140
434903434
683140117
426433116
1810717196
553034477
1052890656
766304651
2032075666
1937493165
474975838
250841638
1611843036
929373335
1430870098
332547633
637446826
1156757064
1544056588
1296429274
1714305734
2062451601
568655618
1158298210
1363567822
1887708259
271200319
2048416986
1212672674
2039392173
1831417922
1815091048
161044618
1531775605
524580210
1651241934
109150961
2089714029
1105956884
939643276
2073791677
1300727905
648127766
1567668915
1324184943
413186808
642152523
1669136406
40513511
1722840064
352038650
1350278503
969424946
506476299
1025446211
797828527
1723195757
102686627
2079511964
1015969567
647214349
1516280349
1957491049
1183873030
956233802
680370975
1288074557
1576147508
915686001
960549140
109309198
572745671
1400097719
1528226570
1422904388
107108249
19937927
2041551476
765451993
734865632
804322019
69310891
1849607094
2051803146
1051794357
1131548068
384986977
1894972026
1587787163
1656823250
2040051218
966595335
1172756619
268182423
821222811
1654779524
164496165
1158065075
1417230395
1017542498
1496129497
1986739646
514836091
967438983
321719176
365227191
571793736
1301304053
1599251496
187870997
853732589
931845823
2004967010
38108961
1509823073
1189079702
1155687557
603603849
2005336651
481515191
1152990225
410025690
833339098
529511041
1649341486
1882114120
1718578635
1284645163
255646788
1575357473
356660188
1295603157
1669317138
1992594351
392303914
939057101
1927067512
9033023
69067015
617725682
1296064884
699141373
1211311010
1179729853
1273089513
1627430095
1168121892
41361237
1561448958
1601713317
1130550076
371456178
1958735908
1470087934
180223171
550565773
534628101
599207038
1237136237
225564143
1961494223
877579492
819002645
679616378
1007415371
1853669140
1132196472
1381940733
759716489
433777912
2049566912
539807155
192496041
1939794007
493495363
1689172434
785439819
1966901911
820351548
92840000
1104231139
1512332610
1451887416
815070791
130116890
1900989007
1216585073
2013963383
2076782649
1281692702
1656545104
324334359
1945904627
1735988699
851396887
2107596373
868061619
1901906923
653039462
1781873353
2097520659
1841996822
1009399168
167170376
942748595
2142213448
1933029311
1682226046
908410062
1124597943
1695100293
283281341
1622054565
987781528
2141123419
1869719021
1629973972
2032833815
1257434532
205888325
1569402610
1262052179
263537355
963804848
1749154957
1590832933
1471212816
2115419321
520924530
15132312
30498104
1560356012
966415096
1210616435
165815445
385104845
1886406375
851675117
776054627
1944574564
820888201
2008471379
1272960853
1237979046
55835700
156689759
453113070
1717587386
1541131673
128795481
1835293352
889839136
1208083038
646323801
678645502
1883545275
89288201
1411154176
1953750552
1777665211
253586061
980835028
2073410782
1955752358
345792074
111235191
436679390
980983691
288533083
908153941
172231765
1472187707
1821466768
67241594
1727567060
1444647478
413639350
1813765426
1307679003
962753404
392726386
473830666
95580559
511610675
714049894
269379891
1097471185
94935441
732724602
2106561435
2099261732
1005461625
719327318
627021084
1846759301
1998854086
1993461099
182371892
694222221
445034086
411610352
227585720
1831927652
1097296315
435104268
1445439061
1723632356
409635202
501997901
114048235
1638566074
1022670223
1696052891
525429412
56221547
1300885641
1379566471
187074573
248694160
218027327
1574391273
1475874502
741874586
1971132899
674301343
554705228
1353829991
1467768153
2102446929
1286069119
703152581
602946258
649510401
1299868447
1515242009
1208788471
1384010288
873131777
1636761298
203526066
668938041
2016288985
1049070870
909038083
1427346971
76071957
781807968
1139893334
2060275606
852745985
1741468234
1732958173
1434591839
282573551
1237840504
184818512
1694028245
1932438491
1132925617
84707455
379560745
201367835
300670156
1047934605
525692121
1896381862
90289481
9476162
1030630402
894711984
720197067
1101160174
198976367
2018559181
119639935
987997963
1669759260
215138678
127014062
1148808357
2146864301
535622213
1769819174
1800619872
950296129
277184516
310782687
1877765874
541858760
1975189612
980882761
1544619758
1070907404
592070242
1260833687
552121319
1785817135
1346763391
95967805
900167376
1422273187
1569782600
1250890967
2053493065
687437068
380405024
1399822505
834745035
1169879702
680207087
1164367431
923118515
778631702
1866032612
976233588
767683128
1855816843
609052260
1056135618
1120304801
1401662194
1697516436
1213460347
900818775
1639361819
2036538396
1105865554
1162274059
1437302645
910104055
694112761
1073256339
1250287910
1448333125
327540994
1696325910
1361705816
407035403
199676432
1919980371
1463518713
2040187042
1969021814
750314352
888895214
1737621021
1819732967
1766041201
357906524
1217435117
712651908
426366111
730097205
1318705440
167631440
404772760
1306269054
331780578
339228951
2094996501
358130074
388047820
1748458926
2118021257
231015147
1230269592
1532854187
2043389963
1381805392
1975413635
1687848090
95815339
653456901
1972875997
972785956
68482597
902365729
1073782472
38368258
111706600
375078052
317019903
445616212
1830099787
563041453
499750247
830680815
112960942
1540080715
1219311675
1625641478
611240721
1705106891
1717213291
1998020211
1835440166
1876124380
1519364898
1362875864
1978884258
530358838
2039671201
2019301785
93383473
608968262
669319504
707540130
756737540
2001779516
98585669
270904799
1157866294
1543992536
1010241876
634544637
646847585
884055486
1264684163
826304134
1915502586
639411390
288145170
918025071
2017625143
1269064495
213583825
2062308707
1622262906
1767437318
1114080098
1962993781
2024301772
439423239
2115843240
64690714
492551897
1817311644
332592276
1348104973
225105125
899014873
587016852
3123783
30101501
647619580
1256607099
992722678
1245823571
1119651896
721365651
117447219
1216754791
1737867693
2069362311
596163095
139852164
1989247211
2123572784
1540973483
1507052383
2138425792
130223486
778493148
1052192453
2059227422
1271089282
1086664458
703340448
919577383
918482033
1234432325
73663777
322949757
62160374
1968282285
553184956
22719773
1558754112
1223613469
1147410172
23952245
1499003774
656081632
627618105
2018395790
1012846322
1667392370
1282669888
1087284787
1909770125
945277559
18064219
1222776590
1512997152
69335069
2126731439
1516296479
387203511
1625694664
2041760755
1668306459
708012338
78150872
256170237
716836632
1561635436
1314639895
355009864
1471812425
300485389
66653879
1427129486
395181645
1247718319
127400451
572392576
1791852125
1655593022
799132767
1482064233
1360355809
875749427
2018962126
1030447670
319696640
201012980
1929420635
1701289124
1540833443
518544371
692575122
752591326
652176770
1711803134
558498451
223007290
1062483379
318583860
1227144069
129710590
712014281
359087309
1322372028
476616015
1444132926
2002323203
1263270016
1169923169
1227543569
672186983
773190183
801544268
1536385905
557941781
6047187
1822965296
658670785
744466096
1695242122
827708598
1956134578
1786835862
760374560
896376660
1474847900
578916798
1865191353
601002767
241304994
1044299566
1168698988
552751809
1688101817
1222135993
1087023209
1186362166
289435678
755628528
217716638
356648725
1915605810
1674403264
2093551
985428950
51018156
949348159
77823147
998935912
801090474
1100441762
1218758159
1870068463
1442294342
665355399
703326187
2003493526
1553389138
1517411804
220614982
1115151814
1079729692
1387990987
690690482
1880372731
1357673525
231108299
1293900314
1485465726
432147748
2043449387
1249087577
1136456348
376317567
482908831
1909655719
1501521450
1508938736
1407606310
2084458610
501597724
1021204126
587412752
1202302963
1460349355
1984264881
684895056
10005748
149989812
928415210
1834479426
676304015
1194693735
2046574048
1703217675
1632898638
1938418068
782986789
804315000
169194859
450633490
1439864464
1001715260
1874312133
40054004
1433639216
1000605908
1226085292
415621562
59752753
2099928257
875864660
1723891267
1781487787
1934156744
512817755
1170840290
971884241
54272929
1385897275
307712753
873674369
1635771948
1529005725
1116059913
224707682
318812654
122863038
1090491358
1727280409
1869351543
404598757
657088870
2052600650
1320187923
34870102
1891017878
2060850804
1558075495
884740072
97876014
1965437098
1689941806
44331882
7629828
597402906
980643134
327920189
1543547090
1016645089
1292552644
1007927832
1314020415
895023960
1176699565
748450912
1535208935
1262039219
84093897
586954964
1300527797
1640483815
717322285
686907019
328931681
1678060208
1520796076
1799630759
748971845
1532864864
1123244481
1538464444
581098477
1460023698
2003853693
434234600
1154377108
176443133
538110242
228910291
951438713
977981221
2070780426
790709374
705717273
561243993
898082038
794512204
1409348900
1942086124
418560907
233550041
1437271144
2066699695
688902300
649393820
1058754847
276292520
1100193655
1687276156
44344178
1377991986
1752956144
202731804
2045894422
95826624
348581826
2073507787
1965973732
2061666671
1163694130
1273098078
1439015665
411326890
1622978638
1862299046
89860098
1871721907
1998671115
1086330950
750498001
1208702725
635880860
1990358731
1705555714
408688017
69917671
2065091820
1031746315
928703842
766737737
32816220
1037739773
1571609826
843993612
173076452
1400206267
856736644
1694111309
199544116
1386706002
812099482
1061861859
1013067460
67363738
258079895
1251559637
724313765
314017458
1423589783
1102093115
1745733778
1768432351
990261056
1657261490
61340695
24524963
1556573918
851149389
1987008183
1671563507
59037463
1066854260
1563623125
406118447
1561670570
1100843300
4560094
133147587
660902699
1327950136
1149314663
1444926972
194845882
817684189
1937713223
123431235
1924951757
1074642877
981301411
1468366351
295601660
493047620
1435068718
1960570294
1118251490
1819244614
380227966
1827622840
2136138878
845138908
1457596749
1938177263
1813544921
1548274152
1627433650
1250745604
1831079079
1712976502
207977615
1968290261
580153440
258710658
131654777
141613997
1996782489
77043448
1122795796
1391341091
457738207
1605210357
1984662719
1277176832
1583980074
1710508472
26879822
623629144
1225205191
1808304464
798730334
334684618
1063786900
1372250241
1870199181
1752521031
765773482
460140799
874510670
1019694042
1701974774
806419977
1893000268
316403639
1563904731
1829209166
338610264
2055666679
1815574439
1206164069
1893203496
1697991835
1874280062
1572165843
898346047
469618455
2032682326
1825278615
1810452482
1607185893
1032004140
1542382866
1876382130
310572416
2048446796
451217575
1867357387
1663043626
1665446641
1432438984
1149322161
1442052744
1971851680
579681303
1653221718
624803707
699937083
276501754
381399888
1568787608
419947519
603111743
252282061
1143013015
232106478
573231968
1743863804
97502487
1380406875
991834561
2055360659
1571723152
1172061776
1884262245
1027391139
1558491323
1597959929
1558948949
1218447380
901649318
1069509479
1364942150
1919091486
1819137916
1644098509
91643065
2020460699
313899855
896946850
2041045536
1590601346
986973150
614445965
2021000097
1912805875
423140895
330105205
117234911
1359859971
1537379371
1507052674
1947107261
2029172203
258382420
257407281
449359026
89260152
130046390
1184658765
1452364676
939216999
271476171
1722300317
327867054
1534185564
1442508902
1637860569
1471229917
981098309
1462867332
1776615067
368091269
820822835
1281587195
346093998
363297258
1210114811
1840948555
144874469
908292424
1668352243
587055780
1822081772
1456198687
929705280
558170199
1071575517
835289356
543377430
809588321
620464070
1943207
1800710920
1276578002
1702788725
1261980941
1172858095
401372100
444837787
1631561156
1356638892
409870344
1839965164
1985553349
972114491
1957240512
1380313438
375741403
1354310785
113028744
1721233600
666873022
1003008111
1426335378
1632203982
1622323134
1239057366
528100303
119498654
913469563
1419962020
70659356
558786941
1972202894
1227582763
1493509848
1288554237
1625645215
732928474
926855097
1060372265
1700843208
1393788823
1511476504
1170592202
631660633
573414621
1456541403
1333843365
1515389396
859587669
1632334804
1124767465
1077660538
1006678249
1049859582
898448648
258781740
1729603220
976592632
1336588668
984940300
2034847101
1781564351
1238334841
11702412
1470696404
1217202639
1766701205
611115399
1702782976
683217458
1271537392
1957747401
923792251
1374170800
379795320
511601199
1082735629
249200101
1276916223
536404932
1985267512
1317719862
406078879
241904022
1180898115
6622992
1530107630
1125161908
1744282297
700840871
269919894
1735643427
968166783
1235558596
1763788470
1129584539
1136729105
2053774341
486677017
455261128
1979312345
1628318022
1661966792
1598626278
1616186153
1540028175
88581070
1636332921
1839319346
163037740
987402511
1055169000
386355747
802536144
774558681
699024157
414712016
791457779
625614264
1078086766
1718789469
850986027
1008537112
581085856
2022365192
1930160642
2070833287
21900025
139547409
1755244430
1482347222
1844706198
1960138055
83600236
1268652795
1189084247
1326975970
234420306
946538022
730650180
1995113790
2104381939
1184278108
29940890
1070770835
1390301404
603994323
805221425
1197851264
330938037
1430162481
1381155974
2093153178
1241225914
1438379780
1432776670
1389723106
671081888
1133094378
179442362
893486597
328537784
861137325
2005323017
435291797
963268203
218066312
1357451828
1868583668
1830462600
2040098200
1268056267
835637603
20366133
2002994389
547193718
533706049
1842203479
417500062
1681340648
1485881746
186024307
1207877051
224404540
612700826
1492762940
508913844
1379214508
1126559879
1130314217
909882
1172715254
1453566478
238908193
647333420
1918532684
1753183708
328079489
751664348
2025130884
136797501
1080528321
1985153331
420186369
785198805
1167903717
2007719868
1522501406
1641117632
996443277
1966867287
1812704670
2134607664
111709803
1125690706
813017955
903313266
566139334
1741666836
1526066555
1689469151
23801067
1082007667
1506156494
2077479979
707782555
1687416581
1189573991
2048605208
688263111
198333349
26327221
1249429495
96888434
556541989
165421910
211566195
1822376584
2035419642
823197522
1132795619
924448395
1406334792
775753256
1986444404
743472059
1641707064
665565775
108713792
1125410523
95765115
1193348641
1450877016
1743266998
1516602264
2009232739
1587034550
1137409468
1387236287
2042578048
1777406586
1073504927
1663573336
149555570
9588814
99418218
854407562
1754506159
1799897497
30416142
986871515
1075389530
1284626412
2034023236
183098995
1354069741
2083596877
378144578
577917809
776458530
686948179
1554287186
1582596263
1239411487
1046437770
1312663414
2121748198
1174470672
708915045
777412552
575988529
967611893
1608176167
524705454
1633232122
946212433
1560531801
142626262
1270008963
713031200
2136185179
309621132
744487245
975457908
632889343
856853849
1432309726
1453859828
1828174362
881594218
319725622
282890218
1268899005
1394050600
467670036
1479346258
1816850408
93739834
1840178534
1769777038
1657350867
1075697647
169647208
231945583
998274117
2122609273
1736430993
403371777
1775193604
674521307
873304119
1708148457
1154926242
1705276973
889586869
23328114
267809763
1257784925
466485969
1588687144
2121626848
1248367197
519952263
258586335
938572875
875887867
2106506179
787745222
491578037
553649723
1315949169
807760931
1811202262
2123780211
518749909
600837985
1601704416
373435376
1718008445
5968921
394845652
1189899178
1042437044
1739895339
1386244853
1416331521
398994459
1645130192
2074048809
411164821
1571606097
16177907
451118031
288140772
2077136012
1601971695
1902775139
990097475
1220237022
2033300440
1589307611
1569427069
564502805
1526763059
812820149
1786467084
1293054271
1037643769
476439631
1343633753
1537769114
745919835
1819721601
567984210
1187644931
1786680306
1297434415
1105725527
2025988742
1820343145
1065612505
1083864659
980330929
1296497974
1545154538
1996529792
913281690
1313725811
1960236845
1944683170
1510270065
370403964
290509660
711784994
1474571301
138952092
1761325418
1810860638
1903065892
1088275239
1008485507
381839499
1859120395
1815595800
1404129426
94425340
1454487195
1807769716
2056273013
862691867
38255399
1868130937
1879952356
832848253
446868441
1765381201
648798787
2135410692
1615834270
48627011
392514727
13334067
1450083229
2132390346
206607248
1360752502
109530902
1032579674
57857587
1587331092
310952793
1655051550
750496668
1179887594
779612459
1985652033
205721085
577712046
1668977729
577612757
1946307576
144376933
704964921
295712575
1449198506
1066966104
2031356867
1313831986
1695491145
1119920861
1551752595
1614333434
96794900
2100145340
2088727432
1311976955
1621244551
1030829173
1020464372
298851542
704981529
1037295231
968266037
2012451313
1272099506
1010959763
1835767298
1519727673
944280759
2461372
819588691
352004589
2056427227
1401816452
371048352
215988600
125550876
1613234407
1273635072
672313603
1656004344
262459119
1288257767
122132260
1665632615
39020729
358814582
1675731775
1005844866
1707847499
2031323349
2007923987
1783226932
1890381764
1815694222
1654703580
1367216908
126922631
1069942451
331048950
202416617
309510135
1371091915
1333702464
1769889291
1357880223
575566268
122169768
458639686
114952575
231236247
1379290862
1194072893
701041244
518066580
2034299208
151046884
1264520185
101245516
760706443
1809457523
1395353094
1035797953
662033203
2086818761
908533263
1147042256
532765943
1535681950
955118563
403869239
970870914
490476262
1827976652
1230369733
969879479
1232667345
1957007
84628116
231661516
67305839
556625940
1726900062
1991676445
826507879
717042512
963947227
1503687787
1692838578
2037520600
4489053
177744165
15672180
1230241480
1183573772
692717395
706343925
826848103
715113184
1975657258
411788215
1389576451
74225622
1416371760
1373496535
391676492
1281482127
228900708
63702646
1531575980
346084633
776885230
80637646
850923174
1985472144
1274599051
1915149705
32262129
1230210954
1347346601
2029073876
2009936243
1408084377
1419272763
301174993
250363845
1571074006
2135171514
1443256252
356456985
784526861
1116275958
319645223
1503995079
195014276
1280319756
1872442499
24794991
572702748
1824035496
896993741
798513153
743672996
832970312
1230976598
289857462
987543406
1928042644
1753241050
347891290
781009679
197269031
2050660714
2146441128
1610629166
56485027
518920848
1436421928
1353974548
1871858223
581383240
1904139259
16376418
1771376181
480503419
64179553
709328313
2115160382
1254833986
394626962
630360713
384105840
575655462
356540158
830483529
1977284363
483794208
1090387206
475058435
1965454393
2073572416
2125384864
160536709
1662850334
270475958
1035578880
599540290
1948226720
340496847
1110864611
101622779
1855441169
965107402
501457733
184723203
1646160658
1494367612
167282924
1877987365
1811523241
362242652
1981056142
1719618618
1078293474
1210201216
128756002
951813951
1748416078
1089341572
1886953696
346311292
1661609340
913629729
1904204034
1750098679
407895387
861748909
327677534
1875234564
1332049555
1845422001
348492098
835810717
688719518
844614720
1188051493
692544275
1698064318
1768547449
385533362
1010078012
271018434
1327176363
1045487775
1789604855
123111982
298860083
496692509
1257410633
526930953
1696333174
350823778
2030263037
299927700
49997923
893847956
324640105
976752442
758479537
2119701207
927278493
254324306
2057383257
1891545158
721517318
773819068
437883374
424577734
67001791
1005023314
925529198
1479217547
467782637
1320936090
1384383849
169037327
250384624
185988207
712117266
1631322279
1250581261
363063406
1034887471
641270965
1660311907
2046597533
84734057
1217854589
2063426363
650095320
915047313
434521529
17212682
619937763
1049727939
1159214643
1621874563
965868913
439608529
254779225
139066868
760549624
1600235139
761633489
1175694219
133431562
103931812
237258
139317902
555910817
1886773088
1213454935
2021661230
46312378
988854451
2066274509
964803881
886731965
363578150
547188608
1147924297
754864222
922822289
1154347237
2023410814
1073827784
1997892679
1416341748
1862651478
500967226
1066998311
1529586086
22596345
215741884
1036735495
2033299349
961968882
1246352781
718702264
129549594
86869899
735851775
146807147
1280937922
428417327
1449326079
1615079729
1164991504
1514544477
457135644
1578518952
155402560
1993710820
1331208127
606097622
1688835761
527842032
861839852
1031284748
1561702101
1418510918
1313533938
1642440470
1963056170
1367698424
1748101794
401700345
283229636
2026284441
613715989
1251342196
500749040
1851678573
277091266
298531621
580343690
993190653
1376272188
994506685
769550432
1654665430
56203741
317295931
625766358
1217062712
631265657
7409509
1244846386
504475594
2080971351
1244354551
1633029567
1193686693
153116608
713040000
1167636726
1266067431
1434835983
1749820789
1286820836
1764800045
405307613
1210470185
1211693707
1212623122
1297897227
1992811957
340428651
419623594
1127948193
2062600563
276363286
415813400
518044684
1329641156
242751727
203188539
1597267259
2057211806
895646310
889850341
1729068370
1474735438
258976800
692047511
565419747
1001995258
1931330040
725575168
1637864968
1231133584
938418128
1311856720
720836552
233818906
704482830
872600472
801657531
1656543753
1992529364
563544989
1571377040
649290636
1486693662
1962209014
2033539292
265621426
362838797
1031462398
1696639840
748035657
2039504052
1312835756
1471262412
650639672
1237880820
518999327
1787884920
2011942449
1294311796
796831127
503383209
15085938
1627975587
1733645990
430892331
1563215899
934936445
276852280
711752488
1403451817
1132861583
465889410
893757143
1973070636
2099194240
1249224619
360787027
1310589168
584774739
790044883
473850911
2057775326
1100186055
771328774
763409189
527641775
1326047070
1125291381
1067043735
1755106421
1489772952
1384097128
1325642779
719085660
1237299620
758750375
702257426
1024050005
194044163
1000548356
1263428709
1301890425
1349043711
1807389931
1483218363
1164748137
476733386
282603630
752292487
997266335
899154582
1459760332
1196672849
312687655
1944194139
1140789289
1249816140
372398319
37740645
2087692975
807708960
1167805384
2094279777
593073373
972771449
78954784
2000516032
782972273
470156223
163928591
1498670295
1935822893
1374995083
769449575
666203198
2015239118
166579237
835286857
950092202
1292230736
206768101
471986458
79905853
1007492332
154416478
184419769
917585414
482227989
960423062
773173019
1392114006
1926541310
1226651312
471892378
1304939526
1058005700
324298164
1483607373
574055494
231164918
1037309186
600852838
44293407
1458132434
1703373256
504432154
4790605
791523415
458812063
1263232534
331180427
442773068
322578497
1117938176
1055094559
48835736
115355178
569201215
336951612
1919450902
1929755085
1544781914
1164619801
607643716
2133081055
368034444
2048404104
1773278894
213164069
129310104
118346100
488319835
472440162
1055747688
1259387835
129484793
1794068003
659234055
1437846391
736077167
1727058155
1856427729
732926332
1408545232
1360703456
715280393
1782217142
457684634
698700273
478744298
1042431967
1578338096
1172877946
170409356
445098748
433567462
951034177
1618379829
1446875728
1199298415
52087786
923069306
1441540350
482623184
1430555849
1364313686
741970678
1791055302
2062975988
1698079993
542687394
2063756907
1776416601
1003114130
1451201375
1567957437
1139538630
875545568
1692748265
217724486
20865258
1173047560
1930048572
685313680
1525576283
1517713462
405385240
1029349139
2016046798
871127936
148335918
905243729
1291769089
415666089
1122564435
395317605
182743902
583298582
1240241389
160288365
2020097816
1496661655
764301078
6069854
2120087015
754873005
2121034173
209671457
909018441
2128013030
83625457
1695696547
1173568270
240135592
20912232
1022817350
1546567078
174514475
1898751349
1307526054
638897282
2054356373
1456227651
1158757443
678545366
1483817892
908456073
1612467825
1952645432
2076091102
105321414
324608277
1177605087
1568582450
398322939
2077026384
901481670
1309018142
2114727496
833176418
1024191277
1690436158
1488055248
1124180712
2058936461
1245055483
1804717701
921647018
988969163
1976060324
1301254487
1970038778
2065957546
389431181
258589977
1347473048
1228787760
631922847
468704442
771145943
282576502
1955316186
903184808
2117295320
494777895
943770564
1585721437
778706824
1385593901
322827239
476847005
1101333362
1450633451
366575297
108353998
96085586
793866631
293423884
760371389
380106631
366192521
972006106
1922341297
2104553213
174225750
1301026445
411350615
937413164
117848653
1600479036
1423879166
1522357210
2033677112
1684621351
1941139622
1210101951
64846434
1321181612
517001041
530790198
1659884561
1354578754
691047286
509660292
659249821
1390667251
1292881369
416140206
1651256874
1049132530
510646510
277574441
1054699070
2027421103
182518983
612621267
1800386711
1209309091
446235431
968259184
728199775
1594087655
1173711992
1061032565
1383323528
1889981160
363565799
1480158178
1633670300
2020953595
1795596295
39797282
2051908772
1366623092
951384094
2553259
1500396561
1218830481
600172080
1636740679
63272580
224153557
2006487472
2124941789
1638666475
1010994038
245184687
322195930
67135618
1071249467
1290384926
1790523998
1612121177
1668646628
146951201
815212511
1604051914
1002839858
1079491192
2143944066
917870774
1915883907
1125882024
975008718
198911550
240161137
2882452
2126378504
435005867
184694802
2054643998
1278151003
373738157
1522503121
1985602721
1909471827
1233974204
2027330895
1268038528
1899598783
1933463963
1131449601
1637939411
1339596025
1023646847
475546165
998152576
492232499
872130569
882575918
457234832
460518616
1934670615
1899777490
750309202
1384249
1686679720
89475705
1371492361
982017239
924901221
806999361
431955016
2028025814
1915144932
56304909
557864017
1656398853
1201576623
826385467
223753066
445842739
447241068
504810350
300946834
389105037
1987380989
1427637210
1898889835
1251713921
87839780
90935580
620692013
1414070451
1803833301
1450214319
1801091586
676706116
1160494110
818066320
951046073
631568648
1590180285
191611315
588453471
150451453
654915381
1658462890
737641112
52561388
955296275
962015598
1699964558
1957177577
1221758621
1591036021
1244624517
1898707773
724316139
1074717960
1103254801
825491500
495204480
588239067
660170406
16052325
1856277215
23155818
1483730697
115789677
480174275
506622412
896890038
1829669312
2083337292
150283790
820276541
201661396
2115956666
1930015724
2070557117
786775898
748938725
422639116
318847755
1667801663
57021176
2141108550
1979622909
161326333
1384325968
1638211321
2050228064
2059313155
1838597451
2081556099
1264998649
651408171
2099691696
1131905317
1534829667
1961368232
1642190544
632834682
434067697
29101667
910322529
676416435
381640393
217851803
474346645
184100256
1239565243
2099728127
705311347
273597231
200783586
1584149553
1900097692
745534215
1818512832
552028674
1250757979
460393105
1823051752
516574837
1056213602
1204719551
1303071536
454449130
515990761
1930554133
36909145
1974561827
238646855
1090658972
87275225
1103142338
230923110
400137137
1097550239
1062187818
1143563749
1041884453
1797831343
1903121554
382112688
951486964
605159507
638763497
1687637958
711977667
2079209514
1159074199
104217142
1465327903
1620309105
536213083
100349977
1972627693
1379717022
1138888165
1485573169
514167582
949962951
2079504113
927971136
41418564
5236812
1097559862
458596397
1875222334
923446120
1276295699
945914827
1532985230
816167158
1288212161
1022176712
1242848113
1435393399
413421189
84998328
1594865082
382816076
721633949
1533285863
1386871764
584006441
1762697971
1409654357
1002614708
1490982958
2037392429
1126132297
1608358493
557564948
1322520092
1230221843
744228280
969435022
879221183
1839625700
223018784
926622354
1058559796
1033088659
207593981
1837138054
2128764145
1898136800
2094688464
690893928
661716286
434885454
1999276286
520723796
661931076
1897213118
155866003
901943887
1245282121
1770761580
1189978379
1361278776
120457708
1085625204
1320895004
219650087
253076711
1629068988
1743420132
1644744360
1994216525
126695641
230524177
2067098931
336840074
1016227331
343021965
448754529
925908507
1488928061
224461656
1045826377
1810960629
1947903967
774224275
1383746596
1211801003
1300310689
1086783923
562055149
369088148
1749185894
150575619
1317887677
1289571895
1397275611
347466598
334814055
1546636903
1178260779
477742126
661903340
915371637
2116691151
1773083061
367880537
1673027725
75319962
802214750
459805720
369742173
1340644017
1594268626
1932363841
1558506733
2019909243
890289335
1460512299
223606334
70835143
863829831
1676003862
1585648623
624698992
675125213
1554866378
2142478388
313898858
534452110
1281934250
426966492
87412155
1721394837
1384340773
1006499552
923178527
806340219
1949439254
819569439
752950316
314039414
547292208
2110444996
1874330003
1062192043
750743928
594875499
1233714970
969222011
1725240678
1107956870
71707767
1538745675
12297968
1385349751
453513389
245544837
1933815689
192597789
1121548956
1978558323
603694881
1395115575
697180308
792135446
32004301
1401203988
1177880860
1632482357
2093846181
1435183210
400014101
142959125
768083514
66267826
878130658
1225206755
1058647287
273820279
307737101
235319062
472458219
1980948513
105654418
1590652160
836078781
986615108
2077402165
415512186
174038351
330353102
162683184
663329878
1464400947
1135532674
401376690
1655991036
111862986
1450938363
1819351417
1786063916
1352995845
272673670
338175808
853127497
1017510943
38194965
1126243299
1734190526
1970094301
819261976
1876475740
1856186506
1573485564
380657689
447151173
407662499
926042493
382091156
1669689632
1695510895
1316985851
346529694
1166002050
1664915246
169826434
2023820858
138335541
1209104212
1615477591
1414968977
893354925
1079023503
718865285
820905930
526811366
1756837750
24832017
1206772282
1354872761
2030707210
976114510
69095009
2070449966
1787988239
1794959201
667990890
1468789731
1157883419
1193003841
1511638115
703014829
1122231761
1957772766
614825915
48388527
682449231
2141221516
401560609
534251350
2013737292
1490859668
1539725376
890119099
445153138
1625611071
1713846296
1209272404
899842387
1328016448
1788125949
659959126
325694009
1597254259
1345798835
1960356268
1779885477
129061035
489568561
657029986
1312385447
507977821
1234773728
1421580251
1102262415
783365315
1426372852
318489566
465044427
1918967912
1157808012
730870830
1948827131
1093652598
1675021340
1733555597
1321438441
46086444
708859788
801054030
2025995301
458050238
931885218
1284292861
1704953685
98118754
389083660
210745083
1440510892
1218167261
1399800000
902241988
884912977
804550320
2019856973
702788010
1612779219
1057706788
861125317
1099880951
2005850029
210327573
635208582
2045023191
1577280109
1290281802
1427147027
749802927
1271302430
452582279
1349362027
757284898
603927856
577398149
1155975769
1204082311
1001714260
656072517
742694793
1302953750
1578731528
2136499423
692476186
2145749644
471047252
1980701824
1695306124
1635616152
1529044472
758811399
1786057773
723488858
567948844
2146709439
137753421
1427603070
1312719865
245459227
848832118
1762574320
882138429
249667681
836989129
239669513
455367067
738049801
580865835
137294483
565798040
1002039638
1760800331
672590388
1638832108
1183482907
949102933
6195832
1971723706
1632469017
917557201
2013545369
488774324
432598660
62878770
856881890
1574477931
1045421484
648053184
491809821
1270589312
336493599
1666079573
1103057046
462295600
513705481
2062958788
2057719836
855553586
1856305423
733068839
1793898748
652373737
73011353
36151664
448659568
1967536233
771524987
796752012
2122648278
1263685816
1766928208
438474839
544226186
1293378145
846180302
1209903644
433016338
528398185
1362999207
228966997
45872408
1656123988
572085839
451935938
2073969547
1569902916
89369200
406498433
1966988591
1350400068
339531281
2000615073
1630596538
1084998355
1906457346
2102533144
2107238880
175447756
113245973
1235168752
2084902813
734162520
1019664472
1057117703
1448533478
2108650066
1178018027
1093575924
853269927
2123840615
1383216160
552036335
1605095717
1541712227
285413861
1664485365
2033202499
488629204
960449447
1134915376
2126493904
668069127
1577138142
1772877752
912225575
1308045611
744255202
1166860670
1809510099
920264732
1330483007
1763332262
1145298229
877580254
294013271
1960891456
269138619
2087233358
2039919630
1516598222
989928946
1239617648
64284937
1077888457
850843840
328610323
1216604450
