7200 1670194289
249197770
1989124556
218051018
19515333
317680301
2046259171
815452924
943457860
569605206
1548978538
1006660279
550558950
441510032
1188467715
201821640
816280330
787549322
1086196436
956953912
1175384400
1587004096
1301231512
934060853
231792600
1085443096
497104337
2106674979
372312998
659324801
445447234
1404115435
959182379
2063073948
1396469798
390171094
1144834707
513755609
695303727
86298469
1679023091
374120633
616447449
1258705249
1590078612
488339982
1963399977
2086961360
253917897
1268992100
2026375419
820573536
1609193631
1766661589
158710623
2089800187
904513745
2430101
1651763623
557805663
1273292236
1272479605
758749468
1284593142
2072973294
565305707
391933546
1806528457
1255220014
2021895852
1432094893
439916283
1422407227
1150473263
388391803
1886870681
1241898984
1823606911
963526852
2011569730
1270547999
853467969
1762433938
1420255888
1368798096
64077454
2076582370
1028226207
440301083
1041325581
1944958798
696547548
1517536582
574316599
2055012073
867258717
1996353668
1129477446
358346162
2145085828
296948998
1996710241
2108712107
376263507
301898832
1928446684
1009701738
2140789274
359776859
1966973829
394584638
264394797
1560716304
194171204
1796678594
1010520743
1474221370
1160969529
711643242
2062572845
1550220986
1502323926
666142674
512247535
1961166201
235454912
707074815
1405783629
1554265970
1794458253
2058182412
1546067355
1727464232
408570411
1276249887
1549881023
159954253
149829812
1162380995
360658998
662552258
1782873066
2067135552
557727965
51315589
646915767
1359553187
1382939642
1734914190
493048347
76041276
615665120
750098887
370230516
499934285
911071397
744497417
1329685665
268565146
431337202
330408841
1957096744
317281197
1674531215
1058631867
750350596
451839282
920253266
1753499715
1569071643
1473418935
690226435
2001559654
952754508
1207872580
1238239757
678556695
346363765
951728481
754693236
298866930
257578270
2040347142
1408518412
861642377
2041100904
465008108
1960004640
1565307774
74655923
1258670688
411727223
712643555
864368930
720272585
1024846875
706674886
543620645
480089123
618908489
343620721
626035413
2017082434
999288520
164909644
426656772
135147394
2067072565
1669424216
1556543451
2128095508
78901824
181043570
188005956
815947567
678586474
428114921
1258398136
127272409
1815207834
1014134695
1289293374
73717772
767542224
1737852898
937364211
335653726
1499460346
1756657249
1709062589
578881763
1173520604
1149475064
10329936
354078889
670417782
251027382
1116681254
996532942
799385418
392389585
1378368489
1376178902
1301892023
1296301360
1750361620
1596629221
1147135602
846750041
798275210
54951181
482210065
68765931
175846686
1320521845
1162583082
2063605378
894723662
1189990528
492145730
558806254
2146405304
69523649
1711332828
979338443
697740189
845008097
332624163
514290585
979853777
1190740893
1038188446
892477783
173897661
1711290303
1862366883
1619115814
2139112562
1082328101
1753685268
1153133968
1774441780
663053486
1965489847
1093214803
1146019228
621838514
1036198084
1329207010
150368185
656670092
687996540
894091094
736132203
643766494
699452562
463292242
1113463766
878365247
2131887671
369858874
1227791655
63827605
1297694994
488369245
1937530752
1186232601
464865650
1027660448
1694790013
752004665
812222057
1932394479
922352085
1594713584
1922541206
1078599389
676751296
170939890
1819972524
2053623845
1600613095
1708876646
1072934736
906868915
730575810
577764867
1516984076
1790396226
1127185379
1257734609
1948627098
345439114
188339783
1847304535
1783414247
528692152
171689823
1265227718
1242610188
1389789905
1121068378
1346036748
1851767981
1177325441
1305165995
1639401984
1624614633
453278154
767644666
1200741699
1101354764
1332857204
2063252553
87118658
1364993324
2049238079
796981795
220323273
1384163214
540281948
142571595
2093468857
1479392840
422438385
588979573
1953249415
971696220
505317021
806593406
702330114
1277353659
743443102
1386199074
32967420
666466835
1420800883
2081744282
1335491065
979492269
1692438109
1460421093
1284768747
209054968
254058983
433383443
2068397642
540018239
1382393099
1629828977
1575562523
155715629
1673936142
18603246
1378722808
1528077781
1061471042
197239431
1723576775
1316082222
1293456444
559744990
694129213
130936178
898819365
2013831705
998025178
819828834
225190634
1696416992
1814724315
681068884
2022102855
337703459
764925656
1597896549
961616022
2081133077
1970058680
189208655
1594719837
215118838
1980006642
1061151503
1701617891
2085328356
544809146
128965872
469769940
177845724
93858250
458141166
338701224
192030858
1979387884
1323777176
545039825
2058189617
798711794
1768559164
535999713
1605622462
2036072918
600835969
1692397612
1148601477
1126204225
328087760
2112621722
163937920
992701013
1971077575
81924895
1811404722
1201442440
1244512827
1452416756
401518478
1963490351
1944070644
995402655
1101842266
826400256
155045224
265829382
1120819654
328069074
1465336299
1778581399
1616116624
27064437
408158544
97542328
1951482653
851430380
863721160
2050266079
1496332615
1760777844
1851167513
1311669548
425365957
830156183
1305315489
38872675
255437508
484715291
20860869
53329449
1318999511
543690605
280056549
1025973519
1640064852
952839003
711631629
844616832
422449133
1894585021
1396282333
2136196474
1728510847
476403282
1745330150
732839261
2067216947
1755661961
1313314077
2001575324
390066335
1563934016
1678116966
230000970
1433653159
2111303797
930878263
613456804
1754355039
2134395833
1227183596
182625783
634180797
1634882446
444220901
309097963
2088453620
1228443408
244301998
82453580
1403969203
453212619
687663196
49605271
523662020
697466580
42485806
980517325
1519426570
993655457
1513963623
1452542032
2038671969
1066878223
2091563754
1671589971
1126915189
1231275001
1378625351
482244004
1970102178
1044383093
1077788381
975183125
2078644392
812638667
687673635
1514781047
1987785497
2090903070
924244109
148797992
1089436272
267535914
1266881957
837059154
634878432
681350919
1301312563
5997964
1687250172
1974047050
1289746202
993062756
853985011
811440839
1477569745
733647135
1747745829
604428671
570764118
1962989519
147943845
386698617
178885788
54627085
1986866584
708277034
1602675400
1597248178
427761419
155987404
725138639
951600562
1865398095
842053905
843125214
1756938141
2122598647
636871718
1186053693
2049556340
1435939050
155046837
1800304441
2116914645
1350682222
261655473
1374158849
126315261
282301243
126845462
399615291
631637267
896947124
2067347693
1047658805
397309621
270614452
458088672
1024461041
873516319
1182931433
282460955
740122522
693048760
40929619
1538012054
1902048023
1220539796
228341701
304794454
2138365972
2083899045
1917238309
679389935
711106246
1536376500
2075805894
1547175113
1171814096
259431649
911091033
2060594866
958348086
1245995148
1474948506
2014018790
1873235703
553289559
1192794849
721822748
207352232
1901417304
1205621746
256582480
150721272
1257150842
714343565
283653810
1909976914
2099287913
845397707
956420473
964277298
2073383545
1169220282
38936622
785476658
1066106148
1549995591
858657595
1940779863
603579930
79353560
1422487681
1751036754
1994026350
1085228967
1033039504
1551951869
436569058
1793272741
648107439
1947806481
304558282
1130568960
1783278399
322586885
1249288177
964517200
1411277731
1234853112
536426556
19166747
1486592963
580334743
2000304586
2137890979
488397961
1833631031
864019598
450623260
1854858297
57816988
1588012453
21588930
532019428
1292104643
753848043
2120124900
1170817768
964515404
1209750484
178912788
1819193097
654402394
1903956142
1284040062
539351172
848172035
310057085
1496377251
408845190
866628046
1065388816
491591064
1486024603
821787463
17986553
1908314699
1373612328
1788514338
1798975414
36832037
1689306318
697181643
592992985
1348126845
473864405
1537606327
1890600956
1204092083
464670536
495076367
1410596322
55524853
1995147575
871983246
1731837409
377306456
385877969
421242356
1818497526
1643386807
1420713866
674530391
52781877
865170823
555528666
525058706
1730680794
799961997
1734111029
465994583
1912879574
1111446224
1196171817
1793703924
1363911816
463532249
1687175482
2115962411
2115353536
100993005
1115424934
234650448
57911670
764295082
132341032
1982933237
89531303
1179440317
200193668
395743492
1099807673
1349353840
925503702
348686913
1890497424
336236044
304605059
147088514
2093046967
1261510820
1295071127
1714443366
2009595366
1372268058
580618610
17573986
339952152
406784262
796787571
1538016363
503197082
2125870034
1017021486
721413751
294296954
739989318
1938801754
625193603
1962364204
1694596034
572096933
291604301
2087216317
1539627305
2015604811
878615092
1364954992
1817605953
444446221
626580272
58759592
860067294
1996139447
1068802539
1043306346
1890180345
2088478641
1580966191
1436914300
753489235
866193563
1091445616
458276979
503654497
855373558
2070384469
680870197
1506027768
196638653
89600891
1939039593
1908548244
299509315
279862037
160988209
734196463
1296269150
126134764
922954219
565733706
1860264560
634634438
881083898
839642906
1467192427
1858808268
633684292
1239218096
327895571
1369279582
1302140119
939866550
712554924
682109302
1478276946
1624485350
1006679588
1492492350
2061245374
1469012130
718491680
926742993
1880143748
334682440
2010939819
2057174562
2031522116
787596020
2091376362
1820053400
557110814
1262009430
1630556604
804704097
1770453130
184117358
2073352966
1789315657
1527994038
900929124
1045126582
1263954943
876111973
1976121946
1938452490
1654717549
45708689
1591258222
1120089818
2087936789
2077479977
987542215
1596213033
680620995
1206234858
1834274878
1144950992
1667269349
1062163221
280780090
268783670
1465401704
1113065242
1271195748
1468139830
2056970529
1711237268
954490416
1169524920
1532330314
600068774
468187459
1782509482
1084875372
311053360
106756950
1468122241
1560437399
1793490486
1958751274
237243938
701579838
960311725
1535451991
903706076
601632645
607704644
203839268
1236300019
39132001
373526698
1334769140
667317338
706827674
1691111450
206538174
1665674719
164622372
1077964089
1278102641
1219151468
971009312
1271058505
1975812204
990588203
807055751
868851528
335102155
1800431764
198787598
1995142214
239817989
1743647083
2085013434
1413815132
1106949714
641668335
11524876
1996544285
2101534311
1821663004
1177164227
2124953892
1928782117
1848380530
754024981
1879663678
1441811548
2020508863
184358585
1788411268
1759629107
1122491767
275500004
844729056
1883155424
1234658120
1166719910
913400073
419950318
323890414
1901437198
951589644
275804028
1677047153
1383243142
446994464
896047095
481787377
1942635687
405045830
2118317570
1914615921
150794302
1627806685
1640141614
711784859
638999820
230626923
1275335805
1148908321
1358990995
1551118558
1691525843
966670027
1515649988
2001952107
773430208
53280569
509280962
1029746756
1178864051
643367691
1173005716
587486612
1668997929
1195003805
1517981198
1069600669
1775440963
637741549
2134137411
43695341
1335643720
1870002718
1685729452
1322985369
1478598653
1943420108
305175718
1861573146
105698843
632127054
1884271153
1534672387
96314167
870144911
73169626
1209746234
705007718
681020913
764127532
1090178160
148485479
821361643
1080989132
1584408329
489371820
251974878
1043039056
902498402
1312266158
978104825
39987724
831165554
650229563
1490207009
637373793
1672997815
2110045101
82507656
2085885708
824984078
1259448644
1109412623
2065103765
1688960104
1600703608
364049670
212985631
1289508625
952101304
1833221283
1071378643
4658279
814102060
1483491507
2117785574
1050915457
1255610364
403208801
1863944009
652257785
2058137107
676122383
1783816794
493564813
1078141161
815778522
1655822488
1180833631
469613154
780429990
1982317133
1669071271
1765721744
1055366821
1566180547
898261756
1371749105
457886776
1126694583
899798116
724772824
912545895
535444426
303105862
901246980
1575959185
189526490
1466907430
1535723783
1703056721
314557511
237714247
1048707974
543840905
28365047
1495524821
300784530
1452930091
733021205
1240676720
1944031357
1794242419
805680273
733277202
847611269
389144118
1494452231
1966180545
654650005
1947126308
692756472
1735857713
278326008
2047364747
1515457653
369640573
531523355
1102332518
174164448
837493779
706851891
140155594
245400703
1895850893
1314939973
1608142187
1626432587
1328289266
485185335
1995455039
1646535237
788070730
878596517
286858958
823862254
192902215
360472276
325553870
576020356
2105058591
1372583838
2110191647
1921042654
1233622921
412087077
1044687886
567674055
98601691
177880962
102232449
2099144235
563605585
662004076
641867773
879047093
939649499
308919425
2076164306
2121607763
514543448
1608754158
425966191
727934257
76889583
275722828
664109586
797468306
1165765992
1472129590
1615549897
459834665
1142132519
1263410667
532250453
606902120
842986427
357572745
944741913
1399580351
644987278
1304247691
314374454
740846776
964576031
611219700
550820343
234772039
675132734
341383233
1280044524
1588056329
412695812
1763373573
1348972984
85335786
698211982
1965590150
1473831463
142668419
1650707129
1879957499
1176107004
820843346
1672625658
290667027
1170909360
1439386135
1953031591
498496353
195129776
443585747
416796609
1099580691
934029895
793289643
1632559012
1009533671
1555602875
1237556343
2085473534
228762550
2011049424
1679828731
1558030894
143839618
138509567
2035466697
1841099298
1608630915
21700733
1483431449
1445404448
7280656
2141870763
1442464747
1159776380
1148979150
2073877876
286604929
206653607
1332677558
689214491
884871419
194178220
633690734
1349809682
361443669
176335043
1579362133
683499667
1184091663
494426154
361999058
505674161
1069554125
393249237
573174446
1982372263
1925111737
1385211916
1414756945
1818901994
855727919
1158618644
1884130011
831357680
540963108
1751606761
1716413249
665888435
1377694586
1826887619
823339392
1308987970
1456307505
195514178
665035197
122350978
761224068
91922973
2017242741
1157445530
1073010016
2093981141
1869781484
590932610
13940706
1568263989
532424056
661038285
816786138
1825263447
1924620776
501898200
2070924302
1759304274
647581730
19830290
69145918
1307209115
928598262
1719971186
661915259
1825402417
877210926
594745742
802626477
1975342796
132865747
942326254
1823967380
1990192695
1089962040
167532541
439598248
206701887
2023685350
449231254
1161178980
712097108
54680038
813128558
1531409753
1699960558
770198971
1238743823
1551276780
367626006
1676124261
1274206431
819513876
2139772526
894751892
95795960
1916876283
1402570492
1474598583
2099115755
233983658
121733745
1628698163
1945453634
2032746163
1803800685
562521343
801707674
1317318091
1477055839
917602367
1394950136
157797991
2101385086
418553952
2083035852
932884818
442715692
562180533
1722596565
1619583398
1615230909
1016255419
2119807137
211765787
969127859
960643686
522107000
1181376485
114605356
1778779705
950605699
573937696
260337945
224783274
596764103
1343038396
268413958
1073038503
891021514
1998779147
1060009331
94105514
8025785
414712571
358533253
1231038718
985292786
2076897483
1621746716
134357467
1619386989
703387282
1625104153
853172705
186426042
1354592016
885999687
898363017
1408806615
1789887134
1462471684
1782266805
1018792073
1691785841
1088086501
756736952
1259222969
245300754
55903252
692004752
1719100342
2071000682
1296165993
1707685809
131757815
492854111
1341447148
194724737
1895745561
1126786599
1684662211
1357271703
1814940892
1255919562
445583483
1896014718
38753220
1169503091
230809525
337990977
670746440
2026617838
1837797012
194975646
404125444
424286070
566080585
1283301916
1824385734
1511895941
1296923550
460862898
88620142
1545093716
859005395
1782408192
1785166332
1353024874
620461205
2001821830
662310980
576086904
714754155
1456347085
2051489026
1034044233
2136342256
594939948
1216317770
526364962
1336702143
883626643
2088389401
496323164
1480491023
1459198371
1086926896
1919152473
501868299
705301269
207278228
1743473314
1935332783
1877522234
252004331
522813585
1618861126
1186308402
1349638330
1257721731
1146844546
1995247611
964859288
1533106842
839259451
899278257
1248531565
2092943179
358858125
1927463010
1842686011
2030903934
482090637
176349836
730505994
2031979447
940850055
1826611798
1933386005
1450650195
931174803
479011566
1378146792
632088871
766965163
623776814
609188764
1547467584
1011385182
2110274313
882379888
1947248548
1393406508
431358401
1147196737
837344733
879525143
1082871918
508056603
990319126
1010974608
509406294
624047554
1906631007
2002392166
1526440272
1125996734
517013075
226016274
1741959552
828364505
1131799676
1478953657
423955868
1308760069
23778719
1015275155
156947669
269610070
1754275037
2122751429
788831701
786869821
320314430
1211841947
99681894
913271904
1597677418
127979333
409275407
214179077
1002305900
301176828
897428432
1532155668
1740990469
726379861
460147466
1612846313
899104793
630791415
1583736723
1640038016
1393648108
1109825987
1510018870
1520352256
1370518951
1558950727
68591950
1856098159
589983526
689410804
85153207
1610118930
2126338789
1784496775
184552900
2117802011
645099870
514489112
1636494516
1964617840
1253929924
2014444046
1921201981
1844269368
1441026232
1456627849
1868102637
698786009
938676052
662870282
89228380
246572412
1591346377
562873830
591498242
546117387
1571573666
1581299548
12468623
1960737248
1626905742
552004065
1138101939
2081833050
1834889779
1818037410
1401038886
1503835518
144655776
719654738
438429354
301625158
1418827533
955234503
879814268
47319332
1315853615
332121357
1183379480
1811342720
1411533334
1094880161
1906354231
1164441747
1147096881
1028337201
710412319
962959966
89131463
1461538224
2021891554
1464951023
2028924667
1728858576
1988596940
1985413878
1696698363
716441259
930317687
1157054876
416886444
1562393428
271584721
749591316
513382806
1287079762
422523344
2131461233
401035263
1087476253
456164225
1404890175
1815998095
1963356159
2060063512
353879296
1229972310
1213698495
461842302
1927730864
158362175
2055469385
479051352
1364072833
1881723015
1911257528
1037816962
1270863895
1276773015
143375363
776828405
169597371
1886084728
1186975251
2008847970
1882297496
522703198
1049311482
933998950
503211983
1762278127
1784258218
1342976618
1226890809
911874759
104587521
1020372273
773453834
530154332
1389088658
1076014689
840269203
1944409805
218062209
538495766
1276270835
1174981512
643064028
1042274749
1852045546
409286645
1826477972
1629907408
1873132266
1122969363
1524348632
552588459
1549360370
1973531727
832979080
2046369087
680097924
1156132986
1406525983
780245220
1793655881
2091257057
112237040
979918500
554229430
159977733
1527113465
1152352482
1985765365
531224030
2042772845
580258871
635827265
1616415204
1889732131
760860826
1350876803
541851215
1603544221
1557262611
133972573
309131958
257950885
1311980701
1492063637
44030179
108736866
393170360
1277533135
1997367890
550794035
79655691
697944018
2106336008
62027206
520904637
1038149136
501911293
2127034099
520332066
2091675382
1627131254
130513920
969664970
423289001
392746479
2111803618
23659785
263299643
174212046
1185451576
1677769677
544795888
58485583
506259113
709976669
1758641972
537785636
534052506
785070728
302372510
798442224
505383235
1675468054
43364824
1808915297
1395617738
556329046
320904007
740892438
1280851626
342243678
43826100
1300054999
787618945
469101574
1137521443
1647417731
350111815
1042670472
1072184514
1571231370
1128603488
1633720877
1351047185
1365519178
1714858987
1586887139
2098887492
2034949928
1207352097
5176382
1983335959
1063138346
719158192
2113737490
1530751813
246928389
14000905
70670527
216574858
1081017191
866196808
1605338992
696940365
609345279
221069849
1776597780
1304633592
577888026
257921866
1669462069
1454655384
832873600
786695020
2042395767
684015804
1647971499
1822802873
1223546771
1748142796
55086310
901487203
1205979816
515983208
1947261042
1102102827
610791735
2081406391
35244809
1530088096
987377869
874243089
1204133428
391189019
2003366325
2042163938
1447126297
2072784831
421404437
818741031
282054801
1932523788
2074603220
911186859
2123381797
946832762
1042051765
35816463
2063794531
2113322239
1376186233
1895648997
346821841
834072425
925892101
851781593
341109180
567800033
1706128268
734630350
378445476
550945219
688328957
226439603
1412788607
2113584066
1944910879
91332553
769031219
1131038929
2113732603
524632809
1224259628
726147265
1226544081
1489121852
225069899
560074851
2112203994
1828790094
332602332
1863993091
1668306310
99829940
502115533
1532243237
264965789
1369338925
2078753323
407749210
1272313407
1787162856
1367887047
1299088284
102545709
416915890
15081346
1664408030
361188102
740560602
394193560
1938493492
1976657376
189825357
1975582710
1626132851
349819706
453125203
136208416
451293105
955939616
1079324537
1273859612
2123706605
2109357601
272832853
24685338
234284776
1565103164
704827882
1471929293
1760103475
979039564
1289618473
225702871
115944223
1594362278
1880383785
1983801960
683297611
1788125800
2105930067
162240057
1429874970
822114643
1308454792
491008523
1959719549
477673741
672377615
698558659
1123454498
836390339
1220866452
2112137732
1436576215
1855323512
1727103472
197887404
1713033179
1332168482
824313311
35508432
1467794924
1819217125
1997083809
970576333
714437463
946012823
106609994
235156515
663359300
362997369
1018370141
217089369
23811734
488931860
1852105374
218429576
405506695
541553029
69803918
236614559
1098774292
532788452
399033067
1941561860
692650146
653657913
1643733904
194499281
1718860484
874839980
2043016517
2127518574
1358431861
319420784
939297666
998065318
2051159981
1351926755
121250609
394034926
1627866318
865147683
55407858
1680137696
366640106
1865214010
147443628
1712135594
99336489
292440311
935525100
586231360
91706771
13263005
1925914770
989710373
2073044147
825094133
225165153
165824663
1024301874
300463535
728933752
388617634
881198281
319592118
1150022135
1820117716
1767797546
32607694
1438785534
998993135
1343826734
1638884553
77404250
1417864767
170630165
1300116482
1438206994
1225624463
1539628375
1611574064
449828471
922707780
571323604
202055890
1648928693
418385553
2089493760
1192389518
2089793179
572701981
678200334
1637712246
428227385
373143981
1018042477
1667293433
310964431
1014104669
169427137
1155186812
732192950
13910068
1514873212
1675560803
1890595717
231212174
621468237
437390779
1361743000
578702430
324552250
1768105085
1070361381
715672711
1270628311
1136125424
1626346857
513771306
193163513
135876138
1023576664
2053383792
2091690106
1758698221
2052651971
619880840
141801562
186250289
1407406494
1888594198
444718057
1373559820
1481945732
1876515577
1626121898
1790076703
2004555729
844414652
290224568
1553415462
27190925
381585914
458457768
98525378
2128843315
1073359991
1970160052
658620406
717375177
1560945767
1477875549
1333365735
1775737700
1533319884
1218599828
870341233
1046301793
1176979323
1148615532
1066667182
298384666
63675769
833068923
1675198608
539558581
1461468961
1915836913
2039285817
1811428949
2135734983
319610238
1284614847
1598148360
238325377
277887529
928001127
554583180
181302490
228533669
91676414
741488890
960297047
592856928
709572904
1589144424
1756713054
452595840
805189634
121614852
1926333845
1947343134
580159113
1741028496
652926320
213517972
437481001
997809698
792563460
441514624
1824755337
122167291
347520824
1557170282
2071617150
1527307050
1634583686
389297097
1996190599
724802423
15315952
1534752452
1856148276
289736984
1618228428
552095820
1839696310
184851244
2027592991
1733843579
1701628872
1057411602
1444828670
1518233669
543809012
1592031561
1622509364
2083040388
2053276918
1975513661
521997523
1420257174
532397643
1272022548
1570550244
77864471
517963862
97763372
624866758
1406228068
599802416
1229508625
706451427
2080104496
1185762490
1957819465
1547381844
2015797552
1825100285
1693576136
225179467
192539805
1368444412
1328771409
697422487
66019393
1846259420
1758247989
1309464818
1891847241
323601706
1824066514
536451684
483696681
856456157
140589481
405510401
423387477
2055493767
1468814052
383978641
75868556
272024693
1500593034
1885269732
2131701010
2000460676
788682684
1183600816
1698646330
1328186814
2091663012
1798567164
1951635890
1628706420
2011198717
824653247
1857361921
658158987
2061839965
34418867
685359364
1041845979
1870862393
1100036671
534561613
1922943763
2068458463
2111019733
1461073226
1786859371
373721299
673026760
974869477
818955914
387864270
268019428
615532686
1104359439
1169272905
502346811
2052355920
111753558
796234931
1380994108
1664243024
168140191
1189274182
1467013571
1415300844
211865078
1232230659
103681169
2103182819
17719852
2109645965
239144471
222826535
1539887120
361065969
191364410
2107022640
224652542
1566602993
727200448
824745208
1777808480
1714404145
664587868
973815199
837868080
2051906430
966953209
10255071
1705156839
2059800316
1448203090
1390096964
100236158
787078742
1773680754
315343828
1643181167
582411645
2053245650
1325020689
292773686
1722703312
254105642
138601962
1131925310
1574056138
1765746296
1143651353
240048396
1151488559
532936364
1261431684
2117016182
1041441225
1753518815
379336603
791841301
2039862840
1571299589
2038547103
1427476625
1869344434
1448902714
2091607024
740878356
1050586657
1948117984
896108003
1812415721
1779670117
1429662061
323259525
1975502358
139923757
1882815179
951960535
474360955
1943389645
1934793857
1869075774
253353015
660500464
494471281
666879742
473212032
887382924
1721254643
961511798
796020716
714882456
1861807797
1069735477
717356101
1152095491
357001517
2109226321
1804745650
2009380630
1035579016
506831983
252246963
858220402
1140164243
30106760
1203255023
782216140
1148712977
2089633961
1554017220
859545024
1633617374
103500672
846323287
194069819
1637266043
1569904177
220045030
713914871
143281322
94471804
149380047
501534380
1201341432
1217559623
524875882
190808866
1908196385
468660581
1696132688
1180270055
1689934427
1324144206
210007245
2096058180
717348932
1631533362
378433985
309410509
1778020814
948581352
82063793
1993689634
251930665
649765466
1173940098
687957767
2053332583
1404035215
41481668
333872575
402144783
549376352
1682308603
478521049
717460197
79129676
1682749707
18373129
1046079363
724947843
631609387
397715491
444983641
1378349819
1636904057
216431959
1153111273
1955636608
1761695514
2027350848
236563093
1236362337
1166033420
2075818985
1675946492
2078506132
208019462
274696924
325883624
982109476
74364210
1708501029
1904919923
1856245194
1323279916
1464271600
1492577743
1638702386
1519424041
54319826
969885993
311023318
4583790
296221358
2144957867
1148973370
1156562587
1780890243
1679516282
135292101
1602021000
1914571383
1368228890
373545358
1158971616
1684603910
1539789079
1377541519
665178112
1919321421
1638335960
622830322
2145388854
544166520
1427484838
792594104
1824711943
901988429
1143506565
1791041086
1746466802
573171401
654344060
1897991742
139252226
1772051088
552155537
2107238475
1160374137
2022043703
1381508838
512709092
1983529104
955647309
210567340
1055306330
110228131
1541723122
783582168
1285613624
586768228
117132299
797865275
1109166389
1955020285
2048259514
1438117366
998876945
1255893570
1166466066
1675292558
171449954
1850441352
1414692592
86261816
1669950690
728904231
1539362107
293637895
1500450661
112362253
867903310
1346494601
1048471616
1734321457
831547684
854475362
1875062201
1868217132
1490549923
421054554
983130062
488068709
340587471
155570039
888653556
1125629850
714746610
1778092946
1655962145
1360135744
1227911968
692050593
1785261288
1611586061
1231012940
1743020483
1758004797
1811098162
1108113258
690090080
558153137
570789333
175737078
908340615
1594802913
757101711
146858723
1481018247
1369877248
1835146969
11710251
1138984086
204679017
306928972
368357848
146218597
253018992
459151951
1448782719
469088099
1731865371
1416407305
1737540320
324541005
1994324193
2011881135
1565587500
1870518825
1736314106
984740343
1266458257
1596389287
350251544
566764438
1502797431
870697966
1968282827
601697987
1931296703
1409957404
455256425
1028424045
717962428
1286028981
1740931619
1184250866
68541263
1102285921
1759708580
174062082
426004539
1499906009
470385886
1227776726
2060101702
1662230621
2105135482
237535340
731610030
1625341877
1392432255
1901453718
1394976694
1189109475
329493488
552108187
118952110
824744387
559436127
1279489045
203255020
95214634
1101842426
1351575365
58594932
1840880866
1592513339
1338890918
981329228
1309893477
452867274
679226192
848433759
1675236048
564097707
351757210
2138251379
1869709053
1871521211
250729357
1112199160
1573931073
1887031245
1818980693
1465260011
733347905
1705785911
146669766
1031022815
1298765171
2069125980
762184771
1429960560
952174583
1254016416
1402041515
1330498899
1179870571
1135582633
1069367702
2143577359
2044071341
390993892
1737136595
1319963381
1623604889
1126793150
15006586
598821022
429910084
1124123856
275909653
1965069797
1023592999
1008046625
1166293313
280400984
1296487923
619965462
1864966272
1184256096
2153684
12015125
1459929025
1427344492
689472365
1022788032
1405775226
1308824252
1118862882
496927918
1849989285
745213813
255989087
1646696022
16536009
1938584400
162328837
1940215568
1269930634
1985895886
1629236869
1936760273
150306358
1354010355
37862231
1846595203
760672658
694804999
998832616
1181792416
347307007
117952541
1491185152
559086809
56403638
1451489564
652488956
825621343
98776542
1036826514
607120750
1055869759
1668884518
1912453592
1124410459
728217342
66813825
188064901
2084239516
1795212253
1540673847
908442932
399688659
592232388
621387238
764713954
1988735513
534927411
1709142591
338486874
1391044244
1127528207
45076255
420548880
1601857385
1819880062
1503123723
1204628108
1523847792
63132109
735433224
2120199435
695458110
2040583327
1640323106
1110595874
1079248125
127770908
59469595
251402137
711476004
1664725275
295915374
1084548042
910113343
1559845389
1033699205
1667546667
1613390972
291054126
1551807411
58107403
1483552160
1636703891
1230632472
131636348
336889575
1578883616
1338349337
967945676
708266533
627622867
453862916
1410794566
1451329449
1956258813
269004992
1443431093
1426760025
1226873754
1688767588
1386309068
1788337949
1971202576
963568948
562786026
1334592456
1945025443
1847547658
469702360
1525065857
230440840
1679478192
9979567
902767038
505890330
1576463601
713235341
257206963
1273833264
755122374
2123771925
991697449
211071158
1652962839
1259597444
1558273776
550132831
1136122458
1424747407
1036780391
2033520072
1281909699
1869957139
666368604
390879732
497451723
1102781365
632533678
98128822
1252096180
1184097988
1343517845
1894441858
255785107
584912136
1436681353
891725009
418697210
525555559
1115328717
1920945288
731338305
1772191344
409986213
1182373806
284010024
979221679
599713073
1313390763
1794940062
466577604
304240022
1898675954
773431652
1333106612
828498682
932350909
955660397
912770845
1570666798
465154375
905271394
717852514
247258776
1283219793
708545606
1722441335
527407212
1263456765
1409997586
1724528918
1468077961
577021293
991655927
769426946
1981754251
674109373
448936617
1728176136
1879621747
1635038311
383115211
609349514
1352589735
327194057
2036601172
1483623857
737806134
2077174380
140981729
808939067
1397008681
1795457960
1473120890
467440056
62659773
752888778
1430651194
614449089
332969869
924746893
676948631
516344236
826162429
223325423
1653761429
1565676552
355832148
533524505
1618188149
1194584476
747681518
672512659
624405569
198972656
184160815
620566986
1751687046
924418899
550499646
489734512
2105527215
174206536
231568652
918723013
853525236
1270845128
299992326
2122176081
1050210115
683071114
146103240
1777374140
1284111030
1571172991
193142530
858979899
1116536695
137369016
1207818169
630521771
1417838764
1701677695
1378594504
1316714064
187378194
985697841
842232062
1171649050
1843484755
1245671812
775838493
1706425273
274950623
2043823238
1403989671
1353769675
1526715912
1044072420
168791509
315954172
2090077856
1768122254
87334795
2031875774
317663022
761511069
993786898
1868649551
927548848
2078611397
371319041
1292453358
1101060763
1670288405
1876012554
1956489877
1055826176
727461982
45197336
181151103
1128359892
769028494
1472923377
1296934000
1911726138
1547963881
1590642764
979398119
1262794706
1544461826
1130089746
1167964079
131872627
1588811762
1039973596
1192477804
128232588
649646326
244331065
632130169
449992815
574801845
13283215
1980817886
819046695
503117629
1388174030
1664891556
1108703651
1362489440
274891242
911006530
383064564
1713568895
1984358094
922134177
1575690017
660998060
815944718
1716939328
1545993289
638489190
1395587314
1105704141
1434149352
2037296387
827002279
1283929149
783247011
742193341
1291992930
260742073
656439224
10269298
1723884857
504828521
1871253672
1858389250
1317960512
1627335077
1269316593
538895281
1926948941
294738594
1507973909
718777215
1206782179
1306529206
218609403
2012794569
105645074
422323967
1503418324
138823200
1701111723
1731927658
285255178
976718812
1662258264
25271562
1646088663
1166400807
1469039099
690725651
2017002451
1458079023
143279120
1361786598
902583591
280506082
627373477
664181430
306483186
861028176
293004727
1707018945
784742232
1379219391
545758056
42534009
1193301875
1089413226
1824467581
1789858588
960601689
1293351493
879529771
1320691623
1990212600
1755986323
958616277
1720350224
1344637440
440878971
1758558192
1050926049
776895678
1591610674
747548284
992005757
1817303748
579831209
268816357
2027606226
909983229
345331753
259630049
352809642
1998183052
1546287678
965078105
669046301
357175493
445503935
1960687964
1728101818
1886438422
811077641
560465338
1882661781
1297316804
1786583828
2000395110
767907468
424168301
225648738
1964719995
419864885
803242627
722941790
1664296534
1487894543
312550823
1242118821
1710796865
1407987507
1270492638
592946141
1479372108
1405630827
30249259
494169133
572942835
812051921
334959397
831256589
127451870
1337382430
1785060647
309790873
1816953155
1734903104
16309696
983610840
1530314757
68285799
242151984
2019127648
714872469
1267166778
198956445
640684239
1794919934
1217589994
1160960498
1997135576
1705532628
1246968072
81291201
466794224
1258531809
27993675
1498105620
180233887
1334944315
189454011
1695985367
1446156338
1511028959
2096835420
509484433
1268221128
201480265
1492443109
1551104480
6270640
1495644947
2049714684
252443251
97018784
293477269
546954693
2075809216
837207770
883812187
1017847330
1670429607
1186734966
478329750
1965068639
2076840992
1042958060
129296857
583409751
831916190
599843490
1291535185
562838515
1110791087
729610107
28585482
1588309088
1169676721
515065350
646250649
2006771403
1674414186
1182714642
2003871348
231467816
121307193
757874706
1275497550
655469417
94569330
1715185268
124441730
186382580
1450553097
112253322
1863897829
168622971
485915339
361507002
1516294445
2025533062
1986658781
2120481212
197270369
1931143317
782012946
1983410882
677532677
494561452
840074589
1287269709
688066644
693726410
1314087291
1381822384
1257684059
1388662827
232832988
1303343048
1991624512
1598206452
1049230998
1888558310
1154815976
1601020498
1978513453
1476325955
1094633635
278485537
823788573
1599099312
1202596892
1004042297
2036104871
1910301842
1401952393
1408681934
1232280043
203720562
1619557697
1544392462
1131328735
1202863054
2147368401
1283155217
548961509
454238741
321803989
1009291343
583734560
1767537680
677857865
136375448
743475006
315340607
1294848890
195844501
259390227
1919123178
1043063628
925806786
124139511
303617705
954918110
1949844583
1073474442
1640971385
1383745821
1229972661
1071430521
1662177934
423844770
404713167
2119048266
98013873
1869307638
483123937
1731523342
1620346632
1984229435
90309217
215022692
3411412
309441470
207648373
1206189450
1114776181
58018112
2038988180
203209728
123842654
1083869345
1212031644
1067564677
82963730
1210844506
1927346773
1911542909
694991468
1293998807
111569490
1595565747
1074205006
847167857
731805435
1104383939
1958507244
181561864
950802754
262536248
1657693187
1564418653
995761627
1475514847
190901862
1086767442
261458608
526574017
1741499350
1904925598
997625265
916545321
1164105658
1525169905
1063318124
877158409
913435064
745387955
1793401073
1729684844
647313352
1859066893
183149566
1185557483
106373300
823500990
1842165435
501416835
208223708
1299084564
1177901900
1672343598
952638914
1880663961
1704294807
1937314187
407111381
2048086432
458523760
405984259
1023918220
206376015
1036986581
563374211
2060871232
2134223951
2121827205
78316691
869876236
1169376804
713252757
1437657781
1693887932
966490869
1570569375
979843901
650837491
317852545
1952603412
1229032340
41710688
1380824663
945364046
584337186
1203976671
837048822
1330957509
1880545160
60710983
1071604353
1817304773
1361745012
1297018267
398032340
401542737
762805299
1498541364
1200002774
583948561
1057993777
540183290
1227299554
1950776630
543871075
1764570350
377980262
1810759581
346678437
784123419
1127035942
1957214540
934632450
491435978
745636813
872476452
1017485670
1515936992
1022112659
1890905772
1577541625
1420764121
1856901697
1602368760
615318272
334618629
722268697
2102861099
786259574
1488002418
1575085217
2050233878
718378757
1534228923
221954054
2015715610
1150460605
467863290
94366155
98457507
1483184250
2000205355
774859939
1151285915
1344653577
654231853
1592677258
355370806
718511897
1470516353
517033608
2010043958
1261389596
945003156
2115870439
2134524408
1254760429
998368553
1424182109
1322013807
881455937
976603191
74554377
404979147
847312223
1234690881
1975967616
1822626319
1747815827
1425046730
1847359067
2069811271
1666377369
1948068787
1976575796
2082009051
1119569588
12159379
1963703265
337360722
1800744980
441707914
1420551468
1909955226
1631340755
472329650
1627874946
810475747
459213657
2096261691
1599572865
1266144110
1838300882
732421773
1034085097
182350631
1845704479
969653498
2835381
1206826904
135912764
108793734
243275962
1500533860
1073446736
591045458
1165358495
903678035
2130667836
1437727266
979661543
173699780
445007012
1741571340
1730892100
339768061
600129902
1772316228
94365561
2134183168
1882588533
515439610
874763492
1644615990
796681545
175468962
340131725
814676360
1286792326
1837177765
1869534837
419666095
1177484749
135944280
213442424
1195634472
401486514
460569186
1177979520
1892078351
1241310390
1851079720
319180424
1475660991
759690471
123304042
649465177
634828392
1315581182
1631579540
1972813701
220324217
656830008
334317484
1623288253
566936780
476031684
1188213442
61757415
744961017
1602201029
1066742988
408920601
13179973
1465744238
32378927
641726571
56282110
1171583193
1004351026
855029695
283492189
1952419106
593924227
1938965820
1754069088
1260419352
2033437829
126464822
132373566
1391732633
361925770
372682013
489330948
1144309193
996743819
982035434
1272517997
1761899334
1725559488
2144498217
2076272000
1125008122
1802460486
1303564449
1261619668
298779137
2009600116
3781120
10892662
127322601
2061360030
210399082
10312758
815027917
1897879682
2036100306
1484605614
1213933884
1303750324
500890894
1598913312
2004184439
107949124
142970421
1097109325
867347548
1055416791
584129948
69954108
1124352810
699114239
493614262
725610840
702063638
1948322368
1814342782
677398607
453402145
1950831162
395672123
598185747
1350036991
1431224275
1842660283
1908758695
149509578
709825861
579599246
972566725
1076395354
477203394
972408076
1572162255
342448806
1544017425
694444250
671432465
744415764
304687687
1796301042
582976048
1458159187
1250841707
1511499065
736975501
105763142
730190066
110665549
96296612
905935743
1408822854
1361960673
529562571
993635656
1570437116
2145904295
1053393910
1974320677
1266378689
641419138
2049459180
1321078203
458498384
610075978
714678759
1926523733
1108128532
833569613
142754739
830818031
302752078
1493121080
615988404
1984997650
1678686292
74803767
1214006344
1425142474
1499686518
842609536
119665751
827287184
813178442
703106726
1935838945
473593852
1793048887
237316749
1808387368
324133942
1845498200
1821886178
1716532497
1802932851
1438919688
2045433866
1819473865
1248082815
1657539628
1985835970
816928781
891214641
1135743971
1253016913
1031313542
1577445193
1931452337
1145588113
969372091
108941489
42573772
1922569015
535957563
1967409943
1804483296
114710340
118463353
865459686
1745647759
979173779
1203389318
2022128627
1529803472
654446543
1357567850
1660019602
63082836
670070567
1910039439
1603241858
38947502
1218531378
837310352
1509015303
866185072
2058766947
130921731
472350073
2050620373
1117153632
1563543003
167858966
1341288994
1171130485
1279121818
839218564
1515371929
626206521
1754893467
2135199602
1124244260
1357839730
763565582
744511808
1064308112
137222225
1456152098
1899297080
17454646
139869460
2057116734
1102457718
965343159
1980257987
773668108
1437676130
1960755370
1682352598
1459933558
373591900
1149033882
1909002257
143016928
1996390932
367129292
1352334691
1776392034
766726610
273366822
723913746
691170652
758930594
2075510384
1021956280
1696633826
1014034636
2103542446
474085016
1144790094
2076830647
1680908211
498836386
552466669
692134714
1364966486
1754998195
1158030294
1931318628
1075066099
1196615024
672156827
796746017
1221424677
1976345450
2142768872
1468958202
2064012948
713423933
832942324
847735822
1250654477
1453405305
1516005620
764425644
1397470981
472599875
616770612
1928189488
553096001
1090019500
438371590
1809838845
902083331
1872184629
1651896587
1975683864
1036935574
1727888142
557401832
874801267
850139488
1286365086
849782234
245585750
754390761
741386710
165833264
310322816
1066922698
1241329378
1348381992
485781647
2060796977
1321332298
722061938
1687169696
456936033
1937794427
837774878
751631810
1922867314
1035873488
857025419
678127360
1198519649
106355662
1232837486
1276485415
958845136
1955476705
625803699
335563628
770923274
1243847205
442661907
72938900
1758146772
1413990746
644397247
1970490447
611925150
276160463
537736043
163982149
1924700592
324052918
616365281
2095672248
611417524
46476058
580782269
1340439516
709962538
2077462799
143393520
809877591
722856940
125780343
906080081
1417591701
2131235556
1367822697
955764465
1767439982
1446577925
648558458
1071812275
288481335
155276486
1464322041
1645641106
1594031919
1918290175
1988917473
16648881
608274531
783520473
218164934
145263535
1506166986
1315401169
956616848
1046203164
1628406821
1120654542
1584128905
401677874
1414371039
1240742800
1909223546
1189544877
415980640
663966020
454946482
909134312
1751343522
837700261
1583937923
837401776
198368095
328676426
812223442
1279220763
148596536
549932369
1478788162
1391073830
340038690
1095919773
1032942033
1288643011
686699049
910972956
1218029506
2137629792
977562405
1821990521
986552942
1741172879
294036122
465742256
2035384997
1661374440
41033202
579327188
195185400
1984769478
1157723462
1757835998
653509247
1048511781
1729219377
141598784
1963531053
199169815
1910426797
493592173
1619569689
236349646
208042612
1582265364
267124429
958630480
350599177
102799720
1531781918
870097858
1623106782
557623604
1886538721
751635725
188332999
2110987070
60338824
1649896163
2024979490
1382221478
1520419892
2133153214
1960991086
584510652
861246647
604866371
404075438
116886023
2093325369
347705855
1749325731
856600974
378190467
2087984612
2014807965
95628928
1212515281
615034946
386828909
1675013948
1719129221
1052637287
2065286482
1447998993
556183008
252946179
622123666
707892539
1136876069
1460456437
515248939
1199599633
1023203470
1345305739
295849510
129451381
406491637
1652851233
477542660
268173940
698438849
2088423339
867782732
281385921
144939448
314605745
1237395349
1324626237
339611421
1385275127
1774680447
7550530
522284596
2032857422
1735557291
1352574558
153786036
254284142
1028331294
1321483543
1990849388
1991641605
833494836
456768022
85665338
1336114654
1525330835
1570843214
1343093861
746018041
543039342
1762933420
1344383825
1876358015
1602133704
1896845919
420697014
1772419091
1759897230
1410807004
989908649
1868661121
445412719
1194126354
237027897
863305147
1904651024
391232237
2001796171
187596622
112503140
1147885480
1056708757
593403006
116784213
1795599785
1660382041
1469568118
1485965811
1217423393
1595553375
2017296038
1151748860
532448272
1064248748
1202339952
613108486
1626729078
1778455183
1456933669
1078030535
1020203741
1835274459
772514549
1008111152
747416954
1144767151
1447144621
685062334
117658929
1696593182
1677935591
49211814
1713457751
559973320
346954258
707913370
1939682377
1145669095
1663310751
482079020
694348877
396935703
823303827
83541922
746016640
1769302585
1041832323
1940602178
657201384
1771774091
641229119
1810403908
1771881558
906576746
85159539
947647474
495810490
776438214
598388062
1455308172
82114082
787527381
1113248399
477909000
135961096
546639655
554187358
460274256
1276204756
1420063788
1535102512
637086096
486065133
2116174127
137786284
1039671757
904736346
721632964
1135608362
530546135
1261417252
2117527490
1928773952
124335921
1055875624
159184096
195850025
1129314032
247228369
155726220
408800939
346222071
1373519585
1812961271
2078391776
1625584782
249949172
2039395500
648860679
759460730
1089814159
496391259
86149027
1634177834
458497019
1294890533
1712119095
1397503334
1946997071
871008707
1954782543
658388079
1013476865
1383133772
548147850
468347782
272901616
1985401644
1994018828
1807943504
727235349
1989223488
1824325694
33922546
2108485805
1725697611
408730005
1523847015
646710596
2140769954
349691551
49360399
1333343343
1187538000
216269536
1288842799
918110615
433341229
2067651165
1976950450
858458642
253776162
760262175
529705374
424156922
1095559761
1954438166
776756127
726034506
1968811134
915463310
1321383147
611569259
803523603
905859212
447332740
2047143065
887664724
1992857674
205322457
430951198
410572623
350318842
780019353
1082892721
1981743681
891034437
953227957
2060362262
395946537
1909819883
163914154
1998768473
1255979834
1083971459
1040008490
376093408
1649777124
1312802017
1833456493
49259190
1502834367
852754303
1763291190
537993007
1536473800
659287885
749989097
1303393169
1864053719
310005103
141961403
1219379782
1485236346
1398653479
1859991756
1677266797
1339665550
583191460
719952055
1807534684
2091109699
1046752109
750461576
1047863388
1086000623
1272110337
39030645
95835879
901573415
26121332
2140192544
2057793031
1618815067
685229110
160418109
1212566109
10592997
1927555907
1858720861
1739515613
164392759
1748954099
777762644
1086230631
1054162031
1765616044
235495698
1804347071
380829949
1250963284
1605240960
625895355
97971912
287186340
1542071661
1701396556
2111418228
745152870
16789614
2105223231
1887168592
1324691893
1911630567
1365476285
1645938484
673207688
1661595613
2052787429
450582080
1262056368
909265841
307709884
1290295363
2071701256
40819877
1930558044
290221363
1693195861
1596373836
1714270450
1811987934
2115797350
1826482748
437274393
452358323
1727782921
976588393
690780735
1257907674
352266254
1294135377
529761279
1752349541
2097816462
1164853957
751287427
555506068
799145753
1051341935
367608939
1325451045
68310948
1291142979
108377873
1812858239
2068697567
687206678
200533291
1489777932
1936930653
1554154456
1527027408
802406742
419437796
59104721
1920030117
314889534
987369884
1985077666
1257389907
1419843392
1115116514
45135659
8642371
545828493
294654313
493212427
1145442800
989564302
1793141609
1307559727
1811737990
1054869427
1403618940
1744558880
510441006
1051700459
128638906
1862802
1776932412
2102095378
697773008
1716721337
76931520
18352467
1307802898
1377805183
199401678
388218457
1452896560
1357169489
1393828014
1932937753
1361061977
1888718113
781897540
1959537652
714457693
229558167
742300835
941502793
252864017
483850232
1312040401
2104904172
869125876
1026571159
693429786
405972116
377512794
1511188287
886272587
33034824
1828246242
530051089
736410310
1572123685
334445796
112335762
402085214
691269164
1144970828
1118107489
1949421427
321168396
835667993
1657445001
1494288661
1720892862
2006326631
146353341
1092589132
1005908683
1480219134
603535133
1038035452
588242953
1661083748
966638718
1578960864
1074750060
2027163678
1462704432
353009387
1633106960
2100634528
1836690460
596798260
1655439335
860624809
1894860234
1535426664
1165313791
1595103209
1115316786
240196780
1023028096
1057126027
210380581
388587939
144248269
1385703848
1840131705
847599510
1427873905
642634310
2058163379
991975272
23608371
94210537
1469108764
1856634059
166821105
2145630442
1611389583
176349408
157623613
486880635
348784309
1660836822
742083268
1927473266
1147028155
230838135
669436649
79953214
731776908
1375598997
1032324759
1912575699
307993444
1330695770
186836612
2035224192
915413256
777673161
1836656627
978434638
690372831
873212686
2009722987
1726692018
347541602
989251078
232237581
1111839051
1068049302
1676320126
2008360986
1532903169
2017713184
1097209331
1442517708
1697426004
2053591563
1466535715
807836649
1719799090
1136266229
57309010
1845656391
938781679
876445488
1044276223
1746612709
1715081926
1180326023
737621530
1516214212
326835403
446008198
331956808
1731112698
1514832311
138357687
607421571
3391475
17230862
1569459275
1439291857
1972485797
2089916355
1990928519
1359299245
452916757
1432516725
1418187811
1909861623
1704066152
2049107740
1628025676
1569638089
471920576
1729616156
398686916
504584230
791935554
1237622228
1461811454
1463985537
212606472
1817126209
793306384
1907382759
1180649914
1011797562
418969614
2146072945
705344685
751746143
400477395
832756455
1948025643
57456345
1760364588
1513466635
368423604
1419611585
2120763702
1713763825
459623968
188746238
813261239
357120367
306047580
1405575500
842421827
1836777396
1913022850
593901193
137569935
466714973
1625753765
1472405135
1858821521
1617710959
1444131583
333426504
1400203680
722863603
18128488
184227175
1032895827
1024591367
141438893
1515795214
1077917431
1989097584
558442228
1727481291
1342066982
1817761562
886838154
1817646354
466000747
2088648748
1064767694
95004661
1387526594
1456132044
1345505741
2059568171
204877200
1342620308
258196971
2119988220
1510286606
1561993147
1964178674
1398330384
1613141135
1028303677
1608299346
2059561565
678843861
686678097
129408593
477938664
1145213214
1275589590
1463701663
1353259887
799845470
1785781691
156298910
1206503232
1335886983
1161325622
2144151946
214773751
1280273772
924999038
595625343
952716791
2001369549
3375687
1012982771
2068885653
1566280666
1583933384
341006725
967445424
427797712
1540491813
1575045495
1515408949
2003381889
677842628
1130154328
2128166998
1897796251
1746142763
840257124
53258658
342047390
328349371
1750966634
295567349
1640325393
1690857100
71572097
1992858723
1076943167
1166761441
1274947131
550927055
757667759
1505163688
673714387
1504018284
1657864626
62514444
1260002111
1400325437
1108674234
751559726
1202968308
200569857
1751646117
673732235
1696516764
1500290920
1973671851
986036420
1277779437
710650855
666827855
656617290
1039863329
392019496
388470079
384112765
1526917648
1675276425
129336737
1511630424
471946908
1775374846
1866740526
907968986
2133727890
827370404
69539618
1681945708
186364833
473468865
1522275916
1783503426
924381686
455388971
1387700521
628530387
1798429814
1347483765
1366203535
837645514
1074847129
1502608652
136974716
1340880081
1453405928
846668002
1242080548
13327087
393461307
1007308658
1049614948
1426795452
1692852333
2001746586
182917225
1178964981
1244852112
1683497088
1559526417
2116162345
1956361540
1062869652
413888422
361016727
1260933257
29029039
1090390849
626058922
1147295981
484213336
318913884
1949942618
683494213
1489213553
721140275
590861323
1130839537
415000469
1880864006
1952335678
442752227
71728217
1827102681
635962187
569552398
850475950
659960743
1568000315
2120326559
2079451391
2094596255
1167482440
1250742825
2036085923
2073741043
1238482739
7129322
218517920
728520211
1267751204
204716588
1992397939
904639983
1012354406
1100694857
296786165
1587041966
1072872031
1579377976
1302589680
1084557505
1397165682
2049158257
1401313851
1366867485
1923244578
1169148316
71400561
871305410
1552341608
762336034
631517310
2039059736
1409749761
112254062
418598213
65204296
804098081
688148791
1659764526
1372895673
302528942
1728092735
489596341
551625385
1410391134
649234883
485571050
1821468425
231453906
1837829872
862469224
2056914122
303366567
178696929
1743334436
1270201654
1589026150
628120808
1817805827
1984453684
1023320374
1438670358
1348813246
553273698
925896293
230213155
539489128
144564175
285639112
79691678
655445606
902794840
530967836
2115679103
2146323782
1138868150
795826440
885389013
1864357461
1539672920
475246735
1767030064
1009248513
1254173951
1532858904
94606999
1540773221
1709524280
1917528614
93172331
1014888851
944890325
1009849892
1384000701
1773897752
1266437575
1614761401
56926586
91674168
767994294
165745966
2034502138
1072149149
886721519
1066465419
468377563
143082093
1448470807
668585142
158567015
636938581
1384154055
572373635
1582174763
990230014
1372726685
1390170262
1387535709
2065520914
2135121522
558931378
1166554123
1887413254
376737240
643846850
1807830270
987598490
1306391116
854912458
1050910857
351323390
2052686324
1576528766
1780991631
1004584579
1115130560
2018181419
1745951083
56384575
892279515
1463115918
592732887
1970343435
412823660
467599389
1922027505
1430815262
1251324547
2022895269
1869950313
940956241
371273952
1923198193
740781098
664496851
1840409714
1104973835
111963420
1708261441
193636144
885206042
1572083048
1901768311
242466015
1788593535
823503768
1451500962
1112474353
1120914505
1132755577
684495286
1627910454
319118737
572309027
887685047
966496624
193908308
160028829
326847680
1342552115
736705826
2007420140
1086299136
839189704
1193487626
1402602640
1033524442
1774627250
1512318757
1972198144
42969226
682294384
1542350177
2051240547
894280230
2037632578
974357669
904613684
496089857
38636672
1639268035
1152597217
1179843069
474228813
126561519
649853586
205101389
1188349678
1468437049
137178714
311244073
1131231910
1322069323
1296835073
870482357
1841971771
1088688933
899008430
66160940
860197302
1795395876
1744635210
1545433695
1548001844
2125272880
2106476902
878104337
806963881
918301209
651781960
908161448
1422204887
1481334251
1403173660
128371749
691051580
1927698374
1400673797
1088280067
965153045
1235343632
956953382
1425111642
1384668640
148033597
1623945938
1982762552
566325577
1245541510
1467457401
451038996
1035767943
1807050558
2063563177
1303537875
1650092203
1648877151
343952553
1545045036
581232096
2116605631
1350814288
1103322306
1250743474
29118124
1712287487
1608212363
673401105
3442498
1814310649
588304666
1962921966
777932750
1349478765
868186989
497313326
710170377
420357497
660333775
768621065
1022526978
375625241
1788480946
902967915
973234814
1763960436
1070970660
235683810
1782151193
1137987198
895824068
1928885326
1413663754
371289601
1671409547
220259170
1210865269
1535963859
310389566
362498820
1118930052
370377508
451790198
1756988308
335266754
277607188
1876080497
2109716368
798102269
1537261549
927647848
1670472894
693148962
325375386
1012026385
258352016
627137509
1520736700
1165928514
2075605001
1733214596
473186454
90792984
1253501394
912878286
161245438
1704377596
1489151004
2077874707
2040922300
1556137518
1751178845
1356282016
946237668
1435504217
1383844935
698098150
227349029
1659555227
1789515337
1674736882
886237342
455318647
276093307
1028599470
1066248260
1936765294
867250151
437734641
1434911121
1496622978
1662353740
113686462
240727391
247581942
1365531293
244462668
598864074
2103506994
379096790
1245535950
133984940
1048897418
1336237767
2138942667
2081683056
305342123
544958995
1046706069
297756941
1355513078
19097166
612503102
534209896
578216915
668966951
1269813245
135755782
1722221736
1332036514
1817661038
1304144929
976175131
157182907
1634891750
1596677842
1923103395
1116076740
107530640
470965272
833549415
382614433
1428785582
208225009
1670407867
287525083
1023085036
1812869526
257075686
1937390871
1620570510
565098938
1482466525
687745998
1146326997
1860443264
1818051002
223076696
1931359700
578998099
1494429006
1087204067
1130535307
1430144912
1769348287
1399220047
718618429
1004670732
837459017
599924399
2054089676
1635852419
1598645446
1790206742
1777016841
656182173
748894833
121518179
205756762
895639740
399135500
1088898426
482467131
541451842
80364574
1530727155
241158889
1397888031
2090301737
2120803533
1699755459
2025281503
325005825
636342759
615024536
1815454187
1191250161
2009007217
4483730
1847834722
1314586895
452999736
219970603
838128815
1580276821
1591794853
1483278045
247301798
1486453263
1059252700
537510968
123265518
804650247
352232258
1556850623
317649142
2124708357
137627607
1766174908
96301624
1890479468
490410707
1311098033
891542585
484522585
178504833
518426992
1897113960
1322774442
1356264199
1476884305
807791853
195008500
1686692201
1509915569
1387736692
1186926143
357474570
1782858535
747277975
1300978856
921123048
366875500
328545070
1657905995
1961465558
1730272753
95615929
1560249810
497567377
441078358
237337876
1427317151
440136558
1523120080
1860060678
347835659
918925115
357060679
817196046
1983044669
1327104838
276300398
550330002
1350217785
1764083884
1222380428
1753547727
1455705446
1065207821
2046294578
1484332324
32323904
1001005597
1364144197
775287505
790192295
1625194474
2110991708
257575134
378783308
753929055
679010490
739023545
440318202
2121936589
1624114195
1975754704
721195367
474160639
713522528
377690147
681179473
185673075
522307893
1473109943
669169905
1950467099
13397245
1873693499
1990856034
2022934989
704213311
894815372
95389518
1739833669
1997136869
234151623
342454422
1983962865
498098854
1972124246
316521193
823310885
1606593844
1587040566
701658716
364481805
626212597
1050153884
968806061
1699003559
1275851214
2089810852
1694864016
2005035370
1608689799
432693795
1646412081
168347546
2069954770
1412831889
1586602239
1064976017
1004014873
753162014
727637396
1083527842
133764946
742839675
1079913924
834753554
1567386463
1894732414
1530790586
1961416512
1948199107
212944636
465026276
2022897264
1143020862
1864821629
2118708182
575428571
1561044667
465208520
2063471284
865140619
67804613
745863260
1442314295
1569187673
935348337
703768597
1534360433
285302393
123556636
201299619
1363407701
1967731323
476435410
1165743253
1538528171
1367187249
1824281724
290009908
1813601466
423364317
1152115886
1294156213
188747795
915698392
919221308
174231933
1915596768
408214342
27964663
466370976
1740375304
2094872525
561759760
1252971577
1102490860
1724733318
231138515
78465476
876883966
570261860
296544308
1052345789
1250140086
1012063411
1058488915
2027879048
2003287369
1461756020
863456024
1100914394
637052939
988220626
1053594079
1321019375
205853327
543238764
2076915957
1015320512
1147929153
787632973
169563659
1134157902
1397232831
1101300291
1640652329
950552597
1281707696
419982425
556242747
1883403726
789213537
963141591
1147441613
746274302
1748949414
1373564287
1752345646
148276608
433448432
704796726
280402997
1817409312
1588126709
955633005
1632305581
1618018151
1078495192
835806623
1571487889
1194168449
1921968610
2121395189
2109596382
1227042551
765136104
1390505784
1365033893
2013316552
652143769
950639054
1955283125
146915964
906564394
713085356
1153184969
874838482
582138030
367206678
429619780
990106467
1809541218
1497884258
972404020
1061863125
307965814
449137887
1601643813
427028128
194269916
470977584
1511686205
226844130
30248428
2113532229
1178653886
1102257093
1807603864
913026725
1317761910
468115346
1290974601
1367503887
481354320
848160176
484050990
1860882183
1789253215
1210979147
1649963914
1245598578
395523565
1482908305
99958786
2114161460
976364266
268867481
885311920
371437330
1682378048
559823771
1784313525
1875322484
689229059
1079697940
1479226729
1370083263
2059453540
838841518
1693025000
421007588
415304342
1027098527
1719924954
1290121049
328047942
1920775584
93283252
1624207423
1475189666
717554845
1761960333
1893236944
1180272677
1298977012
1566607343
1028957892
285971139
1606960004
574558665
896546890
1970727779
407587879
1708463768
1730600016
1677663263
709109472
899106722
951718667
1256745849
1045047300
1336358712
1624802765
2140816982
245485605
1219110283
667361168
728543957
1710696587
1708349651
352120089
794413548
1240426419
1527445956
1237501220
604781110
1781718216
1362787118
1787279668
1910755745
2142250221
820479718
498814123
1990791296
519677635
694580670
1344173611
1288225448
465458906
1292717017
463234955
168862377
2055128041
1592803377
1591483808
839254950
280980278
382782197
1222359323
571442130
1528386680
738736829
1426496993
1808451093
1000994527
1750520685
1901550786
1678193923
1115907113
1470133465
1228300945
587123963
1423818232
1639958620
1961259047
1283845574
2129326458
934868764
376429628
889927091
2001583066
2109008041
974887282
1516266354
1515517525
2135820640
565119116
761610219
1715219119
64460782
1991872454
1405981065
148008838
73956446
962919107
1465587029
1510509569
361932136
509191116
704938481
772236577
1255141418
1869046510
2091028837
1016049842
835556546
1740916536
534516821
1921249856
1071586758
1842484782
86641257
1570619361
738321852
2038142084
2012006066
1097813366
872029611
1733990058
1286281269
1207058716
858938314
1844959215
246709517
1728368597
1042723064
1670749187
578772167
2136351140
625231679
1447492
1698449884
1751317992
1447462986
1202625201
137841792
272875277
188402633
1345885627
1086338362
221024151
309562644
470895740
1668478432
2040589664
986982868
1385784641
601425308
863729509
335423568
797259803
2004666737
420151345
973669775
391046580
94898050
648407913
1351453567
1480276331
455500180
1647628725
552447882
1015173192
1266996716
1364552869
65140803
860686789
1063734098
1238813579
1450535998
2069381081
699212185
1131401014
918095860
1664009987
2067647837
1823534701
613923923
1611347892
796293462
609370713
1733555316
1838316747
1901179075
455006788
1079485544
1572351284
1669468729
1239308418
2088857
2034084729
64555216
297653809
36500929
240979486
1953664898
1289293657
1761614623
1280364629
1799289509
1201985522
726635867
260655511
581159571
320591724
532312510
192998992
1678542274
1521388829
879019031
205543403
660904677
1746377836
1678077204
1522734370
1217612683
1112891795
1108240262
613302895
2117246453
1546243405
599302088
535423450
182081459
295799117
2078036246
55454649
343408537
1128490070
1939795026
1203056233
592242710
816383643
572491313
312661831
72040802
1264709198
23776568
231950852
682308696
371307333
1595902060
1604399611
514917272
1130009533
189570394
1750389046
1706899123
696600623
1882299876
1571609006
702532621
1249320944
162193255
1460800769
1632072514
373777713
1664227413
1510384976
1476775715
1097140596
1467778689
2005042262
1824637013
2023594395
1155505609
269298928
454080304
1962310123
1170554331
1569096364
1850740273
1817799493
1016623232
1856983560
435645538
456480321
649310307
1369612525
981282658
643063827
838448857
1066452732
738581921
1531463240
2095174104
892161307
1916248252
1626211314
954254059
6330080
1588250522
950648092
456598874
1827557902
2039501014
68940491
542006148
1591848655
709328098
1513160877
569181827
1387290686
1002137704
294379389
548143996
1747280979
444706455
1164784251
1697968487
1313117346
282268405
2102893405
1173569835
460848732
1318532051
1188189861
1778436567
1450705429
970736944
1003167680
1379330006
830422215
1446236621
1597529389
1164780403
981153751
126715511
1824298191
1963875943
134930665
256443296
791423062
1263372965
876333751
1616361542
754342275
1415768107
1125594329
1231536946
2022872605
408603534
1680858225
2050022952
909315158
52358225
1401000975
320622506
1864206167
612579991
1997775900
1017177498
371954379
574570020
871297786
902559458
806545396
702348336
1444476303
1603301017
1698111837
147219852
1281648474
76864750
1508226906
1287277845
1644743245
2069467869
83706824
1863443945
219262924
1118815048
1545670510
291490241
1507248205
1587195459
263841050
974227255
1892531259
97768052
941960707
1272756064
757517140
508241741
1083397918
585145642
935671224
421290067
188119939
1451576014
457468856
1955739148
1031953073
390156318
1255867969
82884968
1516147558
2072965381
520914722
585084188
1263282307
1333388276
1480253728
7202847
949963990
508467062
1212729472
734445703
336492463
907280656
1503513317
819100930
2146943314
1352201030
1123889095
1494929277
1222477472
1576926198
1421910241
996955869
1975211544
549767740
1831311876
583936583
116663066
1670257946
1183621597
1317562980
1387971375
214907323
2071021947
722656305
150319522
887613739
1232205121
1709476518
1203706875
656539507
1297247537
608006640
1287796260
1581476071
661926979
790835416
920049405
427540845
824682996
350864120
1985764308
378958201
677966051
314655697
2046088585
1383749011
2025431289
249673762
1482783851
1763699646
216546846
101572870
794913890
1246169605
1589016876
222696793
714320197
2018843857
1181693985
1789142055
612199261
1793387745
1570596462
1316569017
385200880
1991306758
489983109
1608969906
391587152
1218516182
949760353
508299008
1710829711
300233987
338624931
184463408
663844915
1998907396
383696999
619474188
842959093
753793813
2077097821
2044276365
1864160581
1739220316
835755707
1863740840
744946110
1703331354
1139021314
1705725390
1531070718
1557293866
919635015
67552997
393781186
25288596
1027835869
963958767
2122351198
547160243
483778245
2108670200
1179942696
8494499
462213007
1627800880
867884089
1224973503
1317558458
934278636
46041796
781429367
665790846
84444154
188376064
2008379016
692675035
1233853009
1719119073
875449313
865802970
2022097027
436265684
561358163
1907341032
547669174
1323945749
1074769000
2141649397
1014640059
1676534875
161200160
2113202629
779957646
870703512
125772430
1646622305
500681701
959823751
1043705579
1993664968
1068507078
1240720390
2037414055
565059789
312488520
2141888161
21784851
794790628
808808538
2025123122
554251652
311947975
443635081
5736252
734651946
876351075
1365513737
1305948907
1409803232
673568617
119165171
1911382329
914460263
1390324461
1983302190
891032068
1770871506
1239757442
833695123
411172988
903510403
2033193936
978507790
1576015555
1439171847
1572759898
1084926662
1931553660
882620381
1848050169
944825582
1460995168
654387718
389507589
1131677189
263169083
2052757849
64207640
63420504
148757843
9188639
1013462020
135185146
1033908057
1779103345
56465923
1536754663
1451027109
1343749487
824270835
791573291
2012912926
1160869852
863147797
687876993
1323550029
434245341
952411941
593002117
2134167649
1077403105
2041106227
2145586448
1974820070
1481371809
2135911601
931523342
996001735
1952663903
928124110
1961150598
1288306803
189951762
437732405
1372005549
521839798
1542226804
574705510
1035634669
1724212614
879157716
1354267334
644466127
1677046647
616187093
2046972778
809650081
1799270821
455767257
515284645
673210040
411005859
1178435222
436411061
1423678993
351961307
1468756119
2119108337
1907113379
415342711
1726980620
154104822
1619166170
1387720289
1036288258
754801657
227096432
696530782
1039329422
1199473435
187439943
1393138940
1757281996
976363353
538668763
249856440
1028955015
972179755
1457879392
1674558913
1062286961
1354445734
417274965
381557608
1903254724
898182278
2083810579
766515741
1894625423
1264477350
790255403
795212791
570125813
1235320935
1345996592
1949243739
102791688
1160114012
244374593
1127710105
1629681869
172952888
421044998
584370864
1098738603
1977551261
951703322
829646335
1432377193
992122986
1696083412
266660898
761950896
1263168098
1056417961
1559293370
710958074
1524854009
420572920
2099835634
1397544985
1333711427
441561242
1763756167
898799738
817554036
177704935
2135692140
949520684
217944729
87037028
1575103856
2061084536
458352093
442836068
340347180
1581342601
1090065793
1536788415
178904692
1574794097
39879004
1670050341
1365991041
521037958
1280141072
645076135
561721515
1820294892
1798267894
870365452
828306824
1766796828
1940569039
373416709
573772907
1324428457
1351313949
574094085
718704348
1886584236
527563173
1374617797
1319443740
166463364
2125145399
919651467
1480626767
318910851
1807957893
504179244
690491
1603013251
1401316317
982545271
420435805
1366914915
2034134440
18911657
1447250546
994830558
1679800750
1635418213
890448890
1384585677
250981711
694724531
1500056972
899896766
658507664
619398612
711351677
287983276
1041365185
2024530571
1177830016
1539787821
1713636196
1108658302
1852522611
1899255969
1470735295
981829464
1572021343
135026731
1402716231
1899855598
173815962
380378715
625533575
699756721
819118368
929750288
1243362936
172038694
468566092
2090017316
1957450515
150067073
3801662
1755668102
1363331853
1792232789
1652715953
1737290537
657294394
867900180
1760998413
831572126
726325380
319067477
561057197
1894280233
358710804
733055047
914132505
1459533615
1257584293
210305469
1071416373
109771855
929647005
1189946077
1383480049
1405730423
845267477
1363213186
782105791
1547562668
578058519
1138191335
1793613940
1535357594
1532683381
92540558
1019272553
1792914045
200650725
654781231
119973804
88469465
1771248849
2058203225
588305401
971711320
587803310
1738421823
1679475811
1797497573
122980155
241961122
792321212
1342099585
814565096
245971253
274562539
717099071
1830970616
458275192
385502069
1184777731
242027384
234978759
1621210737
1400560817
885826560
1327736489
468112142
502485889
647802893
858829835
1961980807
1859933450
947218499
1534574218
1212190072
216356065
1246242255
987150966
658302361
1870378578
1577619946
352436544
761070540
705985069
1370726095
689005803
1539010594
1931834766
1336231651
909183301
740308604
1781993400
357439048
728122950
1268691535
1687652391
1098480122
428495609
1879614588
274253214
1886771367
1756264169
43486673
694266697
93287183
1615103275
1699566699
1283192883
510593899
1132748207
1739403155
677883018
1309497097
430405743
311286752
1696397389
1644967244
867399490
1239816168
361083291
510046329
531415018
1586784192
1746358917
143181274
2066357929
155394586
248938500
201324103
2103603301
1789510622
2137855872
2014682637
451761394
344755351
941344212
247731519
1401940285
1241211640
644883572
446142448
210667865
342950074
550002884
1110177467
1344052070
2123589431
466446885
353898135
1688428856
1014405951
1630316379
389548389
1824051861
1147316678
217724371
1550280247
582975485
1514009617
2068098924
400279864
1229487162
1390199629
394492127
1467061311
326127413
1536632312
732469124
2086356740
378531803
1571164921
1556025482
1606723376
1220200067
602461940
1998507561
1931129071
631420759
1020512153
73338545
281628322
1302017023
694763611
1632655851
459266570
1351898741
1161684619
711393446
1982686058
1493631813
1923692075
1495212415
1401275063
283841357
2036552960
1426274421
1241542476
1693484730
754003981
119419898
455221344
945077819
1533009652
784471021
318911868
768392772
871387237
1252790270
1771890126
1612544266
1215577899
1638876421
329464273
1058742420
54357249
1378806961
2042219122
1139310738
1721772083
265361971
439830975
1366254036
707401386
1525875090
714330895
1546318615
1288588065
92783998
1658454923
1585265803
2053611781
1160433118
915069406
753441094
772956344
1649321312
1535467222
1873164739
1241394030
1217487094
547558794
1563602445
1886990401
341806222
987378698
1267300363
1091938266
909025936
1490461358
1273538063
938121402
599263612
2048574740
1192588427
1276175242
1404934753
936970824
1983576203
228431784
1761652481
1658275025
513528367
1786416905
2100607041
315411216
611313287
1822315106
1825987659
13393732
1533485610
860112381
1492130934
1198186584
1902789468
468065513
1274381336
1752416668
1783802871
114792103
184409756
1092373235
1634876470
1585807950
482833845
1657184729
669267167
125373227
1946965849
394631358
1556095167
576736511
1926341719
783435671
1181206635
276639776
679110349
117730399
38349515
1979420272
1015476116
683578157
311263365
80715291
1812577655
597624374
1733182912
769500965
1476061929
1231455867
990465252
1833697213
515056700
1189464912
2016204777
1107316495
1526146545
178441197
1605680005
2137594736
656196474
1497812497
1324452117
198483184
720532593
1697005440
1286783087
1152768678
120745007
928208368
1949109030
760811156
560608920
902592158
1712684541
1000886763
1734336339
326592334
512418538
163680588
421371925
2075805368
1753615439
1782499564
82646575
1419987992
631910012
1479641375
1621819735
2142261122
1131299316
2062729878
268208591
308746948
2092461648
2030557623
789515935
353337683
1898216319
478020706
631995293
1862287302
692997382
1446833457
1451632698
1158653307
1369007024
2096209869
852770077
802751437
1259235261
928169296
307208900
1420289715
738704175
1486813387
737310657
351933701
1753617624
290904784
1808994076
900290776
472260920
894619269
648639872
267259653
1439706544
2071360901
1403486640
327909520
1331354263
39994280
23881812
446104091
695850306
279209030
721214389
1282071560
376543926
1980360105
1707651548
242613182
1411989761
651242867
434573882
1186556542
1884506845
547271951
298986589
2095353528
260472902
1681198621
789280299
874591182
1379914303
1309748687
1966174720
683694808
2028356727
1529610874
1697643789
1914229171
302636770
1849839267
1314137414
1644729579
1278650685
1965280822
1261209647
1487533721
1993649189
1554686371
339687606
602771238
1403911284
354157500
717106477
1743386142
349424693
2144551973
428029615
1976713447
1086031355
2050493683
716996045
1688489158
948760201
1495330366
1959954951
801099312
1119506358
182661785
154193824
347547847
1176217992
1030814537
1538901452
1657475200
1340468684
1359389863
701465821
1805775104
284639605
252211733
1006234804
1173102225
890324692
265388630
1431524156
398839171
1354395712
1901399037
309773
667407312
547314397
2073223606
641371398
14168013
2003644156
251674080
186312949
99309898
2101218428
1009113114
1063676127
1745312235
1305508767
718553069
428637380
167357684
283306050
40862233
152848524
2052122513
1512842051
1408439505
1369114916
1296771496
1955196222
426707803
1357447991
1166693712
907970703
903844563
1904081282
1669271475
422990876
2069870163
1223043880
547064045
401501319
483945273
654891445
1283394676
783636443
325903622
48322410
929782110
1943975494
1728393831
1030987152
242532928
1621294502
1954029709
602237647
184424003
973355791
989161490
1841621260
1479626949
2117131492
1836130502
749067330
1447432527
1427998198
2079424164
1046370381
747035804
1093592830
62903583
1397489439
1747330115
787259556
345891852
2116732825
924063645
148254466
2084596668
187058881
589708015
512940706
1349519677
133077798
184666297
2094379828
995187258
1991877244
1935268219
1164874155
477456876
440010677
741495798
757146370
1685284104
548707759
720938400
2130377131
669816241
813521307
1667449478
1661053015
1107011603
2017775705
1445522981
674358346
2100311706
1774140848
2109786855
2011737937
492281346
760091124
914109176
586123752
1265900049
695535811
946559050
646229476
1348675867
688113321
916303112
433606794
970209445
1056767992
946803561
1788341375
2018548233
2137269875
1186125408
692098210
1010155037
3842126
263023095
605113754
1386396030
1444251038
837677704
831942823
41554172
1674897121
1865979528
1374098827
1824050764
1562745865
500340105
936215823
981719932
1201052007
1201744193
1496560399
1852614483
371904181
61615415
1481425059
2106462811
795905297
934645565
1830061784
1749197331
1179088335
347506665
1893607468
1632959935
1771958191
1244895895
1271573442
766227249
261039626
427318669
1176542939
1167147338
610963136
585894543
631095024
1675193993
1313732699
2093995747
150711630
373613360
572203093
1540887482
570468243
228855570
1991365016
1395725823
1083525896
1532646643
1467451970
1923147675
393764555
2097315612
1331014322
1318501891
1028236657
236288825
1635199691
1192836278
717535226
848584573
86956273
799308610
1495590848
1289139659
1586438163
1260967695
701180099
1404965085
895243695
1685818141
1784611762
632285090
1478660226
615124924
381915301
2144778880
693634628
633422796
1817802975
1347124933
143979156
565795963
2015822226
1827164968
