7300 571081812
39296288
60759414
1336245325
1786664135
2146883736
568362830
1417783442
775808370
1783085053
560325850
337018002
495035928
658099293
1279258614
1494902640
687473506
1767794192
722643347
1446035192
1296366890
406205780
1831768989
747185084
473482294
1643819631
708768649
49229307
1728831749
1871990279
1747328100
1611358371
1686364652
948857139
700498211
834037549
175345905
2113541640
1231638246
1717540975
301052547
5283751
70536974
1017627539
1104235518
361159267
1627312543
1886471233
587493527
1503804453
143122366
868638442
783456616
1296088257
837678407
1830216910
1441497675
1386511909
2030666694
57548918
1996460256
452213880
1245543549
341969288
1822868084
981567099
158786056
1184678402
1597973002
1141226899
942957579
117528912
1619773331
2011618954
546242495
1569511701
511532211
1169494350
1901898546
708090279
564997193
322044277
1101399950
19062296
408139899
1968373312
533207793
148027387
514054096
1154409265
582685425
732705910
1234394460
954779619
1779895946
568446999
1899644211
2018015443
328200456
1332753122
1410427778
1490138895
1791048587
759248166
746179408
1418412211
2051207099
1939024696
907363187
180789594
723548519
2128968143
1754916304
2044316168
1240113682
1875604060
1508429106
1994093002
381520304
1361475366
1230076883
1173568912
2008263187
526936115
1242218841
384741510
2069815336
1587500584
1527392529
250340519
318799726
69959698
1988292725
1896549027
1247374035
1411421761
1131775276
1698148900
1158363172
1903380504
400067428
1295702662
1872976259
1127487120
1644456963
224840198
478761043
2016965083
1546283746
659402637
858318497
1572019410
482362731
34867533
701592108
1818024367
719935513
1024448073
954408542
1659788817
906382704
1854246384
268647948
2077003617
1806980085
963895423
1412474559
1189611221
665115738
847200075
1337004617
1878056411
1557585846
489565428
49318132
1008714294
534425129
533157281
797692836
1375031996
636044508
625110935
81721087
1752220347
1555573693
1104995001
1200665788
1247725318
1930615982
268646777
599004681
763480555
1113764175
543185124
1396244062
880043812
91117815
1090748629
1619313864
222769326
683267975
212734988
254531398
2113583726
1158679406
1685727437
1524982850
1394011847
2094971755
724230390
116526366
197176039
19803605
1385662981
1716428751
1238278971
1931298255
146965975
1462491765
2071891596
720054875
323811864
1648637034
1737202686
632779703
756566426
147370265
998714814
2000806601
50746269
163428773
2004147752
487759455
971603096
1237385292
281725983
1955854774
953515601
240216350
1779904131
1573307133
1210187792
1741815198
1135358195
1079646513
1854928671
1939924519
349378618
957336318
1394790051
297495770
1277668908
695614457
1264474182
1065879233
1222440420
1008784362
582648841
58681279
1976314053
732427418
289267939
864918239
1246689655
987330488
1146086646
1646536236
335946024
1352840632
1307835724
1679176771
1338848114
308089784
1136551697
729269875
2134686391
591796759
1341378290
567865167
1396415495
1611403808
1952758189
1045828794
859882522
24653027
1068872780
1242970664
470161984
157233408
988105889
535843644
126729894
958509398
1577111831
839949616
192580716
287623819
1746458947
1117192790
433907580
2093771360
128357939
38241049
1404358613
1453333745
1437788707
847620296
596262465
1550017417
1060129179
1978925133
1637664978
2064290477
353919631
758160199
306941533
244660302
486444551
323459970
1651927851
1240926761
552077145
1200932013
1555658128
2002279457
643492912
283973120
1837351271
555163213
565511657
1745448397
724200799
2014405378
737892618
1028338335
2050553257
1944219087
1987280249
2014578117
224383480
903563438
1886895894
1544125991
1803704502
664789873
1360463317
1388177887
361032503
577878278
1999734245
240588869
412904069
609287800
1474508853
334245195
1358951277
876435559
2083330599
2054388303
1543365272
385817074
1542338259
221864346
932520103
1510083283
895317461
116998111
1356052229
32159046
1431647499
1154571884
1230744518
1454324920
501327801
510324272
126821766
1461500831
1973616461
47122764
872732860
1372727954
733240267
260160884
436583048
2044316916
1088979813
295444001
2012544668
153757950
1884119913
1052663629
665016827
595035297
1040668692
1976760080
632197059
803138746
1152728265
2109458416
1647199817
1209254528
1856914694
35804096
1812931018
668521147
1099602828
2093217148
1939679680
934146746
1602734967
1270031078
1339978984
1639655334
1668935671
1797699586
629087599
1478644983
1092267296
596658281
86998298
1342206219
1554444267
2060614156
1383444866
1955022208
433878474
1502635792
51603656
2042147832
864558639
464455731
1245771093
1047299276
1106641308
759277401
169781809
1500102054
1874088634
1664768266
1893564243
1031569206
2033845732
1901559742
1983905319
1418816465
891437692
887575864
20215100
167744844
130914730
102399314
1416197355
944370651
1314523072
1606328266
2078118800
1321296824
2046999634
1868172025
1418426793
1200630671
1176021476
96558500
1785935454
785910580
669310656
1784691136
1348590358
128700651
1357227358
1099824662
1073242207
1271756974
1492609884
141002995
1066586718
389665221
1729786737
516358692
1053869060
1219145048
1957055684
1913826762
295701589
2086179918
266081060
431736213
1825229384
1181025842
1340635009
409361373
103395546
1987460821
2105970732
2060666214
1035705212
1982694587
1217687784
935660652
1006856845
4259716
1007324024
37284284
1026369318
2116163128
2129057640
829212553
1335586752
1312380144
1371325212
2018200592
530459666
216063031
498789062
1610017531
20154743
912676288
1394055716
1464664157
1137983415
410874956
1106580387
727315079
2070682643
229374124
166633737
1658281137
1287640815
1700282500
832531451
1089290346
1923165907
658726029
1888755021
563036444
477253026
290959021
859326090
1945036015
1972991079
1121259640
1634767189
1302061035
413527898
229578
1974646745
1795909150
1745310322
1437948715
2072790260
1885308312
1096285659
604116231
430513351
1600620693
1062988196
1002603619
1552600272
2113036414
1106557590
1115139524
205628415
1370232561
980164108
2087000892
1889047316
1692354891
1167420962
1825028455
71619801
965978607
1818730138
1882341156
952786589
648186597
1993371659
221780609
300292065
1417310246
329379162
867166171
141482889
761965079
865808120
49704872
1371422474
1466955514
1420650437
1941646595
1506943866
865807851
499005645
1778342832
1937247544
1766519069
306728509
1074826889
2062763170
831612773
1348158100
1265094044
1689173538
1765736403
983288888
813055075
1923861174
1714108933
587542592
310921284
276729674
645167724
38600770
1225285281
516507194
781181751
48897328
1133128504
1145521850
1294087840
635438207
707222945
731436331
29016633
177169325
265746760
1780530121
1839812555
1777137016
948447665
627354210
71835821
547333423
82420273
1770086174
573763507
849804137
166101833
73635300
1224997539
105566798
838977895
513196544
2001737221
724914530
47792888
865766678
1924842996
1572352677
1094258360
2026905516
1545298173
358501834
843620751
858796552
197933660
1359637854
544888240
1897587616
2120012870
2047109652
386301939
380787797
134224436
578129934
1994067578
676410173
388997766
318065309
470331108
1070440566
85785031
233248785
1121352929
509244494
1286206432
1720370936
935671753
1442240526
2126579551
79690089
501940558
310236716
1829154498
765325828
993043371
461810235
1241306030
1814079400
1108959212
1030150471
1741766646
1011622397
2094941190
1623659163
1294997766
642194762
231082312
895211272
160653786
1175320427
750942831
1970465374
145261708
1333715885
1652318674
1831242277
512025957
1973446362
1024917563
422014868
612531399
925047719
1528040004
1580111434
1086159237
1900003140
1826697053
189255088
1481370382
1026721071
1975002988
239472769
912815005
62174074
546982273
2060625186
552141410
1559594753
1850780177
1101530759
1685755489
1119051875
1434042608
917083011
1497040888
1295398751
634230637
1235814347
2053757802
722229059
467763051
516602783
1778981719
1049256838
315904177
10071126
459749982
1261413308
627847024
1996246218
1705704925
1613731768
1481562866
593173899
1771728976
880923764
320701248
1533676672
66444117
1945708395
1046292437
1495637482
2011154801
201524155
1345617276
934599815
317395280
1506817370
1781030090
1510019408
1183311685
851959449
1713354894
1089750073
279508984
457554696
1360534399
1148159039
261720572
516205885
1444130631
321517495
1126017298
532058521
65653235
1388950665
1192581003
476732238
616760478
849829999
1107020002
1367439526
237623730
1087215936
1404806144
1368751914
1689832261
1373971761
124865976
483336064
1183781121
1373563599
617888264
2052022892
735366837
1548530065
1008748509
1349266545
213373477
142191132
1769480696
2011236905
6937060
1718861354
316254666
154485926
281633608
1062644120
1306356281
1790459382
1786642543
1145690454
681185362
1888818363
1634809555
1958876372
1126494069
798920981
1974265236
632810911
2101905978
915691569
482882379
950270038
1982473415
952265067
271320349
976341972
968319023
1341907393
1083702144
1304087069
970251037
1527908492
1399913098
2075766952
392617282
554214228
914503208
780660904
1231882579
1214812842
1660537314
1641402141
1586108101
1563538884
1485428289
1181633652
1735431385
252516205
766977824
1559746109
248361982
75522424
1249796784
1333968432
2104170662
386111857
2123939465
450263832
1734391281
117056808
617168602
1703850054
21999266
900732536
1757117494
876150609
582959235
916242331
220000704
2126814814
81049149
273387364
1002034255
78952897
1522491735
1349269018
2038853435
447126648
1934728434
631967852
1285426072
215785163
694147061
85122340
2053135992
396288098
580822766
2010691716
2146860674
1600309088
987291253
160653514
128475958
1070221581
2071377346
1845412395
562817526
967571957
628027590
1485622146
1849058624
1031071270
500896242
656706180
909750951
139801042
2072483071
1821413255
425056436
1204322524
100217161
373135950
342371759
942352291
746595205
1544195561
356582758
2016224036
1444053096
1611312419
799598621
1410586903
1757843126
1597709995
1191071650
1490788419
166078902
323795366
603254535
275386614
1572088588
1757616500
1981775781
1562516666
2015157652
1942616595
755832852
72019745
1034581796
423746702
1692600830
333092349
641112814
816116498
1450985618
1901424847
686941130
1988449672
1396135670
76769903
326792837
2122677511
1354481191
442234918
735747066
1858865442
1763707770
1206510118
1063805768
773049148
2012829318
1233638506
647974043
1352211293
620580916
194426344
1345124935
2001040383
956291002
1181665770
327806126
2140821221
171252254
1387042746
1570194164
1375500521
549533545
479894144
1071285706
1327511073
1824420402
1653127811
84965930
1417170563
50521093
855805115
737147707
178776624
1443806630
1828018908
185981895
806937815
1152125885
1425470542
1731383902
1425498956
535365074
670975469
1857317197
83078787
1983243426
1828633169
1547827909
642472210
26165277
603415109
1938207303
1689954759
180221332
1378280655
568432299
1377260008
1809159705
1345664904
1186241699
2104846297
406478060
675553013
86753691
483896258
815246666
1056405104
58010733
76289212
760224122
1940275445
562256247
175481700
303034322
1493532901
2073185175
446988282
1766543890
549312639
2059978426
767384785
1989202764
1367142868
1215205969
13706271
582589891
1614000076
777044854
1634069254
488645092
1246897507
1225592583
395456197
153504686
1475499768
1864180795
1932220482
1333019099
973259036
1369116220
1076398331
1316530967
1235331692
567779148
1769647624
768834848
1123695356
1895555662
1488641596
74732292
1863605319
219059573
741342336
1364544179
1294492290
1356246050
734832068
2061200227
1831304106
842258809
2028364710
554013856
1380575365
1420173940
1267149255
179499942
1569979560
64845861
727325123
1449787897
1835198171
1011505755
1901367177
1529416576
271728828
1304985771
39613700
1307131191
1575708682
782012083
441245561
1285372617
1143971389
1126026275
702149215
1603550583
1328410739
814016713
955583740
1447737731
968222876
1199097248
1920089504
483495358
1415054579
756172771
1959788252
1125431282
478476428
657470153
1059207805
1869255959
700232643
1393822171
272733919
1509205510
1744712729
325122826
1367345859
914022115
1808342162
750113211
759413192
512392316
86119944
1446703073
1024006207
499212986
338360221
1973244263
1231902665
1984889716
50312821
1410307397
1778522996
198429669
766058115
1409945816
1774941210
518527890
1779847833
228780316
812196913
598983206
1328419906
964113868
252456155
35587542
1260967099
2017340208
863609130
1984311651
243567732
1329548442
712754038
335063788
1241734181
537175547
1178757243
539791768
994440256
1942097691
1817420911
124773369
78824886
688551285
1104002827
813706857
1383791064
1821126117
1675325328
1179763150
1471034063
1672302602
1432052049
1424978056
997069868
302061453
165412760
951834109
527602327
1219448465
2032962143
1740448765
2117078005
1493614680
1843688060
146569630
940583053
1368634199
1281490195
471974162
1145995910
1060334345
1591816461
781522524
455743035
1102951221
1181485723
630109332
339507849
1040019628
126154655
840854922
484958598
349256960
1150065621
1448322832
1475141573
158140431
386129249
768532819
1750662597
1725284834
468400304
1378207086
1595871017
2127564323
782261482
1071823727
2076857221
1251671315
2025525267
285804669
769482369
1206898282
1821006736
908490125
93177911
585087896
1928527934
253459786
128820526
1464388104
210776610
1625489974
565429951
851092745
1628937746
633507076
1207157539
29655166
924955729
426513258
423020182
969212581
295124496
716850479
939928103
443889494
925186308
684745600
1662571771
277317758
859306949
294035196
863265886
349422125
1864278596
1529609479
1207114711
1504254958
1427620295
1808189377
184524189
1375685389
103310710
740065975
678914663
2086640943
113136066
1156213164
918891143
1568610795
1698599548
416773896
123976990
1017294318
1086409895
1976103480
135991582
2114346173
1029430525
1147307305
392676669
1705015966
1585068609
748346208
731811893
515502005
1860739918
980273116
763130155
452231501
290361826
97841977
1811195903
897066264
1258026875
1028657703
405632274
86006413
1443479942
845521892
1169990087
1789037961
1190045179
732247977
2085933400
767983802
348731046
1205091249
2100598786
1726594958
1522548397
705581907
2009619494
2562180
872048051
1992439055
101711370
1268457419
1657674963
1569984749
1786333302
39762131
116052570
72253086
771762309
2045815071
2103209568
590017514
1720036977
2078749264
543823651
47891195
443471174
1843573896
2087795909
1356439562
1740379026
1574590510
838725155
1722986695
1240118059
284934393
612463732
755048769
319877649
1635174294
1076377658
857031483
1774578224
162413512
275770591
1749496711
1585856941
1902555033
339674448
471861556
1885774663
732711001
861827229
111315650
570752761
306747816
1951833329
438070741
214536452
1304528860
282117490
1141447577
833139663
519713144
1237157151
179241098
464942775
1773068845
1671541852
557867541
1107099399
1294273692
2123008956
476626096
1931915414
176704728
206180731
1699719847
1991056624
244150958
2059193615
1631212009
1952300167
773100466
1056555978
1333808
472215183
61023666
1231928521
71920603
1966326049
1571758287
167955900
1517827407
749142562
1406413240
244657679
1067973173
823269007
1663812614
1830179992
1086957769
1632443213
1612811485
366959259
1315797245
304205181
507280377
1507043526
867570091
797227616
1685466956
1662315405
934426642
1126971433
517553293
371805772
208012571
863380858
1010797431
1284833539
1861002221
447574510
1227470935
419955667
3905619
669019856
516455934
1214331570
1714457789
261678822
1735469079
434621200
817014919
736558814
1205210478
876330703
1322282715
139451633
779883079
731836705
333652836
928062021
554054289
22495987
1692449482
1951005279
1494225859
1527453275
572870275
1035692961
544251953
1276711892
1109204289
1089457968
517842900
1779185106
1431834528
557550063
822709114
141368689
1420805959
1512528935
1802759940
1599188491
642331792
888504771
424047466
187429524
911914366
118659892
1505130736
1132021899
1421851476
807623856
1954867552
1494406510
1082325248
327157652
408226520
67125757
1722292723
302950766
1941133547
1137557281
1503526692
1452090693
2076534807
344347139
1793230523
394003386
968609580
2106812474
411097351
1190857218
574560842
115520469
741556195
34118763
1211155502
1809010675
2047968297
1840571430
775502128
1921723651
550818875
301580730
280748355
561366281
98185765
654869347
1005204102
600643360
53242375
855533273
1607387840
154004773
1576964234
1125179486
1447662198
727213692
538970188
2086841314
1964369509
1750977851
1460867364
902997233
1343474397
110932528
126803414
1161127589
1043145861
51138844
1414935061
663401565
89127919
964181244
1802209654
752855405
1209452323
1231901673
1154204939
1437512280
702004262
1371077698
435708491
414075902
468986603
393979929
1035614339
1428130924
1767956474
1827643708
530956250
1187869457
1535151653
790961800
1326046892
1712193770
1032405444
2031394670
1024606510
926292143
298703278
898142268
1309029911
705767263
2120518257
142554657
2108495333
1259181048
1287874617
465953882
1929457928
753858648
1376516297
833517403
1534739893
452403447
870239885
2078284231
1180204628
1352062348
1068509640
325341306
2088302654
618096905
1891017648
305221246
2036125894
1288573442
1252843629
898798038
908836164
294259394
1572817141
468764466
1738221423
319715753
438226414
530183906
599971069
1929978247
265400697
55244894
487068958
118937996
1367038352
475737719
996702039
2072432128
1861495447
1636535463
1569523998
481134599
1588226305
1150935619
1865358478
1308147255
853877749
2144956136
1249351347
185920614
572663725
137477927
102876465
680899816
937948982
520409200
1649065283
1722943324
1971638109
245202248
2046181778
1237652008
1079226376
1860645315
930230381
291830329
893415352
1733289934
1172404828
268458822
1466160192
1037396671
1515692013
303271916
296793813
576644295
856537145
1965474410
701180987
144945707
324665172
65389643
205699276
167804397
1328737280
633515810
1216907709
867935736
690409152
1840532593
622507978
1431955341
1506866916
348210704
1786614049
1438929704
267739697
1915297377
1572596767
1293977968
344715766
203157686
1632076021
475807276
2116299208
1762785626
1429359703
2056062501
53114406
1525933549
366606740
1936026199
45611512
308604354
1648252115
421544955
1203102988
1637855691
22791576
929259992
1513968382
863429942
805490804
599421860
1732030519
1546304847
918921726
1533755009
1586211171
249834027
28614660
1971591531
1672913193
1808193178
834864454
187019544
233483792
1202385016
1640792706
388568198
931864960
2142222574
1062529271
1902315848
1176081810
1610079470
557505771
1894098826
1597604673
1577096425
1958121446
1807826515
1874354456
606375316
723354246
971341790
1034111084
754685968
1225019232
333706730
1989354819
1919426985
1366785203
494190086
1199074053
2101572836
103044811
650022288
189748133
1874444613
1466618553
780336660
38118763
1971776366
1701935051
1919951241
1257963900
1516578255
494162519
1643667142
61127115
1612599429
1286073797
322016589
150876160
1255219704
1948866351
1750895142
1024375498
2065372750
1066673841
1742052221
401478892
1391995166
972526340
1599061371
13652710
189354991
990087798
1180351947
230842866
219338749
140957179
1935003852
1285557526
1386433972
1299661547
420439295
535596217
1240759460
1432147424
712196028
106339301
716635373
1645806692
751296802
1406211902
798596624
216201037
807153847
2001281644
595433580
1383191836
413561175
1612896108
946373741
1206785097
452296064
1925544951
656743352
1935857005
1207258068
1000357793
597934272
1688749397
1156037321
875594595
1129041805
1910507486
1318233563
1974642243
126793090
1690085643
1845772434
558259321
1479397910
1944918240
1349434308
359632256
1438916221
371534890
45887932
1023195766
239378011
308029341
1687935387
1534847978
1111398379
721047937
2112455824
931604714
316183645
1607371953
2087739832
1666282618
496183207
80017931
2133461589
670913485
1006928242
1366795061
2000344575
1080417642
1390265519
399649993
1309439856
472075971
1420503092
2116128853
721936260
1404316191
1507843811
1795743484
579824452
1255398894
1893648443
1207176008
1257920102
908587440
231794603
1489091580
728922279
1435286854
1262134780
628958592
867518916
879404775
2036390135
1428221235
1792617845
631040317
1269732210
1585189515
1180174332
2022891878
1215086119
510779967
566237761
292873723
2017228653
820899836
445392508
506831973
803552205
1543837916
583261072
379127788
807917118
1927056747
1881508325
223979420
1013389232
1343218869
79306774
347454479
840390849
1701786893
1758752262
416063133
403030122
1628321743
1302114886
374722239
229135760
230519509
845770140
2086306056
2009585121
1596353132
1313243016
1404744967
1089755096
132373681
1781238441
2003227428
22393127
168755846
126001294
1012323291
1653123178
1759173383
566244921
1617423578
425323605
2079751341
283992238
1936312393
1481626843
1670344794
237328539
767836756
722725518
1038947131
438781681
1279176583
1005402102
96338195
155015453
277982148
429678697
1783662270
1054481722
1921806140
755663240
17767360
778905129
1572253090
727440185
1639572903
101709920
192412828
1914126068
351682907
2060205433
569229484
1613973899
921523538
89931985
1001956649
1744462420
1305652374
2036773817
1563072837
1121354621
374069330
1079425409
526276350
1630915237
1842485900
605109384
31551590
1708708212
222762982
2095614271
1606018943
888917209
1947570752
1095709535
1957710601
1558934989
911682356
1693139266
870800694
1589033491
1452813650
667591117
1760182796
583938958
1844600713
1838802528
947533260
780298554
592961229
1876838740
377801420
2087835378
1426522227
492042308
717991881
722976256
1564490841
1001499194
1709637239
164412746
91692891
1748138523
879432014
1705652620
156714382
1583811556
1310384738
1424055642
2098617402
2079258981
321909001
540498342
11283488
1255900473
1105244231
1333186169
1672064135
1939642332
175013240
1187541446
998775861
1383662521
673455571
1342394737
1885938835
196284753
701351247
1545986587
1784742791
1553617933
2085856415
1044961320
1401142820
250332575
373292951
444385252
1359895151
1593911932
1394199249
1076071901
673522096
1416675012
563925776
678854204
2025843483
2145266152
536373877
1460297286
326987115
1205713645
492674818
1665279029
1832294858
1777003738
944109932
2126610148
1430978000
328413879
1962656433
1578116835
1505701202
2065042510
806146644
2109666844
778450283
635134433
1014031698
1467992139
2054100520
373369046
1296857987
935404367
567231732
1767985063
2136555133
92186471
1982019338
9499185
1847390069
1930905396
884863812
695850508
1027071454
941246560
1438690547
1389309666
1580459243
555486103
1915970928
985574007
526185210
1942199454
1832359615
660522232
944510639
1516374846
378398259
544957763
351147462
1132759689
717741516
1296154958
267291547
1595038224
1738452776
124553717
563121785
598177173
1627913555
1756454884
1075699366
201133432
1572974401
240160570
1261804761
89179808
1076742790
164107312
1533249351
1423688553
1651987566
1959454462
864600398
193622908
1394162943
1639813209
1505697935
1950755722
151015896
1763247574
159384629
1111590613
1956722361
1597296067
1089974794
567840308
1165715785
1293511648
529415649
800434418
1369590511
438048074
600766250
1057772814
1191522978
1797565596
318201654
1088071452
743409600
396297876
1956030382
188912340
962192354
859338260
281458883
824965960
893730111
246063170
1202175839
260082522
1383668028
955554191
1692877675
779244892
1860027817
1971538055
1111213620
308165586
818650259
1256854437
534636604
419111316
793267472
1089262747
304617482
78045698
776678999
465310790
1067829301
1623331261
1977719259
1566871615
1794846036
1999340974
1831619902
361956838
1747879043
537699468
1749996695
183322418
620487167
1246199464
42597753
274831008
1476167362
871869984
1809469458
1676495838
982171382
1737948902
1133744619
1132183408
1701529676
863428457
1871859910
2006876083
6635641
1985976525
1505522564
1795148896
1896979141
1162235559
464115159
9460599
357244721
455788580
1651370281
965829885
1506275289
1968045874
983261196
1606154045
629512163
1930590681
2126176210
1323733846
516989311
1240951152
1351465672
615125385
1053864885
457151446
1469428436
195480865
2091006318
2046100211
1970979664
187373783
287739767
890928459
990376819
991689474
1892923965
1123796544
647508184
1998664264
418161765
2007869031
384577800
724926689
833283519
32422775
1669487852
383533614
1325600746
2126123190
900317536
1801274761
1171031644
1291616092
195627859
1955066862
456514392
670946972
1098025003
178174728
143570623
1882115052
276705717
1596703284
1703953453
1865200524
847429376
1302324877
124594549
1290535033
820428772
868024018
1125254184
1494912151
1826799117
1961650237
1159688469
1022011738
309159974
784521834
1514576170
513275768
1915405168
1276281737
248596646
957810646
750216827
252472597
1010732299
1736491837
734575364
1511139130
805100327
619354797
465258753
1912126972
241876420
108822522
1917323135
731772085
1902578613
1052091751
221886551
1909508874
31040956
1173423814
370886991
1336821972
1874705770
1432008928
502808304
783520275
878093053
1990656605
1315448539
1055277973
1985485739
66861880
457052529
177477407
938164229
278951398
307565791
105566169
714662419
1411116863
1024644753
13200916
490896227
1453409878
22617600
768322506
1953670145
1185709400
230649639
565231987
2104365031
216645931
520989607
1931374832
814617987
1687485080
1393606255
1524718392
529382486
1940071780
1191333054
292264804
1485984362
388395415
1843163466
1416801332
1993902968
1434331885
1561493072
1850577656
1846486642
688089561
1145554754
1272206521
1434983487
453217042
1589474257
614576654
344544723
1878618139
1800427917
1958226899
1361439263
1930856409
436199064
95112839
1730733286
1078763049
1679221686
143542212
1958384704
1093235885
1848620665
1225310566
914972663
1777672953
1634470777
1293092462
2103387693
564411975
458883271
1140485819
2066490230
542034589
706685031
2054099944
2108710735
1962734111
1151506855
544984438
1762436085
1287292429
1284443291
157906012
1688468335
33703624
1780873984
749629442
819377728
1823601636
2013055986
304843358
71301676
1608000643
1054672123
2065107932
457103217
1003284373
1881179322
68624333
1421076353
2015767568
1594017125
741114181
1258058761
171503976
796927755
523136529
1347691458
301481907
192692489
1505289261
300298642
1076029257
1829256526
932062509
1693919953
1976633966
784480813
1015841611
1706046745
781347850
1499903008
1803121833
389340400
1533970677
265091409
1157820525
550267899
1849128826
145203802
343413432
336053968
1908445301
931272020
2128218275
1542247354
749330108
479465563
1543914789
223373477
1905350600
757349118
953875520
1286062554
1754979304
1683144986
2086070414
1572503400
1264582306
1313142045
148199013
901655627
1031313035
1170930085
1437038845
277105614
552408554
649622751
1684800907
360968359
2130946754
1699301712
547756325
161995461
1526278032
1292589457
657744727
1592401220
89567876
535187794
644455241
719736136
1270169268
1744468057
2124889108
699086822
702532643
221220046
108759176
1916084355
1852141478
560768197
1415829452
1712949000
365699990
1553078680
863250758
772634089
1958043591
1802401922
1866793336
1091524824
577075657
50822912
1856539939
69032626
1916718487
464526123
600313577
75582443
736210121
1300526900
728404614
651890843
381819033
33884815
205908329
1630705389
1461993468
212448677
1650126623
913986865
126929300
1046864544
1635652956
772493436
1794237262
775336141
2102212631
1774430799
145365659
989078973
737393148
1234220895
2098592870
952002678
608037111
994942416
1175027317
1317012358
647801315
1778350800
1408904681
1042165518
1406823701
2006454719
765929797
739254990
1264741045
1216872917
2100289399
2033610980
1176184491
680100971
1789565082
1676371909
569720127
875344810
963364302
1801813121
1433368348
2060343303
844044911
1520745762
158410107
952254352
2121493216
1849969313
586925745
1503271694
855266943
984144776
1431630422
647095588
1870444000
1311065628
1751747900
491442191
369415483
80613868
910902777
1730001946
1283420918
567612256
2110347579
1231959448
615811226
73796875
122002855
730266584
2029574980
874338821
1007081621
1990790791
1089033060
189898801
929651193
555107430
1520508275
1938393824
74375291
620784087
33264001
2056686694
693028389
2019943909
1888675015
2095950172
1439134888
1392831075
1716297825
1006061869
1188150
732833899
593814103
1966019226
2004471997
1449136019
705258995
1896664039
1924572298
280204319
1857377192
114247252
1666084541
306412693
1939790259
1013075990
1583058274
1658272051
614960108
2008591908
909840452
1211777265
643861541
689119079
1875059636
298383464
735279858
1808623078
281200125
1608261645
1273048825
1433033178
1554760326
1096534568
942093796
146277186
1869084536
568514962
612179120
621067561
1165680719
117180261
523927376
1333681798
598764438
52523401
261546364
1593077176
2008684122
289910993
143937159
542529972
909856887
1004369825
470139436
1013366113
1776691469
105428893
1516394556
2101127432
443106045
134893581
825640186
206304448
1762660425
80823435
1663210952
1070439141
1008097145
216431324
1635563784
813767203
282066647
1434059008
1623117384
383770566
266740058
8051809
370786001
1492892195
1175087738
2009226939
630857114
1080119965
1856092918
1333527819
1701892042
24620969
218567771
1473437327
1007713497
334872534
606588396
504199570
66111134
1445391153
861540488
425810581
149441032
316124757
980327172
535231048
1613653747
1138965491
1713294935
70732863
221630626
1367025479
689439260
1683737683
447800796
409081572
1829052462
1054479768
137416965
796032489
840403432
1388576874
703623432
921329471
1655718835
601180318
1501300975
1913984846
1407871205
868727722
453425129
101461590
1659365715
505868105
610187977
1986540241
1507953680
1141669665
2140238526
1524276137
1192967419
424530939
1416640153
1321841200
855482315
1824813170
960948919
1176994986
699788674
830064893
1144348964
1088217306
1474107326
1587519651
1941733970
1212241235
147272982
1885204643
1714437274
943275168
675034636
1805604243
1021263178
263376672
8052925
52757991
1893822523
1650146713
1216812267
474697907
1285441622
126145139
904157382
1980212048
775671826
1213668706
670936316
482940910
742883681
427959538
714844333
570723242
789177848
1523425394
2011815472
1045773579
236322674
687684352
1370261209
423293441
1120237587
77782272
2087155605
1772004947
1165138577
1788346088
1582783771
2120663449
878776909
2029454182
1061044097
2122569180
1885762531
1569560915
1696878567
1409213795
1820560752
283190835
1296956256
1035088323
46104104
1258174611
130566066
1869975807
968202086
762053090
1191999357
2024230060
57083010
1337776507
73135868
1562019795
520174402
844416404
747999113
1687432511
1818899450
354356949
543482941
555705698
696478025
1309399503
1842165294
211981743
1043636678
2102315398
137392306
1648223619
1836023457
1668786622
1729330500
1854806
1987892519
664674523
1526784156
713042947
1795476972
167340640
319462889
2029283000
996331033
1365055910
1015833505
178982167
1005987516
942924616
1508835316
1462929663
725650844
934375331
1682840726
214586512
163798393
1309947309
117523166
1841313681
1638702568
1055939618
1126770934
39784103
1837421574
1385997561
209863887
1024989548
1647221358
1140481710
2011015596
1521471501
2041119130
1508990720
1589717874
1482113568
958773208
471401737
1792002836
1304100068
1310980607
673661822
1320905508
1362131242
1130449822
1742648032
161532901
1212879359
932247182
1163177013
1825492934
658604655
753620067
2106092106
991561425
632089625
2043010448
1466185008
469599280
1464493432
1468334630
1331794801
1139407111
1669861372
106482285
908690630
507779622
1187427891
2035629592
1386857591
1957907253
475591301
2140640675
1312297749
42046212
1751702743
1682518551
192711014
435017939
890061062
141647132
117174896
2087806715
368532840
111595876
37432614
1176090805
1245849764
30542679
9738115
1329040729
1007427651
1431396485
116949052
784614606
161783503
1978654874
502374629
318669951
339065323
1883241711
1197908250
1960780328
1140041960
302709124
1873911629
1042766309
1241166536
1906713911
1539753116
1357465860
606381247
790550736
876797366
2055975609
121556914
2018394398
257621500
996805733
405376954
168160643
1103505695
1867633265
76175686
497428846
1222247915
1245586180
400117736
1804540959
1312004193
1204986891
1504928923
670937201
392496100
456568408
377092987
553993729
708924762
1611776498
1802050190
1769416976
142562637
1149911755
191701024
1168691764
596402915
524778723
1914765436
1546252169
193484128
1670901875
511577154
2107323482
1652778691
687662499
921059209
737603916
1194796525
41699828
609359484
1656517944
949186729
758764410
1116400937
2123314395
1704490602
754478478
930800886
66763582
1930871352
1078258916
1539003136
1781293525
2064534735
757795912
1521137277
2006176032
1736808259
1115008995
1349727930
729499897
1288817947
144405129
814393780
550023095
224980493
9992480
659890696
1261988868
1534525730
1981190017
1974666593
1770193922
445599389
1432652949
1969466092
67012141
905093515
618528269
155549892
1349302505
906203922
881073509
882686835
1489441681
966908976
1302924172
1890159314
1274641895
1984278541
665736631
402053562
1822218572
64232938
636993778
1659540188
585256934
2135260137
1716739833
2034266082
1275096518
2035734800
1849158153
137908240
2056454335
882866009
1348102554
492901592
2021572736
1753435732
1933319699
973670907
2081013653
345740547
879867191
729600672
653894229
1783518383
2072299209
811458637
262709399
1886257668
1785763936
1400467520
1092766941
1188700404
953887227
682169029
1350116616
1446636920
1783335231
1080408211
1520822979
1107955294
1992191896
852904258
2002895690
559304724
672801960
323142186
1787568212
1419273725
1579330410
1895095228
516779819
1163179337
498022021
1118779433
960991871
1982736176
1191306277
906238501
1598366012
139068070
172147268
1542758923
335048600
1023201179
809442154
274830564
1702584102
14237607
279841344
1106684620
1969288985
928653935
375084637
1817797698
1112130573
1283481044
2092537796
646212071
1963721044
64876988
24945810
458780916
1428195309
312934656
402473917
445360883
1831176184
1283581196
1128737210
742439747
1365772271
149899030
382877027
833500582
1736781278
1766015619
2097685420
559916088
2136231557
1296601059
1171723255
1438193088
40552117
247903827
649262132
814101627
2024446688
172246525
1082506588
108913498
493674419
226368105
1865426820
1505977610
1106831848
2049746237
425434734
1653475865
1058621171
1171275604
1853783415
1094739742
1086291202
2103280668
2081657807
1968706194
1137152911
365081423
1109782721
1488907210
789340961
408886063
1920071809
1730603215
102608393
614828819
1283243876
87649433
1292435506
1313000788
337817399
1266885976
1371953118
289483117
1866363475
220558075
821663036
1807871740
170469713
1786139831
282702733
654706417
972350931
1004003444
909035620
2006880012
1851944887
19939249
1148701942
1589541593
615731441
1183528663
728313141
482754233
798566937
378417887
2031427820
256016910
262360608
528998373
19844058
45537542
1118545801
537151320
116991375
1387104212
1608770360
65959374
1486006809
681921385
155444762
1399368203
258920896
1150692691
842696861
816056987
1928221280
2011585794
1990302466
572580924
1193747976
1573392963
1008087568
1256222813
588078282
1645836162
452344506
2050040598
1045279669
1375706162
325342892
685670812
4912652
2140499602
1574109335
162365480
1993286956
1948761734
901249092
1194223811
1008822375
1117210590
1344861967
1628260625
961660445
1167704968
1195551774
1462364293
447455982
1941111584
509280309
1893746522
962595616
1960776414
572498532
1930077085
781763083
1275486926
1256316045
2137393321
960830060
812972691
1852878549
606233815
420583195
565031586
2046964821
1384589099
2115719848
1376941837
466440093
129328923
772812935
989499682
924098157
1789956342
76338246
116390551
881047163
2130091397
2108252735
2095888038
1004513591
1259393044
113641546
965817702
590073940
1990589366
1657294086
1231863184
1652810177
1807176355
68823351
563142253
588008648
1926282383
1474029250
29944492
175758593
303412074
450480759
2112780860
869377855
724806572
1911980679
1106506926
1495416360
1818427617
618356885
509485956
152513958
616524994
48191617
151374960
1583857675
1818297736
657836437
1725309
239208830
1421788081
43388430
595485965
1173568642
2114162781
1168954393
1656203496
925779693
2048842749
13122962
1271561131
1567732900
1450818586
173000791
1501212999
1982717324
2035913159
2126052995
361389922
1483495525
941176826
1909059378
2108665792
1339668494
662813000
840592862
1478146530
1513262853
665554716
1290083082
109340117
624213081
284255924
1364800776
1826575995
1851129598
798847107
666775384
719575861
1822479131
1746548292
702157640
902818468
943232397
1838151741
120301692
1372857691
841347194
1761055892
1621714079
13033113
1110216555
1187771738
1825973279
903229472
1468734370
497223217
1578936872
2081559519
1957068879
1075262366
847440141
1070040543
750876380
277508088
82186827
281390772
1577147159
359383728
1829793536
2110133814
421611395
415784555
1964638290
391175428
324303294
1309753024
665118500
982908770
771292723
220090121
1000772850
2060754731
316384550
697833455
1737409409
1510561298
451821172
1242625667
1857893841
2143063996
812719569
1647761952
156712808
1055517794
481355562
396790381
1471026604
35236577
882483985
1628009924
663152475
518331156
511711817
457639888
1790295219
541005745
1990359848
548570945
1536958584
1224313040
1728136403
574520435
1832685465
1713434262
1515289585
450797363
1236513214
48689771
1223239364
828460456
1258838211
771031654
967250374
1026132500
123947672
1109390042
1878449039
1716683078
987746233
177580158
1664239854
31824125
239471660
616418096
46195113
1458308465
1931485300
807829442
1970721823
1766123651
180031595
787884689
1909727867
994637730
1321497814
1870346637
2145719717
795126240
2002121332
1905456748
1822751418
1324478049
1667201891
2025873707
1910777460
1002072684
360797802
1575752253
349323803
1974157253
679931924
971383899
7200540
1717787467
1943237102
736307053
674911134
1348815451
1899045852
1296898681
1253891832
1339398597
1385468746
1449225676
2053248349
248429606
394560649
221580655
646747280
661878686
1459071531
1389851427
900595747
1778965542
1536763265
7192847
476792276
1568719437
495243099
1212081040
2095917257
1425920284
363611958
1959377800
1016993619
1559890915
1547029637
706629877
632702549
249096597
2084953809
1003687119
353834314
164491783
1690608915
1007614878
1679211357
1679877340
1590697757
507647816
821902040
1610114845
2007768276
574921178
1611898256
183777775
1428225931
985028447
709261810
805304544
2019180829
1133977621
1300020693
652697605
74827014
607202122
1977861142
357898726
857010253
1636731111
1049735138
553981570
979405244
886217755
855577001
1662216359
84959726
1794153769
167301839
544255213
1042793535
693642333
1707829857
1671755678
1463266994
760265606
1015568620
271207105
1494733124
970815740
644279529
1741133131
2082953232
706846965
794906442
1047869429
910588384
73355478
1817106218
1098126521
567922995
1942565016
2061280873
1113596962
1514699871
1031810383
1055231501
1730647170
663094802
389430156
516569575
1945071484
324605106
1007624597
864724352
470730803
1211098026
913852752
1484904522
1667854857
1651737390
332438272
1103423802
429080194
711647314
416898878
1061571432
1548010473
2111739334
336144692
368993017
1456122628
97420156
351914221
1601855522
540575167
766127975
508183986
726819999
709373184
782036373
1500373010
757591691
653174716
1654575122
1778457655
351112817
584030235
2015059986
945673324
1180230123
1322791581
136256821
1766281936
2139084941
325761988
2115814914
984052758
499269705
195268352
830171348
594923889
323000672
1868606522
104741647
1593963270
1178678056
1054133791
1664563823
2046396967
2131005265
848234776
1230345311
161723267
933891854
117436563
1489032896
1810514280
350611257
849692249
361883678
1223298550
90790872
1915039676
1192937341
216225146
16663841
1438774361
1506678065
864229524
527883251
531580060
1022845723
60720813
1119014085
1257375559
1251298375
1150906419
1444582811
2123608227
1623610857
80789533
823273567
17964989
1901696744
981598018
2030295443
1947534706
1832134866
1590222386
1925485004
949080599
375152536
476825333
171068442
1470573671
1822149127
1246787536
1913510257
748220178
365492745
730965468
489745545
1349889903
1407849675
1431217720
1969319729
1880017798
1350642476
611197256
455286106
1091305543
1030969803
1538051168
621308462
990087239
152809756
1416703084
1143188475
228573496
607839823
587030455
1717145699
83581584
496290519
683143307
1718999306
696060912
539790638
1298444156
352542498
1755042625
774946983
2051446021
1678270546
2014624490
1137192481
2017701146
1122505401
1832593406
1645243387
2084833184
1053458637
774680687
1539259943
2066003039
1191947904
1926330835
435666725
1354220556
72549523
2142379788
1896107883
1533694725
68420942
483139235
29773335
1749654503
291063952
112054594
231512308
692064522
1859829907
943908851
287429923
1904443215
1166034270
1876587029
1711505178
441268317
2106681696
974089134
735232654
1008026728
1609799196
425513979
598743887
1453956363
1207398314
289819521
844283174
345665313
1565950323
1881029177
936166459
211051901
1092760182
714243503
1930243377
1029831207
1334116613
2018025408
806393210
2137838051
324470774
552768602
215073715
1220025811
1202112945
224722934
841676753
1718420796
1182221689
945292756
1928921930
959584398
185881379
110861825
1559308631
262589323
2038319025
1588098168
1673185109
1820063523
1804460199
194399674
1878902013
1539466226
395409897
262207188
1094110317
1965579416
994347112
109361759
977423095
1191135062
287465270
404447123
1571764347
671238532
1966422879
1069723604
1879746696
1408692394
1101175065
1429570956
1802838565
1096869209
1381355090
1335910900
686997548
1285661962
1246359730
735742880
1627855231
654132453
605290638
852276408
1716384153
1847409601
1248747013
355346685
1105309667
1791636453
1822852298
1843495986
578855262
867558970
2112753786
1012527236
1552023404
1397619638
1303382222
1284631725
164348212
363919340
1781233214
1245485545
773469023
1308502959
95698304
1761251982
487217186
811183744
1645954254
461064272
1014501461
1344102876
1423892245
1200876116
518064767
1741683174
1239711959
1031066486
1453161438
1251676591
1100790901
1950777460
1272946922
1025065923
580027877
781651625
1284179167
1970621778
1434894323
757154258
2115277329
687028267
106499872
2123764283
1320970993
1461488889
186578703
1194443554
2089978238
1894288751
1575632451
184910265
1171728226
207189685
1155504726
436111796
1466429296
187157403
928949365
886297892
319484980
1966384836
1176245576
1579373129
1351119282
1167856896
1194281439
187146511
1235506366
190871464
1177816814
193944096
1915259717
80211590
1002550751
136240485
307305761
1185204792
1452830959
1675994873
319491066
249693848
738588425
468725416
144112423
332188881
1948414097
1971277298
692101333
2008284610
161917674
1659776390
50068814
43435116
1010603435
59751601
1809406948
1639657301
525010472
49065607
1449204571
1864750059
1583203288
1609236753
1678261442
1762359309
1131076773
1283984040
1158594072
192267385
39207232
1659769078
775469042
745799465
137668984
1557030550
1777551232
1297141060
2079244193
1309217318
1268137620
157679062
1359320676
466287495
278108954
1699175341
1146708899
90940155
75876268
1058899854
1442022676
343105172
170763394
53074691
1374997737
760422767
2089899762
1301041611
1038685572
1115080973
814539181
1283751165
115416690
1467675681
944080223
75922501
399748982
309289065
1729161427
161284426
250021387
221172095
1971390741
1471240415
459508016
1895136836
174453183
762477996
623953229
578750478
1454783767
733229835
970829996
1695873072
1601133789
2101290542
1515534393
1595328133
27175380
1898649896
662704809
1386506214
837041224
1006376157
322231871
691299325
1910541496
31171393
636977969
553546599
1931336451
1583813064
422109657
2135140118
1613127721
1420540855
2020066645
580719862
1234715995
1812618139
872685734
748293925
1042834486
1020946109
159748920
974578247
564449310
1371958889
1717973973
1171594091
1747461489
150637289
1816307245
1493063196
1875812856
173919517
81819332
425366334
1281230263
1982839064
2139864792
354621101
1970354794
562219071
7147742
1618660872
1759036510
204272561
496544934
817184391
2013329934
904349325
1555561496
498400105
542049578
376797128
1598969490
298493007
2072357516
1053723931
1790578132
882731814
107141610
257918050
473088561
1170612969
818349776
2040596198
2489982
1743115569
1675053225
1901667010
1869814921
1294000438
1739277030
67243352
69693797
168272238
1396168025
49212902
712753606
202742341
1984402438
1189588889
1240726927
1292906466
1987184723
1377098602
1034044674
1554900270
623032355
1999928075
1370371221
1041178881
1709242207
858850015
1063352515
1588690290
1361673989
273892230
672836404
413572365
424332747
946365837
1520924245
1106741815
332746972
1297410688
1034355164
1061002367
726684534
900577168
213231208
1738139473
1644476278
1158686709
759360309
1146367992
2010019190
101852882
991086813
1451912234
839247178
1841516972
193672682
293193732
900845102
1725440784
1242496013
537539765
1498627712
1824007158
1992741710
1483046391
1287400705
1556620931
2086258302
1887627488
1921114163
912885970
1077272539
447765067
1203510998
944209354
69868782
692192445
1004677171
598433968
657632058
884055678
1672901846
1823542999
1316514769
2140545109
2136096231
1079265774
1050984483
2013072244
1552010787
259007070
818585157
1036924909
868391368
938043733
893775017
33761998
928259751
1935485697
1108485879
1654322212
686591284
1691103576
1496926684
458462691
1807890282
1960611224
1193019251
2068967817
767216289
644492023
1333019519
201408156
1806782120
725575901
991090778
898828471
1105456715
1122942211
393847147
1906882080
716867503
1407606244
479383916
1154455125
53937285
955708596
333876665
1134065382
1702918874
1806063556
1204802017
1479787368
656020420
96947495
1884397006
1369123516
158776757
183456791
1179477977
2104610069
1891279610
75724741
1560009359
702804844
1033595649
959785434
480827481
1827621988
879772232
719856616
953403297
1922872207
748857988
203051702
1056253905
1540652764
416355165
134661954
1649044530
1670796661
1360279924
115126857
1948852642
276663711
1710772315
159606163
125458917
748360568
601551206
1317297779
287268993
365811310
1400821006
735336564
1847637559
887275575
767971833
1733584652
329799190
166015700
1705354839
1510217739
1273512260
1076432542
478021468
1342021098
1177441089
615989426
171080133
1635058255
1736859231
635820361
459764428
1863540629
879464476
855943657
1165901527
2116494230
1529486454
1730636654
1358770954
1732401612
1504850796
1647733895
1614128440
603979231
1891450033
261015580
18394019
113857910
289823661
1503339216
642491967
1234457135
813120546
1844310653
1957531048
649329874
1900684854
1032211188
1738411147
418637473
1514298036
1359492574
1735876344
1851237509
1488697185
1490128764
181140308
183980094
577938269
351563203
1545142904
261231483
419775175
1228934853
582907758
294631813
709817390
1839287809
1462648906
810175065
1134498624
725853110
392359526
362326974
1290536588
2063313468
567234051
1437813840
1145279128
1638149317
303546205
749458856
2027517681
1396096523
1409701382
1171318401
271929767
898159954
2118828564
192337114
1864420514
1337357733
129433547
1941862462
1394020565
727931905
248106952
1494416466
1612087978
152810829
880277490
725072552
567658224
155016279
1480936135
668933530
2122124954
250781947
1423865972
1340311972
1545906846
719820137
830776928
2019250277
1098508594
126018820
364630063
618703511
84621612
1619735206
701296434
1250343510
769431221
71433781
1875700519
823432541
2063941452
874320827
100225724
1648318268
523742799
2003271904
744217254
1958493140
406118592
305337349
1422239673
52674824
692838960
1461936613
1968397581
1153356269
1663475805
1924879309
1254815232
142014450
1246037973
452345363
826566036
1078105578
413624306
1041596052
917372616
1569073637
1179197313
1605083760
199075042
1963169785
1999409366
1259214012
2113913883
2064677786
618224980
511071237
726995148
1726775946
1414392575
1916514828
860885267
774950694
1753558955
61773872
860056548
1332830758
617727484
1396594459
1978794535
222924141
963594400
296909876
1433521739
153906585
1070266395
140554332
1811057916
527592644
1529128278
1550327175
1360604437
1010617668
1162405654
622550544
1187055611
1525168750
1715836368
1239544311
1628693053
2145870929
823758780
2079997227
1661580031
1056874797
1585497375
1688538854
964769083
1173985184
1109233037
1214492295
876756720
1846800890
1566589495
1813082771
1432019566
74323639
2125341649
2025971418
1281906140
1275522065
711493169
1869367998
1954325397
835953222
1049969784
1972244276
1886528161
1169065196
956923340
1611414884
1251850032
1224070680
1125619904
1639832825
1240521169
97759225
618762448
656912702
2143054092
675803011
93358392
1897040148
1717911695
2083333822
1691527758
1808077857
1115396657
1100060233
86000915
281690460
1422275979
987574470
225001487
1431119085
1290946744
777888827
2079050510
1060333326
1371093083
1324444755
454384480
926890465
1550653343
1571482885
74379469
245487632
318566795
1482986738
1555407035
847743528
1017239427
794756829
1465936672
1883649563
1652931388
1176653004
921982741
2029483073
651496867
1912279502
1789384235
57093856
1506551866
982311995
418804043
2136983379
1433500828
1460830223
1508228333
1165804763
768445661
1023746413
450663674
181209723
1284615168
319020596
554541454
531469766
473859617
2096367851
1586897609
627426556
2012967124
2087951029
1368524157
1848517751
711951044
181839186
1803960019
661308898
1594717428
537447950
178417967
1040326337
107170306
197906259
1568331743
551120170
1327415131
1558971181
486243384
497002368
2056750217
203683245
1601548397
271577634
2094021692
1049099985
1657328963
2096405860
83837969
896722269
180839810
1926474908
1020282124
1745651754
1947814486
961405789
1102023554
1285788022
1660712843
1536777321
344991755
104017993
6606885
295741412
2042484486
2089671469
1193038386
1542418815
57389315
1539709543
899975946
1605742186
1188078434
294541795
1354388451
740971519
79868024
493405195
1031591428
313955860
1541535541
1788879627
962123469
527608904
1803846740
1898106003
2029603750
127738360
598993319
75010646
2124298109
265661113
1470996341
103595452
1130024273
2080670099
91695946
589631778
500948488
251088740
641143256
1501483796
611814295
2010945671
1076071896
1051385741
1600603580
1206301563
1542983901
1537327809
2066550298
712984193
1828883401
1999166328
1246037179
513036120
737771183
1279362252
1214528457
1470607220
1508626721
1962625262
2024133762
963265478
1505456844
1073879847
1663525550
281772798
196330299
962697763
632658336
1099342384
1475133920
1695963692
2118795239
391529790
1498154899
69613461
1832676274
1175958335
605324655
991473789
136578929
1682347606
806751697
315115389
1435606418
1331314843
2142086257
312864270
215706830
1907194572
837260883
497514130
1549845789
1304025906
1194613436
1228541464
1673833100
42967775
2101426838
397524843
1589691188
831726782
1202045268
1439628565
273779201
1168683822
272037140
1427321623
1427950635
404231880
317806182
1522360823
1595108419
1334873174
1451927944
1567080512
2070900551
433474343
1943831949
291464613
1733251315
146969406
326675749
1307507769
508534559
1734296498
1104686835
66419556
967040755
1275525298
2008436104
1346497036
1699723469
9613895
1967665208
709699727
608267385
297664963
1411537441
1242219311
321817896
1930084633
2092755987
497667198
355731131
613240768
2041031423
171884296
1415211070
740973122
1939788348
946825338
1128233457
2079270887
1993451956
1482283790
1413879985
189624438
2060183513
370108513
1707956692
2032384903
59955356
1780261679
1913649290
10175976
329731745
129460716
1684867304
1661235292
196959014
1682700555
217773285
620410183
2115685934
843187467
107331793
490284992
1756200602
720559295
20551245
1470658882
973757078
703173563
1255840319
927958997
2057715797
1705391181
227215367
233796800
1824103760
3996177
838899074
271860330
1918883695
1011520500
2049581189
562232015
178486520
1490447987
1608950195
1787714962
994589765
1893467626
2039376258
167450224
1178838279
961823005
558867636
1853651837
385200121
448254645
1535059919
234017518
1683099308
1762894995
2065597451
892609097
441140427
1743276313
1257792341
407405501
904955838
1429042572
215231562
453182592
1557096047
1760724350
1868689139
2113932308
424295157
221577961
782211273
875710705
1253335405
195443364
1771598092
558311384
19216610
221828470
1400888452
1632358847
705883014
158300663
1162373854
2115744386
602275545
696612866
1475881303
524387924
64400317
766147126
387661975
1293152331
310705913
279592989
97900542
1341561092
1088209312
2021220518
540426737
147379411
402008336
2017465530
898134172
1470812485
1808027358
1117522095
1871425938
1113738364
1635938781
686962505
361476740
197644841
670104951
650759096
427674958
1371898699
278092511
1044974434
1080269849
261120757
239044768
353192233
1045681648
233123238
1987083102
246865590
1772778147
1529984794
1072448803
346173208
939595664
1504956465
1517225771
1348907260
179358486
1236710929
539732130
1490354400
1740501319
1916274543
1259558842
793574381
388993214
710755213
1156895141
1835327715
1005772179
172150839
446985005
687504312
1653345964
1909295007
1333661758
1592219390
653621641
1615318804
1202820348
582022814
2116941512
1202927024
2095803732
1672354162
1595379198
450337103
839497141
1312425093
2036820568
1295570468
1605317357
699323548
1619531362
1480326151
480580342
301979702
191824180
417664317
1377596538
233632465
1233537462
2109097049
486586289
1223165441
1340855044
72999656
1386976841
568681633
1231462813
1927251850
946602954
1315982524
1586724418
141954020
443602403
58485014
2062148446
363522904
264778848
1804426457
643444838
72888513
1581568456
736973991
577119984
1401548071
440003456
1489740147
347385384
1808021003
1260327394
2050775652
1749147561
1949477625
256686247
707921811
829184873
2037023839
1847758615
1571443599
1212212262
1116219980
1091084328
426165840
2005222226
563171643
1490828082
615155475
237204921
1613013319
1182376858
1117136601
1404444564
564126980
1915980150
349860458
1477921028
805682748
1999194559
144395424
1358062015
688645453
76346913
276533525
930778598
1692069659
1477060128
1961557374
461781531
942185261
966692517
770647197
678491997
1601546838
978674188
130050155
591699961
1901608019
1417050448
1169423498
952812331
702264935
1826243437
218886107
1162303970
958345752
439582231
459685612
1455276765
2071687703
4175202
715386675
96536065
563700227
2045742421
1715548092
1609589337
1392647139
1052233851
2084013246
39919837
1037137495
610027838
497219836
693547313
1381243603
396714405
830691452
1707740741
427435147
1670483074
236090031
1482779144
690439615
1605596174
1128817832
1150886327
831092468
596505497
1531374446
100596289
2059348989
1709102827
1938079221
1820370206
1781928854
1005151077
867299214
1139706636
1263230094
2112989027
1835948678
1307828719
517375186
725193396
436933037
1021642752
560443128
1089525540
2041568059
1222977689
136478946
346591397
1230877325
1208231994
675187345
1677440360
1533498023
1159059663
1431712470
1883065901
1478019284
1747154418
1053634316
639465078
174525962
511207723
1958183119
2119574725
1587587512
1332434497
13237252
1972419413
523787270
237268871
670914004
785735543
98750494
532812244
1974253990
217389708
1700812256
1482467567
555280594
1283441200
40609060
1082842091
844685227
1760995323
677816079
673644905
65078488
1561137678
545146985
1110891362
1508499035
384269268
1881035956
553032787
1226789115
1181392253
632182568
1747464721
169960864
2093693996
11568742
1323817936
528455835
1773126552
1820046625
291964083
1610067545
1532273672
317279711
1041131877
115413760
71597287
1047548923
1487438715
1624096920
1783958396
1497788088
559234527
42576921
1203364695
289405789
1680339277
885112087
270397305
105391852
292595868
1589332794
953465182
1802113368
2110893233
1051010196
1414822490
679737016
207771812
640359464
105509625
1423794689
742405867
1041571832
1320618958
1358522320
2114937910
64673507
665664807
1478354855
621493403
1211418630
1918156832
405329602
979914726
1842612155
890340871
946639518
283680099
59338313
901183795
913062422
1906514005
356865681
131826933
561058060
975139847
863560610
947709378
68282860
1191655568
948031418
1430667797
887461867
1573723759
1072284050
652806593
1438214493
1389081431
325200776
320446220
2059708857
2021410222
92647808
1004586540
1232219323
2005342713
1250432747
387112548
1484316511
109962736
1528673575
1641931107
958161672
330405221
1308850731
25111570
1401860012
1358190202
1487957547
324144770
646692233
934866302
1339671130
596124871
73938889
2126533014
210921060
989623848
367802171
690393343
183445510
833773199
1030947595
1140849883
1798854632
1957772751
1793645870
458726921
919730340
856551561
190829219
644870423
1713599693
789778468
2098501393
642181635
619175257
1033435915
1390175789
1887322582
913289023
1321116925
940895829
602474834
595403523
810823493
1884242692
186615334
126091680
325601570
1007605377
1016747826
1664484244
998856695
1578466529
385212471
1315223169
527132426
315979164
186580591
996273221
667148420
96632307
1028261069
975679611
575409551
777710414
1622474880
1236321985
1811635700
14798241
1364608149
1242214934
1185577237
81992125
1371029142
164249888
1131419087
767220335
2053345953
900441700
606640870
1064856788
1398308955
558306575
330925899
479641703
1060670920
1944250458
365011437
253928221
1390509302
1015828652
327611019
2047349245
1801095039
1287621373
1964212667
1566545087
1326768843
2030607923
1116856528
984915818
1721797770
52797874
1528462021
744356972
471228183
2035518368
1665313886
1830895475
932736266
1116637111
652125069
460996309
443131468
1605293047
1183254736
905942719
155042758
493561955
714305208
612184710
1233288190
191472952
1515883177
461234201
746782492
145246139
2141795502
1176299697
1046919908
363194919
193015771
1679340639
774662171
1624557864
575715979
1883206662
652369173
704614862
720627461
1835979502
964504405
627701927
351320861
645902803
567116603
2006308624
662640753
2140596437
540434500
917885452
1812819304
1836323196
1424260492
385255602
202583312
1098340688
6820273
48712110
1126305448
926374912
1219613530
1634423353
1397167876
312477137
546587966
784110518
988571761
598965584
856312495
1445528233
1082972683
791025200
983827394
1716743291
1101683081
154028783
2023420251
1239471532
261624423
570539995
237920648
580608107
97082948
1503153291
1309221830
1026800261
1786150307
711855802
848397726
1340740646
327686092
421364752
19174857
1451728164
920290003
1489677526
1096659461
1647414389
1040831559
980956594
313219600
465481042
1796716928
1199548966
294800514
56129060
341579593
1434824509
1763699408
676374228
995193582
1952662756
1546446208
674524776
1122902396
1285361955
87109839
1011227089
257638632
1596043670
1116356773
2024163850
1643804720
354948578
1077185670
546681450
1372290830
824631912
1327062185
391667331
1365405342
2013125112
1026678080
2103673075
1220532617
1401573418
685800340
1973340437
1652272228
1040163828
1426164105
1587691981
1221842409
2004664698
1381247599
2147071828
810530533
1568124037
1711048402
1133946262
852056794
901255954
1811958062
263827120
650999813
1555687097
264135159
901552375
1281570793
158400509
327357252
776328451
1500301138
1049020295
58279554
59673729
619818588
189458750
391784235
1451505710
1774448903
1823477253
828114889
1538178443
1443952574
1892523565
1476496975
14947880
1586446027
897551250
998909908
619871477
286904171
1960649746
1323615557
1720329481
1806335851
274721668
925228993
265254853
163838368
1840479823
1403110414
136239898
1266454164
2118613854
1676421111
2108358508
1853541315
1960605323
1478362479
616478339
1783946544
2053436121
585285591
2055950664
1055110216
632513642
1944948584
1837925926
1144715609
260979553
345519623
631955214
1897317099
383972815
931920687
1650831439
1974474314
1190213999
1735782487
91067944
1980313658
1399256756
1609006343
1681423326
534942847
1149670060
2124690318
1664624820
1302980140
932190476
582872184
696014702
1624475897
96892726
973089680
1806259239
2066745322
914996549
1816906700
1632379468
1072580284
1461676384
1201927056
1874144014
1243314518
752990602
114118872
1906471807
261219584
883885501
125869534
1126325055
1952933839
76685897
1146186853
1563943488
1678559513
1790757499
696925045
1424586572
1517212084
252514879
1667158622
2105757167
1619668123
1786175597
1324737837
1039547736
486739599
432697854
116064669
1566320103
980526813
1735451262
386515567
583720960
171202283
1641529401
975391863
549368309
1941484475
1919198539
536809983
1686457914
1833716890
719968822
411557932
103963090
1822833851
1706360848
611725811
1036417656
1920631397
1584448218
1389940000
777121040
227024958
405967796
2113709761
133931981
1857225831
925723481
1767182063
1979051023
1759164885
1789039576
1965368551
92904745
2084495304
499743506
332108846
1333841592
1449290307
1686605181
1739691908
760878582
2088676018
2062620535
1878935180
667766101
666312538
883699793
1833904374
340451657
794758268
1668197429
785847085
54437898
918674417
166729246
1130646157
822034097
822035873
583578327
418312680
527626194
783040531
1490455158
1752218917
1452482981
1309259770
1222736699
1659301404
102190276
264376578
1113019210
1870633019
1655732683
1061056013
2132341581
1779641771
492718074
247775548
1886484652
875254452
998669060
2091885519
158363466
301464181
1654133248
271644620
1560284323
934529715
1512236330
2033208913
2016440665
454609074
460115003
536222111
391181188
262556948
1034767487
913613728
781218223
1805205550
1782108008
1713360917
1023257593
1855430203
1141137604
1113891585
48277198
1647330225
1376449760
955355707
2055607792
1869611368
71120560
1310760133
1555418474
1810692351
1455742519
217328630
137182358
1808351511
1736740511
792181434
1435955213
894292290
98385036
594888277
932715617
1172223721
1558322384
999327468
11349951
1864995012
1413749151
2012802927
1185836134
781145022
610128443
277050786
502631207
1072322178
1575559003
220013258
1279092104
267495177
1309090670
1973906314
494184377
429565234
862183291
1500467348
853314284
1694099461
694047115
735069864
1995216988
1296329218
37624796
884205208
1452569067
1722940663
27242928
415196696
2056562301
1411515880
73404066
1176491898
2043120103
394494645
594605273
1611018765
1599281511
1730237630
1126085196
335815360
1708975196
1427363280
1215328342
429564954
1928920841
490255605
1517029640
1969970628
741145834
959584703
623273396
1990053478
1895822061
1762529513
145319256
1177107066
464552314
844579076
1977109090
1154770169
608823002
1852827086
2006692262
1574703102
535894437
1547179372
113119242
1632715859
409135789
1210076134
1258404116
1784701582
1572614050
1089028040
1410952320
1255275109
1053095113
1987182183
558657028
1849060316
35108769
1259687951
2125406701
609046094
211659042
1329030191
1392063480
1129947677
1475934173
1371850088
1898071541
406046691
899031573
1736677016
1561208236
587874653
1497190541
1178080795
850496234
753023136
1209841721
264071789
54025852
1393086977
258278542
743683900
64390993
986071784
263244275
444889050
1443643857
952349325
948961341
639509872
21429568
1421140516
1102087172
1189618102
1776796397
855022991
1161601607
2060446810
702030722
317911783
422095215
1181785634
720809415
977023847
1665696761
569749132
1136913578
1366276901
640047860
2004483723
1524166102
1762754948
1790132240
2065968663
1037062032
296841602
889905058
207697739
1684723481
734759482
547568545
2059293608
1222151960
1358153282
1382116601
2013472722
1378839942
2029964571
1697410614
877475773
104366680
1123576395
263646701
403546875
1406971192
316198567
5843195
1256859936
1201265740
34183164
1307823151
899839529
1602867802
1911267598
1660215163
1882895978
2091086984
1689164440
1907865406
348943063
452960600
434858732
1335422814
981382435
185241157
1234327230
104295647
1799779457
1504358061
954069140
8087641
976243127
1837506861
1243337211
1931247794
924084956
464496368
289151749
2122306664
1471541230
371466487
1681439517
166143225
225337271
446797558
1334149307
2114584490
564560566
813745486
1272574441
1330770296
444432513
274346859
197520628
907198465
1411335131
6279728
883036034
87534761
711665185
74719645
1468852309
1174322688
28042392
958914432
71691821
427496129
876731383
216481363
1490501793
1589066714
1715506442
1254072773
2115973330
1047567953
2132830439
239527670
308973734
59039260
214295742
1078800654
410045425
290082726
440325848
673333425
438487086
1462530903
263657956
1834439085
1272810761
1392866769
4553366
436633940
498185372
164478037
1565649530
1170783345
1301324513
1482323316
1584790714
228800043
911247278
470037517
131639997
1565877735
1150821666
1965986186
405168133
1385205031
736321810
1271519113
1248218824
717342401
720477329
1208464145
1057885035
943168557
1745802489
530312685
181694859
1267475497
717785922
1778528621
1491390484
1381804302
2042590524
610390139
1093885240
611833587
1751577718
667458010
1792275149
348877310
698570801
311800427
1297355516
1534760034
1230496808
135100335
1664693102
1386575152
1075159543
791636333
1659130595
1200338384
1765537803
67574916
440128703
1305622769
1023150921
1557214504
1419551973
315981952
214951520
1986881631
1102292185
588354545
1645636197
1907787606
654335811
1808297532
61146848
1702465758
1021445321
2133849228
272644690
115657695
1932505035
1099986018
151771738
1818749390
2021454078
702327241
405021590
354300080
1112253259
678186295
1420857970
687582568
2072774868
312617553
1054966598
1410756111
703344104
577158656
728341099
830784517
160929469
746609942
1461974092
1885965888
304624259
686940514
1622679106
937921487
1319737474
78176576
1865209423
1289008526
766479241
1944349996
1501205324
505848123
765511361
551376440
877581818
590408346
1282871845
442039282
1079066617
1626253022
1767218604
1374659327
1281062201
2041568757
1366730439
1240421330
1010090882
1554255194
17916957
1189363615
92443452
14332503
871971135
1894756248
431922908
292740029
953627698
1295416079
1562637335
248693945
352243775
1473250745
2007219078
719353538
1711211297
1254016387
2115160380
206861329
288395641
1184583993
652276876
794782132
950184352
498792116
1993029880
1207691700
401000922
1924847852
253337051
1550134674
1516038887
796432022
135915246
1145823369
801174962
295794625
128453779
1401024970
1524268526
639706400
213220335
888565351
827312125
215541054
903880474
1559913431
45945905
1109943033
441068947
2145897082
542192469
1945173051
553895035
610498375
1162896049
333223952
477578945
915609222
1811837161
1758528612
1281983889
1941974476
697379211
1436081425
1245622224
469837393
2129398169
1659566424
1213533104
295788323
587611078
1461281440
1986426328
1814120376
654040317
1171313333
1241623010
113738084
1928038347
108116341
1531728645
953944781
2111908347
1739312134
2069816282
801534124
1244602133
1126505081
581646068
1365772688
448173641
1142271384
1392441020
522925854
79707636
1205907043
164810252
1214296179
1965438817
936645465
1689739382
1956893938
1991267335
391632564
584124945
1293878722
44276043
1106621783
997419088
1839794394
1671826535
2026009685
1393404362
752120350
909625176
1725018068
1824040640
338302723
1495422133
813510867
1339539778
1877444619
727667732
1902693263
912100716
263885497
1142384175
1095484846
2036679065
672320582
1685741827
1873331380
384954032
1036133424
978439372
582829150
348422305
600145355
625911577
1712428082
1901692537
1429099224
271806444
2033344173
88064528
1531338146
303791577
1463596706
1813545335
2049330059
1933613546
2080747104
1169342010
202929891
1539302513
1539732817
1557267913
1178642816
1644101751
1448476098
38939256
388097732
1634896091
655961284
813218490
1773878824
2040974352
1861390042
1399144903
1444193530
1351340153
1973065364
1622233139
708106445
841326739
602497942
963726280
1016679055
1793187703
12259284
652675014
594087726
1089709259
641173105
458696095
968612711
1010213191
895934972
1032993803
1315833060
2067434214
1109086755
652396817
1847233858
657969345
156863130
540076191
1945383892
802068464
8960259
340579718
1800835081
1385234273
1808991090
1517367791
1309160426
293186638
775917058
1831737120
1363596744
512728639
1848576559
386788919
1037468474
1779977047
1963183092
392499114
1030544030
1809384716
1625188547
1054682180
435244516
1862837138
1400364470
74284354
556494001
464681734
1094860123
412138609
966276725
795580072
1612244590
95020049
859796636
1381711442
1961443810
2041100200
25304376
884457879
1675430244
1713312889
1358609588
603491432
1856967928
957876399
1453910178
236880856
2029236726
169981074
1136703915
1955834280
2050851034
874181282
2073513400
524486863
2049432472
1970653070
2135249475
1940515260
175096835
1438620274
2092472087
717442666
795105765
945829228
218998629
1003403053
119003474
832605620
1881828789
823340583
1138368700
1680495511
2041764920
1054841872
916832126
1649494852
1838194860
1546216540
843615140
1201106075
946265514
1196050781
3195175
2080164660
1114303819
1350473849
1944561435
1405896633
289090305
1994694350
1650638316
62260905
124569255
1541301550
1584690872
707310034
1319738861
1272361996
465924240
2080014324
1532436098
445276277
1038040862
1939014852
2128556444
1410785117
552712318
921094692
668216443
1261380323
1444662354
1102425968
1028180935
1475853838
488694037
1050481175
1960129995
707481806
429112074
1521401317
417465436
1682455757
1503652361
1146987851
1861375673
1286119730
12238818
1873895804
1271262440
1015390022
145018586
651262563
1699498249
335996513
256176023
1595504689
411163094
1570736208
268816232
1074182557
594554093
1914246609
863962840
1114707390
1101670667
1506673151
273856411
1268728679
733827222
1454657505
1279832791
686295653
808520436
1979286904
80750485
1437678187
1993144376
1058072699
1110497418
2126343224
2097105357
288686776
2027215690
1121552786
2086413914
2138926652
1077140807
1109073354
844042814
2127161682
1862857550
570453362
1782014840
2145628931
949743204
1172526883
961067718
458633101
923220930
407894883
229148255
1134547940
42158453
1659907395
140610651
92035845
232813983
1474079284
333872156
891896104
2088272889
407181925
1190955420
44402873
100703517
830462307
1711738667
1309525483
1086641040
984778178
986527692
945124406
1391866655
1919179282
83013918
1404997846
399791686
1953188885
1937532390
43024501
899384535
1573189129
1775911077
28261136
1967151631
1963738757
1225717062
1339277227
1696723759
861731005
263115676
424071525
1811653902
1385550867
1636737378
186579760
1904163627
1393210873
1780186394
1881332695
639679842
1003970656
309643197
1016118040
1002225245
774116195
780211913
892101898
216150421
1020062854
307703735
689196805
1084803553
1459425165
1936984172
1157563222
1830608852
1970181768
257348427
1503778177
308928415
522209823
1262227428
102883173
84688640
1131553142
1590732368
311444607
2104753378
1421445985
500566274
1704115684
127968764
2138996178
449863418
1668902992
1969218473
1337085377
653768160
740492858
1106744102
240210133
566574373
405804400
103047685
520111109
479561409
86428355
796259775
643202351
217633592
1934089915
640784846
1185276500
577397269
787861838
1761899777
1244768915
1380437395
984575587
1710115152
518317555
1325493292
1841207924
2079176740
414830034
1704770257
1054631393
420942516
86170942
650235788
2032888400
1423879784
853979332
1319949166
621374893
914343017
788508554
293373156
1029263290
193517361
405830316
1198965312
1560690004
1253482758
270411200
1862015811
1738616034
2070317652
2044802974
402877498
1259971440
2047453028
1662939531
253132692
1471332200
908148604
634937536
65583186
1316326937
778951183
105559506
1908458679
763471693
2082068039
1228956894
1041127354
1824330208
768116750
2088078974
1403317244
1283747877
127065869
1807101734
1999932813
186413949
1964676234
42637467
733588648
1288018134
385671618
593670274
1002239865
1030958467
1426964083
1246821020
1583103052
1917229816
1122281129
579233499
1966429356
1410333362
1818487120
182447013
174855827
1664414567
1275297303
1593238772
69488402
1887362148
1019765854
927284375
1961411829
1970350663
770803867
873355986
110641749
166273844
914567974
1272831661
932292439
199744206
1660550838
2139954598
2146960448
1770485451
932074880
1122004178
1996995503
473742112
1704032533
1508716562
915778820
1202052641
445452084
1620685556
82929203
357016778
468596936
715639101
998465196
1371129605
304427031
668677651
1923102973
2128845877
2051174107
2028789151
824839546
34213577
758799427
1729870890
951630937
1267718402
1209566219
2035066664
86132728
1365838192
9130968
1858720958
945567445
1952632392
357655019
2027105412
1909390940
1803586154
305216306
558915566
2052355276
399454593
189053345
1712703928
1010453398
774892603
1132520106
760026935
817992020
1941636126
1719880920
1488107468
1119108179
1551636547
365825752
1652102522
533314803
862493168
96154903
398628083
280205180
227643269
1183891559
834887204
835389073
699507272
440282114
1069280354
1282975230
5796284
1600945195
152921696
462365577
806629317
648663973
1212726981
1928461040
471500244
1989776146
1534696499
352401149
51494900
405929446
1250822523
1986214848
112935411
2083547654
1165749863
1256561170
341852971
1728902372
140857156
1951262699
1493291813
282509895
1599886737
1309910141
1802315159
1250018002
1426595809
1461461201
427107860
38732115
1820023492
1689351015
1286755774
756578846
531472501
1477276135
1179250175
711555149
958963920
1106359066
6114813
762084643
10097367
1977981274
1457696167
215461111
387672885
1221813474
818420542
404801171
1226858041
350047932
1029815957
811704575
152905382
509847846
2034525667
1735799081
924161807
475335699
281893325
1341987275
1315303721
1879147942
1572370809
1963180018
204900016
113890748
675651336
541518294
506143107
1914941135
59657266
705750413
1778332638
2022441401
265067953
98449102
64999455
1008750282
611616781
454151515
1920231907
297271470
1595956170
958513923
1822907892
1165413920
1399951795
449159793
1314865645
1341203683
455532240
1942959324
377093507
1763416950
1288212734
1903614044
1501211094
1952344879
1785475854
1694785173
830159433
1933964112
691042530
81621587
1427303604
40452703
87192619
1210222257
604143874
1581230255
1826426821
1562594339
563559044
197022481
1771295970
454275083
30779225
45542512
182056679
327836083
530395357
504383585
2083956531
275898693
1729459208
538056112
355971701
1463096945
2027315702
1193056220
1578329074
2047896973
123479889
1095068076
1921692220
1418755761
829939064
1131563068
1607250729
140983218
1636696615
581624743
289167537
1809884787
43235340
209369843
454652986
1533021945
685493997
1566309668
825099185
1131338194
501519272
440693717
1522582849
17157788
326592755
1015903670
2083394601
1641672044
462104324
1301274741
430443550
513134100
1601848484
1097669394
1170142725
487097756
1916651114
379461717
24313074
544412926
2122184669
2046922982
1789929654
1245535991
2053761741
222416267
1899340720
1836820168
2019999981
1871452527
1762215460
1003329085
482851511
1320272948
884501309
977259414
903876654
283925634
1757875203
955838530
1826591091
362670632
885925216
949704499
51056252
495333484
233464525
1013195303
268535702
554039322
154932095
3207581
987702744
891904389
207185436
1706367234
1898904300
508706807
1957948786
742874875
733776258
1367046746
370306205
718356980
1651906066
1798207132
1935665918
1267255190
1706081798
224627537
1546719357
1966985819
1816090919
598112875
612420136
1579417617
1122836703
1056437041
2068133497
2015498176
722280737
285547604
2006833347
1053806769
451899539
141436605
1266423509
728471493
1009594459
771024672
633797548
1932541503
819745994
613185796
756761851
2023008272
1507603909
342026252
526956171
1954210
227272359
1394467647
164476706
1166829211
1734039131
1235449368
926037101
2119098274
365443047
1776798770
1665322766
708913482
1299690280
2102983278
1921863488
1273155939
1295899623
782356891
1738498362
1028439645
671347488
1872541824
136878212
1464822799
1453223644
1047498408
608222563
71480280
1690552877
1391039974
890462331
540023007
1635065336
1734108454
257013437
874553383
340361441
508093001
820756061
712453442
1445801965
2019116218
1085385410
241199587
1296399838
1681989464
698259737
1082209012
818580541
742159155
1387105091
1194102718
583519166
1661389078
1329180186
9056126
450118561
1950569585
51045377
20344885
1307812622
577707330
407870053
1376054368
1961957458
110506637
1290069188
195990078
1269100923
337962074
124641809
2136227887
548799711
894305745
1406887925
786361554
1317527864
1251948637
1512372212
1348883575
2066138507
847002782
420739888
1944530705
102916619
2069515713
706889337
582086506
409493408
95716142
311224126
1947928666
1531949299
550648633
685520595
454409101
1898293639
395873390
1564620793
1552052177
1655562153
817873179
1045445036
773427004
1378210521
1474680992
1654965370
1912335615
1702714688
2065109615
1934806598
1527887062
2123688929
579174173
1776498415
42000298
24280620
1716034530
804359105
379859746
360607440
673051754
763696306
1342949225
2147025809
1564724395
1986471872
19928348
1794754084
1051120604
769115622
564169739
627680215
1673256390
1663139621
630632824
629724688
511616623
414031490
1190577612
1488032395
1697553081
1515822659
484897628
271090612
813869993
1055843551
2068186266
602671221
1932339331
1807599657
325755360
831733036
833134819
813488839
867440775
778947417
1197920028
346914653
1268099182
1496678899
278563324
921093413
98916950
1891808782
2113257375
696749297
1532452427
1918134938
164919352
124843049
1932456509
52248768
476962420
1317669360
5099302
233189553
650400645
619563743
