7800 170709186
1978077452
1473689157
1611888077
874918426
1342311318
386288589
1339099027
1292457720
1296060212
1071827468
718408055
1160521253
1616252079
1486999491
723311538
2041634018
1877476383
1098709025
1123602506
1989516570
1652251974
277089660
1411074196
1934590873
552617837
2016101043
641996878
752502463
2065195590
17725150
283783884
1413831687
1528425871
360873469
1052352185
1088923399
963690997
934114382
683913748
1904389973
1283330112
956241958
1650628430
666787451
2075650887
1812081738
233904380
226903730
799643240
262136349
1436005860
1542549728
756391669
487476110
177208704
1736291167
1118485448
801297964
408892605
1166511928
769422888
1893846151
1219051758
1929877252
1016109466
1170465086
1734139228
2092850611
1450339264
2068496461
773461786
622324564
1104981457
1172154941
2027163828
1680850157
627794824
805770672
617549642
1652443608
2019976198
2009881087
507235955
920195560
1230352934
1693999531
131144726
1015952485
2066783388
1353868267
316980608
1183092111
1454941637
1759094688
228891374
1214864688
246494458
801066272
1613837370
1192522971
449121659
1391927537
679107726
2104225281
369790920
840463650
1608466314
590375159
456638849
1348994252
1957866668
658166158
1773608234
1921244536
82095083
1993649941
1944988511
1397379350
1848793652
401865171
1344725457
693432696
861736177
1816361182
1655491898
679514452
1158266664
1728096581
2026831846
1092308782
269075744
1473784752
1905773319
410101589
1240320209
688503508
2049654408
345214574
1340345890
255633756
1356689786
1464505120
184745800
764274932
1932628482
710543648
809566406
411080595
269663808
692206279
1501203970
1855592094
280470505
1658823586
1611111722
1838327895
130148537
1063203461
276908979
2133038768
1464490676
757109768
1115214431
815522204
1672145032
1899988129
369148359
1686402162
838296050
1990011611
336168581
1304225182
1580597076
409106829
766653763
1738128128
1720234681
722770532
432971539
648886918
1570258804
1903452158
1459858890
168017389
800201413
948027316
603654242
79467246
1126831136
136074365
240058047
1812488294
1571865919
735701255
1274002970
766907739
1567607330
1372326394
1776471487
261578309
2111619672
453877679
1985860328
405120125
223614817
1007784275
727555237
82875197
699174715
818638479
1106933971
1535059712
1326752432
317399483
2111491993
762069776
1034591899
1317317285
725944468
413650916
2002815942
1134354518
963753510
1625645503
1490870215
1496595314
1306462802
929130062
355005489
545826915
612799217
1648745325
622741385
1701274140
1274428778
1964477782
144934356
1787286426
1265476525
800382051
149575621
386433604
71344159
1636764707
2147417139
71762235
652224908
1525094648
52078443
694938041
1594521549
100079208
709471201
1411636992
1774415959
907089313
286681715
874420245
450255170
316445575
285870714
2030891321
1858197297
1106996966
536082962
1626801976
554643469
293562167
688469642
383998242
1580587133
1773740494
688675995
1743254316
189548337
889829667
1255112786
517906283
1155994044
947901157
981519770
1159012870
564613221
136920463
1666379901
410155550
1947814717
1445074759
1278362969
1034562621
983854364
1401584648
1297600812
255235410
594378941
917224457
1638597056
1743995926
86783241
968235306
1677932017
1783651251
1830086922
161484386
427429282
188218864
1696055326
617618743
2132771529
299810222
1557528123
358228958
1786824933
1272453283
718187640
1119435844
697496989
1726478898
1784907029
1259282908
1873965203
942294279
242689973
1813126949
42478730
843671032
1468372388
2146600351
1120249584
1788669382
2000156314
1923132058
1506324438
1328100295
177513396
1476160911
106429228
362348521
923565295
1939293999
935950361
1969896703
499549495
248635165
1610838472
1839641309
61523442
1782458868
568948567
681691317
2077064133
1800343607
1122372692
106188684
352029520
1602132972
190980306
1880052771
38353986
1244901180
186339738
1449064835
1906589344
852509271
57274498
471227113
1116337727
1282484779
178771233
933066322
304287747
419980920
1359541287
2109349517
421879005
1436219283
1213644855
1462564248
587003673
227229065
1293898252
345730727
1960685033
653843906
1359567022
710924534
1316862526
308228474
1797116380
1475899686
1163573909
62602136
469273049
485391458
378140537
1000482748
15754293
1596877317
708112198
1792102278
577268695
1290403341
1728260927
585157111
2124065579
1312654182
449993554
316768387
1800260672
1223755250
691911144
2127547975
1711702450
181310784
1603647792
1961076130
1801827804
1697025641
1091106424
1005010646
1938064341
1580920365
1423931052
1373457912
977205183
1533717421
2076781295
308265355
125736693
1226185315
274775199
1077938348
1018539856
190141558
438542566
907141346
31224099
1824107688
557872775
1835642165
90230357
1316170066
1018996905
1555518299
1603936890
257099184
1133665247
1606853364
1265738671
1967406308
478650890
1997423409
185637609
1592990725
2141189805
638986630
2022007734
561830982
388563855
425629508
1869624508
941638917
1300474935
5284049
1843965917
1376278114
938107657
803289747
2146253414
1416231833
1972749531
783274083
1103961653
357418143
96501150
998859686
52326480
1702799576
103511102
861483143
1425064591
1983304116
2128822051
1940905398
319658824
1094937640
1462231245
1932144986
1094170046
1484292976
1249364795
1226854416
1652165076
1668145930
870263957
1109820158
1102552372
413008195
1221362650
1728611781
2009930516
689959210
1674280011
134765979
1421161514
1683315932
1252463245
1850324600
775997318
1258653701
1788084232
1232259553
2014565014
1602116073
1478782990
1202441622
1840785676
980709264
2011560717
38135945
11990458
1249588803
262859765
158511785
701104722
638455202
530566044
1570060850
760596441
2118349330
1164850477
215323074
1484605205
174272128
315486967
2009065403
893429831
850958196
738550235
1876435665
825730127
1394199632
838475212
1999309327
865645505
599589532
1855125170
1611002278
610142286
823449431
1900817313
1746793024
1870220294
1233955266
1157558306
714057357
472328770
1780350436
654129020
1749053918
563322793
2027415015
717408662
776621539
924848787
110195939
2090639111
1312498121
2008822481
1595947358
13075814
1813028840
1289921208
1636548300
1537674091
435792889
921331323
1876367568
47559994
302401859
763239725
1075410075
1307539676
437195197
2083127506
1992209220
420970946
2117939903
739356154
870911244
1784299081
1388049617
1023325462
604813809
774681339
1430046968
622391760
771663193
107615880
1394007861
1203350477
114239423
1381021579
1760249085
1357545134
1172949176
85927687
1154910943
608242331
169019882
336768452
1280897976
1390963649
1509767275
1000867909
591276480
1439267814
692930551
387934951
283999822
367188338
1292416002
73715295
632008295
503429117
814050139
295535426
1232548443
640448719
1175765256
951848913
172495594
36703063
2093115324
2023445081
261900531
1507923081
1990226714
1782705872
223977954
1925308452
1362715329
1141834430
1747857336
937302097
199308350
1404117173
2042117614
365774285
1975418006
1390974455
48156790
770513088
260344843
439743841
1591978406
1426356339
1928828700
397798680
1909971193
1184914393
477358333
395010239
423350329
1872456068
1624317517
1448660965
364118764
794910820
1813669634
90833133
2027621421
1889486771
1538576549
1531901346
442129587
2133944013
1621924010
46737373
1938977050
171968106
1426228868
889982140
20680738
1318844457
1358057053
192012815
1854411230
1988880076
323680871
400933383
1433480164
1364946643
2048024190
442761090
1274497534
505216654
1456247009
890358373
1178528311
1110408822
467693017
1334647661
160629968
1698218218
917643460
1832249665
74840472
291879807
1680652115
290563026
1544160849
534873586
1804843755
1728706894
1597654208
1720984492
1838535620
1114104348
1412248019
1297748764
1538880102
848032912
1017756294
637904410
912032356
1149567593
976737120
1536893593
1570776183
1095105500
719689181
1247324828
330920011
542907525
1807345430
1396370480
1161838617
472276818
1711121826
47159885
1177878768
1265580770
681861331
1816571027
1888915144
1600759348
1329435979
651388829
1937839523
607282092
1542943981
747515204
669973574
622237366
1918645218
791156096
1783944762
1560321861
210952121
1340165557
1181834751
646725221
1426898171
89342210
885684204
778240564
1118318036
1522502031
1064319911
2107767303
1836195854
431269787
499058404
1227469655
1313801139
1475969568
888772478
232357156
1005865173
1355853731
1840524582
550958332
2075878934
1640269257
1948890392
1042471553
620193561
2018308510
1135868585
1188834461
1637220879
918558714
1270866652
1269992554
1190475429
337559065
246853016
791210663
368473169
997030178
1366638840
510229401
695748560
1953212226
1275755097
1452012276
914330113
1754869534
1251314125
659490924
1098466938
614205545
1329419095
1667646514
1344123063
1194757270
207215087
1906119259
1738425145
1679789573
2013835559
2033197092
1390865741
976042384
1216706550
786300836
2094791208
2036579730
1522490008
391123996
1587377593
1989720831
1522834595
647808513
435756052
1333558656
2143104038
2076442631
1414778675
721025899
1263352601
304542279
1181980000
1862180323
2119754049
572268374
968040356
1977274842
1531037685
216051721
1397217109
42753878
1473764018
390598723
442725607
1818462877
257294990
1638584991
370810468
932445130
384034754
2058738825
873860356
291663775
1295367202
500882325
1631697905
1807756988
1476595136
625148064
1504812551
1027952439
1076731984
1917125814
892755162
932887572
2140229684
243233931
438345261
394593662
1503001685
181945835
1205818018
115407174
29128846
683848470
1463913414
1644364578
1635747802
625762026
507828923
252335340
1090641541
210944533
427373971
1993922188
740437154
1331813975
354641559
343989925
665726984
1809660681
208077271
2031727288
680382141
1429481892
1424024533
252432162
1088370968
1703039517
825964406
1493563347
488444930
136152592
1298400319
1575751755
898083729
1907482216
1932477756
1815133079
103427283
648879916
1984792088
1546306830
838133754
1067082510
1788873310
2048348225
730176265
1311707230
806583047
1167708588
1482081355
2095715634
994712968
1034604026
556727139
2118544302
1115591021
2097570600
80303419
530703826
438834815
2085329175
131058800
1461273191
352934756
1679652943
1197520181
1790609607
661836862
1924590513
24655512
1519299909
1570871223
360867886
414633188
102464848
1766049363
2019974379
1864225981
421450680
575371417
1905748911
1836784492
576984409
1398355099
1507944731
727481216
1387590775
170323144
242754694
1837399452
1090944566
1752991332
176224570
385417835
874737018
441902899
1000744295
853866061
1496631335
571116522
1847913434
1806043725
2041168754
457877139
1776777872
360675052
840953615
1780335846
458988681
1770702453
1594665661
48823848
1742156037
664774347
1795744096
349874621
377187377
336315478
1707085409
1612553499
61333267
672377676
1235454217
1700655736
640567364
1381348191
430119156
1682462335
1117268985
1313337386
122409643
1254940528
32453630
1747594550
483277755
1192126977
2123978835
1961160436
1972156043
570917155
989450063
1533967758
1660106598
1628293887
1520944567
1198454651
1920548816
1753022542
1613487987
2063362714
617554833
2045929853
508919528
929560506
1163367612
1822549400
2102974101
1530199043
875460431
1718450385
688308198
494093253
471727735
680026568
915364948
1020609598
2030243916
848214287
1298169216
184245732
37876206
320509459
1607521583
1921853262
801746
889175676
90762749
1893318241
1230575224
1417075557
297462512
2044208054
596688408
128006384
265949311
1602263987
2081181444
1777208080
1537414207
462952943
1990908515
34225393
656815456
1160163944
333234568
1713620588
1403264257
150082722
1000758098
1919519439
581862987
779423018
1245372166
433110773
1696444042
149753994
1307613733
1900599081
1923845571
775343355
2104454043
296156707
1579538119
1800586405
135956489
1286738598
122142605
814411929
1104578196
1977101826
1550618920
357722611
1315746955
657895968
1399586973
504896819
1475129912
2008932383
1511083562
476414858
109926049
123270759
1002319571
1405248981
1605229660
438556349
988445514
66496184
1689801891
869741744
1649518911
325260296
1103521099
1085557699
1522469681
1380598461
386485132
1499012580
1602869363
839020366
1729505557
319175038
1022492127
1361668416
2002229184
369035162
414102917
1746109716
1996850820
1607311956
505407467
1859032553
203709634
659763971
78861078
1211232526
1965844386
1286461623
1211005863
1402238599
1092259139
387782087
1336829123
14787840
919292350
1059964708
692981830
1625731811
1604383432
1670816175
1837418309
768651522
1217807573
189675696
1315777036
1844753683
1878931020
1065585750
1279658098
488311639
2102531201
339877826
27132502
916877600
1267656618
648714148
1991962463
219174844
2109939534
734584793
1827540938
290663776
1217234477
590404075
396756025
117158098
1382973147
480940969
1110412820
532302440
132941804
1079444766
1849038863
460156684
2142046197
1825986190
137692691
1337854569
230842940
1192800155
1680526698
1686565101
1821397618
60984325
1308546462
543185453
1825018266
19766201
371924937
1388864300
1830404477
11478865
609925063
1065457802
1835442568
1592590344
1053682638
1759545512
1749256932
803861580
1584745692
887184964
954086650
2089996120
349468425
721322565
844873884
657776285
970826259
1860257401
821366171
593952852
1293351096
639997748
1412519499
976108026
779794884
629782079
1019221061
54973947
279126140
335740039
395521027
278596201
1190335410
676373726
1929011560
17835809
1468833669
1069915572
1369510955
1274235957
33961112
1260544934
711934991
376350588
955232330
1886905364
57597114
1217411965
1566060028
1194092125
418794106
1602956716
1621466638
1029406506
158946909
654089364
1244604175
65669722
1233209946
320667071
2066435393
1355230444
846028118
1776747532
1822614465
1559453567
1371301862
1096617660
138003363
1040613607
901832848
355868281
633228668
420343752
1337990997
1448825992
613462033
784051548
580774543
1522464909
152238625
1728022296
1481984827
2083915546
2071130640
1279478269
2141169824
18695973
2118038926
1419967414
508243297
431155708
810885848
1771707733
1944154962
1361948530
1860372505
1421800889
996112192
1236964744
826154103
306504586
1910494790
1990856257
26132378
136230847
590893311
1211481554
39420458
1119491887
2091620442
1617412356
35223187
510453232
1760584098
1892449066
859588715
785234110
1072612183
1287122146
938548575
1129336660
531945491
201822734
1314602187
446633698
1396943962
1315555254
182026428
743093386
1056272801
1196669690
859016639
1787336359
559807331
921624287
1990054671
2077855847
312902410
1416030819
1805996828
781286100
193311763
1914789855
1848914794
1314447366
1611989080
1283955098
754980261
232893588
31734887
2908388
1859335835
1697114735
130843687
339086570
1430345598
381125350
1763927646
1511401459
595160517
76548368
219109622
465018356
1426398162
392137590
1172207154
762082044
426176532
955084589
190873541
2030305690
380137128
1152274791
1181035458
2073215059
638116087
1469706844
1117763817
2006225169
320728464
310126211
1666239047
1228052048
1054275959
806998589
37194779
1519751670
1693732629
1117973131
1869291383
709741387
597888907
34242659
1541230493
771325343
1242491582
1325257488
258444433
393399842
1541054139
1817405753
644034861
586041886
613433636
1928016941
837684724
412282211
658132720
706263587
2031893970
338997455
729187429
953174001
1081623247
1912250387
577994234
300952498
1750231436
1859745773
459939725
270464657
1635808762
535547125
4441609
1809303542
1800312659
1540405569
1480474243
274570862
1149412568
224007002
1467909909
1382986577
1953669497
653470540
262362794
766565389
273647708
306778692
646475225
1945105514
1675977019
2145216528
227257954
1130844634
741448787
1716302164
1287978058
661601267
491828984
1362179616
314697014
2030530680
1013196738
1403742191
1517687150
1792519263
691114639
179884001
506559387
643776236
1247560934
396526982
932016508
2116854547
1782184587
1525427286
962681696
2065048101
828631348
2085386792
1106267583
1888255646
256185578
1951942127
2023776129
1312859432
134671522
1487478112
598527134
326461479
173878909
459826092
2137250838
443957558
1590825784
1128789860
1101107646
1758206788
1968423801
1494311120
2035820006
1256793496
1290015542
1679067182
1125598628
1076145449
1818986188
1323234348
413342589
503316384
1657839258
1908707344
1389108847
1473074542
127167312
1222834557
1238936601
32621396
1012230735
124278607
1508992751
1981494682
985246222
1241954259
1847681056
1877176814
157365801
513603174
362481421
259596664
94489541
1866345151
202563975
1778901865
116184507
450928169
119606304
767059730
2078322766
639453731
129663710
1631686102
2504408
1921572607
1609773161
1831048759
1297847918
1397707208
307873773
1724271917
275606281
567996987
694051680
64178464
400499687
628099452
575991260
776285115
2124656412
885391430
147083690
1740958772
1783066153
1892093241
1674801850
84814265
709653095
1405053628
549776632
1211336065
28967223
275060043
848469431
45876625
587227086
1614877286
802812889
783449622
1769072721
1763917324
1298794329
1474298896
582116683
1298768156
753171070
1015703554
1167963691
1258573784
335683851
1060091825
1128709086
20893699
1110208946
416794730
835685459
225969953
1060945255
901040487
1744564121
722579667
659697638
1139531325
998187887
1660968141
617584705
1048494112
1931864018
461698372
2058483844
611281415
555602761
12111210
915463798
374786330
12250883
1253390157
1522107318
1120368505
507288331
1447010841
234206698
1542815542
2117253794
1493385385
531597103
1195123593
759441552
847329218
1950533092
1362801646
406287187
1996510159
913128856
1868653998
1195303236
1373980560
2012135090
2045195944
380157163
1090286269
1015672532
1329715047
1244981613
1918775010
1068949876
2086182186
1601224283
985049042
511211436
1389067368
1318726772
702166853
1810204866
1221004063
2024483202
934235550
404148814
335448671
1414423815
1536613919
1984606294
730135057
43926482
480007823
405773788
979251564
1336878273
1221991683
560364769
247530062
1107684693
109024693
661497515
941843235
1060887725
1500885473
658883655
1347002801
1932568938
64947633
323055189
1504812066
306963623
1491625626
2022741400
802358414
1047439056
748622210
1027126035
1003334260
1230406617
68245840
2085273770
2050936124
1179830043
83811439
256375030
1561753179
1481439266
1686193172
1623613224
912645099
1749395191
943098252
897978465
524274311
1938194302
362136875
776493856
937695161
1743431275
1463256106
1574543273
747576253
264134100
804955958
1809774670
476460225
1574367354
1745799182
1578674634
1444565106
2107893484
940386432
1189763902
1475968555
1645904708
845752446
1092228825
524847565
696026496
195118061
1305940353
350067989
186333209
1438226764
1530477584
1259661985
660063106
1806235663
1854577215
1264082981
2034355044
1434547809
650863626
1603493921
1414877667
1581092870
151121254
369853635
1207493820
1748683764
1225217659
876046810
1971130552
1166731999
111281137
1733066352
1551769224
1969528241
1071570861
1063051434
1554585325
672973749
112877650
1677606525
721751772
1328623675
1498044891
2006106208
1006746462
1192098221
1354339773
1215102066
715935337
1414942593
881210240
1026027212
1888197412
1050269794
1553191116
1537998312
1355055470
1182767228
767719730
1618609012
742892289
227499885
1641766677
368402163
199843563
1105379178
885283772
2038829127
140842682
2525795
2114664308
1049352547
1466743117
1651890481
788117895
1698392386
671455442
448239896
579043730
1704889725
529761745
1128768149
629057081
1561357493
873673634
1087657833
448274098
1051642161
1327817987
611961014
529855012
1029262007
413687862
1967351160
454111415
2146947267
2127243989
610087062
705540864
786484666
210374300
794656588
1761452800
190359307
1590093228
405815165
740608984
138617383
187936330
1649198435
1287107051
1161811062
326363022
822026947
1246655534
1535811293
167064993
1924006958
490435336
504967061
1562398118
958797778
930529637
1150192749
1352870492
1997798370
1458527482
1925031238
62228493
1458943074
1966288327
747892193
2119739648
1072474499
1300156246
140837020
515072487
1626943021
593895512
1471170606
1657499062
1128828413
694590212
144290458
1912408529
1885250317
534017466
812542561
1957812999
688125352
28543520
28219990
939006253
2114019609
1445791553
1714763269
1304101757
1406288389
41084915
272026945
1367186654
1989553683
1090663411
317744683
882421772
1672163391
810879103
1979670249
1948064855
1383698561
1010132835
1014716572
1570466072
1310335370
2046939370
51062991
254911153
1570772676
1767154341
642634940
710966829
1223648039
1738489918
1427149467
1078511081
2083037015
107611069
132830314
1360137663
1674802922
1493824980
301554218
1331408709
1477484677
935153090
1553025958
1941507540
1295800932
1665120839
1642355553
1264198378
76181891
1694986528
548335681
1344361157
1598345070
2105280455
220813431
2139588699
1131778289
1788351349
1905590955
1355782412
820356056
1317441838
1121894775
438956513
964226502
2129467133
602871009
1737067368
135330244
179554995
744586444
2097882506
2101292850
1295786857
92001123
972016722
690982747
1930916172
308195041
1347134448
240450634
1701719517
512216244
1219099875
545261275
644420535
2011136663
268939473
1613317304
1108148198
1739209084
1503970758
1104686765
337287514
802615307
1833851764
1169131395
1151516897
138658936
232906370
994593166
35703437
296846986
2062190036
707009729
688618733
1379881610
727324113
924866028
904780140
291975928
1048440151
594705410
272149843
1335151307
1131501982
701978307
1897785563
529467448
1584280132
180192540
1659289698
1443749413
2122104453
139762416
307598487
1442121604
1159979115
1737082863
1824825842
902615117
1960479022
1125844348
1255307733
355592294
840660510
436849856
814563942
924139061
505164902
47601028
2033041146
1472520235
1363701058
1359764415
361963479
1003939742
2126674609
1120562814
1506843431
523201153
290079459
2014102851
792579323
2038068766
1561025935
94674870
1570430764
2140344592
284393219
1776626161
2130278924
1601193327
1699884414
19852459
389774447
1850815360
480427150
1419952672
823688201
1593912208
1182896697
1030051106
1337658825
405590026
1408086554
1526474457
1965479309
1759592567
1863815859
1131224299
1924685571
594430629
807286987
535402647
841989570
352626224
859544759
418255843
584512812
1653159297
1140938096
148850854
2004166984
154554681
1147571601
1682824759
1725929095
465836303
763903843
589930499
706302435
1391513509
52214091
911031276
1233418
711080895
1371236790
954959880
272252557
150540869
1396306793
361189698
439191655
1573874133
461343295
1111405041
2046773977
691745717
995071582
139652853
631206637
458079867
363635132
2130042677
1763225607
1198080120
932481919
2038815047
1282649122
1722116607
1492583613
629221763
925961292
1088159662
1223119847
1956253929
309016610
374766578
1714053719
863259314
1540418300
1245035091
1751256864
1437932231
1355385707
399288597
624348394
204399726
305417342
1262945151
671122555
705775567
1582502995
1209341059
1636811285
841402577
1066544692
498434180
1758996903
491322610
1409139108
93722574
1012740760
122962418
441848595
1659154636
794962947
1879309162
2127793123
1061751344
754878948
557865468
852200168
1168160181
1045919768
344369294
797375574
1710623072
1214232394
1563763529
498842239
470489866
1084145959
765679032
943306136
1139917090
664810624
17825942
561832929
2118753900
1791789547
1284343917
150272780
1608332080
1720454911
1429597202
1710485123
108460018
481635321
1779384945
2069117328
786923417
1382477525
1143587041
1208479379
240492941
730914892
933251483
2111934270
2064755761
25763681
742687138
285715778
1598332708
489801395
81751991
1873040035
32796030
743348081
806330751
1921069426
1760970596
1019997804
367909586
476159055
1887956375
1071120477
1908493124
1191921373
862521983
298802617
1730956588
1779354974
7181592
1126022911
1180347031
947979769
1621244611
1632901573
2061135126
1744181252
456905331
1188363145
216543878
204430569
850056513
43527978
1830292700
269289447
139190892
950446261
1986258648
1970575056
709773409
1863301492
717779767
721226180
1233754103
305695908
716808884
1867637710
1931164997
377940825
1205314188
1734210346
1808081855
2089306317
1466786393
1030676814
1898340064
534124221
291611139
1419938569
788979001
538468737
1415809312
1427055006
1695490635
1588049043
406570068
305598820
191170882
2054112886
726346653
242856997
986091213
1724935401
274722974
592562032
920363887
828922337
1848268142
525512184
932709841
1169760013
28961261
2012575571
1889936663
2094463522
1770803956
2120659124
1542720209
173730138
1725339608
1537604720
1989889444
1593542569
1590818979
1902670645
1836911458
1682780450
1979010429
441371476
688581424
71986902
321121022
622873011
1037444996
1113959202
1895502407
1272674715
27107616
1124413057
528934501
1351462203
1655961848
2037015311
2026367586
1459766775
565621187
1394958649
244451303
58377259
867130261
458605474
7216460
1539350608
1557644553
1998177341
1950815255
1627515394
39466437
1202495246
483098350
1443475845
1132900614
1842692096
1284292652
646264655
555106223
1566979625
218412908
1764156436
1395999308
649064558
214628625
2140670377
1831717849
384188741
2019724009
1682598624
262865727
1335503901
1965632540
1197116432
816746097
948500463
2115051970
819186305
1785791551
1981910252
1307479740
2009546275
1350985337
440473680
1396789331
2059821199
2092934237
331872283
1568958004
661814596
1533158539
1959260162
1277943585
66186068
946755579
2116855200
60444743
373033861
768496541
2061460496
1282855627
843911857
1415934589
1401366778
99388095
1769117767
1704074
1730541572
998028356
167899062
1494346910
469006424
992754506
1474906102
1383826058
1190975238
955635853
1672254465
1364929996
2014704963
1619638325
645872630
1274495744
1795152670
1854122079
1330352937
1150997316
1434612885
107007821
1972968193
1082688861
93295986
2057169208
878872865
1041660048
1099515361
545722080
825603
856436460
535647869
291636249
1607377797
1182498622
315046972
1723600252
201195273
1198362462
778646887
264523454
1338845317
1406981824
1108194701
1371255116
1848619805
966076561
740432209
1570984569
783548443
1421002055
1796973320
561150265
541310993
228161111
1188544355
456987902
215759550
442281651
229150988
2027144151
175070878
1303492275
1129235695
914776115
171874895
128245021
1195486951
1003624422
1092647933
1248506307
1657187765
618924529
1078073849
130435171
1584977718
2079943870
387269336
1906147810
838986931
499530837
1547466201
1920229192
400922494
1613459741
73769721
1890081674
1247800390
1386593656
2066002704
560254471
1836595343
335402086
50256091
1986614532
763958727
1088632764
1995941937
467355477
1621018222
1798999568
554759858
159067961
70048221
1510506847
1984857199
1555516356
1069291566
100803952
703490964
120855710
676444042
1592517966
782719181
1468265044
1467013068
1645214256
1709017994
2145815094
62342710
1781885386
1776262833
17412049
674663056
1705020443
291248132
1155786502
1791638335
1187387853
2137047332
1071783763
1489803534
276415226
1280624495
482438248
1017803740
1317096517
293512239
1234029070
1039619744
529872544
1640418639
845079909
818084888
771222591
2139630822
277606257
1880164914
267155340
1751081547
1932490598
1517557534
158712043
487180673
133450972
116192548
216487338
1552239681
826567138
189744968
535868809
1589770651
554886647
881614041
1995188611
1951819297
2107240131
1550145042
676995507
1304941887
126209117
388337894
1318198162
236398614
1327884681
1193696308
1171394712
828610159
1079830475
989656247
1895132230
966012671
724088869
1448331556
255625771
1646535
1891352177
1687160473
833469599
2096481702
591395544
394554384
1186519593
1214547280
813513823
1536321442
2129024294
361065272
498817899
364542610
2105202838
1638437826
1834580872
255648965
1545105208
350575628
2092127820
1166776844
8794454
1439652206
51219614
208567692
535264128
1530534458
1482818000
1801119403
181120138
337423805
1292189127
1579117733
27224999
247854167
557700780
606403517
1495824070
498251926
369550264
279326748
584382670
1366724203
508983127
1499331459
1556572220
2085125103
1784750376
810455249
1638395018
350513508
1551071366
140613614
1751403908
1938971178
1897574126
1002613499
1613195376
222587839
1114974565
1710561673
1425092440
2111610654
279192519
583398875
1297624661
1674274918
527915687
106653735
975018612
1146619798
1133231413
163728376
475850713
1761847345
657860535
1383797483
2000676775
1670924724
565388813
715584182
1983934211
664039505
1899281846
848713681
1763738701
1824824478
1116159967
1268359902
1390548539
1476103074
791028706
1997876227
1227307383
872038467
1018817004
1677299726
1166274422
1438175756
1863844887
669074425
1382708285
476120688
670943733
674525550
695932171
1449898097
1574924711
47454998
1763741217
846322024
625218421
1424853198
2072113575
1130541264
508015262
297204729
552801511
82789579
301748354
838249340
1277986774
907870806
1770194620
1616185387
515117574
1292893564
718678267
1704675733
1476311591
943587700
1297969119
2065645795
1911903049
375089446
42281701
1354593971
1906611162
124960612
2092006012
2128776685
587313861
918038299
1359385207
1279586618
181178224
1036618512
1184826525
571459152
1371037294
120362776
1072239126
1080044234
1210310762
1593538526
1761871546
1075165263
1640636502
1842438817
2014747189
773279838
754235868
1797777025
314006345
256717100
1356375791
1769341968
1436557655
1672565164
182884112
931269982
168134416
1240925630
1928842396
1870089944
1175153703
879421929
39879586
1836089087
200245438
852236557
1913708525
206043005
1973605807
738174782
877351
815707148
413890835
2107598407
212331373
1462442976
273094328
1451553440
1140996421
209752464
31957855
1150420746
813891077
1772145431
2051214970
1427577044
520516105
1774711295
793705618
1381579894
766735068
721718438
94472653
400052574
847128910
1816931595
768611296
706115180
1585526916
1625156138
1216679007
901891714
527856441
971218753
1042666269
1430346836
1085807200
342029717
1493276579
2059837057
827565026
1252995749
924992822
539219055
483854311
2108478037
1392014138
1690894851
815896546
56092137
809197616
224922713
2007063666
1159609589
745927804
1742808393
713423763
2042516799
148491191
1765310589
714221433
192680744
2098284397
1920356146
424973227
1687962078
15313309
74581151
531723401
1228397449
2093889065
1235870267
2059764924
1452808676
925720088
1080544176
1296798648
896290308
520155304
1989436290
5086123
88768798
30562070
867790702
772432048
84663223
1303631165
483689503
639145390
2092292014
902288613
1354430798
300977080
1925265070
1779382258
854599425
488990604
1068483476
290959871
367978788
1152835799
536992260
1447242600
889678726
352618185
1975301998
511781619
1897021112
638292050
2144506477
1836271662
173650785
297283750
1725791082
26584634
490373132
1882420904
465437974
1847883026
1981590462
439792269
634303559
1217887399
1686487819
160261233
595409105
2074914495
203773029
739160637
1765436545
1876607324
1306309701
1568106058
1473387856
2066010181
1105398040
11367760
878418788
1885866235
1598463915
1494617343
18092872
811358920
1412204505
1355229605
261336377
1285632729
1028618288
1216197995
1106146591
525286766
1516173946
1650535789
829557642
799551553
268427219
1891487939
919674280
1453170026
2135883118
1308513934
414033204
1409797251
904343526
1666067516
1922232638
1736810069
2022418559
124599136
932214266
102659407
1840742594
660486355
147219768
1876896161
1953732314
1454930491
1901399680
919274001
1056158202
1971737685
1983907853
983152428
1469836877
230228327
1240866162
853245113
170881487
1650135028
1481574766
456922273
1107912709
1724536826
1223685496
868083976
1231111756
1952610729
52937218
1223044653
1958434891
421585960
796137224
502467899
684102718
1105945368
671103996
492099012
1342748343
1329739021
1116649389
1640184069
1088006010
1397140025
1532934623
1013418903
1129260407
1277118929
163465719
313855800
1507441428
635601157
1813659708
1218987497
645134960
726718768
41747820
1782991811
1097138537
1288156614
462232569
1767192920
364332668
1224055479
1765568266
174493083
1520741368
1257831096
1736010686
107782210
140041538
2108853646
1481826469
1949572336
831189713
1681141342
908043985
1060799411
2056216093
2069184893
492507458
1199224014
2040733129
1083548438
1426531854
1072202276
592526043
915938751
1166384471
2138327536
15961009
1604151229
1526246112
982489303
1315946774
1787341354
22842857
21746572
1064417826
1997967093
497739956
1749805718
327426283
1645205187
544792982
1893864121
1267224120
2053142488
195103459
382896303
1110341176
1411138454
95032235
1616140935
472849433
647632214
1522220822
1728658077
2082918229
1055819890
336569653
247814329
555036399
271529620
469318473
18892166
362821161
1325891001
899982273
182967413
1499255015
1313328877
1693370103
581842275
1954396076
2117632972
1002254961
768319377
829002704
10042818
1600799336
189637538
1188654052
928369471
2046169397
40635841
272652300
203003565
801976206
1815937085
157122027
1795857552
471213403
1317080325
486102347
185919860
1117174044
528505071
1978610705
575643762
1466040544
286377297
1690575514
220498326
832584380
184885782
321648572
990062528
937520039
1799973047
704495028
1669879634
294373755
877133228
1027104098
455308201
1779886590
135134090
1155044291
1449264798
400866206
687637545
543239400
1193999650
27870610
920198201
504793365
1062365026
712126530
20384797
1041131722
1745796474
1568609630
240306981
1817510120
637054548
138123260
1603826082
881350434
1834907131
1774994740
187577132
2087380474
450083732
1556036630
1945886723
571377910
403109892
546414090
1070100682
1834529129
755327944
769312569
623286211
465625674
1513516414
1225674316
1225349942
1749709909
2004334526
887475508
637122559
1356505729
417505276
379810084
1560693562
2100027001
1642351634
1400787701
1520829811
314534943
2071019824
1739167501
1743184899
1817069245
1379762602
1955026526
308392874
442125425
369243005
79187330
1267456759
1168159546
721014220
1238980247
975186912
55493714
1524355209
1625270126
1987559234
1710874888
314638691
1998904276
1288426923
360435549
1601778417
2069087355
645513861
2062830831
570135066
1518796715
1703009902
357624973
565869771
587880856
1268416644
1440496131
851697873
1129313389
2018509279
1937057291
431431908
2093627604
533382887
1982839552
800686983
125537732
1442075124
1413486821
78784911
1278007639
668229022
1412479392
1580633041
140232818
1058995857
126156157
1974501796
538042210
1913441902
336133814
1080479582
1458917970
1807097249
690990842
1479621608
587506891
122301902
1778399804
1270951962
1217270373
177959856
1127461915
830987162
1880342432
580510162
407112504
1348658215
1810739425
1584675541
1766671985
223910793
1822067702
1681484571
247597038
231521708
1875910411
1005775729
1729387211
565622540
1199354442
1414605769
1435747797
293761800
722083588
1310917738
954312991
1466216878
1582543062
703672518
175956314
470541973
383765682
624349751
671462521
45522601
1762550371
1792014587
1509623244
1759014606
739058765
878131135
47305431
966158773
1820493673
407583972
2087188055
1434721902
855673798
49640921
150156731
1395269271
342904063
1042986958
1605211249
83823698
935811606
1981739963
1151332700
1033646357
897045970
1470426865
1175185755
991337281
1915510534
911410837
689309000
1988478267
1468055865
522582340
1114713367
1289798275
310930416
1448786364
1860985921
310048519
1226028027
2102937724
451137199
579425557
63232708
2141361802
1186331673
1614357249
1545986002
1810853824
964590761
1728137821
1393563458
144075955
443989384
1408707918
215387097
1085598992
1954426006
571475337
230958549
2038372845
912958674
123193960
1922997272
1968631803
367141581
424058522
100608982
610423268
1369358567
981321450
2087852434
544809569
723385175
1951738052
242088005
342124241
249314372
1656901543
408140499
1955033240
1163767975
1094843396
1573423885
959189129
778396735
1938635127
114977540
952815713
1926997267
352517246
1786813685
1388852549
1225044279
768559452
992531230
1363151401
1506322819
620290553
790767690
1117237644
216911594
1654553673
1205264488
162562131
2101741098
1439465637
1743122511
95625136
351315020
896815020
2035109354
2022504314
1425113750
1546522816
2046167388
1029218369
310270748
177080540
1578314679
1846173206
2139319527
737572611
1424253136
1238999569
587229308
1844378897
495806084
67147021
2029953814
304778197
1054033249
478849499
1224840294
1602542174
498094270
51066662
1559402899
1986028506
466611940
87366248
564724313
284028418
404957604
1902928271
1565484155
1611044771
1625228846
1602944289
252131484
1096904275
1599448495
1076984646
910933628
2081262750
54209883
622643462
800401582
70893808
872904305
723123602
131928510
2138225499
1413842727
139537288
474298217
1587594249
734122629
2143304674
490831775
1663957323
1520975952
1558106140
50742397
1222514202
1220738521
545532910
1260120155
369147831
1495995873
843589685
1519956644
1070030093
64737623
934817033
748811103
1621586930
1404690055
618214329
64319546
852660171
683623142
797954315
677123999
1491906475
52236788
161957946
1401355790
994720944
88337902
592487391
1157079623
1612613739
1206145175
974313921
477395109
690213539
202873513
507835296
1990901894
1231411201
1292037271
1665876628
1916706677
301459560
728024713
485529702
766150230
1686078618
715026680
1582598875
2106514662
782009592
938093631
1695005834
238220946
1230489545
2039425419
890187936
1511542403
1944151910
1828997939
1755817010
1520503767
1627879474
1746054132
415363252
384486756
1928220420
573108306
156333598
941539087
1219710935
3169874
782601590
295171368
767771465
1985265085
791085783
375460097
1254962520
1884291135
921868206
78261529
744151903
1374335562
1223265552
586682665
1261929220
1182937705
854668856
1106095896
1055819614
1065726526
1765446140
1353770529
583684024
788201072
1317727705
822841482
2044515948
1010568959
1436454947
462018050
112899631
1715363654
1910401514
1257687527
397525188
1070927567
2076299529
1371033049
946085218
796838112
2136294253
1789607612
231796346
1567651166
1635725306
1245767967
1509130306
1068347495
1656474075
1807664528
1078067070
2099252037
1143529995
295795673
1685370423
767431733
903531111
792997957
1629410242
1324557967
999505691
890050511
1539422784
412681059
1595103513
1065374655
673436739
938750458
1432455317
1958352555
2094265340
1396975295
779917106
1794183195
786577687
429405570
1024766521
1170350324
1123516145
129648634
503545012
1327913029
1578390241
1948278429
626797041
739522194
1080062653
1626724692
2030870414
1810709160
2022953596
74286925
1193844709
351843891
1721903918
1823309627
1343749102
2001529037
1886523579
499498846
1795214851
2057790913
2072547385
88249942
1021754350
1255522102
1387419246
537645806
286802162
963607175
382950849
878820559
463667194
1656900933
908469471
183030790
1822957212
519151792
626224220
517298703
2106173049
124411420
971734371
1315414384
118091727
1542194030
233437169
705308279
966136806
1502084954
1074604332
427978493
2132043520
555242826
887744770
734376781
531626782
432966186
818217389
119688614
2033854758
1335613446
979049544
344912722
1926964439
609462987
853555356
705737706
1961530683
1166631989
1872734792
625525347
1860777986
944400467
1707450300
408618237
1538558923
1861579198
553332685
1618898258
1043169741
1150299481
1235087580
916986133
1051408495
1679564666
1870403048
132266472
1672658298
294375256
572397053
603964909
1452070982
2098805656
398907755
377352125
1047714872
1088329414
1081307391
1183082054
2066449062
1672629085
574837695
1209360006
1779486084
996624300
1087513756
429810169
1721233722
1269994243
422314485
1580918779
1637107484
1175922930
1747278538
2115614161
948848520
442048063
16731582
1939211912
1755810927
370740350
1851887138
1823833037
1319426885
1700317019
1876087890
1306252751
1607939965
1556764547
569954677
195392369
633142382
1374306338
1074311053
1056545417
1213464609
1678117464
1894848315
1199933626
422952214
2087721389
2061942094
1173441185
1538688130
1933690965
68975169
809458991
1952495932
825019311
932177779
1072174349
1011159268
1442635788
955483598
2053230461
1790500669
1586150719
1256156166
434563565
1648060314
2080461581
1720810704
627737388
727398267
1232489667
1151739180
332202654
177506559
1274469963
2052235904
1736534315
1682025568
743036817
1456066849
1156868422
198605720
1623720339
412385901
522602337
700437196
147571215
1657166471
856195497
358618150
173606895
236468180
726679794
1455534421
364806066
168894411
1804505154
2109259191
168890265
2122757701
712990151
441223404
1350736762
1037974424
815809224
1684160739
599069105
1553404354
1094718350
113351817
1531625217
1791478956
1767389238
195857686
991226588
1482081832
681626754
392362321
1885453171
2094480877
644909191
1863024469
1460298354
269745954
1696165980
1083850417
1392677037
410029745
731073752
980331239
38417181
1885987125
644148096
1065444803
1178760754
77568472
232597335
1729831294
579277487
1341050939
1892464648
2100136550
848093719
1665621702
403819378
1653029462
2120661548
1929689280
1348887755
2050732550
1110544882
1941129458
1157793212
1136155500
1254682015
1145788237
1992498631
1461687401
1568969332
1007318983
1084670885
866304114
937460688
775192694
1133589613
766796661
252725007
371525415
6724649
1292583798
379481963
574253254
1487906492
277844813
2019128059
1011046052
588732178
1483416674
1324271069
2050485579
2050205783
613786091
531972054
304566897
1764357463
1750454708
2135410539
6478623
450898340
1766907791
2142324428
118471253
898349330
2061545336
1040902123
174602006
361717876
1686779589
1619892307
219507374
666414478
1686954017
355980826
875202236
873353127
94630971
608748447
1114284934
2139107166
1764953244
1894876124
1721898757
1139429127
892767760
1304289054
150753698
452686721
124857118
1498754633
2002732484
431002587
628059504
726962253
1760908632
2134249757
454707417
1881367929
1294911597
52410340
397522217
767759383
983812988
2080933791
455626914
1253774520
375387360
1221280482
1811483192
325207600
876631184
463783975
1471140735
1625721454
1026361584
2142318929
1853774798
814983591
404184493
777305217
1012257001
1761247239
1724215921
188841028
2015275783
1035563177
1603561497
1659555817
1002929655
432480878
1769609140
1347920634
369349515
859866204
1605324940
2086958742
682888720
1792743752
1183555248
967192823
219107996
1547472101
54237351
1430173127
1623751418
194547610
1411036675
1309951772
763826181
1746270773
1469689309
16559175
1311591464
1771846445
1673157669
965550989
193209752
1674185293
1212821878
2086672789
1678139355
1056335197
1378101159
1220651408
1352902376
591188823
98779475
2094261832
1517597063
1085665850
210669377
2019289457
2071554675
1125992969
887603001
260615284
244982656
642083191
941961693
1478797469
21286913
198920781
553687270
1489190660
186598946
1645870449
1210261047
580577664
1718061544
506437469
1360531648
1675440702
1572544388
70554567
1863261125
159216617
35546306
1907755827
2027357361
343368473
2117923873
1593101693
2006577562
1472617692
1107037915
1310281579
1677997835
1767800871
731385521
649989672
832483072
697863650
1638260935
122762321
407213670
1637978342
1131513813
1693353278
1069872046
446647894
726836626
1702007195
163808541
1952087519
951062102
916993091
843396843
1801439827
1972068833
1083266541
1596858868
732469473
1838001934
1877735730
2068779206
1039964941
850271481
2033487648
1638174607
324871396
1437310331
1535546397
1771143443
720064315
112371635
366768744
1425947966
1272569341
1688730200
1884270717
1969567642
236712463
2008114537
1847223167
351677842
832667878
1840618814
1950018805
1293474912
219321487
1839993764
1807416772
1941454839
706368559
951442275
633004944
752834593
1987236970
1444450752
176298915
1984985027
1174581041
827609303
603336958
786438867
998073467
1605216648
1593368206
729564233
169312837
883205834
1850637644
1609131265
1677694201
1660016316
214808325
2036189496
1315757897
566386001
1941537705
88379231
2100615918
738987790
893807843
1586570800
1157136582
1911722564
1248598665
539775632
605706440
2052491936
105129699
1126416091
1473139401
1019726321
1213676309
1533349790
1806984721
708021157
844722952
367887159
797899326
751285850
1425476086
796333892
2143688468
497297006
980569714
315373400
1384668451
152240099
1827921628
705360599
75154871
404818238
294530376
775994214
1829251811
412028158
1880444026
1692904297
1401002146
1647658132
1124860696
1122915271
1935696877
1125239357
1913071795
1494422137
1461390324
693834538
1678264801
1031532730
1847452073
1963946544
1718654102
1519651194
1670936713
815440289
944573377
592934628
1626398368
1783256555
551355464
693553662
265133270
107665211
324266295
1893402380
1556577972
604283972
1089947458
598945206
754197442
341056643
500834817
1800685013
1838831325
1865691757
1133940649
1192556172
511782450
2094343438
1216781653
594388026
879424718
2134393701
287144744
1262884495
1919736191
1544140232
1411510573
75081519
502556646
1100042424
27990647
1155200936
980142148
529755728
2011196084
1830825991
1183696971
790286743
1872623904
1530971241
1184541327
1246007295
1312691747
1844298726
1002356604
2135360468
283715187
1055764207
35374339
403490437
1357694841
1782895748
1812336579
1104982810
1874541586
741554597
1378253314
380104671
1280581802
2016479029
894573838
62325052
2063034179
1731362666
2013843605
1737417613
1394842569
2073853340
581661633
1124543991
1191211105
1030912729
379256034
2141862874
1517719995
426188187
160518681
395861935
928367307
966282944
463792304
1497832667
1191854651
1054857494
1468542663
328559194
1770157325
1438748195
1840626248
751697093
1409670282
438302207
5915142
22059120
1507741949
419464251
1592614282
1690004502
1540654793
2143835839
495586626
1116566137
1520491237
746224702
87558949
559602994
730949233
1520484735
1870062247
902596307
365320995
346556735
947638586
1086549231
696625141
1637427359
280194525
639185511
1917248669
1530351374
389552744
2140580332
926451393
1890382586
1276001106
1775855574
1428118903
370166055
303511405
1728142602
1469142474
19415769
634142970
1964996674
1454147295
1476072285
519169367
1551782222
1099663025
1573863170
1217750420
1140710059
618136929
929575276
1405408900
1205541883
670872251
1332173524
647170319
559739984
1788307617
937088836
1243101837
1677648935
518824342
505584879
1061194946
1859313769
893203226
41234763
1264141905
1861430124
654267099
1684859070
443407086
838678679
1880875665
2049354654
1722137467
229545257
124847253
1335575893
687074987
1272765495
788199409
1476147834
814313714
1478602558
1059339369
184362566
1536908448
1588836647
534642504
470983263
221108928
570800383
1967247133
835695400
1622465186
115643186
480090084
1068154858
91984457
887975062
1911220230
1150488494
417580863
726977603
1959951314
887083006
1202576849
1343735315
1199378986
1044489072
1939518019
1238379668
680691887
1618982719
332937347
1652870012
1961377717
99181158
63562971
1139714570
1820313286
1518684904
1960696651
332158262
1771491673
421991638
1027598621
1358704990
1873375759
1639225346
1180386222
1345770866
1936170880
1812176597
1799098899
1499622579
2076115202
249113524
671202414
748167410
1060766127
447957091
280167534
538217679
672476580
1948670831
518317470
376190511
881579572
699860554
46480753
1048383558
2013068577
1966705802
1161444402
1689650702
346655390
819970319
770153443
393055246
1559021469
1144945873
151691846
2116041565
1710236597
1840487736
373155716
93352696
888881213
280332798
441837412
1759511314
1403077927
1505051531
1135040820
702340669
2116844871
341572001
1227378685
953799802
1254701623
17639682
1778197219
1586255090
386990262
1253458448
874650980
1887975610
1018625223
1981077207
1040381880
1930597501
87473836
1069306192
1206982271
153391922
260455973
1581527534
126456825
1972852770
1508648825
36165005
809242386
1989273970
1698393793
889242578
558056666
1852973533
1842687365
1709475161
2055237611
462007081
32622053
13566411
919236874
304611559
1272074025
1663198921
1264697156
1116371480
966478414
1466275190
827990091
241916824
1136237971
2122979542
652945477
1342763577
1842534787
757245012
1673036553
916305251
1029817558
1192434177
1816331099
40005965
1145057418
207820916
634616681
1951627423
75437206
368841025
1162894781
873586617
1577972583
1899751315
814687307
5881218
1708295947
1566905785
1792180720
883324811
2029106442
638933970
709253587
146674296
371903023
1913386554
1030389741
1828490596
38141867
497572703
1954365761
140002258
2075608740
1554678319
1410774110
590895018
1152802007
1725804654
1799737602
878060571
304949360
1601622267
1084248352
1392686851
2029870285
1997492614
1725323417
71914512
1111385717
2084932074
1786439030
780664361
573873979
657172813
1876035737
2033650316
618842820
1741565127
9823604
2092481042
1043782338
1614470709
918780603
1747573877
1257437919
1989237059
580923969
692877762
1922295145
331750168
2135505369
751142112
1100316494
803280720
37593763
2064029267
2123807794
1017173748
1333021205
1214033220
738052918
1401626289
1554942439
79493898
1524468468
1150557399
1406709862
302560420
1794983293
1051008947
1298743524
94432599
251901187
1265357820
147848012
1011054729
1793478606
1006307990
438676829
222942394
1709038801
1810237308
1500367352
344136865
1346457401
1822381937
953862709
1476526761
1221061547
990129876
78009599
22532751
1540600741
354242315
1882075008
2010479454
713366108
1581151677
958854617
1670095362
2121859140
1003311643
315988639
2128788522
171047028
890831803
2019602285
516174124
894292842
617292007
1986688404
2137884052
919106777
849036423
1900328330
774278163
1722609271
1477321907
1714380768
1446224218
464905596
589901918
590542118
1232923874
410926561
2116269614
1917302353
1401138192
2130907012
993956578
966433956
1063158751
2019025258
747215
467737202
2006309836
965619508
1804358805
818717416
1222197141
1307653100
1991591836
2127493873
380029286
299302842
385335725
1954566318
991794313
275239686
379728358
957881332
1498691395
31245240
1727779445
1216988969
464274812
1993779212
1680215846
1895177840
767285835
1351503038
451703716
1816299799
998648618
2092887826
483139904
2043087027
1574707581
122422101
1318833605
153354812
501087418
1925398343
1650280878
946916810
532086127
1811672983
1424068038
487853936
248256259
1412731706
1409831512
129422999
330738139
1211088998
1652829342
820217531
1854162300
972116034
1647064357
2097252399
1171551085
1708970971
1711552262
1266597711
1435339062
1662406471
1229218936
236440934
1711374859
1244020490
147428962
844110111
1450959306
1812063175
1081545303
944414288
206675680
1454954119
1983043632
659850767
1101796566
1814619373
138770696
1771210648
2103967187
439956914
621180301
1969360943
1870755263
1396552863
635315027
203371364
61211744
943966006
2143689764
991978312
900050677
2116634682
932262810
886632672
295441094
1904135313
1751381416
87249953
1271564234
475410325
1860611247
357842023
37505705
1950246619
869920715
1746364550
74297043
500014732
1557576013
1907836789
1800362113
1044028896
1512244400
1781555087
1579057148
44462919
1554248886
2064744557
380320371
2010605763
924221997
780777791
298175883
71712715
165130695
245701383
1454115030
1367258623
1487229560
1892237065
1651484709
821317804
1306543052
2057476189
175029799
193753716
1996047344
47418144
320284247
842970608
835798560
148262371
1179516710
1900843758
1391874322
480416020
116665526
380717664
1086710895
801632041
891347595
797645545
1469966369
1859003802
818624060
392084589
1734681105
1791759400
1723578660
255206699
2060727301
138839608
364845994
1908118858
1560814314
1502069275
1613944361
1016195969
2047304616
1069605360
1210375238
239812928
1124233907
1734734742
1650415270
1669254903
792261037
1901453521
1591305549
1285494787
1183600046
1535057929
2066082288
156327810
1525214531
13773816
228153845
1831298085
835643315
1366475834
369072445
750544014
1600340390
825816461
584768439
827747191
2022880513
1001581034
1615106094
1414325282
166657540
33063195
1336496653
1788180187
1829745188
801222690
1975051339
1408773154
643800549
1649453820
1040397049
1351342668
1767877502
1558237946
1775984036
842782940
965234857
728461534
439994882
389545220
1511163275
766718828
1651916230
894426630
1594966619
1906800984
1406337318
1566204228
912557404
894459913
401737971
1089113783
1731125833
1570020503
2053974181
733129870
311859058
675945495
803884328
1293329565
1891314853
1562536804
992263852
1569632089
417896721
1109649417
109341378
1587235068
1546711443
494974983
586954602
1798008105
1437966089
398232055
453532729
158735356
336141573
1580342714
1791346021
778577154
1664237304
1999213648
1950055908
635911408
1190788991
1305512108
823075151
1514887360
558683632
361033511
1895650916
9392755
1352176937
1090764432
646926751
2111427914
1177538933
1798070201
430333611
1847562720
752602836
875161082
1368814456
180337397
870709083
1056116700
648595844
1260111963
1929500927
674369173
754942325
2018215124
530623733
12916500
284380128
271475020
1951884451
187218276
119807201
993726821
924860561
876413402
546694456
1133408218
996208272
2096521341
626152677
1792715342
280899571
1269520826
237545039
804763154
1206257622
1624243845
1346662116
200674330
1385787683
1947217191
1802795765
1773448518
73309546
1272551496
236629618
438005394
493140638
1921423441
668856435
1245351358
289554701
24822545
1851202767
129010872
1733741202
1403145220
621936228
718755551
582578131
1306864918
1817924036
223980662
331132789
1295980078
1886703310
1190254400
1295047539
793585197
216546121
1093838620
867045371
1396861501
1439860077
1314632928
1028567407
1582573330
2065687900
240775340
2086892236
2144266311
533858348
1345680472
2009719757
1713723802
159990262
1162715350
531531499
258598373
2057947004
1189380537
1570992197
482615485
462811452
496663024
1393847088
1368585615
227968337
765147133
1363257612
1812766895
472516995
559739319
1913255640
239955722
2140413493
670230865
2028829758
2078688950
1168498588
454310143
1204945123
18609938
1004032170
1679288130
993115108
1848135952
535940483
1044857780
763209963
703465359
1787790677
494158
832333537
2091931505
957086829
1669058763
1217306207
1417639844
844863220
1516255721
1851912074
1781191240
1016605396
1342141032
1455122623
1453982625
1997838953
1464038616
291669127
1443734381
787576307
570594762
324382714
640210098
1783342779
1103747281
1225873586
608476607
809377975
428182402
1657963423
105777496
1645190423
310979346
2076044017
1225788751
1275419760
379031333
284468253
774520059
175370456
61628260
1975471695
1771388707
2043088978
1164431114
236505368
1738936388
643395353
2065539405
419525113
1637943682
320184781
279475530
941878031
1208856951
871958433
1933728497
712272187
1595692028
598850723
314814127
1536395867
1116627700
1773179905
717831677
2044572530
1672650430
405281389
1583526712
959444810
1965425958
529637402
67783329
1082885184
489327472
1869695738
382127628
2095094443
813997351
1513238879
477681949
862587735
619734288
873692232
1886676359
841104706
1533009246
1262456955
1151836111
1694153832
1465034602
558252624
1387266786
1654607820
1907928303
1012076329
559856923
867014537
317753191
2023251841
1917672219
728380253
9613487
2022232497
1581497769
555511977
1356495648
748129297
1582323031
895058166
513659466
1767413437
2056496658
245905386
635748875
620379730
383784066
486953429
38914150
993033852
1483667852
2079867323
1571548270
13333267
1728839344
1995212665
1979424572
2119291825
1463272076
64720470
2144035790
1528329418
1508033732
1009586996
171786142
1483723548
1635883687
1946948246
801501843
916497538
1130064611
208813769
125761459
2073064376
1997779599
2085879513
2015382737
1426538789
1972392070
1366684628
1054016279
917450376
1534908991
294979556
825071402
1577529286
1523333117
1890190401
2060128735
346146455
834242704
1093775134
1410199516
1529398166
1290358418
1468166680
1891619321
499061036
1835787187
1364756743
710866335
746161619
578958628
1323415402
856323508
1892138440
572901535
716277526
1797149000
986054156
175441811
572984940
1152400696
126950899
1497682960
669859451
1967012800
1272281543
1849189541
1180612971
251657512
468839703
920676651
129380519
2020345767
2099762372
864188001
1309952796
430024650
1097931069
1447672526
1568936795
2089330860
162873559
1438775849
373747190
93836371
1748404742
1721619041
2110855107
1481849781
523243000
1877559290
956279963
1806911228
498985428
803838222
36779087
1204129342
659059204
1863015246
1913240084
1593342256
2144037999
1231019685
566979189
1923262345
158486913
1179310760
1112324432
1937187230
1981978682
1763795519
984944754
1404522419
162334377
479928295
1044972926
1242807199
1736379818
1444338188
145692748
290232334
147663343
215170967
339081662
1103302789
1045385012
610073502
633690252
2001494735
180902345
814944708
1984051540
246922727
833718639
79856389
290444154
1670900637
126026519
1316632920
896923636
402767620
1731353411
265829408
433454982
353390272
715139220
607202462
2042052867
471856115
567123337
353569190
643043199
1842418309
1188244307
1690582204
594559121
1023650311
1387342667
377482615
2070035034
1495051671
1630769722
600874548
56068663
872817596
4303247
965349490
951976668
628821926
1494405760
100888715
886727189
240132251
400641981
357747368
1807056862
1133128230
1356076961
795526742
128517125
1915970891
1593356033
1729866584
854893781
2046850916
474352390
135835005
82111620
234242967
1472297768
1430421738
271878391
1063355029
419339321
261633756
1014046704
1888559772
240341417
156197101
609005465
165965877
1966655712
397704789
652505782
752748090
1651671655
160739275
841371745
101484021
162817258
1594995544
144560485
1203378081
44095280
1524705627
1695653629
1148433038
186114646
605560815
1652197590
295251266
1827691545
314828846
1996297017
256316943
2002000133
1756443066
481201578
738939533
1779967749
585264828
1930342653
938838309
1133121386
1062633695
943637817
464801818
390799522
1172352437
1897877576
1301292596
1861403059
435345812
1939688526
1731539796
860932867
375065975
1184359791
1281151046
1061743195
857031259
1860681813
1669846856
56625919
2020767054
1227933834
1998240772
188008920
1240859877
2085062276
1850502135
1144778439
510284751
1611857429
712570551
389672711
164476561
1760826522
1988689478
1007843217
282633878
1071349418
457109267
698810076
352206671
727136197
1415250025
563961827
1122501180
1308655371
262601921
436698129
1284366996
47406633
270193095
755295500
1529584239
1209579471
1147857097
1083674580
208946830
900455830
1500595927
1191480862
2038778501
1803857429
1308783891
1245303086
892960018
965688263
249508089
1792144430
1654496365
2046425791
1720968363
359599520
2070350488
860059421
1446438672
1866828507
426627450
393253693
957776894
1557139645
357232377
1509182880
1720175810
197486440
257681837
502403188
1512517705
327773132
2139925737
1789101560
1140579122
225577418
862498042
600504346
1057939513
2019114716
823415495
2017146443
1311189047
1360339874
1223668102
278791070
595274531
59703121
918782345
79826268
558460718
911368393
242836806
1037658312
1852363273
1955414374
1333818773
1882298834
1795266686
1620717402
1562318122
1057890632
1187006129
1666023241
1091767811
1768854205
1928544567
979273566
151057693
245969702
673461299
1516626170
1045681604
769859320
937313345
1326035745
1800284153
2072967237
1752303235
504431829
1462569540
70983070
564674863
808916761
509528097
1410885406
1047819043
1689765697
183346299
2126671322
1758995676
984480162
341831429
1794267540
2051539011
1702693664
896426005
837105447
1946399019
798903216
1360117005
845076071
1072794994
1095467204
797492281
726806781
196019489
916418520
790061488
1247303699
883350311
1793421130
459287305
373222118
1696474376
2096169671
962143213
2115441978
793318257
1383496600
1962723824
424547493
613974588
1182639052
1090021713
1299728526
479285491
958886022
532199688
446154321
396264211
1696578574
2018885381
1053260045
1735337942
825493408
1224670261
911460230
126946053
715671224
2074665241
1432994300
1444490498
1862447126
417106407
1420155031
625672950
170367244
1336591014
703273510
1817149175
801003307
1222857717
1795946941
774693011
1022896860
2127664734
1072536853
55594213
435302610
1507807007
367964982
186265323
1611357565
496948517
1450889759
1744723866
480738936
1088256961
1456692670
1240012257
502809810
511658018
255259918
1874436157
1904564214
67431674
1672505747
1908663015
441216746
2109542084
1760967971
342467066
108163941
1606537382
333686732
1392283704
1923001238
1845733347
708060828
1211771003
859368649
750942347
390762792
315772174
1239667968
1307965864
2012002556
1367978147
1068240475
1598447924
1140625026
1403586108
1921357716
1331058928
1968689277
529135859
1590696002
406796849
1730625826
2050157880
1807432077
1480626729
1762026824
672303203
1669597485
1623453265
629983828
806093066
111436697
1190522996
65131481
2133145450
321742253
1213574013
405017385
1682412949
665184257
1622885991
109913189
2024060775
451281005
1047980701
1901794640
711973852
948472822
1414067634
564679539
1153243990
1269547565
538212348
393945700
2021091816
2144980520
1481438958
225810901
394157721
1645375982
289438408
1085221920
1679606607
839823277
243196444
1969271894
204008980
1039629495
1539276207
1026296913
541057134
820542352
1942353372
1944595369
346828778
246922708
719812075
1006292235
447329987
228298498
1173430412
2070453518
1708591939
409421461
491834432
1994715234
986038527
37233092
1736509280
675938778
1891266673
1451959925
1155097729
1375910035
1640859432
919932182
1778650788
420411128
431874179
1624584951
1299817864
460025849
1827022318
1190958231
126116306
147195367
2112222795
375508952
594248063
931639547
430954356
467349012
1938291597
140307615
919399765
871872215
287538516
646295128
1304918776
1336953226
203599237
1398137895
768420408
432652292
1838922081
1869576863
1639586977
1862342905
328870046
1549724380
786285312
624601440
326170931
493048044
803896855
202201164
991691929
1313540675
195102370
589487941
2035395369
460184576
1206427094
956700184
1728432344
1575854296
1059390757
2132296684
1681846537
1535541041
1186676601
495352456
893317985
1767352412
584456209
1949824970
1277142952
1429052814
1956344820
2077134930
1847919066
16187183
1696819614
603070867
723873457
137159304
1755455767
440404978
680097864
387428347
307592465
391624116
277066098
1341753729
317164045
631051312
155314819
843528475
538359632
1332363058
1861791189
1949869636
764729067
1082722828
650773326
521786668
204334607
686663393
1068006729
48589922
895982891
348868718
964136066
1037157182
1055574074
2017197055
835329090
546928603
707225348
1523848345
1623226080
677940716
29660590
1637563329
1067872823
460788885
2005744686
1812141444
1712513737
226120825
2057996199
311761266
560552362
758482590
119351649
338717966
96413520
1016271384
1015439434
550553205
910469291
2026852941
460441712
1995920974
1718868702
6153688
493941559
1928247874
476395496
1884455924
897173512
2101540666
130800349
53893970
588819604
937851622
1345973135
1867708472
1680307335
1604134719
275665869
446411311
1977227846
291922970
1267514032
1988010827
2131902207
29309093
71354752
1980114374
1795846913
901082996
1022212013
349428331
1821001154
1944371005
187375331
1302214227
1458839184
1838611819
267392990
721000984
865983560
241195290
284007915
1297477479
1996832273
1924176953
515455962
1429852011
982586114
1005745803
646512521
417607995
1689269107
1391579129
90289938
1755160475
843530230
660742657
767063052
1696724974
561916451
494787364
799561881
262909888
1327400343
551012406
1996335841
1128899516
1825808008
1033340561
1500983853
860384596
264068044
796524377
448715364
1519927595
870770183
135194786
1522180296
2084066745
1917982746
1674334326
1979107365
1825624284
208189251
531705447
923423936
1506033295
415527991
525336172
1391907093
572624700
1247719965
1966760612
161765756
436182403
2086213561
635883051
1723527369
954940718
1638917923
1195980460
104471792
1076940971
1900486346
1836568332
1800391287
1441425364
1675845839
651479424
1729067239
1708877251
1522508665
1079386636
1070247905
1363324903
177252811
614756491
1089190448
317481782
266814461
1726595795
374581950
2095846128
1593988792
1816756018
1432135774
428379890
306293853
756698786
1489076937
16921069
797609132
823856917
466325115
570210175
1443831140
939248985
206030873
175479403
587827785
1907607504
1508131412
860879674
2098984308
1077770374
481745103
681512429
1529229142
913418104
1137585492
620236999
75642710
1708819547
399370998
1446300206
901284919
259508666
1018647446
103780073
98374580
1905059464
18813758
1243730161
1575371550
917647533
1882283152
661533857
1282305954
2021793625
117788054
1287598083
2104581835
1515949260
484481779
310587572
515272215
1993474317
19694864
1844398558
2126023589
881132582
150803460
1574005357
1023211159
355956762
1093377025
412818451
1877591773
874511178
958761229
1731053764
894254536
1854624480
1571845056
538020179
937877146
470408436
570719670
585071471
1298353630
1233193518
1086190803
63479823
1834744422
479846772
759644378
1262633406
1661701557
1529186468
1635522208
1174463115
1082663734
204527607
174519524
1569370932
1131694492
1184887639
840558599
1372229580
137874022
55242074
1673762587
1881966474
435239624
783577344
1782683373
216853092
577852219
1083405467
814811065
258137850
917573588
1300820753
1990096949
1378844996
2035521857
1501212419
2081821302
1817872668
233108554
657194136
1978994633
814053260
480672238
1540199397
448624067
1266568739
1876564134
190671640
1280121172
1805306979
10312565
617584809
1702423465
1046820477
444938991
991510005
1957531327
1514382090
306951458
1381398795
871772407
1440928333
1694510614
644112119
1508553133
1598917377
1917556594
1382547084
1847987586
414810639
1702453742
1457220050
520491702
1496500182
1175860278
903465241
764763346
728678040
303393770
998470769
1604360629
87005448
814638528
175314613
119018740
901865589
2101513788
710727379
285117728
1916371624
574437530
554732363
893800271
843180166
1845379152
204993332
1277008753
1079546979
1371566374
1145698617
2085310593
1955383292
881637074
1196162434
1767694706
149074553
1290474970
68823206
1065783341
1386653588
1008888643
487572641
1983312709
1813568736
857208273
1527291945
1635696954
2113581248
2046797013
1339324611
764273819
1621522480
1227764076
290810993
648468794
947573995
2055077614
77755560
990465942
25334932
936886856
1655105564
1937054049
845288846
1821373213
1977091326
839278074
917714585
1684669195
179930060
1582044676
2098777127
741498675
722088112
1083822178
896704269
1962948442
2106691238
766885470
532345487
1817185957
178749669
1193543420
1949733553
810030110
799997374
2070963343
2042653333
1083654670
970770582
485951581
1327080056
159401794
1925395546
1422771784
1078412839
1740715738
1597762837
1787726465
958821187
1227423761
191417227
1357124726
41947020
1456189311
2091167196
567933728
1996818056
1659270832
1146968803
890305174
1102844098
631536717
888106063
1025017427
2139750751
689271953
1673347132
1615767435
1235065975
499581395
1910109223
214376346
1051194700
781310983
113338096
1440404836
350901487
1263256106
2125873930
2099284340
390244347
1194275042
142545171
1605357961
729773250
283763844
1281052975
1538219443
543447733
929243110
942251614
1632601055
99096265
1600830843
853006398
1165104414
978654100
1134692079
1129731338
325089312
588611056
1359959593
627514472
101781426
940827743
1877834957
1489119564
10282188
481910010
157807927
1831318575
1353096338
2041721683
1611979231
672761188
1016312691
650256153
1511892544
521424816
1519976950
1947271794
1764212570
54661619
1824229577
108605375
1294844522
566133126
17204543
1115699199
77242205
94797130
1549257937
767771086
1427601231
927696540
1094939314
2126505600
1973241258
1174684736
1940894365
1191352646
58413089
540216658
1827284503
1004770489
287530720
926644689
186073158
505106819
1185725721
188743340
570233405
546800891
958333096
2090897085
843732750
1931060822
1320524609
659768753
798673082
1028128318
997011955
374348346
614054775
1660566408
1514913121
1265145780
801374909
1521128236
1693741779
1778688307
1114250476
856974640
1278767902
1230846888
1051961391
489253682
963986490
1290690415
142941734
1806069572
162664635
536400702
1481169009
2041612644
1619832955
1393364509
498883822
1308878380
1109882953
1622679968
67301848
408753403
2020135654
1217113276
794720800
1390796308
1627234483
1037685964
403675602
1636737351
514809903
1503545657
1962811891
2103262112
163520022
1429032044
2078983403
299529753
538324447
224511787
1410011973
1860631419
524134786
1814258241
1930477297
1365300946
1596832410
1480435910
1002252446
1226996223
1982179707
1906389660
406991570
1795443598
584955468
709350934
1909546795
162118802
1938012465
974447405
1373254186
1610803167
487819783
2116707643
681107378
747354071
2008822093
172780730
666254980
879858742
438493175
218849890
1457128877
32020739
376745875
630087982
53497822
1897485445
1767385891
1811322966
1778608111
1127222611
1005559495
863286632
27975048
2000064790
792539185
2001295208
187752605
344033835
5881577
1913227234
573498899
1654283856
1913621608
278937214
1333957709
1051628796
160017659
1218832790
916191006
1454228703
1357463210
1405551149
1279654789
241109828
2075224854
1880270100
552219946
852953467
1981492841
120206744
661711215
1691839255
427944080
74123160
83780701
1254159525
1966716116
743117254
1559139425
652286454
1413515795
1967237162
932179829
1594104763
1700471717
884293112
289316382
1448390148
743354621
1753690146
1386279042
850536260
671632942
2146867082
1776687855
1120286061
1654866969
1152590578
2013804824
977476818
1834946690
1729690052
70425341
1574141534
464926432
917415421
1787648312
6595972
635885607
975046262
1120874742
1603559168
878580437
671172855
1175889986
2099992279
848767907
872213772
1252752095
128777781
689929632
968871346
1063865678
1009121858
1133523613
161625011
666151425
1736579666
275694235
2025648118
1945847225
1305662903
1980054927
1483832855
836799161
1108300338
1214470685
528231886
1918332503
553054906
1641631387
1489589850
1795853369
769617063
408777048
1516670867
1133742862
5728057
1735237808
1493759180
774031634
1168548014
656241412
583102251
1582845783
290757980
773992405
630720440
674172650
1409211732
1171099362
1692877131
201024795
1340578614
1678262659
577796965
865986258
113644023
813515209
1178754140
1747678653
612453177
1866918902
2057978532
1315675206
1453225418
76471701
2139734257
1135489483
1347142615
1639030431
1787371044
60376728
1863372898
1301746002
1606410702
1387288789
206409536
521185886
1217160360
1081462720
64012688
690909497
745761769
791134581
1475277982
1184614578
302041911
775486811
530778295
573898370
868355692
1472684464
325140084
270967943
1603546284
1215330166
426102201
67612613
77414945
1946506864
577242046
1837064685
1181438607
146723235
2075846871
103282836
1641091754
1169353681
1946447727
1618945561
1245297661
543986393
1272195574
1356157324
609019182
1353098473
1803716829
374120205
618358357
1481325705
1004642641
2065219700
1630421312
1626883137
1198029633
2018544750
1206949235
1332368296
1973544822
1120034872
1208850605
944689961
1120394756
56379023
486251214
1897818218
1234461863
1591273716
1309478638
1254140541
1299250389
1434601274
679517776
450502115
793614763
1828403197
1512653348
331708802
1468538676
52474080
1420256789
173617763
594372408
439605072
1196167712
733630355
1291636987
1671288776
1205804520
1285392179
263673396
1203668661
815884611
1719116362
2103650831
643221665
1275338799
104737026
164421456
205505168
481166253
1668896499
1286543002
541053377
1787280694
227039084
1426699280
300829843
1000880070
404277694
693214856
1656162907
35259249
1861389605
872547691
1915663238
227720749
2086196690
1681403542
1275648702
978683712
341936161
908250340
1327553409
1687779647
583261649
657317596
1646691406
1508715482
1740591457
1307841512
195003775
1479556614
601609027
1713290191
1745791462
601614728
1768179023
477969425
573691830
1567857530
1704738563
1203572319
1046992714
1480583
1389501122
2118862599
997123407
1498128959
1737378037
570991408
1070401857
1413460715
2118184074
110698216
1146304209
550546887
1542373322
1194857291
1766602187
282928860
1803436012
890887519
1695044084
2087856982
1986404828
2139360177
1066849254
395318414
1520307628
1390744794
1486766388
1650418176
2027070521
743740804
23356449
1053727678
352176573
50665304
1178016887
1018313644
648297269
827350580
1468463022
1470079414
488204939
858210100
1545900192
802950111
1732944479
1607335678
1395767529
970496555
498233992
955135744
225929213
1976850508
3499116
1093092675
720466906
2069712721
281605855
140919166
1921061230
42574017
1860559592
1013873495
1188502727
383887579
921085876
270237995
1824991606
1175725965
194207399
872787550
1280596474
1722643633
389797989
1733443814
1323893072
19577019
1021378510
1469577366
2051672615
2011311940
1628342166
450968544
1761028009
1079603787
623238488
116705279
1170787765
1522715362
654010061
86893878
2042425449
846892265
1371997578
1112352414
1208192413
880637966
210297613
1036693466
628882446
787555097
354649480
1146290923
770966594
1995926823
512502792
1295472450
848937137
1613101379
1402106405
45774719
2050049394
1125822264
786447607
1900226357
1824461125
650528372
737341101
1906119265
158877068
438687923
737076170
1586578165
787064365
1782872910
72234519
104799939
1785094764
578675388
210487790
197062256
888120493
723192638
587964925
364309297
954591974
1686236242
144800679
850122099
1962223377
1263612627
490124140
1274417849
1305257703
65077953
1999663319
1415861235
1632879848
566346193
39262890
397722673
858546117
435284331
1243616183
741195268
326376196
212066646
1314569888
129960664
1842702208
1972167072
1080150622
506767385
1659712
1473633541
1242678775
908334650
1284186576
619148061
115735946
1314729559
1973333110
1802103439
582786547
2110226779
225086144
1307718516
551756098
733298001
1151795902
1458893205
556532540
1456774157
1241694287
2042138266
267304183
1560861079
331241229
1847546887
150145432
1452519909
983533866
390237789
1416131211
454584290
2121095172
1257747966
1210786751
1864454861
21355802
444113613
2125924250
619771192
1077864732
713540978
1078602661
730307247
1289907501
998861365
701983932
451313269
1278716560
942342869
277506748
1153005936
1160391549
2068936954
1472054648
749746303
1363116618
2082965608
1784979636
200276830
1336726308
826614127
1208512666
656857363
1274880809
1107874552
412880201
1189711999
1587114210
123485267
25497602
237296928
1721996569
1799129267
22836938
982209972
431286796
1753215024
1728549093
252236367
120700150
1114718901
199897850
1080318765
1375896880
100301292
1343435588
945397331
212067586
70734815
1919168072
1670573528
1352561129
946402452
1037406876
51168929
1536640181
1902350613
672658642
562814531
826954089
548348165
1693691106
1508817216
2061469816
1605638502
484948332
188991901
422297008
225259161
1688792107
1806505041
546199981
1563893332
1178754634
591028410
977064327
1232568968
599272655
872607146
804054841
452176694
1982692504
1961341146
871281034
399540364
1806616242
1216814038
1223126224
1934912889
685862022
34302799
25039570
1101287905
2063176842
362577088
694860646
13925586
293031366
1113468282
1182385165
986099296
1716255923
1476673400
1093910815
1500390119
1311313600
304400613
1778070771
20095994
1104738296
1066543644
2022772972
592159673
1285780835
203787072
286326253
2081185417
719198961
1199760275
1251371935
1463420236
116008553
1803519615
685467947
1050996753
1778425056
1895054024
1933723155
626907096
1632480728
837015655
1356528017
872421626
117203036
738160313
303387434
279575931
301172400
1857090317
368112440
1465651026
1176828659
1542813288
1100745370
1972925063
443556644
594535567
244441978
1044072362
674807184
54348079
1147810076
1352996307
2079519948
1647550280
145369189
1483750562
621132828
1129588329
134766725
956985253
1854174154
1650082185
431258138
1789605636
2036389246
2104483189
1582534704
608205589
64366577
1748000295
25325713
1745491349
15645678
4396515
1842256897
649948376
1042591725
2079736731
1882656231
1865028917
876543141
1331927006
2036714849
108559344
1135331726
214385800
1609778443
1329305849
62457928
819106484
1076126454
330213767
1999395278
1004732455
1387561439
429388321
1742420538
1294395032
1432098838
1550420205
1577350356
752396645
1692741953
1683564546
525066475
1322871760
1908321637
1866991492
1549362622
1460948835
1159678426
41140227
859588192
221461062
1575579893
34157787
1876145913
1968055689
1101058794
366118390
2057156526
1868427983
920831389
1884883558
829241842
1331415868
1005743326
2146718505
1957203049
1410729313
1829350176
660550687
114364253
987993068
1933564238
1435228076
1932865567
1786706660
2113357595
848287737
198028967
1332858689
904037181
430006664
761735410
144292919
164785086
1044274618
1549332245
1785729353
714999348
615949500
1932140582
735893956
76881955
74594228
128323153
1065253341
34518862
1013744472
1510009499
1886311657
1673800031
947759597
349026715
1370422476
13249752
2807254
1537642419
1803708070
1226346748
634819378
562566417
1378003582
1924253170
1867133621
2130792991
1968490540
1251683713
1454453678
1131987991
8976135
938947320
1832891972
1139259439
256768765
414329678
920450607
1955393847
1241580320
1012071805
1212861359
708285109
851644483
1654690562
1197684551
1928025560
48030502
1223495683
1730474866
1287587253
1960473092
2046284576
392695357
485901012
935782351
1098333791
1647545486
678924438
202516954
1434142446
1456280531
1910482946
852026868
2096745885
1824234551
1217598898
1676159305
871743188
1997941507
2135891048
1890942537
181533527
311924080
802874019
186946253
1065420846
1863338395
614065674
1668507185
1415743209
1861165500
2011215916
1766195241
834631143
1438269023
873267759
2108337817
737556647
544270453
1048695275
1200606167
428304323
686783266
449391914
609488125
2035575237
1603163945
440135372
1513773064
41997007
877976481
1471212135
1118446219
1418169582
993618351
1842632935
373643103
1597294819
755461520
703106179
1560069364
2136323503
547647905
332459380
1080824894
906953053
915224749
2137537867
518407648
1307254986
1921245015
2051220613
1102821760
835805288
629671707
1277167004
23247689
792116247
340920427
1734678970
1850448444
1442414491
1957309668
304993589
1162430174
628666037
1846866273
1065915256
177699096
932722019
7164033
61180765
514285245
528670849
220599429
1155009383
2080100686
991632787
1040921122
1181416999
226366711
1126925042
645671494
1768535657
819207730
2005410000
1110996095
43909947
6381577
1500616814
1593241938
1814334588
1824203497
2141912358
203514888
68712137
2105107024
752057431
1580004895
418861121
1164784431
1907674534
690536360
1467892887
778416735
1247243131
1346067331
618764391
1020033692
1305318045
1709735969
1801416453
1266852546
902171456
454533815
1045353940
75973813
873969944
1626644648
1575753843
51415666
1100411645
736326300
172186926
400573812
1252369338
1944053300
1069189498
415042613
1527722561
1623351417
1725656526
2014896339
736178708
117614608
874461745
437149477
991025818
867284894
1805400692
2013098771
1575307438
75732899
2006374923
607164023
203589095
1793212775
1075245304
588486706
1934186872
1059227789
1958893352
1470425465
907665352
856952230
22921749
1827304622
366930769
1095055458
812967725
911408023
537668748
678705655
248179170
1963785491
1541481059
415635144
1968443063
1216095265
1491194386
1920776691
916043693
1276526061
1746290637
1409617378
1200204067
84981548
924966633
928391119
1523684773
1181197287
1969443322
79317393
1225257431
434588763
544117527
1262183326
1191383342
151077874
240217120
1024131010
1457490505
1347815267
1228138321
543140725
257352400
486286088
1359314697
459290923
1210549198
1789780134
1560811017
467014587
1903097391
1982234195
1076475972
427792349
1459054244
1998056489
540942952
335247062
1335456315
2034373357
1095307961
1936072819
1542666801
877961768
992633028
1558328685
2127937708
778331728
152886868
442827141
619285690
1155344171
2140733097
1732247093
1076598461
1811484139
1447839747
1224760351
1325628406
216437674
418810532
375231975
1574173737
1726347093
2065556025
1812990640
755416228
935803982
933919917
294166417
78927066
877768801
1453009887
899836560
1646895769
20838912
1747172695
1971807317
313222840
1770761921
2108037609
1310794455
2046372018
2132505012
1712795345
1787730766
842031983
647403736
1954585978
943189163
1708194106
1204640818
1550857232
1127821785
1002696653
2010418236
2034642329
469588870
1751479606
1917570793
577976714
1761743694
1974676328
458581874
2144816574
1306371329
400538884
199787275
647117995
2059399536
1789704531
1447497896
532092672
96954558
1057732701
1082138166
1467175861
564333545
799524704
654818986
1415233437
1528461360
102243724
294484358
2074687069
1093990511
295507725
1079656426
275456642
970497959
1802009194
413068047
144557427
1188719362
1133642840
1513898781
1148733472
630746346
888748996
1907199109
690918101
2102853115
1165332147
81698569
429846011
1052375098
584431024
165053367
1148938630
1758656798
1548706005
1245682417
1084231277
509455268
1260399392
787892937
1969673628
1340283654
339793957
182924708
1441425743
1033702387
673961623
1554380777
55094350
907173915
1691880852
574975637
2065042243
1015381839
19460326
1662682475
206738490
745392836
808770836
2134019331
1716639372
2102728347
1977793295
610670996
841387127
2089954315
1971318117
2098292838
1212353041
679040126
370115676
1151029022
958363111
1388047005
791918884
1779675263
148294113
1305474469
213037966
1230142615
717986429
727239493
1974965596
1193293085
2072356708
2007611758
135319169
1158741199
739849385
1755035973
516733534
1843080634
1267280160
604973299
649429585
1259501270
1471477923
345148863
843926439
1766883974
8606383
952590149
1376496351
133440880
219847562
1950210115
750608419
1841304540
471346328
648073724
252140469
2076319759
1154964414
808101359
674105727
2081161612
1895386280
276568167
1835132614
1910940153
444500095
1997425288
603085996
1565062203
1944280566
1788392563
1575478730
1937461862
1557137977
518268852
1134983582
1123050553
1728948329
648272266
1482244420
276598022
345041537
1762489644
2114491235
2016731715
1619761476
554251758
1499150567
2086578605
311811174
770902330
1411643526
821583674
1277184791
604354882
1627155367
444941265
897565615
1420369801
1229855324
585397170
688131269
1962696211
977985417
924615599
933903663
454369942
1953863002
891594911
1679551345
9236549
1954285945
1221879070
1976313622
1393914509
591608083
860012396
1327708281
1508693634
371643811
939393096
1053436077
1496002064
663556194
262469924
1430721204
1644288329
856665995
1200279973
1564162679
690354576
127625583
1647206182
766766620
180284163
755403153
1550713256
723463587
357681071
1774181628
1870727912
1821711314
1262678207
139912559
2145365170
541537572
1151770979
868112152
627207727
1929793992
2033813809
1548344250
419572586
1810918589
1014656422
1988632388
415341211
1584870314
1543361889
138028107
2053724839
1242587388
1513404801
1590222817
836733409
939579864
1845444759
1975131711
254821
1691588634
1099202613
46509727
1394173521
1143822734
1625835490
1347147648
434537182
852367624
1670902525
101585835
1725223356
1940999622
419906260
992679276
1081692635
1650324559
1674985822
729748317
1628319375
362241618
1954097871
766073944
1854344652
46123819
1050370246
236467259
