8300 1066595016
1382832979
1727695757
737581326
1800142226
1261926079
1155330234
1841971297
452048529
1574967952
531023491
1486018357
1190889587
771942492
223302124
2034311269
579704929
136189305
517240882
964957578
1806750848
1360904854
876442031
1205502656
1655081488
327359555
15303590
1193536261
222331708
1740063587
715375372
726775021
1061596606
909835516
1679089185
1543085507
420694304
394537527
2102128483
749369190
1236180278
1585056213
590829349
1979984655
1641232294
664878877
1762041414
431228481
1768141560
405316299
1015963697
2123779886
821756977
1294457714
283589921
425599042
90198356
1417723111
1486935210
1631882650
2059882453
1710518713
1526843345
526389134
2045127355
1948084772
99467946
1516583131
285864058
304027029
405442544
934392119
1198688704
335307186
1574777341
94534331
1365194632
1017512865
993527216
1112964461
122984756
1039239140
1735584903
1428053021
1799699197
1137322553
71728875
1476038577
1382394865
1024226875
742606476
967363781
2056592556
295546836
612237329
803319450
1717798137
1987052309
338290235
1686612991
1390301854
356809923
2128216908
2141737904
1986830146
1193003591
1010994184
726716430
2015620870
761709173
1249067308
1834398715
857634397
120042700
497277565
911609399
1635510362
878019314
2060154974
1279641313
919981346
1928429641
2019302964
1109607143
1108369591
2120292882
1922774312
2102808599
579925902
1522288620
389027302
1552832960
889384660
987874358
631347906
1794762041
1475617026
423758838
547076744
635000164
1219618141
1215440699
1844849156
965605335
1559205195
1907833238
1234503443
1046894572
98540316
752605689
2036107797
1686690850
361236543
364917592
1586544860
696101376
792441617
20311155
1394233356
553177587
541121959
869849273
927547085
228967404
365847577
1119186888
785303390
2111114201
1101558291
246287969
1237791380
1527600380
2126889371
414187083
952940874
1520482140
1803968853
1038698098
824995720
8866622
925172410
1079001950
1349924264
1826620814
204197875
1491994466
482390893
2006506588
299223761
1853653825
823810567
752824968
1919267439
1812559256
1002466841
270109921
748384685
409936837
768940586
575376752
848369010
949213758
1517127977
65353880
2020100819
864105417
1156646952
689864844
424764806
1619274593
81932520
2065701450
563408402
480703252
1867193343
1733990711
1483257769
1039504572
606444389
1233966062
343506764
2015255178
809008154
1276809224
976359678
1193213636
704827609
1299478165
2062087862
2043651182
174998633
275927170
1212001873
2134677283
2192291
2023787143
789473318
652202968
510349242
1386348972
1905216772
350967987
249595992
736565029
1076644951
1089813854
1457782368
68881703
1560179341
1853264752
1349729701
768125638
1170065276
732827226
665845577
47654998
876131403
77034533
79672366
614490969
1568272925
1019794820
62527289
1451318016
1407582146
203853161
981452574
484832538
1354309867
125766279
1316088040
703662255
1835983641
255811178
35902237
1140962320
2109484201
1402050128
759152073
964098004
1189401482
911596410
1056407370
540187458
1096137331
277306109
1031425264
243030452
1703704493
566097445
721978708
772166887
1031111481
899529581
1398702983
15979267
260697398
1411720521
1112504421
1810055706
2031459339
518726662
109661495
387744742
825168516
1316875438
1771736567
2082767616
1980350036
406032943
1886608239
2081885947
1382796824
501048631
1169843623
642252660
2033225584
1710169172
560918041
1707909685
1759532543
1003144413
1467011428
531525059
1636231425
1023572534
1890032316
1655176897
1930525042
1098966735
279026912
611146706
178069685
967412848
1805915497
664830287
1765729967
245486495
927290964
145962571
1458458676
101967098
1237973098
387393733
811300050
601639019
178132400
188567900
513383813
20139683
1751354275
1493540862
1537698512
302202900
1059997037
1365241841
1593672396
1446794728
1940360611
2097103994
694994853
2115467783
99707341
354438256
666179084
358141899
21166822
1048850178
1197312696
1522729810
1935075676
769695739
1635209608
2114740897
14996933
606485378
185858893
398900645
981390497
1008610086
727210999
1271598638
122416943
1375736100
1798631667
668592216
1362669212
1623276935
720162701
1967239895
408333766
134097380
632560391
1568384862
826553321
142556669
1271857961
1859164764
882169513
1685707563
532302259
1060539388
190063610
1942925833
184963459
548929440
249255125
598105421
732804194
332799183
1616054140
1139623664
181428633
1635161797
1851392364
877646838
31212390
118381940
359266803
1970788536
1263300193
1692013805
1639148541
443307417
1481103070
1729451621
927559889
1360296600
76058428
809613349
127312344
939455494
638881443
464428471
1093927760
2058256072
1047592720
1150472188
1364915870
885834839
1058607986
388554250
1548432226
1740930809
1663133116
1314866375
1142803421
1566828119
336649643
567107508
731788470
625501068
672669313
1287528544
1558337898
1911852353
66092504
4296634
1501214011
1972464727
1254850874
1062606204
1546876293
2105280393
1255924940
358254690
981443761
1860188201
1025583511
203032499
1573346331
1841415796
993962849
1071815016
2062679452
1660210488
2118598519
1832358975
1084585774
1151755892
226908803
1422970669
1792248855
2016845858
2087698206
1471650163
72230733
1531230063
855552883
913472349
490452590
2096012687
2079178867
1800453691
1600424689
1332003825
944764764
688307384
796017965
487796884
540327912
468450030
1952073324
1405147639
1679765356
625739577
743189255
1126583223
1396303339
1700471164
681397454
1000116874
1582331225
159362035
541740279
212168892
1740066562
2042717179
1120380589
976083437
1282095789
693068082
318392674
1519106060
1926321132
2066603666
340867841
1851258716
1872793904
1564265015
974733777
644209091
2040385912
1894260220
323196693
1933088019
1895002799
1374879608
1526243594
1685599486
789409874
1223600184
1752151510
1309067438
671287593
2014189132
1856300183
1534515013
515304922
1445430354
379963560
834935575
1224144572
349481402
1028547503
2052032067
1090806503
1539490489
2137980716
826249127
101555622
342057299
1165236171
1418053190
356683036
1448019125
701058775
401255845
1363961938
1573550628
1666213048
228647614
2115114429
1392510147
1332034382
1107330821
181539100
161304123
1292361746
472643096
1018878505
1168580232
1424334435
1820246231
139127470
2071190727
404363771
1825042976
132199531
1843254999
1906405447
359701366
34023385
2128499202
479487026
231712757
1511866893
2078434147
1801948898
621541922
305341275
675975071
713464562
739102506
888417554
1168520062
1791264360
941648798
313632828
1515959294
641330364
1225068338
884175719
2089711302
206199082
72888681
1175992718
1882432175
1068081556
860489188
1907240859
1952884456
1935296415
1858816095
1481464510
758025382
431875072
1768902906
1264344958
738528824
1123063907
224686198
1665717991
848328694
1439205685
805541042
1507601843
1747013646
15884337
1805137043
1148586409
1537525614
398710602
1126270117
1649752285
1356656948
142428629
183366373
792209080
13615974
936595319
739371937
1253956471
578674481
1337548372
937092333
152076696
1108484392
1971745993
1669313399
696415340
567998757
1705823383
1802446529
1004983893
427723540
559780916
146664750
764325554
620402409
747745789
307544088
1257476276
371271918
1360039202
379574433
993577268
543363496
1965941172
832613277
382473485
1071195966
1394055443
509799791
982441818
1235045331
1068281155
32890610
1561397145
1151614893
905319205
824893828
864432159
2137602145
108702807
964317987
540972138
802963828
1472676211
1083159208
1955358502
1210344480
396592271
1562250312
1142863945
199661678
311237495
1589489011
536536037
1457683643
556904903
297017717
1264420820
1859507740
968954658
1722250607
485229096
666359987
890260980
90031316
1119844270
310196298
1034345622
885656928
133325202
1672871954
686741783
700926956
108635273
947270374
1759589838
956489653
1613901360
1561998323
1453785420
397883212
774642615
983037533
1288220480
1240974561
1297901591
338556460
1638165303
342833798
201204261
1214314536
285504319
1116802491
2064395045
1431933500
1171159348
1365197920
1264352530
1909619548
2061831680
302352675
637925406
552117343
343151488
514492148
1540995532
1077811158
553727656
116952564
400096000
755016241
1673097556
1761509168
1957721577
1032143506
1603573163
1042940275
1835160766
1917411873
352837439
2067528976
493332239
1783289251
1109429768
1027104879
615670164
1405592663
922716207
477244445
1209590496
1133943005
919536804
1643431672
248775318
308910411
1735081280
1118542464
702064462
409651225
1517823
1858664368
1643504806
1556441912
968244653
856506909
499163687
265002282
2032417734
481256675
1215678665
1804191005
1180958453
130518833
2132539866
1605949142
1635670252
993867723
1766706258
991976254
671740988
878275019
120951873
1436106911
74792356
121526441
107196481
318927645
1246451509
1084570825
1531469835
1889025000
818745771
6518581
1832526414
725576454
257355649
324533822
387029908
1853179496
355282651
646058394
377750482
1622491857
1885788997
1143093017
1082465636
1262846835
902883576
652639730
1897509517
142287617
1573017128
239274957
824417352
1420247889
1341806094
574091458
1959809090
318629281
1119978095
468009935
561182528
283609953
531043912
1399752287
968035100
1330552270
844312576
47075719
588807456
1520016994
470227947
5982600
1881040056
1059266431
1619305864
1793022651
1981101315
824214512
1597338453
1010973908
909998997
201885675
764110707
1994932246
1168385585
1588236500
229837556
621175118
1734955464
1313326436
651231235
676111760
2033885212
874442439
841186237
1667743584
568989209
1979457458
41994318
368769619
1714061854
998057298
567005212
1456697109
1603955335
1188806492
974630638
1865777234
1315341278
1630445631
508775691
1967496868
502050391
1999779317
141951207
1655526596
954760463
885668101
155597220
129866796
835863523
579667565
804467012
577730666
1345957296
29998654
500868889
197385347
67426911
1620716745
217293137
1562629776
329057668
548502314
1165441128
578946029
305247389
1891149380
427845703
622743036
1197174012
19513529
997976899
367848847
830927328
180025635
643898311
1572976700
816974839
227175530
1422712591
478196664
790812068
89898170
775395143
1739911783
1239585516
676884888
1604263274
604944341
182783765
585376079
1193133169
1684661396
988119688
607477760
805790257
203270839
690094589
1954838735
1464165147
158763474
54424391
918613276
231400231
1482396606
2008550834
1692319195
1360646489
473954384
1634885119
116161287
1475483763
60938743
587650593
440605777
1533268742
1316448684
614458206
390111548
1386054701
1007373159
390630256
18774325
1777293978
1407795797
884577400
1821684815
865892998
1889281304
718090637
1864039087
1798524967
706615793
1038236246
1907903983
575007213
956046114
1838672016
1869778968
1333484128
709739349
191569472
948884701
2131960561
1069703466
987641001
1760786836
1309910490
505697364
1056199081
1495074091
1736220722
2010362177
1223247515
1849086174
1828105445
802762224
808384007
1325955024
177786472
89281918
333005497
680071257
1870463170
773325961
1640072442
1443441427
50123911
1654664713
533367200
1845795828
1888424025
1010558771
399382554
1707936272
174021512
1777515338
786235475
861816950
215543948
660359276
1016770890
231568785
2071811768
200877010
664622981
702800878
562046126
950797747
1608221393
295094990
918604573
471088584
139482232
2049752464
1138451978
2108321709
1025455703
1174531241
506042401
983602866
1671436328
737947015
917269542
514216489
1440560749
1340066550
2096643992
97679985
53176326
1809194274
1096529048
2081618982
1269167425
76999289
1335536842
1503919348
1819735453
2126876420
1840663276
1798260623
1190475136
1295183210
5963141
123011175
616605187
1423255234
1353552181
176071064
1462129056
208018147
1297107484
217923285
808770376
1253683455
580454166
1184109172
1477084269
670885736
739339250
1974489340
1761983285
1261349829
192549627
1202668964
161558731
1984134195
531220357
716420814
1793357714
545574405
667011290
548114872
645015955
1876770760
357569340
507961179
1868338800
1726123999
1780003606
935395366
1695152644
646864400
2086608646
1484599530
395393537
800502452
514365987
26695197
1897409862
561467300
1846582760
246026448
1071409368
115132544
1952992444
1194007313
145725140
1598186137
1501162533
232713096
433083611
703839526
283731832
1325703744
170433021
1589854716
1212864706
1627077818
1763353844
1650875688
1395137822
1648431569
1596289659
780697087
1892576408
986617599
1607056312
312860240
165478032
1173187341
1362656262
601822164
1772991116
1288481826
913571836
655779685
30458642
1630769764
1957460610
2043147806
1945403357
1389581657
1019290726
992843931
1890717641
1759074125
1978589658
945787944
1876442028
1015192196
1054175373
1665340122
1626161159
143752349
907812414
1698128637
817932166
2091301645
1008666399
731054155
1661349195
580829144
1127078861
488727578
85108500
657732879
201666467
2096274615
1760818993
1581834731
1481330435
1475194503
1715275668
643157585
754556308
934722594
1342098248
1571008261
851147902
916059770
1703364891
1863097110
443267154
1967936674
1033874798
321390195
670662757
1551045896
170026317
1038223170
639493048
16975023
333594534
1335812662
157997002
1940426851
1962645601
69983705
1901905738
948542554
1640532491
1088315321
37201814
500311116
1053894766
1315065969
1117296473
614245465
1412481741
970508202
1002767545
820463865
621358554
201850994
333470613
979822338
1270683180
1014863278
894516241
1093188698
969562829
1101268450
1455372366
1444149178
1547529890
1575780477
1530010422
410781997
1809236957
1296955461
167491069
521452191
437992685
1031438820
171259696
1538854746
1521002450
105641482
1572407458
647359766
977747864
1728634623
1268921780
1047104501
189871915
541240510
1115314525
816360980
690572158
422457414
912200829
1165664525
848911665
1517773058
1602751575
949814583
1561465752
129067155
28733639
962616867
1759807117
597948149
221710983
1628334946
1219424483
1389813376
1983893788
137054159
1012230796
2061302048
261228810
539120275
1912580770
201282455
157936331
2014306084
901042803
1980342812
1843712184
410562042
1380859471
1075379297
270986352
719334233
77226386
1986912957
1672054446
793672080
1135126363
543328493
356172857
318193650
660036990
868641674
123204721
273826577
1616684824
33565647
2141939753
437700036
52655554
1719055327
1670827850
1873457363
1492487516
216179551
1439899410
1521910560
17534069
2034827906
1599013065
2058291859
1698430994
310394967
160745314
1816519460
1679981836
1262515483
1897983625
131186898
347587339
618655612
1513234445
1658814012
762570216
704448625
985383567
909964719
1664319612
645283790
2017726426
1122935190
37285629
1295097964
1217835689
1302397952
365072529
726952995
945089926
1229379570
684659312
1001132117
1384925381
1320486943
80265626
606691857
1084016769
137195766
1357964538
577708628
2044177193
1156146997
394534917
1804913239
1046458313
2044004695
2075188425
1180606396
552854568
164386671
1436073591
1850478800
1332607748
1221268267
2008423127
1492998370
433924660
1252026463
320765325
1183935628
1816564064
785866086
104542633
415051159
120858581
1084558048
1538315297
1132259259
1062941347
1791859821
1565453877
1163990122
1824736152
747706513
1627428684
1956079541
1979104896
1842409811
1540824931
284238713
199616625
1170168903
1365754339
1917301919
927300850
9007780
1674927796
1438684991
1213320503
1837963804
452934999
999391854
234841524
1087091681
1869469465
2047204465
1908555005
392861420
1068935384
564557691
825518363
2016562671
355470847
159684001
1862622958
1981653326
2129535465
1506358666
951760712
1814652518
1344383735
768189910
1726709317
515250299
957484043
1845649864
1774127279
1743534159
737212
1299789292
597185177
1907651826
297326887
1697098744
1744233909
1626643370
914821066
992919255
213272408
987910211
1958924505
448059205
938798841
912035241
89250168
2087653438
889963579
408743281
1123801405
1593229905
522134831
733067428
576560216
1361860819
401765624
1498529792
180305461
403205639
231158140
1606089743
1445356224
1146891993
1127256468
619509060
1360886283
1008863060
1608821862
531625098
1221134637
773822233
1236543015
1509554992
268696868
498724236
1626433364
392332169
1650197906
805113369
2075155103
934676760
770110997
569883610
526889854
2128238651
319434944
1403817683
10271672
5547830
1399658805
435769252
1013099048
98727486
2003799408
351640597
261521732
1706440498
597518643
392811144
65041644
1577631397
1840779279
1059014487
581163134
818969516
2064580355
887799880
975607127
1670346745
1342203836
645019974
559491432
877207637
2056966574
1791946818
717761829
97572158
679003493
1716304342
526410060
985809437
1108311588
682073332
634275384
798260958
1405723754
1816704986
1801599221
1096349419
1600589729
203647935
931273322
265755253
641372576
955502991
1255243079
1859507695
385796000
767522190
123296826
1132712644
1209726179
1587108885
1595430829
1477410656
1230038363
466243027
1787067722
10477481
502060904
1721658307
1353160016
1107240156
1521512033
1010371525
1453258895
57150963
819047674
1710218329
2087186332
839323759
562493098
1842237729
16881712
501237700
733551438
688019441
873499
1022045706
2140432363
1628656492
389463745
1783962718
567394859
2145673398
567028841
620466783
1789970959
1101193896
487632709
1095714752
1924924373
1390565166
804300446
2012283721
1234176797
1749447240
484561991
863583169
1090440286
1211925360
349699132
2096857061
688375633
1852121324
1985415453
1744217820
255744454
1668226212
2076949396
1669515296
1851199750
457490483
947118214
1605237917
951387333
646729984
54464197
1125705063
1257257179
1134353603
321973758
1040448972
426641348
1579699667
418251831
488550912
1447335208
1409009364
222039234
1468612725
1522681724
1616332683
1012848162
815423840
1376930490
1585289496
1247455326
1729738684
2023168634
658342352
71643965
281020529
1035211841
609567227
1324221540
1777220529
870257106
1337022273
1665631767
246162579
2096302825
866617980
1293517976
1126175163
1188872295
611271150
1218854240
651175129
1994026444
1379409695
671806683
1730049045
1336378253
2120213157
1497699431
1116795225
822962681
224958370
2045038884
1872108169
91376246
1651509636
496392684
1050112742
203350698
1745452707
147492244
407552459
1830051408
1702542783
552089898
1179851801
1701525893
1048402344
932109896
1164096403
1632905979
2126857661
513016191
892235789
49550866
430813644
511967176
1403277014
1668548038
294465278
2039443003
1307937635
1304309261
1230117661
418250386
321228694
1216411310
371742206
1524625091
955165644
2133921088
1040792713
865533703
1827510020
2011398025
1798762103
1936715591
1495578575
100195757
1002690748
151356966
1409823655
263349327
2003274551
2110136125
694404995
116010819
486659259
936689841
1116432574
1665626933
1682777704
1008646766
1902619616
2120728644
2137080115
1068420000
588183245
1754680429
1523001628
1332138276
1136424720
650790231
1375691213
828963891
655745977
1220881038
1232827207
1671008139
1422984240
1749692514
1579922814
1052911445
719979028
1753721298
1575117972
1308591612
1539014591
921401951
49085924
1447226029
1734965738
1555796245
2019877714
1506799762
1294987065
1659595241
2077771814
398455739
1380339838
1606916336
67921201
531890197
1630058756
3169237
733607044
234768320
758640541
2084320375
977598112
1689002277
1942039885
691768049
59817533
972655850
1688121030
1094080636
2066826223
483869865
1908542592
35444888
1046135700
474763491
2115590785
1963213890
51421121
1318856560
559943944
2145948625
1244958296
154816959
2005711967
1519143195
1698106445
850696839
934049236
422527457
1464474315
870106463
387785478
1039503957
1427587746
228248375
1261928203
603416177
622453003
2096144957
1285155371
487779688
1709095790
1591249593
1415905826
1169771243
1183439870
835118710
1692074697
1611633177
153335239
582522433
200469952
2044512060
894341473
131522776
1871739656
920513075
891633850
47833041
405918071
1396246750
757340867
1098020779
1476658706
1340627289
991773055
1915016389
426730972
1024875546
1733897262
136081896
1363969056
1015285185
1982102822
1352836855
1175655623
540144307
1865161989
687914619
1450412743
2007343034
455647158
1404474443
1726775687
1883483444
1736044525
965654
520940640
592980284
309609561
255405795
607391728
1183179168
977230488
2117435922
146817250
829800118
1665727713
469083372
868052367
1304372405
1248578986
1463953308
373583129
1277320926
1510693686
2013857962
417077357
1682837746
1619426585
65014804
1145907849
1921561114
830535520
1571002510
1182394450
2025262843
715483132
1681596097
350916781
1582879552
664828237
1823213321
333419958
1161043351
1211523150
1875126176
1373281195
1720260449
108240739
600097563
347030141
784767393
2048529300
2123828796
642561214
869848437
1233864643
1160986387
76611912
743114416
798036504
1493377615
1352088148
999632504
679835454
1680423473
387014212
974050685
1216010062
1505059861
1281296365
354407877
1864720875
1995442046
473032353
2120756600
90624536
251972478
1974533735
1589106907
729641734
1786107382
170635395
1674556469
1039625243
1742770371
1166904222
100951780
1521177848
1404893445
484696930
217863448
370610742
417363066
1751527965
1759615484
1554381114
2074947645
1536311202
662768138
176110711
100075242
252514880
1659846043
396206131
566685428
1964615394
1097638585
1292989968
491122854
2056679768
2086770595
1399710164
1916314860
59941891
1718324532
159540553
798243517
1672233317
244592730
1973531895
1272317425
1736962795
1760271713
1255592848
1927714190
2111023623
1390320059
1720285003
309416414
191170663
1539429820
1513272664
2075763324
1998884837
1881880551
132314701
1779866836
2140576452
1624387138
259666534
425605754
1962089598
1003489649
1167291889
1470699263
2145200427
288972226
742698352
569882321
770393786
36269776
1760803242
1667388594
307332105
1668849830
2040646727
1520187602
1646156400
1266086566
1999506416
2041812519
278615260
337871232
19955754
1209463274
293765335
830083526
53364309
1728647232
198813230
898605409
1510477089
1422683078
1902397427
2052522773
2074335617
1794061162
465398765
721846080
569578093
1480642625
1095379806
1295482720
496358756
2132407429
1230375633
1945714678
1534890654
750793018
1070209850
1966049827
1409872153
248386666
1712316641
1270249192
156171038
531157069
533792032
1189361784
1832358473
2066507839
1063570804
1109519689
2137336929
685205504
2128370705
1567914408
769382065
1759453505
1069463660
300837563
42828440
1974825572
2091229060
52682607
1795922526
1940460677
755768173
416906396
1858002019
1953067508
884991111
977757511
1931903184
72811435
1434880250
1986608811
1019192345
732510460
2057788734
2062825731
777387143
630383662
455816338
1974215380
1604245108
1269707268
1489166524
1508934295
2132760459
1410934689
1852144358
108706066
310316025
80455741
1926722370
1835412431
193444460
1724908534
1751869959
716928866
1328775174
1344736796
208522903
1675077917
927610201
1262533377
1439451331
1546158595
1177491790
1997686434
329902319
1641463949
933218051
1928520407
565256068
253195095
1346728286
1166535996
823426613
1526551230
1226401324
1848225184
844054364
381887412
1925045420
1950981334
2094438159
984097219
806094827
1350775248
1728891577
1335325096
775451563
1998600407
434573684
1358142167
1276029091
469348741
148323563
335481371
1894062367
2076062923
397027483
410688579
654988314
247915422
489419442
540225449
613188357
96722035
444791957
156712754
140258545
1353267857
743617023
697140124
1894466276
879074134
1809259143
1306893961
881423583
470494518
726282605
232508573
1792986415
1580483927
839124317
1304993634
570791198
529301112
1508286748
523616287
149193001
1334271623
818330680
598784300
193602971
1953334624
94515773
819251539
1433055688
403268325
311772120
845462847
1753281936
643593535
1100979916
695063002
2004069535
1944456935
1533685279
764190445
1946162043
1764009271
1147056792
2139949367
1242219222
2098898600
1166156319
180239395
181916860
952096966
1000526247
611560733
1527468088
1902657229
1753965507
1867261023
1228070339
1078560654
118194677
33018149
1236911040
2036859846
734485598
1331061220
1883777663
72623362
1776218669
1340483488
497985622
2101445305
597565940
312295533
1017058761
1830840628
1686536717
627427469
1318300338
864219105
455344216
865474079
1969578381
1832294366
104680121
1256061441
1429382084
916156618
705757108
1833044807
492256991
551667971
661694041
1893595245
1045864253
225927755
1470787082
742842987
1303991772
1661808879
491960288
277265978
1476322215
868131259
1797154315
399097806
1675939325
1946380267
387904556
1509346291
828635910
1312085057
701585338
646705769
1239766465
1854911076
1972414547
892858439
1179564658
1471918005
1679659010
1422506663
1118382765
1744914664
218858274
2049904678
1312901626
863453551
1359266102
794497988
1111695773
932225079
1660296296
604892813
1207053553
815019820
1498647197
144079516
2059316793
27701491
382106876
1690760296
2040089026
741353204
313983105
1266005561
1711664007
1132871703
1195419323
486734089
1049555455
501470864
1262761164
24944619
895067064
1003955840
1684479175
1561921981
448588367
2070905941
636599769
1071770428
786126832
747870667
2124245928
864563648
744583791
601641
1753431962
1350167947
564742250
316109591
1132245136
762528520
883182896
63757019
996602627
182675079
957119714
286357396
2027561434
228498748
259901655
802087049
1006972430
1920354302
389598149
1746313496
1719637856
1584395722
326092369
2068852229
1644293139
1299480002
1075766007
2073519367
1058410949
594551049
1905312256
2123665893
1475368263
167556580
2094026486
2121727357
952255250
248437021
1315494752
1205535523
133711673
1698637972
2146796567
59027501
636687902
1063814645
1814093035
2130176202
1022221364
1769234453
869655897
1326913349
2128754399
734922220
1585660981
1141989842
1482355749
1997930636
980536537
1711892714
1816566502
2127459715
1632586267
1442680178
1039842267
769233144
1211012086
1989853017
62458004
1241708427
157149801
750965538
891761982
703414680
563387192
1471111449
105553740
316439633
689499259
1421486708
548978471
704034089
614421027
2062813315
298672022
1588824813
1623452161
1993564873
232234501
1381222641
1713323918
1315122319
1431221075
39454803
1930909826
444296161
977240865
1646091166
195955016
699156445
2034496843
430899089
380473473
1302633972
1383404806
1315706486
716471358
66920772
199817644
733243817
482465147
2138112144
1215133450
1482634413
352490630
1319965668
1649448294
531035701
1707171292
2046727147
1126683143
1382370233
460948831
1900697363
2124883681
1201132167
1009671074
131438715
1203297194
1766265623
1866973533
59327994
740760952
1695052321
1314194353
1903744623
1548246803
1702112381
1781989759
26585057
557810070
738744080
525506059
530048547
92324888
2031217513
646729403
1464203453
409763036
1767168181
1743676912
1315141774
519084042
1330388522
1861879939
1051766693
1883365884
268102988
2143609210
1585684020
786306399
828888185
790883843
245598443
52933863
318435535
121936447
1882198000
1980541747
907552908
758457569
897371186
122204865
258895217
721243279
350910126
469010034
261424856
1963475590
1021744549
1731385733
1806689167
2025908301
73053119
2011961448
754185544
2103530224
1391730037
598339691
805605792
1595316271
1624057911
398696516
54713571
800711060
1965096923
1865158667
2101886015
260033032
936574330
1146270156
1927598112
455016699
2041742671
1403529607
639301182
470759157
193228048
1685569006
1571869610
983650922
1408952919
1390841827
252766227
1221716760
1357187189
1057594166
575841937
1473711846
268347284
304316095
442767607
696929756
1877606787
1010502810
1366133144
837815864
570145225
1096524506
61355491
1144858949
1906471481
1727023785
285280303
836489047
1179838996
248160805
805329443
286307137
687973466
243698452
1116716867
335642704
1314067837
387687438
391567119
1342018687
1120623117
160270435
545793708
269092432
1449555192
1657526452
186055707
1288826997
1226970504
972229228
661608331
658245098
35776021
557777225
1055448756
1241935441
1194811726
320892499
1062065628
1642719815
2058760700
1912993929
401547937
1793409019
1503533021
42610139
970872546
1685188162
205739616
752302610
1728496070
360917655
398371682
993093704
1509853977
1682973568
1586351337
951675531
1384698914
1695190643
1659727703
77031948
954328094
633502399
1704317845
585097179
1410226116
1691905820
1201855969
1302541454
2105957897
1249823796
1183888354
1169762537
1320548558
1827371732
1029038704
1677264439
2062239598
1509613233
230951971
1890555405
1651235212
405082977
829956088
1346626299
1770653835
197554305
834868918
555466867
1085495937
1826379226
1779710380
2012289892
277933027
2088189729
9302369
2095649364
1735582281
1883447684
1821252382
1155388808
1398793822
363269860
856876806
1600933757
1178707365
2099061277
889536362
863409292
935812663
293843831
59880971
1760304185
1924624200
1447613785
718862988
1204338793
428405933
577836930
1130420494
559646303
809396267
228234394
1590607921
168177325
1603947693
1732068583
211078881
1590070547
803659674
2005507128
1062890491
1257941378
665441120
1952869559
1275683458
1072736262
213717621
70194144
260606495
284391619
2087028745
1525870278
5042947
732254356
690025511
1981224489
218799758
764995837
1258538022
895181461
703445868
1698334938
832566874
258193636
1373990293
490329067
1821246239
1661378137
162077496
1724212276
701550669
1841435902
507593663
1879648425
929933998
987217794
1761402241
1367379737
129058847
1840336454
1457274149
500003630
767218278
491664074
1234862673
1692718939
33945931
228301898
614371033
1149396138
2093812848
1857534928
2017232123
217297801
1446780383
1765888252
1104203040
1919703920
579742865
569671041
526230816
942918528
1783453184
100000232
561263958
1008593658
755962124
474808761
374484769
1172275351
1327853560
1211035550
1027404802
2129617875
685664831
1524253117
1229144821
2093315211
1208627149
182799778
1991143075
1349016479
1923187316
1644146042
915151987
458953429
461707320
1900546788
400132668
991638838
1081017859
527905944
502881314
830543798
307179952
725711176
540865555
158509191
1466682350
124734803
510283414
343546022
683594484
89011672
709323202
2129742530
36281509
1429929338
508834819
1569918050
389507265
1009135771
1442578700
6493666
2085092166
2014568853
2074577230
66966205
1981496905
750236879
1161326487
1266741602
668396735
1416508810
530009924
1113439312
1639924841
418672954
1444762380
2122725794
16498734
576642131
851595939
411439992
585161306
1508933365
1746434452
1345865763
1683478226
1368614952
1312715988
1508549396
1938784
2010344179
403777868
2027944917
1555131444
2069635620
637923987
1497513833
2095909202
1075526855
3565690
1823817781
1281252793
189272729
1229368718
1641762273
1788645201
313622438
669992267
675059267
1727066888
1725106448
890467053
1327648025
1338838845
1045580122
1886199409
1863752771
262579690
2091230256
368526424
853171357
1257424608
1690649370
1784670815
2109838629
1360587350
1139235174
887791486
445105398
878121551
2137567506
558661632
1322054019
1118828095
1411546593
741000718
613187649
1679569801
1015970547
151313980
872339125
1347914119
1580879251
544409150
896975266
549657251
237712105
1505915783
602646300
2029369070
1861415782
1528299949
1040284901
1521692245
1649876726
1197631399
1014991481
941861544
59478432
1099233015
575074193
2034504342
505495457
541319545
452589004
1873310469
418007482
1184565254
1923426302
499741218
322197764
4739183
1239102160
1161152780
2111456238
309494700
1188334935
1629537772
1221458439
1685435410
625207487
149346098
1356576776
1023290408
732981378
809573516
277316820
196797433
910599053
1493238383
839251155
403734576
875654003
206365465
2138125990
827709394
631987397
1467396557
1367042025
625148581
1578776730
312847508
67055670
1297870745
111477500
1705776742
586131048
1950319210
450227242
1367472649
1900575877
669268758
1509491033
2063463296
515863638
1173054138
1829282664
226820866
2014845658
726909593
1243138236
1250584224
421186839
1895096933
726795382
1020820739
642778233
38522409
1085101834
213626689
1472260779
608330978
415352461
474506085
622736999
767176317
370458381
1628763893
785272551
1136900548
595475052
1658896435
243513561
1602978727
995209488
1556158815
219990596
1009083492
974967204
948794067
1387112168
109020826
1592590855
2053336241
11895928
1239803054
1210885876
876345749
1168127701
396316614
759772235
1068140706
1540686942
1347223048
175310349
1174353992
229884400
1104519237
1827143527
220532649
1124153289
2093285562
190444604
297091411
1264831725
1479092504
1461835784
752383397
212958207
320213172
940619605
1588534524
1928335193
1595462400
768571277
1410976123
2064164133
1594060304
517889779
1624936882
1884257301
1234831290
778396913
1831369505
2015430327
1741339904
119950084
1072557082
1307920596
305723482
587299874
487269811
493517540
570773101
866039146
1628817094
921171667
2094720558
1911191103
439244199
1855613874
2087413315
1060714679
396677819
1286232628
1839360826
738292063
138760720
1353570660
1140426170
624777365
21339811
1769382433
1635107084
983922945
770499542
1702716415
2079830313
622135755
1915641840
122380586
883362149
1837698390
2022710846
342053544
1717746156
1380661879
1977006489
608867524
71210622
1224322079
1661937256
678665053
423068839
1094474192
145720575
485141920
375861806
353982448
1940388814
214297381
488657613
1626922990
1331468700
343512976
1450993386
1317675147
631324610
1330753172
839125400
853136971
804295905
611434816
289064676
957066012
859242059
853285136
1979152978
809983814
1370137280
723592439
1032991956
1955248513
1414100208
947399971
1259383516
1328627368
666256670
841109440
1050290973
354595572
642636690
689489067
2023496803
901341484
1265441679
86469136
724042849
1586572223
302066756
1203017850
607393084
1301308588
177908810
831995666
1200047089
1671130501
593292084
1954302043
1597630178
126099502
776088502
1199326590
2111036510
1776680635
1749937804
698508147
623982505
1069558695
510018546
1413850844
1098283248
314452701
179119788
1513451540
1199393195
1396730007
659742111
802834423
1782760640
1767213804
2046453315
1535898509
1660961616
385190176
1156114239
1417531581
867677036
384797900
425273792
566393412
471627442
18585879
2020351307
436712520
752994375
494992303
105865273
936091629
2107091642
1967293660
1297273594
1290549420
90136289
423724949
751186466
2073171789
1994416604
1133027848
1368897791
966229816
1141306114
699354563
2093796083
1185722940
372581103
193411046
1712170632
1687850087
330262704
1115971865
916266899
1277454670
992854264
1399916064
1798660316
1210732460
1922716590
1159614594
1633859375
332162354
505848530
1138937357
1863672589
259042220
822100020
1658302815
558068545
464258219
688786374
417716673
546547423
1747942948
1262418558
1758700745
1093293939
1207625298
1041458002
2024047848
1825663904
590719014
1277810378
901472836
1691636018
1781460879
683179145
5292974
1258880837
2082870718
66845106
971881893
2006909023
1201427709
365223732
2008853453
1533904235
17876444
7118809
44085286
211386120
673686092
245042928
1009056779
495763507
845009617
1382376930
1886707724
72820955
361349724
342872956
313369674
582145949
327842349
1306169543
1509632208
1829004327
329647882
400785620
856706458
1087381961
87565418
272979320
2058101497
826108240
980562311
696073960
2063393274
1784736573
1628269893
977281297
785493069
1244072580
972061220
1602769434
1521226915
1876377168
1877551942
1757733076
484601757
1229552719
1891342370
231957121
723774039
252095362
1927772332
445467121
214920339
783097229
1571080681
198296750
1051607064
1427247519
397982259
1310007849
1304658083
532233892
1424219432
1704902968
469849286
2002478488
1355458598
1153337056
718597586
861203189
22623886
1952636050
1956270088
1744140811
700667355
2006464030
254337915
667528962
1516362213
2056986531
113887970
169330809
1355692432
1782961489
436798919
1994940999
1455256134
12738463
1005737809
185874369
758854887
680147660
57341639
1559227887
1158044110
1323074845
1937311812
72279403
2079300777
1525920898
1365892297
112596308
1379639688
2137249181
182975029
716696828
170475630
2133479643
2133978076
999439886
1725766141
1209547309
1405278821
1883713458
1192456998
1885349377
1440607392
2005546914
588864124
892373057
1200451448
469376362
78516972
207854216
1472644486
172033037
1653459345
862833071
1787044032
2094234675
1619431617
1641262351
1053098385
1864867559
1343792435
1703969790
1837530945
2086481839
1824717104
1945517141
769939692
862963307
842861068
1638924508
1068747982
1965818418
1375665016
1085296438
1460222257
1581302487
949550132
317953625
1614382205
1373989815
1115353658
1428184215
1963478285
1873686044
854421175
472772161
1624498719
424106685
924641999
1566217148
447742975
720420061
976767904
937053969
696281931
733084576
247705208
1002906501
2000952028
6358398
1952480396
838591211
769816145
380862749
1215023290
1419936739
1357587342
196364472
989065713
945750086
1691988615
51768246
816222406
1512029180
361631045
989542735
225946426
1572630981
1925886114
1643041345
2061709517
95202129
44674113
1390593036
1472839486
1279180258
387541636
489761265
1594469905
1255690715
76693944
615962678
890594226
1139371948
223726307
809569712
1944580340
811276123
229180412
1789341322
2010707371
560094670
848967164
755598995
519097575
465638364
1174644392
1590563506
1602093367
1235022708
1604063386
1377063965
298649804
2083936092
335930013
1098459616
67324349
1994880982
133056786
1982051255
1849583136
1626681906
510459239
590625713
540594511
64640518
1324736250
768485574
1221896745
668368057
139285071
1729493379
51241347
1890149847
1662020236
798770554
1660200139
277077829
1199692045
298764176
275845870
2136420964
258778555
455635231
347158758
550247096
369995521
435782474
1514296675
1665811383
353694438
1740681709
2130076973
1721323402
519020172
237915399
2044131257
549741913
2074863168
1594520545
1048988360
1141458649
652715747
89607887
1922019254
1488711498
710593705
673730901
2017998418
304593248
296649898
1841792194
100704919
1570180543
963785819
132242052
929671017
113940616
1142897109
1871938968
36400231
222890150
222065774
441277891
902912236
1779455304
64132318
917260701
843786474
223448212
1786918238
1786490872
1197754564
1207970098
346864073
423359354
984775202
622719418
1430321247
1822815129
1084014581
1791778177
1960618436
784635851
1211863571
323781770
705929405
2136826209
1358125672
171349042
936233716
209782239
466237715
1515310617
46987617
943526045
1771704279
1016467073
546009229
2072481318
442488592
553638594
381960185
1620950544
1762212440
1442838198
1008100147
489606255
708934467
1668252625
1733536253
650876187
1675534186
34711210
1546414133
305425814
1169154970
1355527688
688451259
675149553
59668458
81588340
1929497239
1495660795
1269925162
1384037059
2047331927
424756005
325482419
796288584
1886183892
948672547
929993847
1497464624
371104343
1862442818
1952634191
883270307
1627626255
693427981
111086825
747429106
1494007073
254656263
1347769120
708284392
799735873
1443336984
931838259
418177369
2138784383
734833731
81675816
594718880
169394394
1664119883
1729837800
2041976346
925327121
230264558
1589092012
1898801069
147241165
1435894958
931140376
983353585
784267430
863139040
1574039606
872824820
1524136358
179130484
1206167915
229528592
1978609259
1214192326
1522759988
222180428
1450365475
1473295794
632837427
841770310
505733220
421048989
101264186
1521809383
1845843408
79211749
1074291847
1221215985
746534905
1228123345
1503245106
176635390
721806733
1974898866
90973418
1372333867
225718069
789282820
894075126
852427259
1855862561
2050057616
1963125446
294150300
1520900572
1511026987
2122764183
973459257
1489722821
1407492690
184818089
936034673
1668361336
1746361025
1004055864
2089355591
1450136008
727775222
291580983
1184486580
144442582
1848341996
1153696516
2076193833
1993635886
1179588934
2096741501
1423845650
466497992
1499603377
1047764401
1130707848
1227041663
1945404337
534874916
1768659284
321502075
1278257983
1035482267
1366211427
575226773
1148864069
423135371
1257018549
27044529
482612792
114913853
1830569958
1272159398
1064684181
185916407
1093625418
1684247047
953869193
62454936
2040837498
1010409721
1848875983
1056893797
1683324257
1983779999
1403050763
684162195
1896243220
421187335
776220645
25126057
912569756
1490382655
1645007495
558605825
1400468567
1676559172
1623895732
490685520
1673174562
81067867
171996614
997933176
2013542155
1369718451
722319789
2117721559
652329731
288672677
1248464553
753282524
1253133515
1840885726
483013968
629204062
1816720327
37096452
1000885577
1739813820
619184755
1228781994
818417507
907178379
1918667871
1888596392
1970278395
1496335002
208049414
373898584
1009846368
54595249
1115798799
2035871363
905194189
170982907
1163819436
812146708
19495612
690863107
2138296782
117947846
336539749
969164011
1144169832
846599409
959128281
1473509604
629373712
608791570
523188606
716699936
727176687
1516872652
195159894
422038448
2033718552
686759611
1908649085
2087733193
567728282
462827958
88776938
2059782670
13824100
832068692
1521288778
126922977
1861276380
1608272063
1154736817
599072979
87333367
1921881265
1647223327
1459032035
1734707900
407724146
826327399
2126224274
916726366
374122686
249725112
1971888931
1490791854
1572955443
781032598
1103342962
838362751
2017948225
1865355618
1766921261
1072372250
31342689
1695999267
987003014
1118001054
743722186
197065100
1416855432
893986272
286351624
1346496154
1796986377
1579106946
1666227260
125492376
1416461602
513206111
1710965397
1760005736
411721285
1967003848
1567970834
1367680030
1479288773
1330740416
248313407
1610691684
511799507
1473951720
987597022
1840760788
1165174196
1717851301
1696049657
2115461672
1712536612
124531016
448717863
2015630748
1712697297
1423799761
1485713634
1542626228
240436754
1962611335
433340580
672430388
897686158
440649391
221809507
1225664232
1833038660
1190702499
1618618491
923813083
1193041203
1661949515
228159210
1414321167
833851373
1668833406
285040223
811694290
502405754
1438884748
1900400136
191874368
250042124
457891056
110847638
1302104906
1849075675
2066474406
2020499583
634337030
2048522958
1920692570
1974799929
615133431
1629001254
1312379894
1020996362
1859471327
582167741
581914603
498267096
198386701
325466464
537095535
953747342
1689960549
1837343989
333895471
1562119926
944631195
663007399
476725724
77147441
537254752
1536502647
673241518
408827883
1003400229
1664675293
1541060829
1250080770
944442819
1695325832
1449125358
63484151
630775009
1908588153
246733298
318124430
2058342038
1889402006
831622875
20491386
731063010
46781127
1859392832
671291417
1722769130
806513151
400012123
1643632294
1608322852
513590848
1136233091
1905223465
94474721
1247820623
1723057774
2102189241
392620333
675424243
1708675642
1248927623
1367577907
1540684650
815011672
742257871
1175156345
635142438
1300481057
1861865234
2139273221
1959884029
272832882
1527080513
883671635
131751732
1509933310
1165236355
583611505
1603778861
1454943213
12063176
365749968
1200052694
489879796
1628650590
1007482325
363538624
1875731071
1839069382
490197867
1432034363
410727649
1070898991
1784701479
1833073538
2052050135
12371510
1595610744
1873374398
1998822757
1674793934
298131841
659277869
805027538
1964266926
1529783221
438187222
1929184158
143499627
1811998213
646089895
1507039261
386743396
945397107
244091109
798500883
1419545757
406074378
941078073
760974578
1385779304
1431968807
529510594
2023883808
140336948
1572022772
1986767088
255258006
713437449
1928263170
629026560
1877086524
1242378192
1990215694
1851410469
1470590482
1233243795
1543735267
774818264
1465552973
1339452001
1456027963
1335426709
1433300759
2102456973
274562146
1208979987
1141560077
1213225025
54893070
279364983
1804616954
213370800
374117464
1628367819
634618657
32548707
794280337
248393171
1182367863
2022990235
937193095
1373017695
821881393
1911485244
1930397891
1387882309
1158035060
1487619367
268980316
1306047586
1440692781
1528450074
271520418
1108887788
1374373836
614854761
1819339935
279892768
321705238
1965080470
1506907329
651712725
167881114
1505977010
672410917
1095431014
257856732
348708931
1934892612
342807589
737389766
230335475
1132919044
595235059
96605127
1973243424
989880515
1404352368
1842104070
525290902
523304447
1346087555
866776165
1703558690
1425635266
500483574
1961384330
1427640885
1544189852
1298385526
306194698
854393426
1793765714
248222275
1288305105
1526154598
123467682
2098793899
1232747644
1570083260
1425560885
1475970654
1498266046
784688137
1442852475
2107452560
1756338487
725225672
7499057
1531374298
1623322339
749575136
1403498972
837452387
290574901
1608276254
147426730
2002382763
1784675135
196891623
178177526
1268979207
1615260255
2057404610
390438133
1834923045
1302828316
991933534
1217733930
1322361032
40213765
2006672370
1040096070
1759596096
1864109633
815410769
1156040708
670865286
9676117
923020120
580348706
1379521436
1189322057
1487340626
216837406
218837593
1879443055
1248580787
1832556912
873095283
1841865823
2026951101
985702661
24933361
1394824251
139967264
274277557
474947682
220002901
1958351698
454493865
1987064513
394787264
1725177627
497763799
25187913
771699123
106409643
109813485
520232969
1034715983
1031253432
2096314358
1413899219
75620649
433945284
1391874310
829870097
1454236830
794364250
2030174231
104845862
1932848087
501008336
1631646224
1840956033
616022351
494293379
931018140
1851349291
596691134
940893836
1816071487
1639148019
1250997753
571386661
1340918254
322431047
801360638
1869984124
1560783937
65156155
382246505
896387102
1450954853
70561215
2053204425
2077496240
156311216
1557762579
386457422
1017736945
1326401216
158015230
1886619844
198218258
1615774213
402915253
1074179390
1657865229
487578868
324599997
309182292
1903153663
714132003
1950157862
379016284
1024397410
612088972
1922068099
1082302785
1172644463
560335163
750543341
1717993905
1513933446
1891193279
2147214162
1725629996
890176267
1111471893
315805238
852396577
2120719810
1437340376
2117353740
1177506387
1092988144
1654077982
821643690
777171627
1791537836
529221598
476633335
893566281
1864079915
685108881
1873936347
624654425
850294522
100324101
593064714
1472240547
1815088639
784264920
1421563797
1742002243
1037575533
921041227
1960990410
1727767998
1563663599
836426628
353696471
1624152075
952323590
1838950689
647647930
1225736075
671003719
1449501548
1381424775
608079116
1399545295
716161825
537052205
1390592488
664412892
557730652
2077903605
1673848057
1325082348
1092018817
1154064409
831439217
1536794694
1834530360
1815405374
1414688083
2062575804
219030555
1402829379
396646155
1126716792
1093758229
2072358394
839965753
1647400887
1228762864
1108577707
1792436096
877093996
147023627
1595153509
787289998
143926594
379501688
2116011120
1317334015
532574303
1484771796
1321276304
943947092
962103372
1806098412
496943039
128596385
1379804503
2110249064
147452653
539896828
118703248
1060130581
611442627
1454000573
1664401608
1097362606
1818074522
1458915764
1032565479
1671948609
699223119
58982823
567581049
1620577879
58950024
18959634
638273897
654033031
1146616782
2028239600
1892460212
1626772222
1960091610
1454326958
513745777
1808523392
1212005371
1788627838
556992831
68087501
1971754212
1474764603
617318674
274536320
2069051810
603376807
2099352368
1054538666
1950916623
72610718
338786240
399359332
204212441
980640982
1384402783
969490973
1433578445
1616791746
2040932946
705461409
839036042
23121360
1855588853
2110046223
956716514
906517987
2067570731
521214310
2127732487
987389377
447141932
314487387
1661073208
491549267
1975592535
1775712914
201611717
581390094
1247322247
1949981481
2122689395
2023558407
270982799
1469788265
1244355896
259786806
1281204807
1616563093
340416929
839337443
627525637
936951242
1549154475
119366530
1840053874
636660277
753581083
628558962
89376510
562814932
124818223
1105590249
536952386
907410458
931031007
1151168563
752430215
708023605
1580675695
976052227
1409604894
1571679280
1829164476
553183576
909459276
51816280
1916666756
68256488
1471205014
730764258
154036475
679452563
1637761752
290091343
1921524329
1243732875
693962760
663667326
1356429367
23835451
920420257
888907927
1077011040
1802289410
1342375856
522306885
2131318104
296322122
1616235460
343483554
564975061
1466871488
1764908266
1811099616
1351701800
1583872850
725533
1602266955
1561187849
1684245538
1027026997
956605512
119396343
273338577
1594350233
525182003
569183176
2088367263
1240648468
1791859187
1544376453
146724182
2009322130
1206520075
1264056025
510165040
1424367730
1859987200
2073775470
351287711
2079740965
1598096946
576026073
1306856017
888034347
1467860870
1088258031
1793250897
375123724
779343258
1769721567
813562614
607339309
1205544399
185779378
1026323653
1223552915
300974972
437827317
861245020
180882358
1428808179
616835892
1372657123
1745610661
483046989
1533762154
910105702
1383961820
558979725
1429732937
683752213
1394030070
1674999478
1550869676
1488871839
1952913182
328692749
1421265944
1585065341
721456724
1694824225
1488979973
627623568
277914561
869163376
2082630988
390612670
1732739584
528702576
821954066
2015930221
6794707
1283746647
677318208
1605056596
1240205089
287016323
526104494
467836160
1951764679
414562472
1779316292
240931858
1389494553
1834406762
816583815
1006421036
1292638621
1635784368
974901155
1417073617
1930872848
48427299
1250540459
1715996140
17042991
274251912
194850838
1212293510
1624814054
1673042987
655293251
2043371319
2125313476
1514415969
864165865
1461591881
200317217
75787172
1319098494
2129733897
466837646
1217379057
1050141516
722562963
1411212725
668047712
944117640
93741291
1118695419
59617412
1851670761
813284455
1092719731
158779606
1495221249
1165750353
757816900
1674759182
892242653
140378227
491962229
1589956569
190625931
1570370697
518473622
1853237072
708093522
1407372876
1931158982
1610055175
1431676666
785713035
777351211
13826590
230298507
1700829348
233649167
795370953
959127498
1855293163
1302220341
273441467
373487093
60553867
1059654502
319005501
1434327850
767614158
1672319116
43199777
1593646063
195034792
1198787219
343843920
1068990501
815056629
1710401369
1122868221
1879115616
1572497496
1694651687
1020326311
543305010
333750236
55790531
1493249900
2028270867
572127906
659708964
1064236491
974585681
1547216231
282069122
1704881749
1981932759
294568246
1222272340
164021606
595254077
726614625
140165330
168733958
432710043
250369877
1864897456
1266607898
483308630
2021676377
174012728
1583601315
1880410514
2106470543
1374809997
737614810
160535925
1216510144
1920835508
994718754
1479792186
1635639461
1771761202
25896606
917809258
17976216
804721420
1004287074
168174508
1975214997
1705507349
2132251786
903953960
352041102
843852576
2079864007
18086332
86467920
1269267132
1816167692
911267572
1694842563
1519223160
932726951
1163956939
1922009579
1057676502
486175040
1672948173
1379744175
31340502
262930777
713893077
2086450609
309467717
2094331146
1941843213
506013781
1168671191
1492399700
1036904639
1751340240
1659453930
579311048
714350180
1431762449
1778658321
2036387207
993075817
1683334170
496500714
4229972
1057720870
550519463
1120871421
2020639440
45623607
123205599
1885545796
1698006933
650990663
2062526877
871891019
118665191
633499455
20382931
1174417546
620134047
1931263886
1679297245
2038073610
1670059287
1162512868
599795713
234542363
1493331528
112031174
1405997604
126762823
500670567
427112954
314289777
825000795
1360930622
218861632
1118978009
1938220286
1628976712
452096716
118037793
858124560
1726813070
1008049970
1239461810
1978074492
108558650
1722835823
828209499
554344723
155975707
134787533
1949164101
908360931
1444647352
341867916
1763938381
241068926
1944970032
312368803
2110342149
815726910
2055861904
1481539136
1946042334
4523281
666543520
1035782987
1589654897
659073173
1260467321
1762227708
1382858040
1202948130
1483729558
1782101148
484660004
763392797
839235156
1096732552
504421935
1796471830
604231375
187266576
26066410
2141114733
303467876
1999067556
639066316
1608179017
139057525
1448022798
1875796678
1991519676
828586220
2137411032
373437213
1955505474
727282656
2047491449
930300595
150565605
1285778944
1480218791
353680118
1807831770
725025177
1634098792
1635171039
1735562630
405856377
824222206
1705123509
1752953216
1228832708
783654513
307154097
1766005453
318966118
1242158182
964529326
1822171817
1708152407
893316369
1050568038
355770653
808251606
1640048253
2135720823
1235461128
1623203576
1518209212
248030915
971991094
2069689473
740647193
444275090
75094300
319122842
1735755536
1843801680
627366142
2094960756
1756620920
278021587
1285509577
909023265
1922227490
1620860371
736890081
1100883633
1374012417
1487939318
1196643266
773160689
715417306
1616290643
1334859646
196003688
1038001761
430066715
254501307
1230394381
1801547555
392282272
2014432406
1339160804
1760425262
1126300757
1755104028
755524617
604256400
2053706840
1276627286
1149337557
39964996
246578889
1274547409
1077468452
947258404
1540743240
1544911962
1727735410
875306620
346120944
89565366
195532924
630004350
898667348
1868590309
2060354977
2111409105
1101580331
1257922058
575004765
1356649255
94637989
1677263866
678218841
1532664676
431203882
1251924199
1190607305
211262712
977466381
830804711
2134542159
1344187019
1413747875
1312633513
605301757
2013463938
1236198267
1073503448
1067674026
251722191
2130416503
952203701
154077132
83739170
847367346
1653022112
1907365083
394769542
1925534397
993147257
1134211273
186103483
1087976120
1729008273
1822285766
1089796492
136477263
1120535257
1177773110
1891368552
350450904
1258258848
335061056
1269424789
387478150
1082323869
1961460081
317518779
122623566
1170129543
783708585
828083315
1866542050
177487513
143544907
873609217
672925341
2035271092
1557495264
211427118
343762627
945927164
526570165
1515764734
877586711
967646363
1341899933
271177226
751369182
2036156659
786987067
639944498
2131123591
2069037551
194569178
648939307
733029290
123379628
729021160
1226178693
1785874426
427549136
285859713
1931881519
1743568724
1960087517
1510087937
1713206795
757929953
1150214448
2084497972
180152688
1737924531
933539238
1624142562
1126540518
1081545174
155215365
895691737
1617499829
1334431181
1890374444
1261185767
1422688546
1943246211
14983080
2080803586
2061551272
39834395
284337926
1428215165
1286569546
1116235656
1534332552
810120303
761155412
462487772
481109330
1933651234
1925813887
662632501
331484205
1586143902
733434284
322353253
1824794324
726654713
845370304
1275571202
1046827825
840361568
1917174255
1995420545
1866590699
1914589592
1662310067
234824616
64128816
324726544
438497078
1147554788
121018866
1664052771
1985601247
2044036154
1982381323
1444352344
1379175452
301515636
1284364094
1184655268
1379390388
1962393130
321913615
2081755257
1435219432
1375964164
206978930
2042332089
1098238660
1964693192
1661593576
819979734
1469447568
491622376
167441708
1862852955
31887786
1089023816
1142162524
1123911914
2124443331
286685507
569321563
433144352
423933103
1452395799
343703876
2133505864
623679574
1833368176
239836582
975098361
958433090
884580647
168337846
1914223794
983012450
1061361122
769537937
493350483
442510316
1649332589
680347822
892156653
999493640
98461266
1311472907
142602021
1490132114
834535297
1738113908
180613603
1525699474
1525835390
417473094
524938906
2001646043
1544130856
936578958
779257761
322783861
1326889201
1698730238
1051562205
1425222559
809695296
948233264
1573802154
2041809675
1140551964
1307340696
1565379525
2078587253
870709990
232765793
1043601123
1257856837
837114333
196880797
662810696
1378681139
815135560
1751945365
1678893828
1244973988
1691106886
905082929
722415795
1428531261
1270693835
1848720338
1613939585
720410732
1570451969
678160670
120056160
670456604
1687042730
1443292918
1468831040
1582520363
605214867
1883137877
891808134
1571083593
350671479
631414365
1242548972
1009283454
1976413510
1061864229
513178110
121039287
1368762859
584046535
1291400568
540747093
1592151043
121649656
1424549213
778471963
1182885866
677182042
489016327
881039437
1757395157
2089942534
1602699575
90689381
724696903
792323541
233337800
1084611055
728737641
1641987862
882062487
876675533
1815869220
2085124980
2028062742
2000874667
776651777
474624443
284213480
1278517354
638431892
56567154
1935270473
1503383187
605223651
826840994
68225506
163408270
228505815
805134104
765207083
1778810996
793231483
1851541505
603921640
765223673
58785148
1681014034
13956447
95751735
2065193222
457520876
2116991476
1433985272
768878594
506787069
1341235049
1582208801
360194384
925007192
2039290534
1553108769
362470421
1429169473
131765
735729042
383047189
1627775419
2119416653
1829075150
1676804500
1035640399
1822189358
1333569208
1139727370
746151774
1478304223
169873338
2074741844
1183672522
1556300533
1065751381
1985185865
1115074289
1723573951
2085303512
1271022669
1037881042
483197530
894719734
939091991
1330695723
1381121076
654590078
1464208861
804168656
30265311
897935437
511608939
1578076139
388970181
1902709224
252457253
794692613
990075913
721191268
310951586
1639775223
1575556427
165015501
970465996
1469187335
1975690680
1832462161
1338503321
1294280574
876431393
1830150073
1197296402
2045111678
2020065687
713044497
169499492
965176466
1529936550
967073282
178540281
100928755
2026349239
1314313481
1146281249
1018829444
2129910144
2004979482
2018662142
1576148099
312730113
483370679
86064012
792720873
1292164106
488127874
626153501
1716506118
1654687458
1529456756
916221094
1120911431
2098793335
968221587
1650482067
1128748229
1782304404
2118209277
485416582
1775091776
21252919
1309979212
1895220814
1387261171
21492861
2001963502
1889845139
808929735
837034127
2071435860
1847435726
333603793
963050064
1469238417
1226589642
1182811520
1775008621
1373131455
798745466
1304403945
940076952
588125336
597161996
518175189
657882518
631726723
1879749822
1667836127
728316505
1265234765
1936913587
497045961
1710310100
1973299034
1179302741
1747693491
521494092
1793824018
1207384724
2092295586
122988805
153279915
81486107
589010405
342607307
2018887939
878047365
595657442
1014372507
264153595
1033116623
1390638789
1671694572
1276643848
1178709379
1389851670
119491519
707108590
1178580422
574926391
165033449
1867482516
2007679179
638634228
101127842
1699792657
983143678
1573511574
679778646
1293558886
673020270
159505996
1623994380
1344940931
405603250
455837494
455574992
2126221957
1245867726
1726637585
1211234433
1951063285
815167623
585526947
658185193
185878241
302041205
1750363952
522142445
441121479
1319558597
209995917
1800344191
300583874
264406503
1374023193
14621685
1646509010
183032445
504770189
1368948386
2072348268
1163577135
321143779
2032374469
1478718937
1812469988
526461876
1787140932
1696218910
1628312542
1344915261
1649049735
1324590567
261787778
1899807683
869503429
579512701
1799136216
1129139030
2120503396
1731262494
936102920
1503886347
1889943874
1308011531
1395566449
2008787237
2138884031
1293242258
980038338
351625938
1461847926
2107582716
1736609530
2105755270
1403375176
1421070045
1842761697
1559009136
2013759379
1486554278
1723683458
1469161049
692336016
1028054790
1347689224
902025805
1691448251
1658728328
1954331352
69388429
1075740974
68172064
1178484608
1913580825
953439060
2031266962
1607182441
539165284
1001238341
1330310305
1805346094
2110089867
1239436447
348363302
1192778751
1174550085
1261436881
430925921
362117053
553582210
1692724151
291125662
1179434579
1752794046
469613788
1728676480
1079176975
182588991
454486709
1248655228
2072553604
163759860
715129487
1784709100
1169299265
356802429
1142421970
199258981
1325280198
1338122740
657033105
640752877
1499879591
1367167410
2040563631
1817872419
175102269
362906493
1095853141
792302832
1727496031
250262877
1898678475
1250382787
1825638955
996028242
1355799419
1515694685
237175776
732375983
941899725
1169178401
109586495
331892441
1853694362
1039707813
438260414
536000415
1997931995
707069578
1255339238
1903448007
850535900
261851868
1883313292
1422738564
6164857
1777779023
1657590253
1931394527
1835751710
98879079
310539835
1984114602
249511907
1518659991
1855392076
1342273912
1286436449
130322623
1919709319
300666609
959962214
257713435
19076290
77293584
95177563
288278429
1893863608
1914304858
1039755355
1256754301
1126098635
1617556545
892567318
1441071137
122535878
1178505018
1835164439
494285669
1233334612
353670661
1272011535
1255313179
917539629
1224540656
354030125
1795731685
1279504047
126507561
2051248900
1585090483
2031316016
879877150
1919830376
813754140
161573250
1133603574
849743085
1224207471
299536499
1965771031
1335046845
9849574
1117717655
306747205
1927522419
2081384259
964338091
743677389
275060159
1361177797
1561788985
1411046330
753469329
1540595942
1091571041
831381526
321659133
1362853905
1475612047
1587866030
1092179555
140190057
1784172003
1694781197
1776431137
547906372
1577795996
1057795995
528814978
554196930
1351430407
1109977765
276469233
1629268029
1679323473
1632297256
1147328271
165923363
1587683607
1135082588
1688986290
969808778
1583116267
1021738822
1682578307
1535626812
1868786723
1225563739
1136373019
98127129
979196174
1201823698
1018168754
1176428561
1408732401
1318536242
1389123984
100177948
1766381547
245151220
489040962
1341358955
490893742
1741046401
372040486
235743841
1735946300
1986042322
1574658055
2014466863
615171402
219174685
472556258
1190792635
1301792170
1114214570
400454750
1702758628
1891710612
1834037458
535107519
1028730379
401400884
614012170
329450996
1802864032
843694143
325580703
681815770
357720905
1883408294
891166323
38290468
1263262117
908521865
1351079050
1244498848
1555855297
1727292520
1397664157
908179624
1012026369
1218917768
2075818518
1252216724
317731182
664628853
267599924
788664016
1649697567
649337737
924101474
307945996
535124316
1441276472
1636073806
1858591794
2066082947
962830085
186434863
1782397186
309445436
1593887780
47884526
715942045
734200996
2020306834
1222853875
757473355
509761094
740938004
2093946977
232027616
1971461979
1878407337
1129140579
818282931
1927681293
1123153254
2068831695
1638074448
2077757269
106621553
269566609
1250274627
566961324
2139924027
778386653
273558958
1663962799
1043726441
551889250
1961632111
1879954892
902578285
396965314
372622951
826918519
1365560057
627005411
973492820
137997356
624843062
1152454284
377244919
935810775
560117264
1174989174
659616390
656172649
1290405270
384358858
1734450639
824532774
428380707
1763854937
799292043
2068514410
1261445950
1499529087
182435714
1491273221
1068358540
1369030675
2141303063
267966816
374185836
84788458
671722216
1731199248
1336672998
146010495
1763963636
1000374136
2046803946
871945239
967578355
2024709333
1581495487
585526797
707820334
721351596
1724541509
1675936818
1185950866
180864300
535044635
275003045
1944808143
1088459953
1063283846
1222812124
415266497
1427180820
265570201
1239172484
906842354
591408143
1890436237
274298519
95388448
1749333719
1413363298
1240077746
1398469434
1849161260
1090775147
352309521
2145507
457947994
1536973766
1673014092
60757167
625257278
1659375239
608652555
1140011418
1859769145
1342753037
659856362
1202077503
458917294
2013492489
364518284
317610192
807108043
485391262
607622627
1941736050
709643201
1354082986
348818129
372300865
1123420576
1671210188
2054940877
1965909054
839145154
1422448112
496274856
417423373
475634828
1530655336
1263111611
390420573
2014288582
566754664
1292977312
1889618443
354761578
950392441
955395614
743823638
536522585
192368677
1161594173
138513006
1578947118
1520291464
1195355427
523961963
352376575
1257139468
95183270
557409139
2104572873
384609523
208973599
300119814
1569523474
1221897048
958050843
6238572
1582975649
618520533
1132404977
1297743635
1896673476
255812129
408984321
1516450569
457363476
1100921134
1876738373
1741781328
1217791975
263336147
593761914
1955352770
1258726515
1258272728
1672587161
624070235
48008028
163661546
276265874
238478777
969060201
756534839
412142684
917208287
335318370
2127932404
1923810904
1200981584
364310485
524921538
1802932579
499245625
429194075
1066633164
932208713
1513343434
951747367
1294663848
1819625898
392593694
196388210
1063414321
1022371797
398135635
1455533772
667799171
311673091
327879421
588859232
2056753956
1592883268
1132023807
2046158521
1005299606
1146995920
1572464375
1832947670
1539455683
2134078115
2066338699
1423955448
158530258
1168550686
993000126
650848377
748280177
626574480
58723139
321087217
2029411243
989715271
1660449163
347192892
1057910641
2038771977
1827950784
1900923730
729663897
324359662
1418364296
885786906
452644105
2035095608
626175993
70615925
20576286
1213873333
828982859
1042928725
486071089
1737948954
713797248
946628385
1402574557
100620842
1581605301
163448383
316138049
401545244
860296394
843296102
2134940045
1773775468
1344334821
467380230
37016450
1439484594
1102623885
1457648667
2053210205
703521362
167061325
654634654
1706332066
1212824391
892809820
1726695441
1408802565
370538512
1868188642
9191721
1298149371
1389220815
253021311
859516393
409560590
633580
816926820
528958155
1856195988
321243872
1060774741
338733273
939370850
1057819443
894415179
1586747750
1349274068
1033219222
1828913582
1812742972
734456274
486670925
137181509
1492071907
1609471534
928375249
1356670027
484447917
895589266
508680982
1804847418
1532943466
1518795878
1879390436
1395196419
2056377352
907702163
889702688
1481711586
23833715
423749180
445410595
1155306514
1634650903
972397135
261976444
1290445480
930015273
1787012412
99856121
644357470
970060494
1930960137
1408856579
1901274244
2045853015
1179827128
1990863837
291304197
1364980060
34802848
924838337
866299663
1255918685
1237590958
12555916
2035696837
305996746
126933614
34931021
575686983
1962619172
101291850
59748079
413393926
1091675788
467966836
879849902
1752023381
1448381117
1336006939
123718097
2100759674
164584760
1761300829
355011989
1885696629
164397769
1512766273
1567512956
1246833595
1145436678
1127166356
570640483
1371147920
1755338471
223783118
49575126
1668589990
2024867635
1031597530
1850064708
1313367505
2083577609
528510001
1738104898
1427615873
1289481519
1436220390
554745796
1133194787
413112003
577108049
1473779045
1872294991
576191534
1953684910
1676529929
341887962
2025694377
1317105709
1809238703
687242073
1313108798
528247132
839924483
802363649
1405936218
2038804222
2066774982
2043045356
1932036202
1467683041
415731535
2036412032
93512829
1149013957
909144468
166835855
627011925
1092430534
430190590
2001414791
20841191
772224544
620743133
565254687
580282919
1409104208
2127419541
1264581113
1738301678
1430279546
1833238488
1934339839
81575602
1820668713
302785992
449650620
958723228
1505786191
1588949934
1914162789
2043007402
1026804443
1191255418
695237752
1012043577
1698975075
1729688244
188601169
639444174
1002682165
152417886
220993436
1355867393
192210345
775896869
884794043
2125226279
1186265944
2107138167
2109466129
133928415
1280443963
979867897
1731310595
2123587286
1605905921
713919687
1703777117
2066691075
633236183
496649361
920606863
1135750399
2004599473
313669108
2014988480
2020363649
1085149189
1282675676
1618609095
967121389
1734037616
1999660776
843216441
1036809026
1719040536
1591995823
1043583877
466795347
1433459380
260424843
1227594003
474562849
180419966
458905138
965449595
923530630
1602754863
672928824
740295999
2052417165
1453262550
1290466958
1851627853
1933444195
158580586
940819657
1576053979
1321708932
1094738651
81798438
1404462423
1303806671
189056349
515929616
173598627
1285030816
1657505404
138440017
1592234382
209285817
1004777169
1498906906
1541684260
401506683
1305990812
1237718955
895387202
321471799
1955320762
558923798
920004237
2097443432
1544155200
1892200952
566052319
1644225104
1772660859
66573873
496230742
1096244616
2052190442
228103878
548746439
1734324627
362087762
598947753
588262685
1202588820
558611905
1003255369
2049171949
1818730909
1908174491
1937257052
1874401389
1601148087
1178684524
318823817
2062667202
86847375
1520327888
1559540870
2103953524
936140224
827255398
1720303249
70464323
217673869
456361169
1642698299
1322401709
255404906
1160349085
1955985651
1141559184
1461590101
1010114354
1765220358
117385116
1471947768
1694954381
1162141906
214870446
1557889498
1405497654
136025146
1698404135
680253642
1160264291
439207875
1592711907
1356379944
838783848
941864390
1242749894
1971343025
310761589
1859749064
1511937732
548239720
1725528932
172839147
164118803
618005877
2115898283
716045179
1782428300
217991474
1040335465
131842872
1892866125
1002635253
1483020953
1154196695
612888115
548040141
1829252529
291406584
2128298365
2052967465
156736376
979179210
1770076930
1871445462
1349547771
745121732
2092659220
1599507274
1370406192
1473809581
2606440
625600285
875287473
1350595256
838893177
738326960
1639353981
1974693577
2129034013
213644886
1139654130
1672598871
510550142
557217454
1917208054
1762122359
1992938588
1482743695
1608891242
929495728
1007009836
1299909832
744131282
145500781
1970707251
342246877
844801628
1977863931
1846262859
1695054284
1272036378
1195146817
308458569
1254278012
44561579
284788597
1637069039
1008481868
164247815
43401941
1540351522
31584718
1646067911
1651190397
1141571819
471694943
2065869044
1229306379
403218771
1583509813
1866355029
1317279597
1413930189
1276401881
798770045
1986364142
1868482662
1348858202
199811224
1499500350
1922304887
1156751387
2115966982
611328464
862746813
1425225949
47670610
1063795523
1950921151
707725654
178280086
394495963
404148435
1944726952
956930678
1098561209
525867774
1060252923
841651872
1603705718
1389541920
1124719826
663586445
1968051564
1382580265
840273527
696787081
320913534
883666940
1451786841
2049623302
176123044
2112540852
875865238
990852174
582180698
1938589594
666734939
1332727008
349526634
850688532
2031083773
806375965
1711631827
2001352803
442350677
916535683
204770933
714813351
1409398969
308707921
586217245
519087180
1758002312
671814221
1388728528
1335014296
1296411582
313105778
1860346646
315711193
1609210604
1412698841
835783549
1707908446
651250990
2139264019
1799044856
1473541644
1932211958
1181938355
1573048599
492446407
1769950041
1520547576
2099463427
2022390259
1358221203
2003152298
837674338
1875894349
856455072
936836826
1095787719
948241541
1078512289
197839790
1953973677
1315676189
493276834
852251877
473762511
1717961258
803732839
473737460
318189526
1161568820
936280079
1742854692
1733421273
20969805
2139927549
38714750
1749789483
1472914778
709424789
2091659234
1535212956
95228512
733395368
1200416147
1008537609
2076700128
1004920836
1687469930
2044042469
1462542377
612983077
1927064022
1284804625
909610713
341194165
773587520
1383004166
1514268459
943426507
281052821
1388625371
2141335734
827671408
1161677327
712418583
1943332488
429503073
1929196679
306451686
868620950
677621961
930580584
562145123
1112874813
723119351
1143009443
611943014
1900755336
1834256362
636524364
384202595
85875748
1459747370
728548259
1343941693
1845029077
1982611121
843350186
797215392
1184856822
1562331225
1570753242
1566423402
1676523993
886160738
1383024309
2088623097
2109944516
512818286
388267796
2002344544
1549351888
2131847198
408660851
1667396313
2065358113
270793515
471858686
1260114062
1010287730
494019979
429095282
139324571
374029797
465629150
2061717667
888157756
395327336
1499228108
1133628216
444007141
809192092
1500271816
1832826071
1817659143
1874054842
51590164
154620721
61936969
1048900405
676887599
1429660712
1060235249
553640478
134163089
1977656362
459255802
883419561
1351194302
1906072686
211660437
1688317840
1372294856
1386117420
492573789
1065249352
1972091964
117745596
1342401040
1792811952
1188384563
705690848
1162658030
1735656229
1119548357
1504027568
752331420
844079225
1684802931
392106678
250542492
1308515542
1503476696
1955777254
193808720
1623443044
191178367
1826528684
1003638514
1524105649
718180753
1524398961
2017063074
32717875
931183081
1590348098
1594238703
1300047498
33487213
1594965995
325886997
819558021
2048963342
2125156614
1329153240
1198158330
763529017
2107709113
95832128
1342341152
819056637
1943521382
2144030902
60671213
1240687962
916634215
107227884
358400575
270969284
2107499326
1632657319
265880177
1516625382
58386959
636259056
1309461368
996457748
1804189014
168197252
2082920371
1974362573
619032699
747446336
1589844294
1099133293
1481646756
113061559
354518000
1899598081
635546790
2107352100
622059279
2013077837
333109099
1420755629
1568383120
301351673
268261854
268982495
2119224897
1274159798
1224138684
617419402
457894174
1808895432
1837520727
747803017
1483005528
1109249631
186959892
687639853
1838482176
944033595
1444589724
1110391539
1362236697
2115864692
420146375
1271283328
2124301895
209040256
1646011638
1092706959
150031956
1233766376
1074381484
1391990768
125469889
2003320528
25522247
222609204
1813251051
862003022
1836195441
230209446
2036322935
818074514
1386320491
940193939
1495799302
4539390
433945821
1317859613
1094405506
547634158
891623205
1386639339
658346732
1141511715
1529367232
298800336
973596198
688632032
1982422709
1223837527
827227876
488024560
160312736
1360640096
40314590
961733347
294249724
1434282476
724081756
706235861
73943676
606125794
167509023
1413087527
623086185
1062392871
609825732
1921487835
1124961935
1870749746
1258781805
1359331858
1383455640
837770114
1033559069
444553453
2119497659
33583450
1153937571
1076849500
1797675227
535443148
893731300
1516621150
1597627193
549203018
1796758470
2082920835
1692778222
1087341938
255783026
1390902365
1059204851
584038567
1607844555
245794992
825708166
1521277062
1022433434
1975800923
642175136
1558753985
1786868913
857316274
899290329
667924977
1237146006
1542368938
1421725308
1028568134
1118376694
1586750641
1083454136
1228289249
813009075
24926295
1118219900
417127371
1636767945
1440476342
2015372624
1446075824
508918162
2146015459
603502272
1231901964
798335961
2047278170
1576799719
968481153
134137246
2133736262
477312522
1580654866
32193463
338109157
643496450
771123005
351704222
908367275
1882180193
1050435059
2096732684
143343414
1031285541
1182033390
103113764
1925353727
492219071
1072582362
269906675
2047936176
2022465341
429022932
1540935865
1118089649
1802825100
1319003121
1593195595
101256781
245700498
966560641
533158867
1953177397
485806531
1801782011
224458308
1630327296
366862950
1310416717
1469462017
1248373714
255329943
1557712476
27849519
1042726136
1635492255
1037307396
1147209105
1461968270
903082740
368586113
1382260550
103559525
1030345650
2046498069
868462321
472511698
2104491535
1915016659
870598982
204050578
597285550
454607545
1189485698
598996434
1120261972
118575277
1509485004
50348768
667174136
538951304
873072448
1839050616
709082662
1830847856
1651043172
525779018
1980503341
1077252408
656064015
674153455
1154533975
2125938771
2092299045
1836750610
1627654661
1605184587
96398736
1295364198
238236529
788511359
597600267
64255327
462808647
1488155365
2070702319
1542772115
1905826144
949953089
1558412103
1517170686
1531689182
1747829014
1375596952
140607157
549473336
81601446
332230632
806013713
1065034950
793408402
994770573
1479862909
709333988
1270705910
1123476372
89162180
2043849039
1514369276
1346471326
1179603621
1536686331
227230257
1104565688
1451544237
1422453126
483569802
704758240
619508807
452430672
643231760
713764811
1549431571
1416492326
1423491794
427556265
388831096
104541145
1541761251
1819053529
1011974044
1310625701
1135958375
571496563
443225856
1117442842
1720828358
1071252879
824794060
1939437719
1859243785
2075168776
938043810
170383768
362855704
1338928954
1407504081
1844884440
1474146206
17025244
391030887
593838144
1334202900
229944472
1306527357
1157681452
1564295195
235689203
1249155072
260175943
1318925668
1140748836
1551409093
1869624549
858392240
1942977688
1258893328
1538599552
449863926
469569122
784838455
143154950
101012112
1165968981
1115792224
574390382
1622580010
1803301309
1173211079
1201091551
1985791011
1671839396
1423927278
1736207173
1721761873
1050588833
544277542
1976976380
1059116274
1238712416
1187462814
532835463
1411405
847079972
422383132
1059984293
1988976536
1129528399
2003450756
1244224982
4887676
1426576143
39134711
1515938752
2051287005
1263468867
1187040804
757053646
1275096272
1588001384
621292500
620132615
924410491
2098398348
546818270
1628430218
1264308992
975319879
1844881031
1876714601
487734687
414918976
82798852
1974100928
472679589
1866851063
798674002
1484409613
806709291
1089243306
103571338
508710860
86426723
617367765
42109504
729460211
1171102376
906967635
1436211223
1915448772
1250877937
235423335
1814793414
1834267235
557719148
1938430905
381911394
1816825884
618054221
953296755
351356794
1161652738
1015633406
864065687
1376949717
2022168872
967665590
1345743252
1972174008
653990440
828982438
2106749658
2136007258
2037580705
402684176
140936385
78104141
941262008
1356470161
85822035
1081003823
1407822447
1466944199
141275883
218012967
218509114
443985005
998352171
86075338
751800351
464709235
1176221759
1956143403
2055187378
1678187093
451295115
1875993282
627632074
1550881371
1758440236
1569579385
1476059190
566311228
1308765126
1952197067
47619247
1913150070
1734130668
686023751
794513168
1606101640
2036705912
1227284888
1295292867
130946912
902757644
66531048
1989369418
487579800
180740623
1661170201
316281514
876050212
2003184386
1224379870
262512781
1496688335
315281193
1416072750
473680605
393970928
1230271729
453434537
1804082264
1141287389
1306461390
141933653
2096127409
19148980
1522484122
1178406425
1281987644
553353092
545354751
1918393717
240551733
1024579583
646054366
209335302
1138282254
236433092
1805202294
1768863312
6122249
1215352060
1127408842
656246637
692969435
2131244897
1028344028
181139001
1290722629
1327554405
1575597032
1717596237
1704291701
1559501473
47345439
411582408
2054924808
1913578518
340299944
1992330763
262011683
1535042294
2144919502
1868804344
975822217
1996504177
38190677
1962655433
1999057007
863841096
1876171453
1262185138
237308971
575692757
2017290930
421406781
1507008628
333129850
1440918854
852531407
1150327417
455107085
1840674112
1629634269
521769678
959787011
531364706
56720013
865862863
1517845606
1702705270
1134743076
396184415
1017266348
1606551372
882141739
1127819312
1172018495
393301969
320799096
1550012852
1244695114
67451052
221570360
1895074131
902612939
1419469236
1515219535
174864835
261354994
210380259
558011438
443522346
1220996350
973334065
437455358
925854646
1401335260
1736530781
298996363
2063405320
52830779
1724641260
1902074033
444099473
1180411132
916529998
658585410
1759449605
1552110151
168293205
1473662399
170271176
1011032011
1653689997
2117704741
2124912023
2063711550
1021087499
861890469
72098504
566311950
14220246
537536125
2100994272
2098102308
1029526471
827896841
607516444
450263054
818831288
2127482382
1391628779
1376918836
1051561076
1809373086
2127323936
1566194639
872975710
1844176462
1415997020
1116996525
585303554
58922556
48017435
1996972038
651378088
1331373489
1397883873
1750079498
321574867
1986878113
432140973
1337636574
1562679320
1313516992
1612742838
1992178657
179317521
479739716
1693471723
1482920751
143980966
529404681
580414143
1418450372
147129064
1383666986
350378299
1998999938
1809366528
1616995682
1445597229
646404511
1053623610
2048257206
1978149781
1630592789
3933948
1274951627
375375801
209571959
778715455
456367451
1868095617
851526256
295732155
545433673
1206925179
1888116776
1282144566
185978256
1369817513
903750434
1971141246
732587972
183672404
1767363603
1560242305
609286991
1875874979
1749111330
559959776
400147157
1119165141
1339302991
1570934188
925795188
549315403
1895059732
91409262
838510763
1605694460
1221983901
1901654120
2065869229
1693991795
1444862721
796813315
11252753
943251590
590630186
1671588700
1775542609
222404422
1669819447
1526027033
625029742
1544376307
181387291
1991504534
205034600
1586855113
1380305362
846985481
521677973
1877127472
823022546
1366449324
1648077929
1342654109
1646758461
661965947
700149391
1020115897
726194797
28256883
763501023
520327839
893820124
1678642714
240815935
1080669926
1739227943
656887433
129440853
376663013
1582420560
2085721300
1628633314
706527914
956457470
2076440027
1290734179
88185025
839345284
582391142
1116401883
1375608426
436664354
228413288
43735573
12706908
207715904
1152740108
1583259480
1440641585
1753988189
524244074
59811875
796550460
1509213116
333274911
2128549873
686953959
2032706057
1118867479
1503576317
2026817159
1442896303
535588993
782459236
43866558
64201167
1673193386
1295689602
369987497
229830282
1181293863
7044497
954387917
166478226
368468755
1404739144
559901660
1494892991
1547577437
903180601
854821506
1983454276
454423421
614739621
1595437620
441363453
366502911
493112404
1080129646
1465346534
905329900
1586245955
501968540
860431985
1380349876
542716472
1098094612
891062230
2129550679
1141429718
712976571
1122915357
232434036
417227023
756828760
560562235
232961135
959818544
1927654404
1506478278
1624155522
688142913
554801087
1156616823
1855564996
1246340934
376803532
1996673452
241780222
1796229780
1216838063
1215085352
1943175769
599732080
1048920828
1039170727
1227250443
1939755337
101458196
449526830
496896907
76423020
1015564988
1962451201
1885369213
1041451382
1829125926
885466117
1736016157
1391973130
168727643
2114856786
737977241
1004695771
928337193
443995889
1923827057
476392567
1730525216
426299628
1788366398
1596215438
60019966
2068551103
560049477
1758895459
1939620587
1659748450
1723395085
419415258
1216067512
1896023769
1460914116
1785081473
1067908376
449446330
2004735011
1684341982
166492023
2114633027
849618371
828082114
1885877143
1774129555
290718628
362457838
2081652176
198558149
918921826
760346653
886636352
1906402798
2066474451
1193065650
1630954767
1235491265
1965173525
1676705133
1737788776
445183490
1555110841
1548595957
245317381
1815891977
1891862272
1706282330
1510303470
758366755
1778664693
846823740
623566395
1863777320
205397956
692738998
1702148390
1796889483
292996874
950705793
704191687
394021717
2015217952
369255494
2122030464
1958112460
801674720
1188105464
1270818138
437487457
907315377
633991646
659972537
1853571462
1869085462
750477744
1094433354
1667538886
1701535346
658564521
1033490227
1962954347
389242534
291622084
1296924340
600551607
758451284
1214054593
1070232559
282966428
758976223
1526931957
355155245
1600031631
952295051
840952698
1196812735
2059067829
1913718675
2022956958
356397259
1648639713
1524331352
501169225
325983944
537847541
1492958075
83834666
555633834
436117099
204702517
1822327251
558275886
2031301321
1104730786
1555699164
2066777108
1948633860
430483564
1761298771
1848890144
1617428374
1490361336
1579690840
812061233
51755678
1992173504
2083202906
539777867
1022025868
549848094
760410760
77841075
1225637924
1222359090
1049345870
1898726406
1849641629
1282715049
1936898495
1547450631
708973557
1607354934
1816448009
1509578768
210312001
728797645
852077139
790640935
643783484
1879757090
1719412553
416245257
735650234
249778081
1733349514
841084657
436220042
53676564
161206860
1348438321
1942726061
719746139
1287070735
48248331
1754573634
861684790
1093270731
465924184
2077814885
417022751
1110609789
1121116895
255584374
1704470745
1639124572
332375741
2094519296
1061453194
1688402015
771295619
1091539343
1480557491
1900391667
1647303606
137507892
60959519
394741731
1504265831
1298228608
2038368846
654362205
520891037
357272892
1255104912
1430549040
1745094166
812302513
447095949
171153170
1433559780
1436122245
1818365130
1061060157
478661862
1324229653
884454447
965718723
724390004
1609451844
1569502892
105090598
1581744099
2102050279
314367272
49089606
1216086777
1668639501
2013417306
1674110886
1413655520
310505932
1448726005
337640871
1009456754
853676821
1633416434
2088368941
1751109074
1739513928
1797555816
761352198
948959955
407876418
931183593
614034508
495491764
1148186342
490578221
1573405572
635845704
39094043
1183807114
515119564
1164462028
1489129641
665524942
1918277507
646892375
986061466
751467920
220603838
1112265360
80711034
787814871
1612092002
1236354071
2008011662
1896183691
1861352715
564414539
1328351800
1015330546
298519054
1220491083
922450069
806691214
543776728
2074808046
168661290
1866777900
565275337
1280930200
1967896922
633411105
2015914346
615001073
1206180309
906271126
668319908
1427588030
1888007894
1974965959
954374233
1549438300
1610420337
136106752
1702411990
78629511
1184795355
956519060
813815266
1208111351
1669226142
819340087
906479386
604321636
1626198176
1954754247
2098691809
596446469
57176841
1645352254
1311175348
1653741370
1022241941
1021578969
270494514
912529318
134089082
1656084112
1900878353
1807260487
1115870154
1822202968
680850837
945606502
438465286
1297547034
1718738110
242475274
2021725431
1886064392
475661290
1934287521
1059659150
1940543554
340633892
1407924783
132702108
1322579166
1768951746
229939181
127343720
456435281
1303102763
23557185
508513438
791214455
662908174
187242046
290893766
1740467970
1984845211
573186361
1610294707
1149415216
306647923
783854619
501009754
1745076916
1222927975
1436999348
976449022
558913074
86386015
202315922
482387797
1496646524
647099050
1050582780
104851869
400204972
1623357542
867160813
725955993
1436921300
2022304920
261943348
228304304
1817087822
1925766520
114578023
693419274
1129062450
1278887299
1364673686
534347959
1019809894
412477516
1600935476
611211106
1987928878
1921644010
527317650
180007430
602206444
1965881372
1488989672
2030402540
493613522
178849179
940631220
1693930137
977964928
855719653
624230698
718505653
686325944
15897318
1526862253
1010361309
1002547529
1779485228
2108888983
345719068
115656424
710990816
343905403
1455872221
876945745
1657899573
1462640919
803105150
590890417
1158890901
814451636
1499798884
966314171
242244207
718241207
1426406267
1126633543
1181115363
857188999
1105501943
1440818867
753011086
1027769757
1954019265
1881838611
2132673104
1368555613
1189466989
1740456166
960913802
1906495710
1764387877
1182556273
1042361084
173457428
1296908886
1549951691
1427975946
1418493893
622427015
467857225
977809239
377260363
1139412031
1211754054
181226053
734954279
406496812
322989103
733786122
311209888
1439593089
42007317
1610456683
2000610138
1381863710
1365474588
493593839
1519780565
64643159
141192943
1346384284
1865484604
8359546
664406508
520709288
908367462
1442312484
205682269
1754213724
755893643
101787125
679871761
539471224
278596231
1955199580
890532636
1545332230
1250875720
313367554
1001665158
1558031373
443405118
445419947
861060526
183493507
1679343023
885291671
1685385469
1686242554
1338015902
1894225582
1862298791
316663941
180055015
162863124
276234395
1660345162
15009474
57883052
870128776
592509676
1381066077
1272717477
1654934591
1963448789
423429761
539919363
1611839515
1817144223
1212300105
521346370
247509125
1884961261
16585783
287826067
971325412
561504041
1063704506
471989374
2051720346
661572674
374472854
1100456662
820286294
691164282
2106573840
1000511773
1998496067
1379270879
1516773462
2125238223
1864382215
817835533
1999467102
1624654763
207268312
1672867534
248812653
613049755
1054678633
2106997095
1704625262
1693272594
1644581703
893541336
534811105
670720787
1766683332
1956099922
612897916
591429331
66776443
264684866
1479977457
223203507
1388993446
1871668064
1661730012
654098842
1351510382
1000499130
2054296047
2096269271
957335210
428440780
1422991242
985696102
125838063
1603683912
2098195244
1178172096
402272073
712625492
803843998
984310396
229091335
390411241
1161988937
1087323513
1497786268
2058662450
1673754429
694127055
434471002
1237703178
1562821611
493259889
332619573
112862135
364781878
678781406
534115832
1757856178
1104882430
1444206005
1055255682
466795811
266567781
350290884
1824906477
1623481006
100229655
249610261
1575916450
100582775
1849808873
667534994
191454142
584123460
619798409
1459794882
1230065430
934753727
2003313360
475252118
584364641
1349457032
