8600 1205211849
221716898
1014548104
384999206
854195089
1803002891
1957630884
1138319998
920079527
1264304161
2086693544
505574342
98607712
2043194438
991274369
742980170
1909773083
656820505
173452771
1908529793
51895328
190273977
1085017919
1515664004
738417026
350782576
2045284660
408886908
688358270
2022119975
716429760
1794032710
1645589525
653305703
1936660371
1682614555
1241347816
1689013361
816624677
804604941
1149574740
2013191372
1972637232
48040834
203874753
514508942
1856650128
1330270539
1685816445
1043123193
563663923
156173830
511410920
105277346
413909866
1066946200
266324567
113713567
1189028612
128159647
520811933
111512597
1400249657
997702093
1761875060
999888749
36951659
1243864725
1328281883
1451600138
393175133
1667501054
1719013101
841612441
1700508595
300773505
1376630947
1319226166
570208938
1728235732
124860023
627883251
996291267
756159016
1378554894
1187717148
434245600
775718871
695410536
442591683
506086846
1992943350
169862849
171146857
723784245
447216404
192003800
1344848234
834740263
1748464074
1298157821
325709349
2129377622
432470002
724808059
2081011555
2045968515
37592256
1297219073
1619603542
334246856
1620410151
1229620286
837352465
1587672833
2028454147
2001170062
1343768297
466265563
1223345224
3079214
2041742667
324972012
686010013
1742552642
387775811
570945998
1764505089
2063556255
842339799
918761978
2139993315
272199098
14708681
1626112069
517113449
2019539227
32490880
504347054
504277657
1236052311
1223005162
1224083508
1681961577
1711024349
911313342
1636396483
537654478
875925866
2140258381
1598510654
1785530927
19735415
300596258
1578840373
241799370
1550189292
168244436
932844857
249313548
155041473
705733786
12085514
647895573
1160404651
1840357904
1848809055
1718504805
802420956
343080770
1342293075
1058591663
301125952
939831895
643143928
897433774
335216465
1159955877
1219232855
825864102
767466516
1928106141
834671138
1305509794
877623423
495941285
1093190759
1364940654
1804164097
913338648
631305609
1792733758
1691208373
1290477042
688996949
493826855
1016746683
134682929
1100283069
1154810617
1958896621
1116691577
416490859
1789620861
959819075
1478322072
757362487
857810985
1364984586
315174992
1176455073
2060129230
1479527780
240049048
809691882
1451584233
291503759
1318796477
295337191
23063802
1373802699
886054457
726739941
1672900477
1988136220
1861308909
38820611
1102492321
1258592549
1938524481
857789507
1186233683
282398100
331740530
594018913
231538952
65180798
728739766
1434072085
2004518633
1358188289
2008672687
1486546229
249127727
1752859824
577758624
715395488
2021601790
1966135427
412989066
1575849902
1608866621
2113472522
1354156148
2020438425
394780471
1584869715
896348326
1193963632
586771099
1243128041
2139801198
1262050899
692957849
2035165406
1648165432
1939775530
1499142556
1893924295
174368482
160215169
410295041
125378151
312095217
177777060
1734148090
1700020464
850924265
647878493
1079270116
918309308
450604098
891900362
1279315047
694176056
384703438
946249592
739479383
289604230
1223019113
1772511090
917195967
970586465
2098316467
1438120933
1922349256
1948780725
1423956717
1030710263
1042970139
1656520801
1101957496
1087360514
129319594
1486867493
173779255
1366590053
709717057
1482072390
1533077315
49327409
2069793775
1548006710
711919126
234829927
1338935990
299367239
60351594
1031515809
1055452685
352676830
658460456
37561687
743402410
29381022
890148931
353119788
693159427
1563762810
2038364092
1544344277
153546916
1756418963
1349038930
991270269
314407936
1681773474
1885147034
210533528
230771270
522151157
1469384498
981673054
2145028912
1886690792
2087111674
1307236515
1242693726
1382802770
1347620489
1272559763
1971489166
1586493497
366677766
1593433874
1637349719
1373075569
2121299272
358323830
758919356
188744483
2129653944
1761841618
527664043
668847689
1178050710
1538142222
50947383
1936248784
1116357908
610321756
1544444965
1550871319
663762540
1199697361
352861872
2004789069
1877419519
1884415943
1020638995
1553198735
1649518105
79427072
761663431
1317294836
867662429
848939506
1988511737
601841017
1950855142
530707815
790916790
1428906994
254639596
1935304234
1519012087
1683843035
1097395577
612886236
1580219457
93748196
226249201
1236511132
401179606
156217988
1455380800
645913290
2068491454
71144531
2018073736
1302608586
944462204
290725391
1484969821
1904984137
1279545139
1316243210
730865892
1672233723
25872755
1550585686
1273347112
1288776877
1225397792
923932157
1232566175
1454519552
73169615
711309090
219371007
1364140771
1174691674
2109518573
781794890
1420400256
1082573757
640113337
1642099719
2039864421
340261678
1834240047
658233235
41666266
1730916684
2052889374
967700046
788566161
806958490
234995659
100512566
2075313965
1671761915
201702802
1258106439
955333892
910220610
392629334
1551029782
845546396
1936880442
392754058
1597421195
311324056
2025016473
1869705219
909402693
1139349890
901332394
199598765
1025682073
1266877397
722038887
575522244
1457659682
1992073454
987146468
589933717
1116952374
943718396
1061933369
1610532918
462815471
910226445
1015270860
1346942711
1572977241
1447053274
730831404
739596830
1078571281
11204268
1191947366
1127576569
920390387
1758359490
1894097422
202034798
1773016578
1538973550
1007891438
1562175850
2051424557
1926005276
1545302648
549269635
1945426866
78970469
930302529
304331176
1410113086
1375586133
416174132
932023162
655096488
807175771
2124731669
1426418415
1292383328
1616023014
1330660082
2141205092
281755886
1303401433
1128186042
1226157974
1513451388
532017844
635379203
801048924
1704188332
1697232241
554043534
388214355
247241695
350070900
497911675
157141826
1742853364
1077752927
1611644839
1639926153
19689306
362528772
1681784965
1161843871
2001711161
912087887
594876379
1969252464
342266022
1865576608
1368386986
373483658
126606752
247431131
1293511107
1894792599
1958617121
1764351886
1805557384
247757699
1606438192
220367039
2130853323
1127518250
969424573
1227352055
1739740558
1429404043
585888592
1574418351
1119965991
2040333162
1029609124
474604344
1107513482
876187318
1101943247
898461756
2138089492
2096258718
1481892701
713060669
607047865
856747910
369426340
425459668
113279488
2020070684
1431992637
409812809
1929257387
41001058
159068386
1670669938
563574212
1200508517
178048515
1547882938
2080350928
715668997
1179336405
970005962
616853205
1739173451
713556064
1244023285
1534185051
122406169
334639000
1221124602
910342177
149429392
2085118032
479408224
1392525763
1024842340
531971774
979597625
193987511
2080066864
1282930339
2101427020
1775420810
1985811215
295265477
2056289160
160723593
1486080010
108989911
856430249
1315853641
1387346966
1850531690
2137004930
1318886618
1497248107
119978175
962407759
317204457
370778789
1719843207
1759374815
1323670035
153260418
1490902001
630681507
2078979908
1148542074
1413501702
1831710914
1278937272
2465008
707605721
1594170469
990693471
1971162771
1184688415
627709262
287774257
166460463
1860493868
1304922216
217740113
1307162322
477306253
1875215943
2016708420
876581800
1014098867
1162405509
1408248714
708178631
1317306397
996995288
1740816406
1633078405
300763702
246419450
1728563024
663439498
697242870
850168827
183225119
444455867
1549397949
399920112
1859618856
1464462848
1490345426
1473683688
805069507
2141325764
664096604
1799296931
1206067946
162894167
1100308782
1231835956
1425930338
1346305155
209315178
898756264
56543039
1011064943
1341731598
34105388
181582860
707656906
213106490
1024856713
1053042657
1477153329
1978629246
143396774
2003019077
987185230
751240018
1336955639
716800859
215559352
1014858558
621652822
1600158413
1061498957
1019771216
1273157030
969583136
895536775
1744843369
1326028571
1074911780
1335472844
1615335946
156163789
259262776
1360377544
1340056286
693432557
566050907
308638074
99446570
87595095
1744809826
1075989534
708092302
5398784
1796935989
341910019
524708854
1468848791
1370773406
235038078
736114984
1592320422
509517805
554225330
155690092
350811060
802582345
926913047
2106931597
1857849158
139474599
412687831
905903520
1646555171
536551270
1993302265
643022682
2015971397
167321315
1609472333
1207447126
501015224
2049790895
1200859556
735493231
1988085071
1164028138
650573815
1876116925
612608969
1147454291
1719456680
1232306225
1426329928
367080591
1625580583
2089628813
1399702161
298776660
1104027287
1038827104
154040567
1551906886
1855112346
788157579
258309075
1718245393
1644423699
1353619620
1588480858
1223445019
286196706
15921297
859722377
1467165426
2027683302
1326654817
1773052316
1736320727
1733318976
816958649
1793765397
1092789400
1660932707
1643837453
870131480
1557248674
1337167802
14986751
529773487
171961215
147904366
1013852480
1488118032
1466968312
721964591
1039065751
959642307
235086201
718716218
1134976827
1702819629
1611387859
494952504
954059273
439249173
1690987372
1179630593
1896633418
1907587815
1355703510
167836931
143613155
1500901422
1679882595
1583537327
1319592198
66334773
1547228307
609620065
25867437
1604540445
1318588085
376717210
243204717
2020037863
739603118
382173667
1963627519
731645547
1274153335
706438504
1567515347
1019767015
1090252324
1469087062
1740238592
590661525
1646226188
1866168124
837411229
1455224475
1525112090
1790491247
279081649
1951896982
1200480316
784174549
2000067393
1223383527
1398686763
1825555857
281873637
724263120
122243156
1080883796
362017184
190024034
1907138527
1661617863
1947497751
1102960553
258915927
1987415560
2010583989
1802100172
1638919039
1832995392
732541875
229584618
1651613728
84140649
1324909848
1215551854
364194227
374573202
1389013494
274721031
1135777501
847749302
1947444987
1084682530
2078862260
526954062
774544093
1310760731
1474862710
1024969381
1767391079
59331571
265902749
1117168629
1988932057
1893976030
1373376039
24707621
443417091
504672990
1888108014
157865574
521178107
452034641
1676910782
273010882
483006207
890964163
1134232784
1942584989
1739636484
1847415781
1326676832
2109272239
1349952502
1114465079
1308544337
1271720325
745759331
1811809252
122566381
1486459897
1640780710
155494793
1254517928
585023626
30184994
1940344797
115861305
1422503094
1285414371
376202550
679245657
349261988
1320356846
1097186535
137044713
1442198909
559255435
1085245890
1972586641
223269767
887524858
1962696511
2123369522
652835005
1820644003
1040661808
1684343599
1814869675
937986032
1122279577
1203066971
1241471201
1097184903
34316094
1866842299
86041497
858164877
353372368
749426540
1866176797
130971515
975606265
1160202763
391710796
1339484140
2141980144
1813052643
1015161786
1310131921
1544061310
1196388155
2037636741
1258754773
241677390
629335887
879842277
2138084107
1524575243
10479402
1448899732
2086424428
247178793
517761146
677264665
2133790759
936274484
519069808
2005365885
772155109
464759798
2076871928
1106440709
1233436362
1110111817
385517586
957508691
1986196463
1337629802
540091562
1357827709
1513075907
2079798503
995627704
1682249466
1674996148
552082462
367119043
696827313
966354272
924974340
789758931
1291100819
1800543509
206595502
1847913831
2146665305
820521150
537354133
1011250703
776534524
705694605
1423315584
932500970
1300497164
1166197778
162754372
928326543
1667501029
721364008
972939621
1087025299
1811515640
1015411143
1885800827
925691161
946541442
6409977
725909382
6132984
862458059
111929780
1188994406
186655425
812769159
572421319
477515895
447974814
121933520
354805811
1121645693
1993296881
1019747169
557975646
1065956730
505716895
1595094840
937932608
2104228383
1554329254
36214347
1630833824
142104067
770692762
2000143953
1172649449
1534952458
526702797
1749715886
656383603
2141317151
1954694024
1986513023
1874976798
1395005956
592029324
1347742445
1879505690
119994237
1435504364
1950278328
1030903509
1110949389
2000243710
1857265648
504564103
1473064437
2021620429
1836390764
1464854728
714257376
1317526402
1691277925
764240294
434281380
1671818413
1379342747
1528699196
1220168182
332255150
1461999171
1108300890
514031310
14087452
2065727505
495069318
422289462
2102399241
1547871165
2086826943
1587678145
63264641
1901601326
1483513034
16150855
729415733
1093037755
697506644
28325125
1253446420
374232302
1727318145
1847056805
2045344845
1064945545
2075457341
1422619445
1912957259
1469920746
1327911879
1679237126
1267526630
1647667908
484019430
847940771
1929242471
998961771
2051064722
157580547
978535575
1965295849
213435175
42819252
1182887348
850268213
468255243
1777984395
854463234
2076675769
1502308771
342795291
604256052
993244394
1758258857
1136511180
623215372
1277193386
1687667037
985120172
358212197
38268542
1563999695
1361570745
289302483
165076993
49284150
710310681
936671485
1344273116
1948176613
648551827
1525826313
1581660618
1793256781
1125441823
590706525
723947539
1326509797
1464797673
1786334839
1776953107
2124300504
93516782
250664298
1053434989
1873539956
892927499
1143374306
195950851
612586610
457342053
1849822783
846018155
1123372911
574271976
1595252020
983428433
2108528218
1961153225
1536370585
1022923841
1596625178
89132804
594226886
1316648306
1797985848
604677276
1270201008
1636803790
1954736973
424474954
413572210
867008231
1919356130
873840076
560856060
1642507961
291684035
1766856423
1820732160
656522163
826696772
1732038796
1506788015
314253518
2055282909
1870108614
452789860
914090420
846610258
1544633618
703435110
1592646161
2004837334
1784151659
532367811
1630935782
309101102
1074190768
106536390
1707045273
343056268
498394897
969410430
1461517701
94001664
1400748781
754505894
1085177509
2027895039
1392234561
1772966004
1890526164
1884341588
600701747
1772615147
494395560
346450414
234939062
1924545936
501107799
1624710044
2144699198
1848800439
2025391920
57002356
176011518
1203697201
666020195
1546884415
1267192308
907781861
1706310045
650695612
919742521
1813428528
1095772646
237360213
1996473431
247052818
1874255788
407663109
8849239
1895031914
81641618
215182220
2106809667
2082651730
1101121889
854885125
1729296248
1476000938
416197704
10905317
1902743102
1399566204
1611888305
359883264
1767975872
1129428521
1510850564
551408540
940703326
45710364
1655988148
490958800
43659718
2077424701
126528308
357582784
1017041664
530845174
958741689
2066913835
179222818
1975580911
195641599
1843424006
2076211206
1953190351
672091638
568321071
1864653617
479731178
538099889
2325934
1852008220
1685995500
1255580665
1856695739
1487168480
1315843047
677977626
465166656
2001727482
550757242
107898698
227900446
1909233963
258226780
1079789718
635019485
407634017
1150706333
2043617509
949420416
599917289
497729631
430011431
1284175868
1396632777
312477328
412025194
316810654
1023783754
781687693
1716281521
571923399
1003960100
743064649
1008478701
10243239
386633394
1028528454
738894404
287802008
1580357606
974045975
404288383
2072453263
1863521106
1937309132
2093017346
974842701
1057391979
511337975
509228889
85727264
1187127763
1419152497
822757716
1778869873
1506704498
1811043002
2131203809
1989803828
1090634912
1951829905
1629062000
2079464840
561465199
1976236669
291357609
260341487
261945595
545939634
2021411857
347577160
672139124
1966154017
294831935
1125492101
639726932
119992532
1631622080
1244025706
838581066
1516562028
1079790417
1696689696
109212383
14208899
1660669837
1707813555
421857302
46582898
278389163
1995131253
469595292
1219113979
1916026884
334495513
78905617
741785771
798313626
1953342668
952176608
154862635
1286355598
1867263993
432402331
507847666
1417856467
580088561
1792390213
1208671564
1594847238
2045191514
1772559110
565563874
1669023703
2128851900
2093511470
1465195469
276968945
866965694
34509082
2127899068
280417475
287243290
379045902
385803015
814927281
523525241
601615675
1528763675
1348255592
2135883297
325214433
1830233546
1678552242
624452691
1154949514
1857556810
2138567203
1690833129
1079502222
2120789389
221103309
1732365590
552746455
708327072
1384986613
211597547
1500233708
1335763804
1270729657
839132289
1066219551
88621241
911442798
1342386066
944366678
393746170
1367835494
1609314746
1899738362
1318098366
1863202691
2032986952
1242405074
714409916
1739850177
476085460
1787612745
1970950010
1661562814
722479067
3816987
155937718
562559294
406050544
1079303385
1715618526
481838843
1856204314
292951622
940947518
1493368816
1607066264
704200435
819857298
821371027
638262220
2122780240
722495943
836819016
594385724
238952805
1395851466
1441001527
1178135584
1880196332
755633158
2138880233
1650056514
2132166456
522151084
385253707
1467842436
563679972
1252344252
169251957
150204131
1760874768
1423262846
848478152
1569448698
776164160
1779223680
1341809060
850921124
1512113701
705139815
1306197882
1735334119
870099791
1471780240
2131321731
1616368812
1720458185
375993452
1259881512
670146859
1621037625
818590974
52785454
311102001
1286143266
1576924891
793152058
385286201
540727642
862943691
637418883
1511121198
533074856
1908255113
591596986
1011304422
1017213989
501445237
1556127779
225027371
1550389037
1594432879
1025282817
1682743112
1729249394
1685877912
2612288
1957903034
1798090000
644951732
1577430748
524470827
1038700008
659203198
1265691035
1548461916
916488556
1917832241
292097421
190362127
61875825
1875541504
514833338
513186261
413842923
1169358969
2040511432
172223773
1542493671
1596513341
554076776
1434120710
65796851
1545205968
1992912582
583419579
38367956
362348726
2134841766
68241673
1839529625
310644152
1413925669
1856325522
272983319
993828036
591790436
688158954
480150808
1381092075
1767222872
362003762
108244771
857594047
1627911683
1243882759
563284212
376960806
961508679
1972191902
1833104859
549149600
892407713
698958230
1570409146
1132764275
1074349449
958646169
35522418
145118295
1380848296
1974246408
454580522
720768944
920015995
1010768177
88777936
1957855263
1490008029
1649369930
1571477800
845412615
1051471832
1070492094
1560955112
607663062
913306554
1058385619
765283726
922377215
2078868781
216782962
1652355282
1894277958
1232682736
938674107
1130078084
1707515527
1346103916
1207040476
1288037255
817015137
74440366
310964163
392701503
1633063594
2133796275
1409507152
1324513889
2101170299
1855794126
1477929549
2069065449
757693657
701789442
1199841191
488827085
1768905093
2113723313
2090828669
3540256
2004032680
773019276
302341842
762643517
1301054718
1728857952
867686583
254556811
2041623916
370757828
337827220
691080263
1919113795
519812240
1133715521
945024681
1217402070
1684814348
164780563
582513365
67973147
1824627844
1186509364
1556895630
195599402
689865002
1202022241
1152820153
1421882363
93320484
1827606242
2016921843
897992645
1822782624
1803331044
1326697723
406024903
1361803314
1809344667
1849654508
1954985700
483494789
1093497605
1445570216
1611981005
312798107
1874930148
1620663247
889730115
1214819511
999909760
1488599883
1108435160
1374972198
2099281715
839893990
761970041
367163207
45607126
1630056176
804179263
49719137
1397415295
2064339383
207817508
29788829
923901399
108267596
708312872
105660553
14060443
1411295163
35625323
288148963
724437621
1098119181
368760653
1083898580
2050107522
2064922297
2092936997
1155512494
1936920023
718774473
504907021
615583968
585971002
1996359011
278685328
966826658
1291217950
1449549714
681987909
755661166
1513265987
2143779058
618902808
34464623
2076268169
537039723
149167081
1631072064
989148580
231283769
486896346
1722510068
1627780020
1592681821
910161842
598309229
1615747144
366897251
1467114367
1485617462
700901128
332566692
1894735587
609694374
512645216
377326862
2049785297
52514355
376494443
1174874823
1553532040
1959858799
1098847270
978401140
632140696
161671759
2078670961
1688103734
965794652
1512895436
5798660
1960074036
1184201070
480630238
1048291100
531723170
86383683
425205370
2011633003
493877786
1589071766
877341021
661239186
1315903452
1770213454
441093549
459574554
765127665
1039141211
1536496951
355219661
376219020
94394122
1587296619
746730637
1719379583
1129419942
425536126
660007806
683191579
902197094
1744592190
1797623793
1116472888
1595933501
594321830
643480746
154126383
623263529
1258995988
1297538107
935269627
773886315
674669583
129849651
1955816350
285203369
1259536671
803313469
1856557885
649768713
464818852
256029322
434275637
1172099298
2066339206
270993553
858259266
1886062269
333729480
763922344
2071238116
2136746577
19683959
2141374559
51502612
503875182
1634238895
1553198218
1817585709
1930459770
924932194
564217948
1063256549
593192739
818603206
1523634743
1046986951
1861214911
125602823
598235907
610276334
2122724641
551586284
1157861048
1438555815
332799020
12840446
1091681295
1298504437
767612845
1523589766
799827299
1976009470
1419279953
1024916184
39295132
679330845
702912823
1480214751
6098664
1017870485
36440155
1511521191
143857235
1587882566
1045442317
604227212
1736458417
1635163353
1297967104
1572294065
1437392026
1426038608
915325424
37871071
2064856386
1770055499
1184563971
73443785
566205283
194114147
2053436882
197693691
315700388
697889110
72416639
353004905
1848415337
1040038187
1352724843
1775954500
642849729
124829321
945242791
2007425534
652354059
1254037336
557999866
2122138717
227861664
265061583
485592469
1786217700
1112817658
90998401
796105597
1709805988
613101206
368276471
1105293191
1388466220
1889997480
947429110
1674866470
1571136737
1912784314
820149765
1644845481
1164509526
176910422
989191844
1603757450
1035696433
311438188
180428602
170370032
65167960
273508305
517763526
821079348
1351842137
1206197907
387458464
2031392063
1242927420
697616710
475134627
559359924
1978714212
756687506
1682602478
1109814243
1771522089
911715809
2121488819
907506121
495946199
812255342
1557128809
1511548265
1321805191
561971268
1981838731
465103770
1172646098
316634619
1823596509
1460258329
744158147
1170015146
1464468211
1421131718
1266852052
1316253218
533351622
1275978086
699265383
1427496146
1698778279
603909365
1972946298
1663293800
1833193025
1221468738
278534428
1402607977
1921645492
1273056247
1277069954
728567044
81725280
633213598
387279249
1439905866
950918939
1504221576
1679379475
2026459981
309486939
1700881211
20786596
1398944190
1821553683
1453554947
1854346679
1486058436
204859152
321123363
2017543382
2119171728
869395963
1458802981
1986718663
31538045
1078552153
675536072
313616832
797974797
1066565172
2125491120
1518015073
214893485
1979702852
525169489
715947028
422915287
1902419015
903652754
787568141
868039626
392967409
2125026679
1047643906
248991232
245337634
1672274652
1409110825
2130702225
2008023510
1119645594
936659566
1420612267
650211194
698407601
760790646
1535135863
1787582152
807011701
386924958
97825069
1901132343
921591609
125676650
1020279963
28608550
910670308
495004807
1112740279
130109027
1824417271
1459542581
187680635
1684206548
731092712
884840211
1967117540
2144844357
733745022
511833237
1040499085
1437583841
1249646013
1854923074
598154562
185827917
1131786090
1742463135
591675568
506058022
2032805457
441763743
1419498947
1603774666
470799498
1557070788
1951279008
758202868
58538050
205154754
1123826445
1326888566
1388990646
736856925
2025500279
1721001701
271139301
1390515420
694706786
272663007
567755021
101823652
395962873
820939975
963037394
937494772
418038416
1597110224
201594272
555095420
1470452848
2034808429
1370810845
128631497
1792195383
963044188
1689557449
1275585435
1860392275
8153373
2100125886
1028866901
2118196521
430814580
1823472615
1100561587
574408918
1725461377
1743425605
1320867653
300331665
949833109
1547687320
86601437
1434749131
176666439
33524452
1972953090
712296060
1980547294
1394684776
921780253
1282470839
1832513484
1233263050
1911102054
373271864
806167206
1187487019
1808873162
1023899006
1972271731
1260832026
1648027624
1049840656
1810189533
661790153
893509968
1945767646
12656322
569302129
1851954675
389652890
1435477720
345131851
635837957
1802952248
1494800089
1583906394
554477050
481512783
976875144
419778280
1061118889
1424598659
1167627860
1577099394
1823675822
1906448438
1111949342
127855830
1426327765
909072436
124916537
988223438
2020910788
1273330655
1330814312
814124149
311921772
1522243729
968527298
486842454
1900947335
32058253
45561505
1206272066
1864686993
2033207891
669095991
1417864443
1010153904
681941812
286634573
1986776624
2094703395
233248004
1332338416
1181124622
93854590
1389529141
660550824
740013780
533300366
183299504
1633939602
1404775166
1253568347
566984903
1172367473
1844854259
1491366195
502242857
942343569
64058884
426705768
2024172697
366069336
1995338459
1906501756
1822248262
1440991448
1510940947
1657903716
1107039294
1575116039
615724915
1959084481
1207306140
540876588
1607531146
1563669294
1491249494
1515100571
1221216554
12252510
1997489719
770895749
182382747
303058982
1167740640
1559334712
377309280
539681430
1506375566
445836099
1223825368
1414709390
510370010
970669778
102285524
1964874177
1140295497
1963152781
416068774
2072110956
2100837492
619208690
637350098
592028378
293103137
2102119388
962871839
1615692706
440223669
1155278822
1912738359
100779540
331518415
102763897
396196543
922581213
1015544401
1618743933
1772806675
1581601766
425827629
1856816176
1125801928
71505476
1352410236
707635491
1034823780
1165126818
1877325925
1227246548
1385841122
149708682
365737969
1318472708
223248478
1360677164
1623537860
1654225457
1080805604
553210956
1925599110
180156636
1275437053
1953989121
1236279400
8283975
1735457699
848508996
566998811
774771626
134308083
1275484213
282437367
1217213790
1765099513
1768283010
86274967
228667078
1777518552
532610167
1436270783
1733613717
1704299276
450552348
339561237
178311818
1722747903
141678594
1581819825
705945423
209328396
1337396226
1912261857
1957971278
992125067
1153815644
1662935653
1616067115
841139564
261717462
1555945829
680219591
1796619082
1784193644
2003324169
2042823594
780462751
719128505
1218062886
1907103875
457563414
1065419779
1895473255
1960397008
1882944027
1599827500
339663322
1394787465
1061804609
707990178
1319369470
1387450451
1267260595
1418900001
1762716659
2075354798
869392955
1082558467
1041295324
1689641763
770394667
195844185
1995953539
1242412045
2108819215
660538864
27355008
1752634530
2126676383
2145825182
1549534353
1703071692
104973923
196501139
380663732
106957289
361232689
1407197940
718760025
264049493
1301090595
587783145
483236565
1738031707
1310252480
138702220
421001394
1945753072
718754510
1063487542
510156997
934272913
1670519838
1482421989
309608301
1480930673
1408268905
596932042
2070802085
109866243
1514039141
2029850701
1957813977
892853612
64750077
1677526878
1448642149
521644224
1628848750
375340879
1820203654
1488375737
961148607
1082537766
70324031
120605339
861013694
223380921
18374499
1479879771
627179701
70705198
537042289
2103233606
579726659
2085398754
2142161712
922220837
56650625
384566560
37747327
1757426266
301995509
1760983902
384611596
1155263155
830811602
229841213
2090544365
1339085526
1262522360
1450386102
322647278
1511860992
64286983
642140004
1523515513
173088272
891511151
1227317576
1278454818
882975424
1764497919
975878907
1222282726
51013306
354717638
1414978940
1942244609
1531068521
455332030
1441851151
1596900136
2110368121
602285927
1847945591
394699615
194887868
826869767
1092013973
894298947
1981699281
1564492793
1719290884
1153964891
1457747572
270894677
1661751257
2069706383
1264259563
342038555
2101708766
1606716179
841454234
1285221552
299459475
992494123
240683971
1955263965
883368824
1586673975
1589013546
1007665059
1994813133
18260142
1702508395
918967767
460878359
943908311
787105925
166620866
1449559389
1301504441
460659755
1968038007
1823955584
2024755719
1275273962
1257659522
635679584
1332124065
223910777
619607238
5480492
159303737
1098937526
652142339
2121090398
125889163
1280915646
1560621397
702425648
1624843147
847052192
1355575006
384306999
381225852
1742561679
915241832
1100631055
1716377781
1032620869
655843387
318813634
368791556
1951151566
717293485
879824204
2121039121
865845694
1927625250
322958706
2037068266
52318063
2043273690
390492567
1301237686
1716642401
1611896589
314633014
519493427
1622182523
1107719347
1513144510
1649918025
1920243188
1710568531
1057577888
1222417189
207146178
274698821
1477562023
408745965
181252691
2036398713
377748463
1688377027
2134691602
1378909090
521290597
596402364
1746076614
9635082
974960917
520103803
1986716490
826337552
1853809455
1421618651
575673599
559917811
2122252386
1698265072
347389517
38867441
109565483
1206903740
1481766456
574129690
1769342771
342689894
1355562634
246920340
107081955
1288626139
697632368
914586490
1743721195
928200144
1143092421
563224192
894041090
2043470036
657767010
784581465
689815883
1391444563
252128306
1627796699
854195216
2055507599
6120745
622129369
725766151
1656053073
646852936
471235350
731937216
1237582256
1321205657
1584921211
647095540
1151019800
11639729
1434983496
1294584371
667634803
126349592
963789238
583063028
1973701978
859427964
1952117397
1479235136
1027408323
894621376
578722616
598667587
525953699
971382496
575901485
1260446528
2067840528
1068125270
651187914
2041955633
380909336
945250472
18301563
1126947465
1767353997
612348712
1575503679
1645799402
217905992
742189436
2119836583
1329893711
828578275
673839874
41667320
1142439967
1394220394
608385771
798955993
307073365
1516038046
543517145
858641068
1998867487
802269401
809816305
1040835120
814276671
1111631984
517301100
1939467001
515140375
1769788811
1597827481
180558331
619661213
128949836
1602761240
640762653
1212097395
1135448373
1065110776
1416512742
988388757
867189842
2147274173
1466545560
399797357
1363543624
1973425476
1177671204
149687338
339596911
589997255
1388236800
1876555068
461513881
516585252
2026977303
1752390073
1475566077
1191928785
436525941
543780016
1047734490
1386055917
240702400
132395047
460432701
807845213
2005787538
1255197315
997008633
964168485
819730946
1389127185
955639764
1872769538
60866463
1169462845
1642498065
1265905890
1556449822
218515004
1252143699
675731662
365042038
1851010877
1330226769
1822975703
2134424302
490591978
1878523541
1462183537
978286202
1936725320
641220863
992615419
285631049
592978724
117749551
69121625
1693204262
1179791460
1036062364
55740812
1991400714
389841393
700465302
1592922432
943769361
2121799787
688341680
1858435764
235648906
1283448364
1612545903
1835300585
1535857877
476011909
400299494
582620407
1909896404
1467088695
390914687
248620161
1988307480
938725358
818564652
570793949
470341445
1879887897
246474889
969514436
202214386
1193265155
622052934
1734888700
790030414
256223323
184855175
2016310397
205834818
1224633942
1595995805
1285292028
1322582176
591434636
1077174787
1179914305
374425678
1110442839
1273134036
1923421896
292065279
1457887558
40366501
430044976
43287672
382740427
1604624515
2145726879
818701574
156763557
1858039131
1932989780
1839603667
1854809250
383050819
678427254
1164359156
835694638
1547805196
51348695
480438096
1869034218
1396278156
354545035
1915824016
206849339
92053001
2905604
860740155
998425503
370868210
1576608110
183686754
198872267
2069379175
2050840442
1417884549
1051772902
937404501
1815088792
1561091506
776188707
295344560
156032429
1702719783
2013919610
1570316427
949639027
1666572243
1857982700
362726178
1609403244
1282169895
204611963
218360314
2059636965
1301220967
856355434
1069356959
1684674896
584978575
213672350
1601759868
2102397409
1675702852
807329896
1877336807
360128146
1954153903
20020109
1951462755
1814008734
1861432129
1655564233
1710088610
518445113
1116608006
1580734805
1664766799
280119488
1829740578
1477599593
1175243292
585036116
619546382
928978141
251677129
290412318
2094839617
605600325
1510855445
1544571743
10621295
403292197
1497670501
1735247232
103181790
2931603
531774753
1567671705
1827596513
268316071
1470838801
1642020335
1228568547
812176039
1422252426
1408697804
2133181587
538277761
1257731252
658297816
492196159
1795643620
1365611191
1322794934
1439557175
1401817201
949740355
1293274338
1185367137
515234757
553120864
851967226
1537024776
1920983762
658223902
945842496
1817998096
340419900
1784132427
481945020
1522723691
1509091694
513687673
464300733
1464524261
140165830
1471165789
413501390
419779276
639051584
731159729
127475088
1101229350
2033569385
1317804360
818683824
1429215134
2065635116
1213273699
571056099
540735441
96384587
1754644414
2046844823
508930939
1497099388
699449702
950020677
1843678234
1504330890
1032442212
1634744290
492976948
138140178
301399691
49780480
559691569
1134438238
786155786
544251718
159430366
1196055429
1769669496
153119519
373788147
833763672
93092383
1523276411
533846345
223509615
2110219142
1121950969
1371747212
1892927684
1387436314
202294306
385167559
1182998589
1739298507
607083944
721822472
730521749
590693341
140481906
652486285
460671676
952074896
1803673650
9795072
1151438734
926451981
1967959387
1570703086
1853122458
819528005
642130358
1116368294
1244475509
230420744
1059379463
422316470
1533580036
1542679175
3060052
980056558
1568256627
887817405
793680866
526932286
652402990
420027151
297433244
420561418
207020198
1872746070
1747056496
1814764405
684434984
710868123
41911066
1932307554
944220785
1620543861
717501200
1849325885
1597161061
264375862
1941423682
1959454354
1209232134
198761049
1803920561
194160301
1975637606
188148669
1200613910
880438504
3748420
516728482
1497462775
1702816454
777040547
1352357517
2042105893
779883353
2126842792
260601155
473921273
1963239454
924547100
12172508
1572248781
277286063
1996965646
1137376820
823644589
941646781
454751045
810467884
930938382
513733332
1772994634
271233543
1679353415
1213517437
419357038
1535166216
1119777840
427544265
901719938
2146845493
296683858
1393281978
1296709557
1179218228
1569249681
788799716
2130200800
1984376042
1884179727
206142076
1007774470
1783706464
715090603
492366004
101405861
1489386342
1214138933
1412512904
1725610274
851236242
538414672
1358146639
792799052
346166372
514320210
1742520093
991981379
1718418630
381132047
1716945310
335319363
1849146945
1975853401
369426971
1173697365
1093645119
244820471
399381791
463445857
736962816
1796395777
268263676
961170059
1550053465
2105821655
1069920948
944956031
1287501177
329547224
260086241
1868030813
663691372
463690723
942493045
70170413
452509027
498733195
701486810
950491969
1365552388
1121636774
2138146632
457608874
196222005
1530376411
1218688002
1631553723
566199548
360281636
730184126
789984855
2070197784
2040496618
1634683238
2037580212
1695392709
1084340029
1400896715
1875976022
2017919013
1275948444
594883040
248538293
699243218
1324772387
944189494
135505662
1792117058
733277047
1965986728
565485656
800987082
537501451
349373011
125198077
217547006
325110077
964962209
1140800238
199192114
957174700
511572247
948131025
1083260908
980742887
1968783907
1835572077
493297163
1128681467
1575582011
2123192950
1970851807
334641855
233364161
838488246
411393260
750838837
687066802
2011778498
1876456484
905715911
2020905919
657021339
81567100
2143793812
641741971
1091133666
1596666026
1314954106
1405469445
1678929190
822810428
631011176
1657855279
1425695224
1450136286
1755438857
67139916
693650175
1000754932
1760743771
573766142
667091757
1443559591
1778525773
155748991
1562630689
1915264731
749537554
834454301
925180664
937597485
1209104871
1773704543
667337273
1716567505
1801115908
660439120
1849758717
1847693197
507345070
657132648
494887585
980633601
872035984
343904361
1486546122
624204498
1726160761
1498758398
31408994
1161709269
2021267561
1434218791
1090627649
2037804708
1013092728
615798548
1364415557
1299101870
578764735
1176684385
2027470180
286144322
649388012
1724675736
1565406549
1039669552
48955380
1137600407
608376608
176169388
436458009
272214495
1737784948
1394469112
1352926797
93478050
129008831
1349510205
1791208795
1158871813
1227556871
1627338200
186720861
1928655075
1934424400
51725835
466550102
2082436804
1365717617
1947476657
892734894
1102951951
147969140
1206036443
184835029
1969042754
698428944
740126631
2091004974
1129680016
943270294
1876790070
551958714
5923200
705184657
1376125429
48331690
1782098964
1876101266
86579918
1203544479
719340019
739843003
1228303353
465505343
804957062
473744663
1883419295
247008017
275791823
120981346
484078804
1982470109
610044149
884621044
91252695
2107381480
588443606
65095574
160997730
1137484501
234139969
812722789
1793167401
1029529007
1710823808
840521002
71023453
333728712
619251904
1627805568
1744915217
1515533785
846118846
794241502
1573804380
903680771
272298751
1327299260
1316686068
73956272
1067460676
145655395
1168664398
405676844
1847941689
1429730368
1299256150
1370905159
1169220687
93338832
166637170
939039039
1343010801
1434261711
526718159
675811923
883218407
1202615940
386161888
1441287110
847322399
114981113
592617736
323142301
396051054
1283652915
1450085912
1154913285
433207669
1980606829
293321979
1746612341
1557906989
2096595663
766104114
1185879341
464872424
1997343600
476538499
1078693621
1530228954
397404456
2104604429
202802255
1048421025
1666388921
1855069459
1812678511
221233919
1651935885
570052414
190017773
912634623
562795432
357591223
579387754
445495328
793411890
345750116
49876069
694948076
321060983
157508269
1411721825
1755500463
1636822881
1869589955
483652264
1111556184
607632275
633290172
590495261
167383914
1071794089
861993776
1167651113
2059834268
1517116003
2097401174
665980529
97460374
2131268763
1361910294
1842728985
648197218
1596059366
505876051
1117309750
265891663
311148799
366456427
144972125
1717775282
562384559
2027007603
1695582900
1760041730
1869537181
990908917
1016979705
1270065515
1293048748
837653705
1346310385
1087597162
227111760
2080955142
1536462137
388353214
1894403101
1491495313
1913493572
305878786
335787927
792814996
1435082398
403385261
1418850760
236723681
594712872
278648255
1031071596
96557612
2070509486
1457609680
378602339
1258779708
750621255
1630641701
539199033
809907957
101197033
1389361541
1366516513
479234042
342151284
1999713229
652715872
1256380123
1977623887
985182294
598501295
1075271157
1557476892
198175854
657405606
261159442
1257860
710492950
383525789
867058602
1975780502
1251932569
547635141
1882508797
1563231393
335516523
49720752
1778821172
1166189217
1790472035
1391802004
1485993209
1848124407
525314709
701327587
1921995593
1322542541
222186932
1983856353
2025164438
1278518938
1704706204
1736068192
105191009
398874940
1504413423
43676969
407551896
2009136622
340673632
1949117232
162876343
369690154
1886849254
323499358
325794242
2068102535
501605538
1406860475
884104810
88882361
1820902589
302212044
1096434712
1984783142
1107531458
810493007
809128716
740088328
1275115067
1995617572
632603262
625811036
1426759495
2048833898
453988213
868520559
953150596
163378678
1821556267
447453465
1339202078
1291702240
92414508
1470871444
1235456573
809456369
1377496500
2107162474
1340834212
871808897
351193879
1354563966
1939993686
2003149067
906509386
1126270835
1358149703
167996459
527106881
21714577
91851650
581215507
1000428186
1980152200
125832975
1401458133
807847156
100242184
608306072
781605954
1990336032
1104525284
1712705023
221444292
83809045
1881428321
1655653160
1396196347
1167546859
365119324
1958132890
213312863
901857877
239972939
722891830
843817288
439096783
1405638191
1132407081
804337612
1436811286
1191912514
1422199745
2119682528
266944243
545310032
1624633743
921356473
2137873125
720710717
1563021840
114191188
1374103415
139210691
1538165339
1161669875
1557039799
35204410
1565518375
902943562
1878068894
1311814229
2052917100
660372745
1500526682
963457084
1949031071
740112323
1671080127
1493152848
1853629347
406560301
1378944388
885369946
2117768451
1200553648
633841629
1396485869
1852131618
1675397447
823530955
701320963
317881861
13960726
1428505120
843445663
1018861907
1664815976
107844872
1216267205
1619424583
750447692
236305367
2034204123
1182987327
1847375404
1336099095
362839093
511368643
1301960602
881716581
742369038
542638517
2135021217
1011281893
2076342226
1871488396
1097678483
275041605
138281826
1260795918
1735986818
1640307058
926813364
728387001
956444633
1016395429
876879498
1224664336
202666892
1850826347
1639427712
683602573
80910824
166736317
1080051336
712783238
1296097141
193138854
27441029
1074746250
1677399028
365231066
1725584269
1563901332
1354709050
1092860734
575090695
1609096029
567649464
1962282900
606760943
600834093
226473905
1219471926
415864378
719496997
1857424254
1946414271
1513218013
1074231184
345977926
1644720838
984917617
938512452
4720451
210264129
1396034018
2003541265
877029464
1507425147
1787110265
763900501
638558149
1352928239
421265131
991261011
820722155
305038216
2125962749
270005363
512453665
752742056
896123237
1526268849
1903428582
2109484003
668482727
1011880096
427351104
16051447
243568278
1296530167
448584931
509247011
437552259
633183352
1941602214
807622615
917824790
845356306
922673040
925988163
1590632667
305631259
1499483752
1767142911
560664112
1575311132
630813470
51873067
1387637434
714985236
441577509
130812612
1397089615
1295434935
800952875
1604461324
1960341836
1500131384
505087346
213901055
1096523682
339294599
1048253522
2103987474
1262764594
261326126
56192564
1382238318
876909821
1753466841
1320154296
1173820032
1100886248
675455727
390959830
954511876
594019988
330352877
1599707818
1207442480
104947549
1138321763
1913433038
769467385
487254159
893248864
919085521
436876155
173983021
315345903
601164282
246532936
1872799891
1551768904
2066981329
1154206509
1772025943
684382356
286172
107446878
1759377062
589156132
993228438
1687652155
499512547
281133305
842006572
661149816
520981793
280543489
580356054
1400030359
47768864
2049237401
1776237101
565910129
1495726136
805447693
941855179
1269703023
1346759029
2014497247
157781243
372038095
1244094008
1576972398
548170888
330826967
1267589155
1791444202
1684732324
653030730
1949058989
2077263220
68637797
1671505777
418393537
1272995946
980961719
102244669
667969314
1268078999
1354445276
1423121038
781747526
905278862
978146926
1656548922
877289884
1624665740
967041330
1282986220
248426314
536883305
2050707875
885543615
2093847997
755670252
1815575421
1897473587
229135066
1696045118
1915555084
141275589
1202513079
1353342120
431856974
1541629780
113032390
1358763903
600785480
158458956
1002404249
2035666102
289976196
1445845595
123381935
167478203
1029364658
788971367
545755578
898415367
1182871374
329664034
297797548
1352148326
595671815
141598223
362497114
1182313743
1104344512
2041871198
1037289817
764788871
1861911268
1262217184
365906705
407430914
377258054
613341959
467772159
1187617802
171302217
1666750959
983812509
698381437
452999247
2055266249
1574426798
859998679
1001112860
1705627213
1416828340
1251356634
1081588525
1038329187
1804010483
1195503407
156388477
1703363602
199393055
1002883810
88679124
776499278
644078830
1887882287
28534371
1303439233
1628772322
1442371250
532565206
1767192238
1095434645
1533723747
388312528
2100582976
2099280959
47368948
486417190
1540564858
818331187
961619565
1503931798
147094257
1782815379
1864568537
1357374455
862925450
1482085643
552072116
2077206724
553839819
1734310675
2134507670
324036931
1638699384
960120485
549120291
797434565
1044095263
724699201
768998799
1730245000
1619611233
121313688
1016628901
112092917
1376935312
198366975
505506384
1205528373
156552455
670835312
776542016
612913294
1604470101
519171502
1229109811
2046175414
1849184727
1095289910
1645721910
742560634
2056216707
123243926
1342076982
1521176765
1190234790
451338155
1202546056
2031633214
1300898951
1143732583
418074126
1268284929
557782594
946490390
800979177
1285217213
1757739990
1987198581
62393527
1993022376
629083358
797634192
252132057
1067223312
953929175
827915287
436450340
1202399390
1610581834
1601985144
522315188
1648127789
648906552
163457894
1179089918
357072893
528558126
1304928566
1973727166
395637383
10985998
964356190
961731079
445260089
426484357
220666435
1243173204
1502347074
1845734665
1257256989
1188662320
2025813916
607404827
853814193
1128500982
826626573
1282856016
1633014456
563322606
554934975
2021029710
2134315253
1144668014
1354153854
2027120923
1380641306
2138011075
560119376
155080209
2099815476
1372738915
1507752978
589064612
1697182216
1314247653
1894853127
604317497
2121672060
1222370793
1795300
1854605664
748185844
1107288855
2038747648
685763506
2012676838
1035022794
1344751333
1040595229
250060529
593443960
962623012
1264575906
1661247715
2107092101
187901734
764161585
832798324
1779953691
2057368275
1822761061
1751392740
1249051877
564497141
1494084496
485643251
1217170842
1014794257
1059256411
959590015
155856096
2046476169
826067258
187733546
1929128797
182723138
76980977
441498950
1008624061
1346839172
1053424692
2035264988
171077339
554082896
1454356151
1188485976
1066677008
450587017
1419255461
745979335
843683020
1396057224
183153547
1845654382
1693355161
9103919
1365161982
23423766
2113829174
1554991612
1646103087
824972954
551271557
219406946
826262633
2048435414
1997971216
1304592249
1412834500
641516600
664042618
1881784377
1338981851
506555494
743979051
1994343917
1756032615
52801906
1858926888
866216362
1527554739
1654496511
1301556747
1291942622
740121438
920261074
771217982
1967097111
399408833
1828893813
2118265074
1677762322
1940812009
1414192885
358304425
1353236654
941618004
661297721
657365093
994123878
1048923521
1407492214
343408799
1173625630
605044238
951216064
800766679
960995421
638038280
1343173706
675431662
157231792
896811599
372978072
657368605
1387150460
1833206810
19895892
1236073498
1218733695
119148658
56413521
110972697
2029770372
1611686032
1571530906
889630093
309554521
401501612
1931123485
1406833040
232610990
1381243230
1651505997
1655213021
747326981
580148450
1620725058
235092163
927010996
806175399
678925564
695696490
1157025735
703505853
1390194768
1813448415
282317016
780188137
198556145
599203926
183155146
1528519851
1614312113
371506554
1465933721
1327443253
1220654242
246340445
1539709838
90270746
639036650
562570376
1250994947
77308975
321166854
2107694232
1354011760
143661757
1232267762
951718932
563156475
1790183288
1294541983
1486038524
426941462
978359527
882470546
1999796895
253083408
556509384
558716357
1063949581
817089052
1659466765
1722581454
568092204
1900136711
2054671118
1685480529
165145138
380313220
301221454
1231549653
77335461
1777378012
1318988325
1149661594
1016516820
1580550475
730142607
564669142
1567018752
1004621691
1657111422
1744065723
1820256145
2032464527
776206376
1328734523
1567443854
1766043186
1979194635
1122329385
669436015
1345389165
1392019021
809629611
1758944171
807911985
597184059
105461942
517541915
1392830813
1174893751
491796390
1569857745
558824196
1812400038
762806003
1654351525
1290987479
1533154161
296230152
1236274055
769621040
1409047236
1322235355
889685824
1791514233
1030215604
892640652
433775527
679044426
722600634
1943730954
3557479
2118381054
926540748
471069026
1750585320
1445861930
704637641
1567609590
788308784
732827400
1526763299
812407512
891117124
1272548031
957003928
945287045
1052425297
1309870864
1688399505
1526918588
1870367727
1952283428
1327780283
1727527241
50129774
2124376781
1500535626
521427142
1507183897
1010748305
2050909655
611931835
862896971
1268660129
87817363
2112859232
1877939485
2133114921
1095693581
1710617627
2090867144
1268335345
359288325
382935850
407363132
1941588339
814143742
2116422754
1813778412
1494969897
846244070
394979846
151925332
1920027601
3820579
672133239
810687005
1670705903
407292791
844228556
1763684858
329771053
1727754902
1027198744
1154549555
1642179320
1313497304
1836352892
1436392713
1102037822
1197924575
2078113103
1129581022
317806605
1058310502
1094022708
345168515
2067221978
170009862
1637760648
841072522
1494346824
281109220
410287910
1563164848
580193547
344739447
1061194757
1211971842
475779550
1042911247
1754742763
1040276577
1450500663
1822455085
1239670088
1072235035
1086337716
294502545
892598744
1240660531
1885819500
982139541
238972893
1878796695
1547256159
1093941599
1946048679
1410772385
1708314423
2020374826
1247481664
76106095
2040299659
242769026
1702246949
590879036
1741094416
1087995014
1381555585
1331138273
1418660502
1741435205
383284785
627750534
1043464358
1283316125
1152195251
1219347011
454810149
774630371
1641129651
1278074553
2063056122
1333579286
1919347862
2028949239
1634472530
1585673717
1584590834
1503842677
1097540793
117362962
2146772891
596331399
337724918
2139485637
1541982230
122994185
2125037036
1735531187
1659770361
733839762
1439809628
1417107286
343130018
252889743
257403619
2080189460
22626356
1268872649
1411828863
1969738501
1898137882
1046223971
1866559988
665016265
1459303627
1444376663
1092419022
224491333
1372750096
1558044715
794477921
412829987
623071365
1543210002
1021736902
520597234
1843852855
1317228875
245566419
1582796024
1367049801
758028050
485439017
1344850472
38891930
2039988866
845834214
851515590
945432313
1307667159
478368899
1556186661
558939687
427468192
444137583
656659344
1461037499
420586379
597120737
1911723440
410415388
1181062120
228083834
88939887
1390048114
1734922505
1882353972
1365780480
23966092
449074446
1526613707
1432115065
8560578
892171698
251318114
1035170320
839123230
2124343425
1830477532
415591355
837797932
1570115433
795074002
1343632754
1609827103
1100319881
1246173149
1795511756
761711678
625876739
2147389672
2017478968
1827816754
1273939640
1071015142
1485351450
1399691613
1815949491
1600892185
108994887
1870399306
1329032069
336195080
1547968056
397079457
2132796313
1315966712
1088378648
753402661
2129962696
996529877
343871771
289946881
561181104
799732550
599797945
1496921318
2045248304
770213595
1599083082
123026825
137377991
24002277
240724441
288596633
744846052
413397547
793471800
2108549960
501072160
1580779224
1001487068
590554246
339433171
1211687130
149136790
1726100174
141477550
810719251
143237467
1531194650
1856800603
1219770098
956044528
1067433581
158777316
621494289
649521244
654217422
2029804466
1464745180
1965907312
2015215326
1898866408
203035637
2121330646
94522950
202158704
1653335825
909901022
806007435
2093662346
1872787798
504444049
1492538992
2072901903
1967267323
1027658135
1769746049
413541687
1364078043
952408345
1265193977
1094792311
150668874
1409524601
2002822564
515590169
422022955
1420749947
536114164
483133492
1547520224
2030545758
200487213
1240612712
1651368764
1761637160
1614818684
1889451873
154491581
1204427571
1806784514
918523147
1932107769
1283288771
2106264042
1147950166
960545972
229811796
1767036875
1771382108
1255584631
1962386976
416443580
1974761453
1910205478
473303204
1866689508
1940224065
1421003746
674884836
1186814789
1054841544
393140788
145395692
2065601992
1853388988
1781374923
1592110134
1137263946
1567421485
1652786300
709796468
263021870
651338881
1912288652
969042370
758697057
1068665538
601101390
1191266258
1105608688
1869483298
138947528
167727385
1933872296
1118780486
1405267865
2133635307
628009472
872767189
1016070482
216447524
1494082572
678348185
162545624
694337400
2099187130
87091366
295001300
461615828
1993587401
260033200
397785909
1848348299
872973010
1972741491
201086319
783910265
1391020775
1409015436
658467762
344324734
1132238818
1088832203
1007073871
944587155
1173285140
1654754153
1393178505
261761029
1251416473
1429612956
1324505705
1902199879
2127350656
645946048
1526917355
2115898903
1003084303
1998488962
1417235814
1591918409
451924755
1505156362
780629568
1810627570
619346470
1496665558
83114662
1818837474
1732792962
566407604
696928808
1179329045
910307559
525749350
1956553187
503857164
2123028152
2145554321
18320210
325720681
1293914941
1715349198
1081942671
2039651139
422768264
1040862335
2075944073
495677431
1718246384
133653883
1634059476
1741695427
63435634
552133992
844123302
1650730607
2109289600
1972992913
1906983040
1847934845
1340330106
1199605359
899698369
925647637
2104065059
517591046
1373914566
1093416073
1954269929
1087410887
360469002
836850743
70848591
2146354345
962839768
1354821470
837503640
1158343
1705402816
138082579
1692537989
239386205
1589589532
234777200
775987396
2013511150
2099508621
886139430
1681439450
1552231701
84271609
1269710325
1582027148
1171128004
1282488462
1391853939
1514867347
1852806111
1511270655
967452458
1877957313
1945173794
1192645325
1102954799
2063772147
1426362688
847891518
464490599
171113540
2110434754
2099163134
1052630412
717792541
1266869913
1340224574
2082806037
1469612159
1546412213
552749028
1224360843
1672164876
766935130
2100214272
995237317
1865581396
58907913
1443948244
1015423286
1334152518
1075412492
1861414603
2072526874
1358773117
1544576759
1160738001
928411099
1537841483
1648835270
1923277764
180285173
1241071949
1555603885
305610269
2009493942
713805439
1682002999
440627827
169930273
881350527
283043839
1890007839
89017957
1743843261
1460056987
816612381
873193200
697053869
1909850923
852973719
334202533
605935010
1358730422
1659722309
1090635597
1455899163
476208133
1352515299
851150338
2055812976
1051299623
726849277
202152651
1325364804
181271182
30808888
1984440724
1754231300
2017631572
714064856
924041652
1214450394
470715812
692774455
1862682376
1487425715
1955210411
998710043
799252888
1571769538
1350398787
1820372219
1552299471
111072435
293666293
775442052
346498336
110715787
1151451344
1961056431
769021440
21691773
191462567
911052958
496190504
469309609
311184025
1993701005
2140641561
776835257
1520203797
969677748
1132760030
1547018210
1648733186
992051251
1749289360
1414390289
1353732613
1281784352
214869471
74735309
298733481
122495746
52908776
1345952638
1836187586
1139855027
2071847304
856274265
2100328266
1632536773
1250511335
973505690
70259050
1920408570
1061862236
1739310490
254034880
1260625731
1904899254
1568033733
1775745708
846564587
1803510936
367475626
1657126191
852189268
238195179
190598454
73652641
296926317
290409424
1582699980
1591532116
1931549208
70328800
1743084290
874381413
121372097
1059103947
588803185
1396148662
1645852343
1087368680
2053211609
791772034
1090757636
88600615
1276066278
1083553896
149095542
2023198762
1661985885
135289631
899762848
1085637685
794370866
329734969
1113914808
925236342
996956909
925530560
1186209084
202707894
848379638
1000109419
480579847
834078485
1165976762
544638492
1617370890
1474246351
1498406360
617030143
2039179596
1826549252
783276660
760023337
580351026
1239216922
359486217
1070570113
193606927
1710678015
1251392348
857042812
1075619921
614286023
1300675519
1576681516
1789325134
280724780
1247081628
2135232628
1622341498
391945586
776259359
1258267401
509978418
429754007
350955881
19936982
1913099699
1994293225
2061795033
754354767
420890576
2101614180
85162863
707602526
1952905046
2142827500
830606833
1389362219
1090773091
633436174
1897746948
1015623151
1871517864
1653741693
2007337594
971327074
1141238924
1576634405
21701412
1640995763
1545061934
2060429690
1670495224
857212225
301177779
196756550
2033334897
14866602
1847256232
809011239
1456792700
805579987
2054756723
1090933564
949780969
1818715949
1297528985
604521196
1050380234
1623461800
181327294
1427213475
1483491753
570485928
1737502477
1777638693
776287316
1791387607
1741868112
1433371063
1744965628
1927362996
696984771
765794190
1757104686
557211253
17026413
1072956556
1873037557
237588963
187084581
1159493566
218743768
1198887848
417252651
365277296
2087266105
94139360
2065392433
1351897182
985267633
103294697
1058931655
2015523257
438461249
86319613
1457233504
675973489
577732245
1532149419
2035975625
525733326
1070269414
363604145
991284804
2025908249
390512400
1846186085
1989098421
476228491
1391928787
1673635977
425244767
233739918
1433793082
1312254216
1241403943
1977309800
113624104
580394161
525976155
1843637250
1387252947
1223144526
1241020930
1349557106
2060746745
1137795975
475871744
56538373
214453843
431392004
1325805611
1940842669
515205179
1553843887
826318262
953432860
1796966332
1640209821
804455869
460274979
2120663675
816644793
933684006
73944318
1731617905
1824356105
2000349113
645504299
1011667478
2071023475
1824964860
89785926
1363243565
1820150188
1851352934
1389993492
489529504
808740814
207287572
1935743023
615360655
1941247262
997917312
1483009635
716097034
159289820
674532923
1081954468
27472164
405776333
1846569565
1374936493
282406848
1615832736
686764830
1840784111
2142384155
1159899071
1992543392
97248474
2064050703
1672092304
71789098
861417266
776309531
1712494935
659561259
1035742622
1427039973
1760560373
1435689598
1023855375
928494237
852027622
1991922673
2137791256
1956824695
764553309
618314503
1516734745
954820796
81523049
1718405370
358338848
1340776213
43055684
1226296010
614580398
163219908
1061750017
78932063
2031533438
92980513
2052041725
1913710879
962336498
1036309613
1889563989
689964145
1326980656
447714192
1362702557
106640795
1269433812
1593356654
2017696398
658611081
1155631793
1939550862
1773619259
570187565
1802200112
1857813331
389340273
1414635652
1103330282
724918611
1408992266
573500887
60681802
1688913633
1962523010
1546928597
2060964694
236797106
2048545235
1254656340
807456179
2132421534
1091489727
39891518
447636466
498927543
687342013
834814274
728375410
1507658284
963503167
187330728
1294694830
534770572
1317523342
1029887429
883851842
1607128601
2124802789
703369275
538468813
1598678984
1708976567
562757400
1861915648
1267227814
1040518923
1888944137
1223029362
1641105815
697137705
1755559262
1505657683
202542434
1515502306
1562235798
2167530
2021311618
1156033999
883849425
592155449
25903637
1537712160
1095404059
1125729277
773264032
1551416455
83335690
902013874
650643032
247054142
1634686763
1815684876
954385256
1717957025
1827307973
2130360772
1545789452
1549955032
1182558865
848365298
866649335
1796715390
1216870555
332040250
671946565
26765516
1610037225
1091788657
48393044
1723239170
452882243
1868035635
1642331741
1887946831
844349246
906192300
1784985776
603598202
1675904814
785033267
1535621401
1127881506
1848628354
2065010641
2013308269
147489279
1469323489
1240893427
1043596883
1213228487
1827694598
113384688
129017862
1832037228
120258087
1769426037
1864042059
1380920223
792776220
927571330
1170455831
891686870
615045095
448659824
1883374502
301758175
435422978
401308420
864759552
93806643
800233484
1116770332
1377844072
1682956576
1304954736
13533231
1393188637
224501901
2004256715
1316701807
1786750016
477403978
378208231
572219535
1042844644
2055417978
2117243144
1169448956
622835526
1918727473
237151583
717832532
233085661
1412092438
1792837066
2045873424
1654273965
1584063965
804616352
1536966675
369811142
303477483
1433167845
951024450
2047474309
1252201263
959844087
1993735249
434954579
1774547914
1514713461
2104188263
301182825
570153599
1385191732
488119833
1050356165
1777938560
22322343
1162769152
619751386
1714870288
532212977
1207492318
522257883
487360456
622881788
1154191714
647733038
349138787
1902005071
852070677
121786599
177841144
649834954
1605282394
1564443549
1132122962
1979460154
571418711
2033925465
284377554
1521064165
1679709440
617102504
2092567860
1712372485
439140730
1124211328
787462601
997665791
688870883
1869968523
83756554
1211364257
901786181
126557974
1988495227
242457992
1353328220
2026856294
1356697064
160486924
1815112169
1083059928
12374282
1191874820
253918433
1063093131
350053330
1195423836
955140171
1565434914
1533767837
356540793
1988154726
2040496433
2001354196
1158188153
870766284
1122310051
156039784
735078886
1742600306
1523047189
212128132
771238113
1269299142
311109585
1290094308
1785548237
1787855915
465091972
1730140994
1533775894
1907812047
979976523
381155498
950223024
1238135694
1556268987
565192360
2129541242
697876593
1969645330
257001017
2111589947
2033493679
346411581
1865324149
729830610
185404007
2121923063
1436696746
1124508116
1625189137
1632876574
1443638391
1522408411
1744452508
1543471401
707484764
710725576
1363608315
787816126
1628967342
711528555
1720468494
1200386465
1602091244
164633559
2142973457
1236286723
769105456
785598881
333009
1455945478
143403254
345293336
196129016
246523047
1626366258
1454160634
1958684729
700758693
2102131291
542129909
764534145
284625156
690235639
2092071758
1709312412
56405046
1848409575
845780626
1333467863
643565520
425659196
1673530936
1699274142
1343146245
1591529406
570138004
1886022830
1902702802
1113025628
2042800982
1813703054
1071572337
15015653
988364923
1382087796
476286410
339740692
1578010166
1217797228
934769411
110212556
1855179778
334930012
438430434
822868282
1201018553
864785921
2127383054
649069006
1051931973
1977574336
1629429280
2009383393
126050464
1577987936
746942609
698194756
785408232
753078125
894570520
829575996
78855226
1741882057
2069685006
2015972926
685861981
1086763266
893797046
1746212148
747806096
1321464615
1163025392
1153835325
1636299909
413672273
2130090698
271707981
1977474275
138687743
240262083
126901777
1752260361
1967887935
1625958127
1299206147
834797248
346478106
555987285
631544315
827924807
970659491
739436518
986330398
132119460
2102871202
1666826580
1011399924
36505803
60299012
1525586066
1053700852
431097914
1312020613
616812238
677841530
1389593472
822015656
1651078654
343113078
1775426904
983194304
1323434669
47917257
1259595522
417106411
553846575
1358950351
1135017921
1051102550
2027615343
1779509605
723564957
1372955257
11855208
1333793764
2145913009
757248812
74674486
292983102
189004068
182490790
1803368
173091638
579988821
984225994
143148140
792551387
2133681150
355519157
2002843989
188560819
1857177286
914201411
1837760471
15800342
1231208563
1611937607
225035261
984152882
748264116
1099575677
1081787109
1063110689
1800545550
1195569825
1908643313
1985221148
2129568410
1948349087
1626211291
2051608890
2122727514
874559466
265689972
2016077855
1126405111
48504776
1317688885
1954361191
1669112115
846229320
265667111
900385319
432892065
324971212
2056074275
950403626
1922956890
955889249
435716716
5762125
1398613708
282574492
567330342
1065358396
2077785768
111175593
1886168682
1338339710
498804772
1909507900
1406380612
534356729
22806932
342762237
345084579
1034908642
1866752805
2126019043
1799535879
1625663303
972580372
1024316622
1274187166
1554451729
1269412370
1246715218
1552212250
660659499
127783846
1513701209
2038663119
835738961
523311885
742281386
1590216469
369675198
780075479
949518728
1604314123
976393270
215554284
777983185
336901573
1508166818
961904609
1653841868
2135637871
68810930
735961677
2100744999
1960333906
2061571548
390594055
1654000438
1765030073
84668488
1361097204
203597598
1669359498
691781418
535991258
1027877425
1962490136
1959594057
552668857
1035346958
1821159104
1615056017
1242630495
69394554
1932475383
368639123
1169691596
13361032
1470601080
1458189453
21700239
19994293
246060721
1957478523
1208334411
1925707742
1312820960
1453648094
664982517
468927107
831111308
1136821851
612374410
931961864
2082818209
824434260
1862578654
946925349
1652693896
555730791
1546959049
1470141636
782534328
760747319
1467617385
1889813599
787397422
697650339
1540085748
352832479
380166261
1682743425
1048404138
685477795
1445014922
1691432330
907914327
1196282800
1918700544
642887300
200307456
529320729
175391338
836960482
1319743977
1866625130
47130045
553226401
691323057
958080587
1017173024
2094109943
812642449
1390944027
1377204115
510116736
249934412
1745784236
97816301
633554543
1840006270
303340933
1853571529
1450309333
1437919526
842871534
1695201573
574087662
83076505
1145271086
1595966180
1779635507
1458079368
1936135394
606534524
13939316
1748201546
1343912045
917487540
1102072973
150696895
499353531
1498556460
407014053
1645391107
1293967051
1216793244
649074164
1692379649
1493220404
421069912
1235078181
909465716
1613052099
619154560
283327875
1080195950
3491988
231542487
1593339827
2028055297
584909377
547998875
1077930680
707975538
524529749
1218922592
778964251
981950909
1194076198
1290729400
1533978587
1946787306
808446879
1093467290
1246356249
1135150405
1185288285
1666705664
1806264921
930337479
2028400679
391546989
650043403
1034367771
247308780
1262268942
778869495
1103034999
167262425
1291330402
1035053368
1156441081
975686951
2087084601
1434066275
1938249435
2126597404
1257023207
1494524579
17020231
133174201
600493809
1840142524
1080570487
1066093065
646076085
1280702481
2130391205
1623134137
248142865
1160199885
458106786
639265237
1000974453
90154002
717624162
1523776717
24101704
1228756212
1005283655
87002006
1348865077
2108258387
1676318559
1294614541
1009900746
1959705424
1238239733
863746964
369144773
870131072
1243265610
576712448
364340838
123483459
429409406
1518713688
2088590190
1988903886
2116912670
1002068217
756862111
1568158106
1222296522
1778485554
1825640811
1752717915
872044707
1424723415
1497100670
1661456819
621865783
807004463
509279802
1189930810
295054441
2030298848
427160963
936768155
1782521311
925625281
1545546788
447440833
2020794293
957779589
1820262259
1056453595
95618821
695498585
776163340
468279449
1960869022
1963984964
296485868
1904607452
694542918
456117872
2085458049
836789505
812679648
658422011
1497533829
1830918003
478200645
1001068969
1554337469
376447000
1673210458
1124953591
1212843427
1456673069
1434639801
231206429
1708518721
1179802514
1678161050
1466951225
1952578334
1253403244
176803143
1752290877
1980996028
107022372
156281753
1166105080
471001882
821398160
71032388
528865712
92410608
1718502976
1228484207
2077557280
539691262
1889750095
534009005
1437336853
935162553
1244556546
55588907
1190699312
580224545
416581000
215069842
396554845
19199024
548672222
457500714
1739131447
792123994
949620483
1925581439
24989773
1416084823
318641435
494324250
1060678131
1934265130
1044827363
1271476990
1313958669
1825809839
303538266
1248402704
44568056
667087981
1451800154
1611473508
1390064565
1776680769
1296709698
93854994
82865358
1932202032
1674829188
1863593406
59590832
278814213
954318840
1144015294
1224748717
663371374
1184856035
856248763
1184595307
655581215
1845657915
942124818
736719945
1623854460
1324672558
179993391
1919771294
2127132151
1276196108
339291396
398630939
673055098
1339079590
917819302
2030718357
1649125798
1680673753
1698807834
1337515267
1626168574
1825949542
906163231
1626628470
981886957
1463530741
494913576
97822612
1673455753
1523718975
1863144917
1274418716
1617184630
1862756018
238309842
183522625
1269218044
1804997692
1897689725
1818345582
791466185
1525606078
740711855
157326551
448135410
1570595438
989667200
1766005445
203769616
413635031
461908036
1523523014
2045560178
134877521
323408582
1375915144
938700554
831611844
532574883
700901700
2033039802
460427035
516155965
1643901459
1581406256
354222015
730450276
796068121
1404304594
1341896052
24900517
1954784466
2015961981
2026092403
1846660581
2114914419
1569383445
2035536080
1994388778
702710717
903072876
1175557233
1498578178
1753840514
1585955567
418097450
1838724395
1572878921
1139667090
1061248726
1047230553
936937407
1061532433
655395221
1400308220
796985775
1632606064
585803335
1011961090
2122345398
212032515
1800554409
1577449970
2098548684
1500248828
927058268
1566620894
2060191442
1984084972
1555844329
1010783178
1354436615
402804479
1164574121
1616119116
406282753
210431593
576757117
1038198344
1647409813
714115455
760829992
1226451013
1082930996
581694887
1823793334
485011505
1809741045
604514930
1523504328
1980773334
1295022389
1495564814
4286814
900178071
879108503
2001011807
64642717
370969005
153541675
1967765928
1780628663
436559475
1295280184
2093351867
964089809
2083268688
1413569930
1246822678
1994005486
207278355
645430695
2015884995
1924538837
1821503938
403032986
408666833
603425489
242427877
957508639
300045906
1526670617
549975204
1589923274
1711617979
1695275068
1361977980
653433395
1506151705
1272830260
1578283908
2103438539
2029137504
880027276
1900304445
1382765639
113131500
2061847749
461794548
1615403613
836949014
141849329
229474542
217338839
1213404645
69447164
1408132038
740964673
818314138
1696898521
1680391283
501237507
510558253
430461296
1075193591
46540196
1162962477
1672442574
1080482496
25450918
1273168355
1083947882
1442109824
1552465043
1351912264
660844668
710321211
1632746578
406091954
610903810
154827408
122250311
1545035886
1494683780
1611866293
1700867311
891478978
679284406
1774136729
2059375647
1257480416
1633374230
1207165139
535854641
1014443285
17708015
1549042109
1395219675
695408350
973420263
658457853
1934762074
1519513657
998418219
1249426106
1654910880
1068458398
1334157412
167691702
1926146188
1513898754
1054822500
1164712007
1773545405
733200195
177504960
1752513501
1593334077
1715109306
1825338927
958930434
663556245
1738593314
984479601
917973005
2112924051
1965097533
732677819
1807277064
308965219
1079145056
971064034
719649720
807390793
1944782071
1111514854
628635203
684018257
1627873836
1114758343
646406041
1105084687
1674794041
224973595
2125147412
1805414548
948644329
248150044
1334672656
445663410
1072636073
946550422
1862345877
846922369
476173936
2084702796
91047284
162758963
520799398
1079190494
1534405942
699333037
779469354
154326215
2128984658
308175756
642288965
719438966
2131839843
1798418605
700931628
652438432
2095265057
900845047
16875842
2039470385
722714667
1120037665
1520367942
2009185841
520466392
1555860389
845687227
18989559
2062962693
1303567933
650152127
846208680
105450506
575724873
896358834
1850574215
953650175
1189459877
706834283
35932885
307190765
1565261878
2137454175
1609751058
1321605452
1870603954
211830515
1557689110
634202515
1808774985
435732344
526724336
1097726137
617046941
1430169273
1741570931
2123874098
1609421351
683611704
524790369
1353174985
1405040513
526183473
585362088
1305833228
1313191416
1329317416
159073759
2053779473
451315048
913834789
859513555
1557126055
521397400
193252730
1151255015
1016913603
179622027
1021914472
1169307961
719863770
1647543644
976561058
2040576122
307109333
356763072
573033224
565122519
288208425
1183968372
404718346
1105437205
1221194495
1571537643
1292706331
616318027
404062569
1972642634
910372756
1181998841
1762881552
932339503
2124031630
2138569521
1272272053
854487209
1954725747
953138710
306182944
1198191215
297747171
743777288
2078251825
1097719823
933028682
767657407
1093965455
1407786512
1554390933
950952869
1912717297
758368850
786902390
46889782
574957689
2032489590
402484055
413868540
1302623862
1004756378
508222137
379972342
691389277
234053908
1355195008
1584828905
1336803852
1665213591
1090754955
1028599963
1277029775
736817256
153475151
1296611838
59145878
1187286948
2040550201
2016263904
1571678743
1789008011
1286831460
1623292655
1371416508
1553693781
600175251
449062826
592838552
2124013584
483404062
18192795
685089050
2057288863
2083794088
611787750
1674559720
207406867
964321385
1015924037
145243879
733913189
864831718
937794469
1250514237
542068389
1797676758
2128060616
1559776599
1314028642
1616505004
944942651
477282198
1538425125
303553980
1588120017
865949823
468595253
618516372
899791321
1521297223
123238882
1606278307
976478530
2060743856
1528477934
2098899706
1868850205
261890027
1552608629
1049651523
2062521177
338855527
461808743
1235475117
1467654500
584642792
1956884809
217081791
2033164004
683182719
2099752485
1269709053
482655677
814210561
1876378695
1871272343
403693176
1250549108
583941207
1726144848
1718051776
9400039
61953623
531965704
1378963289
281314312
279636560
494139995
136422758
1513207716
1103319118
979494463
264837663
2046522280
1464209582
1525906442
406127635
277323834
117759093
871998461
1048681026
30595348
191450447
1114372289
1868527514
1147022509
610692599
902572572
1135437519
1983799738
729483959
1413178712
996636544
2012595572
1897253200
1232783683
21780910
954303155
852232460
1613750290
1824129627
824409860
385125324
1457922186
1180866484
957465007
995550529
1483110900
1738188185
106193355
163623972
421389440
589404468
318438473
779198884
963378604
23430646
317895309
963586634
1322428506
962802011
1617277022
619785608
1545582704
1919117146
1873623559
808994499
180987102
1106679444
1738490742
926870876
634929502
78623931
1797295454
1825987560
684884256
524249707
1963215819
501236331
726286745
1756399646
1600279856
1769356449
197073662
1973862787
1269618552
586159023
2058435733
933278404
552507119
1608107357
1759333780
1650338775
968537228
84563169
1639602139
1286325563
595000300
2066506581
91404919
150256661
2093595017
204050177
598811409
1025250982
286529950
1208589549
1790611788
1346244697
1124207900
821454851
879648797
1478151618
811120969
1396021788
887445510
1191926193
894201187
1460218701
747162257
914483302
365371605
126331735
1100657356
1228301468
388528520
983388404
1263001788
54543168
1026054668
2072433296
578628424
494837846
681900083
1379337857
2061019795
1154458210
1195735754
2134395630
1479539208
1689790325
385491070
79345305
1799651988
272414941
948104509
1520439400
2053033249
1389152148
1749410162
880185507
2024398051
776024283
886945662
1299408974
289902910
1242499504
1860839988
1067323856
825692211
1525658538
1439351740
8218891
88488122
291453309
1896690273
917998547
1869028599
1752298002
1450715246
959808003
685933671
2107796989
1354481983
695971265
486569521
760785734
1928359995
1074267106
31443767
118198638
556627599
178719734
1398130823
1191032365
1990189515
164669567
365871610
1656121633
900403700
1262331777
759743319
1484261541
381405140
1426528907
513885115
1494523275
1452718923
1841329934
1066327884
245481377
1426831688
186482255
734009769
833405469
1763068543
1909779987
1270360078
1370498887
1200939339
1452341410
1411564374
749428092
1977585654
417236274
1652032216
752730798
1101481728
2116827131
1038695950
583397758
463903652
604652097
1236268855
346444866
2060260779
905706377
1610075458
66061003
430835171
1280065662
448558812
1410655623
1880876195
913677289
34915096
224534980
1056520052
1422866281
763602252
161730293
1550319543
172987056
537413329
796062101
715174104
945161364
80093346
1009696858
1138339408
596378328
1950228154
1002582085
1774736014
302985805
271698187
813090948
795114563
1748320210
241792730
339066714
532129186
39485417
951486580
1203264910
1419805111
122443511
2058004842
860400510
76817207
1879075338
1268587276
1339253866
109423215
107583040
498534066
103560210
658340864
643543618
2027935612
1300576610
1804140241
412030251
176332062
825938957
2127290800
1895098241
960853474
1765062618
362539759
1856846760
904659276
2000505164
2016431463
1963978158
280877424
1188053506
948799348
1381583782
216667661
469867740
1282853049
699106814
1098962559
826132952
1531830436
2067130240
297522187
985934583
204125444
1853019711
611253262
568121308
9650048
797809441
1150947934
686467745
1818039362
1646326310
2067028742
1285198842
1667330225
1621058384
1013665216
496055974
30199904
953573891
816664305
2031602947
66260207
320681491
1945727477
1986614364
917570342
1927326562
470631565
291569999
1636090265
73173636
1881776153
309001291
1738882780
1953749242
2068284340
1857578464
1568839608
481878263
62256971
1524081310
876074376
517341813
2033841561
217181985
1687633049
1604864700
350838170
856636840
798630314
729601277
874114528
1826707626
438127003
704770641
1776109152
666325022
1039322564
698161779
1487073942
240790781
1651674194
787915608
532249536
1437855381
181541992
514605582
109544313
172084650
1219317359
1144738489
292939117
561170843
625487983
1783883857
1386472039
1966308258
1546886566
770024983
312365474
1997026433
1847415952
777477757
1534253997
1396072199
1119130670
981105767
43531412
1805528569
615269284
451621678
71601582
84250347
1526964173
531527205
1558878308
951412579
2128507178
536787486
196554856
929700162
1834339036
676887660
185046495
699944439
1489653768
603427820
1374805716
2099710878
90243961
1679182194
1545104184
878711080
678665185
6239984
1126260033
1542945401
853369861
690155717
659234118
342600779
36544503
620918219
2058805953
891193637
216562507
1491035957
1025656592
1663626612
438272004
1644366063
1407770612
302609107
1959433213
2005731933
1816584556
1129283027
1332379580
2036012446
1005963260
2105774331
882769032
1203382499
2119961423
1504569819
1836206833
944944673
984143861
838624443
911757398
971017038
827642391
1797826870
1875328426
2036826735
1168170798
90152493
800439827
548796998
1372322019
411772495
892513285
254154442
316212965
452928609
1065767193
984533089
987611511
1353369390
778381938
947232036
1056152313
68099563
417151107
1093818570
537113354
828109994
885445838
1591039155
1002885295
389281836
2023886859
1308731426
628253609
800662177
1441372177
2131499285
464228340
1738698670
1107568363
122672120
1803108069
3922051
1931408
1019866057
1846426271
1683069004
1045416233
588030699
1365528296
1462220910
480697136
1102805768
29455564
1203692726
480609877
1910574388
1415578531
969377704
1142344873
680503872
26406022
549727977
1846770270
1113441142
249494368
956053255
1497713198
1416567314
2141332023
1560264742
2056295758
215726101
2097269349
228452870
2003667134
895856654
603533321
1565415520
1801053044
2022614556
1249952549
791609203
1072446813
440278823
1390908078
1020737363
1731319026
1783208472
244825669
492902695
874505656
1347383100
1067380946
321528588
1560380997
1836415309
2054414962
887891014
1743458091
1908180298
2140267274
435122533
1499203636
1740212915
514026619
137847018
2035851093
1655024569
1393867877
1051332381
1667475173
668335573
201815890
1414818407
1507990500
499915186
2009092565
1225492418
2106667956
3175306
885507068
1254899475
366473978
287800205
2031534727
1582960303
115165989
1033012704
298353117
146688129
1718338071
1793948426
334118846
1248363967
1489739413
1788497960
824317466
869360493
2061279189
1468745456
1627772097
379618907
517487348
1885140553
1914364981
1433855876
88433168
1360075425
462958419
396257422
63361460
1153117664
1394808284
754954149
931981182
1083164573
2011195081
970935327
1901330433
1994900839
1448239797
1359159831
2096651816
1374174055
513590581
1979785035
1053333443
178269305
552065121
412628891
1558154499
2056063403
29068871
1964288039
1257170574
848755622
441164586
1692435670
318970619
1404432997
1590544446
226593660
501874160
445676833
1863505160
56967435
168089179
142961470
1673265916
1627149581
1332673544
296825815
2089102869
29773473
75628176
950019725
171778249
68059197
232805090
92169150
1227154617
1799046059
1632602726
1337367621
1586437683
934313714
1120604337
1578146359
1320709493
140931186
123236757
1921028326
99735949
1567998656
1900423072
1811428753
2052473508
1509550373
631108330
1101700781
2036587465
1858782227
179549779
945024336
1727180103
648973520
333045289
1396030604
153165683
1606748780
375672582
664361512
1995410462
353176985
1078123266
1657325243
1566824829
1980052669
681328800
2140110299
288234468
1770584196
921874703
1500776044
1223114924
1009451161
1165680102
16468755
1713553387
560840298
1869516842
1835448869
1638684318
1515934484
1816380891
1702768145
1097517391
1126021791
751917181
974560661
1954590295
1012416591
663366471
841389009
207896424
1545812878
1561846212
1364816175
130495806
229315450
515775887
1865577145
1179101142
1167297365
68109484
1710260968
1107491496
878728947
1167839217
1971573220
1447284181
1732507338
1583685963
1342584250
681834628
316005422
1711071695
575099453
1008438128
1381029311
156887076
1277004185
1268112002
2031797190
1619764941
1632417010
1137020991
729191370
462758410
1962124240
303089282
1315013991
551054954
512845028
9316906
2109519569
1000060787
416503440
2100044948
453244950
1632685216
1333591600
1950027165
770893896
1617443137
718973297
1421043369
999905677
2073616760
1682953647
1722883212
1736441081
145041589
816996568
1388106052
631133956
566665388
306413921
312225628
2063793245
1426669225
758613688
42091172
1177490627
2097093262
115171522
1805179988
1195780373
307606656
680980887
654048097
592655898
1307951988
888349723
1650475091
1694763339
1601604484
375049584
498951725
140240242
1271774175
199316701
729138668
1845390860
1011143993
2045387660
1385422781
634641493
501028870
158588313
752283117
1474788159
1835727641
1241145850
2020048590
763456404
1825712355
922784315
1462572866
2073866342
1105921822
863167479
1541266616
318407426
666551109
1110685567
1325483830
20180936
1724312269
2084731365
1144970298
961198510
963479579
34507701
1785852086
156927743
357222543
1722216873
1998287563
1982551436
181742617
1486343558
669695265
210122434
142162481
359046580
322334698
1934447596
1318961346
29246843
1650349116
142097111
1176082946
293330398
388973827
372601122
851704640
2146258165
662840115
882004449
1743276680
833791756
141479360
925511863
881229104
1993561679
881599947
360564300
828964360
1152912220
1322653666
263447811
1933122539
1692038468
1039314494
1755608328
1591410499
2115748365
2041523015
1764669444
2121935105
1272112807
1185819671
2147210851
969898177
1187229505
1113575921
871281291
1011464880
2035259447
1803351406
1185023423
534887841
827419870
1096704027
1333118078
595784301
1060417765
648613540
1187826112
1209110750
1928974547
1776843758
1815858382
657933967
217585941
818934302
696949783
859794762
1632532280
16508355
260612589
1332463912
2048131532
1126979595
1221964107
1414188661
360270015
1678852210
1642076448
465072235
1915448728
534904635
209256844
475166567
1969881924
337172515
276827918
1816747762
1398847398
1691055167
1783058339
932625380
58049079
423193624
712011540
1304570683
1868438760
1296685589
35926553
1736296335
1961395522
1943074013
27605978
612575213
2140160819
664187254
1851726245
104457698
805878274
1865903503
951228271
1406184392
1024639262
1645715848
14703435
1620167401
1913438948
1254333249
1167248045
492591556
1825482403
892616631
1168651834
843766404
2105704311
1301403001
1375620528
363882752
1347093811
237885213
1126161689
833974540
1370018910
2039270735
30789570
704441529
196048562
2138648890
280788444
920332906
188429138
842552944
1209941820
1405557696
829990596
454712750
2087995689
718220073
791618458
1270754958
319738226
922393123
1147066877
998406682
394623808
195061703
1071892701
381470003
934349619
115130160
535721403
1601141354
588211036
1903029475
490957967
492307572
630376417
778165878
1481803954
1565388953
1962765209
555558697
1347880163
1712068676
185221830
1482985392
1104237319
1386009743
230957394
1496460134
46906709
818034424
848043414
339670800
1887096240
1406356651
930102562
625606338
48922215
1118267499
26437956
1933970560
545862334
21525803
646425292
615964236
1417770490
1967476582
563850877
463922240
401835353
1167927424
893161750
1354663729
1866440381
1566371933
2074932287
1831204496
833755637
573032301
1903319518
1861910209
1795311711
2114156976
1324992756
1950377931
1664425500
232915061
1444198942
2086296234
2056560737
478219386
1259293313
137318541
747446356
190355562
675330526
2101872735
895563975
1769046852
907488608
273483143
63281271
974991950
281001131
1064179131
1351979260
1403468645
1202439563
224157536
1810984812
1211766593
710183135
966785148
137862420
2035276770
12455410
590480211
141133570
1210580627
1566199764
1449416341
414011107
1272651285
1762504888
2134878781
482165410
264623454
20297326
362892850
1228283198
455316791
984813294
411134224
164957792
1691518741
1545067607
300596658
668371899
1549366979
607865088
1699543436
2026301371
1533592956
965960801
368216900
926266159
556753586
1775650442
1132658895
64808179
1794953237
1887665365
245034395
1861011974
1405692555
1310113308
1872910461
1313717740
1583103230
1355081400
1177203441
248032056
1810668069
1254374695
121460288
455562064
1664073682
289472041
1965263470
1702715154
1911832525
1111437523
860951541
334182128
494858994
1992999617
1429883561
1263248145
1141125952
1912007909
922662776
257766342
1136008767
206429986
49363623
823685595
838917892
242332835
1059502770
1224988216
1739456607
1691332802
441735598
1148619505
617072527
291947092
1868968982
433779505
825595356
2143440993
458729212
1226963789
623530806
1651134192
1224089049
1656238369
1855840456
136944168
1113024920
1752016073
925536956
581671768
669818402
2028048338
2143793747
1192375498
557480267
1461896821
502925476
71628499
861949921
89517972
1077113110
1104845507
1706460552
1381139588
1027240527
899532886
1022200228
1732745772
882041349
483270970
1496735324
328822901
1811975754
157193618
740140590
1246284469
1616703569
2056388707
1189231420
2102726753
773383701
595004298
842026085
1084896507
1206088967
820272157
340395073
1598777382
1745786018
330696303
583448410
1384877603
1131085738
1261259486
2033293771
1413775441
1114902402
1718851941
1844510260
303961218
1740938658
1935793788
1660885982
1494609566
284028505
1405949640
1478319167
1704531868
1760141932
2042178520
810234544
1570790966
830452349
1441994753
745109760
1465941872
2065264636
1404261142
286480140
809440994
2023395295
252282320
1171632135
1558009399
1459174821
183666462
2014189899
1143571972
1584280671
119119792
1809471701
612912719
624288254
879105641
698444407
1934018043
1107005498
1788216487
517934936
463883169
908564623
675770993
351986473
2079532571
912891179
300989150
286522192
2083974000
167234505
1399404450
1137314919
456635075
1864116129
985872102
674044171
1402276782
1305009172
441988535
1293723500
1140047373
2131531307
2064147810
75464848
306795406
308275145
1724806988
1474098527
326657664
1071952134
384348568
704687657
1435417494
550540150
402147988
1500643260
1142300765
1432054571
26742228
128436800
990450973
1907020281
772491353
1560403934
2115779619
1632872705
1908800482
967897472
791515864
1797958634
699358396
1070991151
130707614
490539455
304059491
54688900
1188909169
719980669
934924078
1868662722
1957978272
758558289
1986236242
468994057
1420942068
1066693759
1639598599
1432968059
353838327
561250744
495471505
230227253
175880259
1461513071
467264238
1053731848
94425874
979599673
1769199363
2141804710
393408424
99982961
680272461
695933874
1613366661
605521010
348518207
1781625834
1402573108
1808383238
1787956282
99552461
769745990
2104558767
1328820300
1361054797
684736094
439958730
1573857119
418507140
1533619235
529294768
1224199633
1075301097
169652581
1108779379
259032482
1239706732
258389877
972045658
365816402
1709346227
1772242505
1269220535
233163960
1244981287
1677985030
2013141800
1879668633
1260826085
1036812704
509779629
1764506718
578129765
602096000
69554563
70731385
1090406836
1177262441
2092633408
2079045668
1368702224
1258573350
1566030980
232001231
1139837675
1619197077
2019466490
1441124031
1253522451
740051349
322996816
764704765
801959790
1586092799
595677174
1077330363
1043632001
987699043
498926419
29302734
1088983444
1826467412
1134978671
1944620482
976566994
465234051
605508107
689480678
2134732718
1000784049
1785472873
995619607
1332939060
965067498
679693093
2028054724
1340847112
963556782
2027530071
1458273374
110843417
1100810639
744306024
1315365350
161283411
1353257454
833523985
496797656
315839807
116851902
27955658
77797895
139044365
946717495
523562371
1909608153
1306417726
1822845330
509403941
913521397
1558187324
149268531
823454721
1125051853
711336196
407888569
1708553936
366761425
1431166362
1676220693
380283267
1961782349
1759843726
1292998539
2100374463
1088662128
963335739
575696644
2052979044
603440355
2075302921
1868346617
1590115264
477671507
961057348
376867885
1652305208
1623190882
649156783
1379988648
25035310
1576082846
693948744
342713326
471063641
434036442
119502779
246031755
139641982
194441159
1226292836
275022545
877833376
221682920
1342764474
1158656933
245988001
1556640694
1884600691
1136760439
618994172
957103906
668723021
1242968137
1172149868
36326608
540024282
1768617405
2010660395
1702033330
866042204
1587730894
949275665
2120973794
331254605
1103374389
1199413602
2122914784
2085134416
870392721
676583798
1478193477
220605967
786198290
517003771
403123312
2059112843
465190415
433409788
219283376
999949811
1498369150
1591714794
312532183
920705572
1715379970
1151489770
1340701067
917974860
1851198358
1840470524
2075663329
107429678
209815902
980254202
940224057
734276167
663832824
322757761
1608653713
396578327
1768330451
984578732
751498258
2035426131
1828026841
146963061
1757305040
353477707
1625372325
1191572949
1948004533
364919553
24999198
1599039607
1050649573
1308309383
1982220566
752112216
1833885917
1025560115
1258289699
27646347
1183262723
1891343757
1901040416
1487303953
543563888
50380106
1706900039
909287105
1961980836
53040154
1425101224
1742048623
1786622529
76592526
1411211098
629339992
234192973
1704986907
69320175
216980595
801245364
397440987
992023632
163338373
1261812364
1294787267
426940091
2069659042
460999869
1935417705
1006898593
1268135424
2296388
1096599411
257730469
785395359
379872975
1845195677
462524561
1901447481
1964104263
1244439887
2057130501
49288903
1034094152
236133298
128646053
1682692529
1369514190
446413536
923145139
801476628
1031645633
1238891342
1803570817
827622794
250832581
610262779
121507793
1601039961
556967751
1914990646
1660596704
148441217
171561140
557565949
1207277259
831342460
932918084
1699716103
2111373262
1658029301
1880171981
1048007943
1997254150
553860061
1516333548
1181134029
587090684
1263848118
1496373414
922342662
1864734768
1617018261
2122864192
357049517
74606543
2081169483
283905797
1216761610
1480088797
1638258947
386267811
606151074
882144082
122751580
503622035
278514295
1837387951
1571978495
1911511129
114075161
218061847
2033128198
1179667498
2104202826
1501732336
1343046057
1488353158
949280850
933259639
1928565611
1705993706
529502847
138726277
2069705266
1543139402
1423340306
1249887240
1706916389
282474764
1220179549
1892042115
724276038
1399419165
1594211571
112917968
814683217
476570315
69736895
1974461827
124169216
976537521
915808386
1798412665
107074781
1088643985
354663546
504199618
1848020360
815196458
1933790501
1801687807
549199103
870491847
1211256443
108350924
1748228892
183204282
104629647
989980580
1665729554
791382844
56539105
186757734
1825608206
1993954426
481421587
1051794816
888283064
2115168940
573055257
1266451811
1229115925
1594790823
1615051478
1383975970
1929071398
1236378113
1234319966
1201453487
547464349
1443797231
1372826231
914564066
44069017
2087426380
14124018
2016796479
409191790
1888621798
456661848
306411157
632639304
893963156
2067633860
1635363701
1714449025
402198302
1414622522
523419308
1455900072
1671450458
529230731
1097564267
326241254
2102324831
1476477934
720578624
289478556
1133862322
2040636186
438695389
1797991342
1969258764
1703137095
1103337570
168867626
333863824
1656016459
2022858723
646782509
644088777
1789596517
1906324743
2102332653
2106450005
1286190662
2014468261
215011770
263400208
1937518726
915729777
1432993626
1169538737
1024697463
597378770
1523685082
337062462
1538173689
1086456320
273611439
41684179
609528329
1958995496
1726605343
1327938421
2123215592
1687325818
1729837582
722086826
1566566523
1363398678
361902739
506865851
1102802226
631572235
1556680197
2071842645
