9500 2117988151
1447138181
1976895618
705004172
286221803
2092012697
1041682118
531606206
382762852
2045282162
48346486
1306513479
604316863
806389304
2103686680
512238378
1546064558
657437559
2099420289
1217746748
1633130633
645776176
996370727
1730965561
1588780582
155863703
1153677970
532534914
2095952357
365221947
2050900118
290370414
2097602388
890754231
955463161
1383699708
83168519
157756035
1781392107
315054599
1582965658
2137241291
322971496
119629760
2137340594
507805935
1995246883
540943455
841748606
35044159
2017157647
621329399
249890624
427133701
816405072
707079503
1099607036
1893374240
299514580
47291722
999408599
181955065
1962347331
780530575
2121982866
2108652847
672878791
1909636794
472419598
1271871311
1548144491
941645928
1577244093
770937005
1282233653
252674636
1007784998
1253084808
274566112
56348899
1767249939
542933651
1280824219
1648492878
986539625
862589863
1347298401
1636441212
312738108
1684213345
1072036193
1937183756
1094989034
634715220
108347995
318545453
2047340340
597722432
676552232
532437532
158801157
1245484788
1962351984
1886075921
1864077519
2107528507
863685616
358629878
1427337348
882299628
490685301
1546481468
464202902
379031908
1485243987
4460882
1332215045
653183313
654467225
331697140
1678502144
2041346635
577082226
247459095
2000442442
1669415882
725747388
440175015
697570633
252183813
477856600
395895111
1292506171
1594574181
1741845997
332630773
1001746515
108487801
1981560967
1233709295
572010190
1137349216
2145543393
193094983
1681486107
921931821
289550120
1826158134
83374667
1437611973
235194311
986442164
455052993
329043188
1359594983
1603074704
1743098113
1749357633
1815910767
207793139
245205258
1990735025
476972389
346156624
1032251803
918576912
915055175
840960802
1270984448
582958740
700934224
2128468311
1754353154
248525034
746406233
1187854693
1949771961
2068924085
1200399237
1873926670
2060291454
1586760605
910308207
339624927
229391740
341251700
1993698877
313405039
1610578572
1447649761
1908038594
910105412
391814525
1510501470
1277118791
1309162365
825177138
1848254435
1276087151
1926404860
842115168
822313892
718555219
1890751790
215248232
1090335422
1280068085
1078170006
1210234524
258383184
269736035
914818786
1885582717
1272516745
1400216683
294111451
1057972266
794527513
1094551899
1258461921
800964512
1134051579
916901568
561319381
1675216293
462758882
1388172411
320053944
1191226189
1350558748
934230711
357054568
1511446358
1983837130
463267243
645512908
1664830493
546847737
11669417
1862153169
2095226341
2061409284
1246716660
20440849
511865222
1631007496
1732779039
1744766583
1029079604
1537699578
1867068500
362312248
199765893
1346168142
1537446819
1822087572
723621071
985658320
1909607337
121839171
1339368986
897722328
137746679
282657187
1942148877
536440638
60648861
2011502655
558090518
888737949
1180124128
1998128780
1155891671
1803119372
1201731653
1844118686
811444431
167739126
745597772
1090890461
509562458
1708473847
11643971
2110588508
251312497
1550033728
438856578
1129968768
1079033361
773821411
1012888663
2121058356
1468177295
2140833556
1192079226
1425552591
31941258
1718089238
244591877
822444987
1857020829
212374745
2018162594
835915656
2101486942
522998374
309620119
1697515874
1555391042
1731993755
567632721
170427464
485986294
574391420
84037250
1097648493
1514499191
1585049333
1470314344
1989080362
935203984
1569709191
1845638008
2027805350
1308304122
972799476
325003088
693383161
112612618
1317840975
1805750631
1449853696
379960031
595643639
1931566081
1437496646
1658284941
1849801309
1432336335
638959589
519423266
2110809061
900267348
1698660547
1442656819
1058140785
179869746
617827774
1460434825
1498307666
1486354585
879333757
739806053
1011991995
1645317678
1065004984
1349317437
1455532233
1563478406
771125581
1359063468
207013380
1281894278
155498684
1489997242
1758256339
1477853740
1049656712
1735153597
1970875094
1648553000
1918767647
274143414
77116716
277697103
948809330
629030920
914839600
778315302
1728791848
396896797
1915789260
331403290
1619828593
596063672
53176198
717138323
534692238
308437900
219235213
1082605455
2070124274
1767603100
79867836
70032546
192996995
1518058336
1701382332
1881840464
1440845523
651169010
1613188097
1500004332
1518996009
1627243455
1384816751
11672454
1591819136
601416882
1626056097
1237759414
1441694178
1487205116
655461686
623771359
204346691
348735126
176683589
1211419328
1216129613
1726081844
1463331450
8737356
1656446734
523634120
1878648121
1190510047
1676472028
935117650
31634617
793098332
447557340
2079968812
1381361237
1889798132
704893477
1897549237
1825886709
83177992
2008249879
1121676100
650832642
1123296254
38139475
568549753
614668507
1634068074
238487862
206967098
1150801404
2142852875
1153311745
1770922288
282007925
579594971
1306044303
906208156
460523161
145520767
576017334
881411115
1821926677
1465191048
1237451776
908656321
1927537014
1517599158
1933358146
168385933
889132475
2013433592
1464388673
182730522
1393449108
2071096859
334083134
129508497
1014519496
142935976
996389152
1904019602
1466987180
1389089631
421792011
1204141216
886369524
693768798
1064398529
844550124
1276236815
2084297036
1134933812
232521081
534363552
996942583
634508384
1845830104
363152833
1294133749
1003297435
930331263
923424729
1534348121
382782507
2013391594
85737010
1599713538
1038151149
202115981
2066053937
425591737
1046700919
1803927546
1462528175
373679332
2137412407
700683431
1003725018
1881993742
1932972744
1191323136
1078406610
850464199
906550170
1792265711
134709983
585413319
1603372550
2059262549
92486522
702631421
1217695550
1080970083
395355241
1123197029
1149641686
1997740561
1123552267
343157259
1384248677
528221591
1583340038
1150917509
267949582
1724902001
537620455
695947472
1117002974
1002348693
436064590
635425528
502600133
1647862023
1378948079
1515938495
2097717964
1842590993
1236506752
1283361597
500768564
120253320
1855720018
1139587808
165264453
1083840459
568666074
1599334255
869179798
48666516
727863919
1230911089
2006072546
1115234700
723380139
2144776371
253288240
972249859
1351770281
1297742905
993239014
1460270909
1565473378
1745624637
1303611870
1521245210
968533632
502023572
1974341415
1705169368
666960642
293575989
633587191
1189886109
1751325379
1202464233
661285864
1631864451
1983131077
700225863
1834693443
1633373908
1207484757
614879991
2053527194
1181257404
1672951840
952779755
957150451
1793066284
1672164089
462023703
1801598647
1261752261
1806481508
2116639936
1775548662
1018237499
1857824208
597115680
983646866
512516933
159639151
684980717
584040518
1267319883
532739327
1104192548
750487626
847650501
1470309078
784289579
1061676878
8407691
2136353013
1408048369
1140978799
784571475
1577353096
677344863
26258820
335412120
1791295203
495797702
989092652
1193968012
1627670379
883767356
1396063556
928620137
723186087
741476574
675905377
1400883389
551651033
170775211
251556968
2039722572
557007043
1182100098
1426660216
610600904
443585227
2038219326
1832643496
1941222952
657619242
990204316
1832380602
842512706
2038403580
1171753370
1257438973
1766683056
1744043178
65031766
1402316694
1649574769
225248155
1479244113
609277243
697908272
216631927
1381262257
15542206
1060143374
812664896
1898281025
989096063
499271001
1122813617
943705715
2004242342
535988352
840182282
516148106
9014942
281533663
914539117
1125371351
1925850482
1539732699
1969447819
1508499005
2117467983
1569110636
1209107606
2098817731
485021183
1169190085
323430596
1349912863
291004047
1331906124
1485279319
1769488567
819051897
1295395736
1905766148
5856312
1981366977
571859095
787836540
796869844
321744611
1080838207
1600042108
1748067421
944651764
756623699
395916494
1236242120
160021705
1273331215
1724647540
837023101
1127146692
1731873044
2094796361
755572820
1487388825
1963193474
626791284
1539109176
1750849424
248199212
1522647851
2098834715
844882627
1798080347
447766332
76418850
1454885171
1660356445
222969928
21848803
2071978842
744230344
2124029513
525378984
429033490
2058889014
440737859
805417450
309780698
429827090
1322693848
1925804174
1487275443
1710272698
924267107
1138365496
1589862775
938013166
1694384008
1773034024
828726849
1696902332
1794245414
1876350458
305093129
2043900794
86252752
1473135263
572383726
609639582
1308451975
1722670514
604387075
246923452
1974039460
2025506981
527047437
92569933
99808522
166032382
786490303
1404032522
1354874028
208933043
209115098
659203152
1084991653
892406594
2038682280
586636318
1613318479
378965344
1855598873
1948475172
220156095
982517866
323945792
1580134169
1938672643
1686816702
1421644555
650945393
324412177
1135512182
213914702
805398492
1109975261
523708005
185844997
1347289805
1271677737
1829253673
1954953133
564863785
135042128
1286846199
1404039551
203487026
1992771974
256699123
1638420064
1088637454
799141030
1182790661
2086317526
788212381
874367915
1267184072
1933370996
849811781
2010738951
1220185928
1246233311
1555742478
1005642793
243752481
1312048421
795290220
663597460
1591425070
1410954271
301242075
1490533095
1611229658
1102343897
85375593
2123878325
309224530
45287642
1302633581
1677528298
1915140096
1518808771
1537012470
890635754
1616058161
291656393
662702617
598651937
92430070
1310334948
405287276
2036608971
419080889
98006833
1063891597
215953385
1455058464
1167111080
1541623679
2101760575
1881839340
946878065
310921372
135867476
1771747281
828914463
982313745
1120215819
549468650
626324419
1652467477
2053442332
647075862
1848503809
1701883371
2034012463
687251413
1592245748
2068191443
1923115615
1592179985
583463837
658675285
1528581309
1135495962
436557412
1143644461
2076683892
1815342930
1623878170
761019983
484069143
1664547820
1821915659
677987133
884049809
1067440505
795700927
987505672
496460396
303790380
1996335313
66079296
1841069024
1432014787
1233200654
36106824
703965817
1047484253
1354542479
1623298531
753823362
551393607
1996669861
21677893
1101081524
337559882
823076512
1903611362
419833782
644495081
180195926
1573158354
1879725053
717242423
1807535414
1432867257
1811864754
374254495
746519508
1546056873
1758626332
1802011331
2059943352
1391647048
763738073
1583989911
945590574
807687931
946507232
855647920
1835925427
1416024250
367091897
1181868281
462164589
24732483
2036551931
1436253894
888507855
336567251
432768035
1266530836
927823553
574272840
519056670
1196711127
1741970927
65298219
1069308878
256846780
1919349911
319032323
85693934
1327880279
866314451
492291866
2133341864
1340078936
1102252414
294228709
388863939
1212815102
1449374346
1707757548
170852590
2075173085
272662981
235612596
2093244525
379196549
396120658
337546830
37604262
391712243
260342104
69839809
1579075243
309291792
1505786447
1676637927
941774130
1222342329
404654868
1402878267
1880674855
1351096984
2087649331
1122543302
940609769
2100894061
1672382705
1431535028
408568887
1248612684
1744888879
616606458
35270506
1019807291
138204129
157350255
439819917
198587308
988437002
1783973947
1872242293
1657857903
1035222097
1516783733
1556229325
698065899
829280441
1751761919
1711683776
215992780
367923569
315910947
2056358683
1721371342
2161118
981937056
399539801
912974795
1875913159
1081806353
1807036165
186916604
2042876590
780049574
865266729
355229235
234679008
1663029634
979332944
326217051
2028579622
890080457
38460557
1791237087
1502958002
1650037343
1388284811
2039570588
636759798
1680085355
351966936
538608142
2039282134
1733931367
512636066
2136771093
1373662217
927803612
1111414569
520437674
118498875
1461017452
1020007602
2095900895
1046862897
1522073751
1414944663
2125338127
1199294779
1230033276
1177704112
1477735065
1273457691
1835613951
1746622031
926654575
1952943019
2030874819
785723144
1767316012
632718158
1191135864
493821823
826023075
977393231
1255488183
1970823960
853973433
623381739
1840025887
1503105976
626143752
905828425
628333750
1897255208
1847605365
1140555508
147116442
2081337710
1621342879
1515425888
2038511617
756414749
336368773
378790521
1014129222
105126812
579504691
1158796376
1952246457
1689944962
627141056
1719851990
2064415267
1456513691
1745303201
755128561
2063750753
1312475729
377838181
635810405
2022668307
949734380
427155528
819968556
692267236
101867663
1679144585
336877823
213330639
645093889
788855121
1876787982
836920452
184654461
1953383543
203584696
1882921351
1133827254
7212581
1950496231
470918980
1530926304
179505333
364013276
1638714272
698945715
342920524
412308504
2060481418
1667317410
802950606
1889161951
1584926818
1286715390
1687064390
802383353
1521317780
258662181
373501025
1943742537
1015367490
1432932747
697016064
1498546946
1114232325
1855823573
473158501
946448611
285059074
1922189736
1697481086
143514198
1123970474
2054131611
838651871
675902011
1890683451
1103067530
2109668745
1772665246
864231713
825799747
134485173
712639597
916499860
268742637
1607771211
1793955238
1433935746
1427212484
157057809
1144376102
488931943
1394653169
986945825
1407750821
1039215527
1063488153
1197322891
671294766
373059744
1536582312
213539182
1922108413
2286817
1504427901
448641104
1259826211
1870405807
1614286265
1370195083
117808035
902958745
1810841389
1588391995
965475603
1847313028
598027247
1270522985
911877015
572839932
291617271
1249100756
31801304
799692607
339332509
2004546716
1828180966
1263936661
1136525726
236090059
812363699
1004664535
1727014847
1641032446
957297825
130733138
231772351
1986190181
1926685432
1411258974
1303649502
864108441
1167862932
453577432
364122989
2101100954
483037944
754180750
162055222
1728918694
1048316341
521238502
1329589889
1243158417
1705354282
1584160901
970977863
1027726957
102074649
379232232
1193855038
1203684763
1478700662
2002836846
1728299296
622111576
1158864595
615391955
391319444
325546531
206406759
1081680469
1819416411
1799187363
2091761251
103285984
886539594
703449577
1682127905
1531691145
2135568566
638786119
1678598736
160954016
1748615845
1467664262
609105528
169892297
871114380
1915397098
2033619997
1644469410
1615905369
238386139
1590470581
215214004
40531687
876064642
1309520967
1360058245
1885431829
1752487373
1282154265
526320561
1785564478
883910114
971686694
1157827592
703269068
989031035
1228312307
1182674899
1997097398
162347619
943679295
657353563
581300840
998587643
1324438739
922492451
50629160
1671017045
1557067540
926824990
1463022669
1624213170
1699627386
1142814890
1041412402
1897082056
1710784366
1877154230
990045765
1065516884
544121015
1639033268
327102093
781757336
361942294
291655578
635515448
1234510879
1714962774
1715348337
852166471
376871465
416969493
243731661
1875139129
1946353881
1392278874
1507174534
448552303
1165334131
1743901780
947238749
725713411
1737226098
905003518
1040847761
660600859
1221277747
628304471
635514988
255325825
16123842
1039931277
1535319873
1132252090
1775032732
647269918
1914838615
1076737405
89200651
256846193
1102491277
2113503619
1810128513
1818099599
279982739
1239283150
247250008
441994773
1162023971
1672740963
1363606926
1987145162
293434184
964276180
1445986025
746721095
1768643466
508228545
1525548797
2011479834
1387496157
1763321017
516106349
1397141950
1094029240
2019120263
408005940
380491919
1012066156
753231561
654018409
1242905977
1957364779
128184504
2070269177
2116069118
1110725499
845472154
614021244
1267238229
918199364
1572401982
89699578
754918820
149679468
42852815
1869016718
1047539612
406655911
1065446474
1083436568
127625134
705599501
922492186
529250914
1462484343
1151026721
71620937
1551827815
1451990686
878262820
316553822
64934775
1708626809
1419147153
1553902771
1602505249
2054169411
607782580
1343510934
1958567571
701235428
62036936
1642452495
64465256
1028357693
826000518
285252581
669136681
586041559
885169922
1854294500
1937728181
1240231515
1825773354
126462883
1237300959
2035525808
1377217923
1607240237
941545870
1911157253
1326302597
30360635
1088126270
867590555
902593455
27471327
1392728930
179392227
1839465317
756070861
531380110
356302676
1723960806
79849723
301131868
1244010874
971749402
2135261796
1769564715
454172994
380076255
2144441490
1430059544
726940998
1110296390
1474804908
1857894092
844235190
1840927031
469415713
462245013
62129525
316496125
141604964
629679527
1589968371
1352180692
762317884
1208002056
293610457
1949376690
352812719
40299742
720363164
1824394691
409177092
922459826
1805498729
1621010153
501307766
1984575629
1509203743
2015321105
49312897
1447258387
1536581270
817336192
30694449
1441821580
1942320788
812178445
1953943679
349739410
1243884162
417915656
1788603190
257003042
1680465570
1180607245
585695183
521400049
114277372
899438016
323961842
831309606
85302431
31381150
1317748609
2072320477
1394622537
37458006
965346592
1809347440
215074932
184939532
749023742
1024689412
970816582
932542246
1237759608
1207158270
2021119348
1693784436
27616863
518069735
1524880329
774206289
2003521698
77240230
725522930
1186614402
725016814
2121210687
1946833339
12368295
285722129
343617518
454645681
517653331
2059969430
1216661122
261795930
1275958093
21399965
1714293743
53003040
771697626
1627862212
223888164
1624989825
127444281
219092855
967812934
880675925
1161950287
180889757
276387454
1999344395
343685319
2136636685
1742488430
1034937853
1419744072
803710903
1224618047
271662872
1051034506
322560255
544059450
1103203823
369676032
1956116529
1718759975
1905863540
216264477
210701001
1123750737
1994118613
1100416638
1570964801
252098646
1390998918
1549689048
267840330
393916602
1700276599
1466071018
2015225718
730194075
2145589890
1676313257
1785078847
1254470276
530421892
729451152
1963879442
898061027
2080177744
1539705500
418877656
865988878
1263525273
8394033
427990427
476514809
258405327
640811689
23907596
79018599
1951426057
492939032
60443561
1971198402
1176913264
1970278649
1809890851
809081689
1108433643
1790562111
1694667554
1276999948
163658866
195149814
1848384180
1633429011
1203415045
1146053958
1935894074
97175673
503130438
1359594948
427553247
274971582
1201734805
1261949112
1866404770
1866406576
1764649918
489639254
1520055412
1438274226
1653537397
622547160
1103351766
648527035
278559272
795032802
493370458
1082081325
1264578279
890979743
1376730105
933821770
292285151
1931968445
1678464054
354090814
929901246
2061137651
1382280778
1570960893
515406435
1291340878
575356932
2018834712
1682759963
1680301224
1708194524
12079525
756618510
1274506760
1302512913
728452368
727922869
2110285553
516651498
571938303
877911553
1022987244
847393151
497850478
1002787723
267011587
2000294275
201550457
1335375837
997552419
1061414113
940818176
854480469
1387278921
41057429
975462556
80530307
2094355812
357750670
1734718093
1824944426
124138528
967381764
244497442
460296755
850011140
1359160063
156318351
58451805
1658154082
1666339418
136952599
193452857
4244692
412912199
17874261
397285057
1429887875
905340015
1318706547
757749142
538534789
588710192
1477314236
426410313
1549609653
1995876614
146648435
1896814353
1975564308
118043795
1862799620
1786499871
743174797
1975860351
296781576
179938575
1753960061
1112085137
1681575054
1384836101
456590449
1678672068
1093099746
347274119
62050029
180245162
1929963471
1569842930
1559179617
726967435
462132100
1465226780
2018854342
417791210
833066823
1562452367
981865216
8203214
1582801281
2058057443
1037462383
1015935796
827088336
1693861148
311448241
365983611
2100690839
199110616
757263455
741570477
626840577
996494711
243921412
1810582987
1147264167
1589176679
324383101
531084953
1444966690
1444123166
433885863
1646420530
1959389659
1941728172
1480533806
1716997218
1131696642
461688176
1191689899
1188551913
1316299298
725951870
1968080544
1237962593
2080440801
1106912499
1869295598
1212343258
497652478
776156327
425532663
751982212
1299333720
1143157085
2050168948
1177100632
2136286065
352612092
1977324324
2012349013
305189487
69273174
1457941150
621432149
825777529
1955620941
1373714109
57443293
18757601
1432042193
1477910687
1664988352
1649620066
454458471
530399430
1334748552
64128670
1168568568
984909117
1350680991
403951119
1676531156
1890197315
2074530627
937175071
507502022
1182759635
1753056102
1556564587
732395018
1170389893
204448214
1602331810
890458535
337691660
1890858513
197954420
213007936
1448723351
816600817
646277674
1188904970
627133444
443206434
805895502
756086327
210956590
1505194404
1064015046
848775007
470052269
150958451
153050658
94524695
303977076
264450581
2109847315
247052583
2076457994
1026759773
1810400949
729483529
1786089884
453779848
837329195
818848395
66046572
98897071
1387147537
1137819534
922434775
759011908
719333842
1607914267
1294693396
918575247
296206875
1794977021
1635520161
1565020100
1653929410
167831067
2010326176
89879286
1144590464
1996756198
160576937
1709889254
2033205194
1983007114
1467916176
222934018
661859655
507466256
829070460
929836358
1139384572
165824221
673695935
463397158
911682368
713940561
1181495741
218644897
1406851085
1539770924
2037574599
40154312
2086332382
26925733
1111568534
1452178503
2035651215
1809099598
479790350
1417832060
850383376
1790285623
1086482461
1722959385
1748710335
2030974180
24381534
177615558
1556853629
448502550
121930547
1988989264
1104583953
229158042
254618141
826336175
951285629
781495466
432492883
785736092
1756886548
2046827389
621618810
1633900550
2005398446
1556142492
445058532
121656077
588412004
383685980
267291164
1657670671
1389670414
1182301736
1349494939
1822368665
807150603
1200963953
1624373649
2044895401
857779785
1893617230
1358040307
1042758093
351252191
1416061479
823425418
10970230
1010905724
247684310
1773890226
1383017919
91235531
1439128817
13088484
197974715
871271110
1669145528
114195946
1419595817
1840170056
149275138
2074889940
2082817013
1461376878
659393513
1904137876
1783116695
1079165371
101864794
290330163
2098079225
1384829640
1977415159
1691230415
847852238
1317211943
1903105444
1824678494
273404794
858823043
1866875073
330001680
1321269879
231875989
1584743593
2022199439
1742140535
1120432690
1412748101
1570011024
1166938115
1353436042
1053585340
990580351
1847332359
1698141539
93627040
236515593
812997174
365223388
1425241761
2017862017
2100103777
724366926
1884568553
599770640
1153214567
856495999
1127978240
621522827
1701101775
1854147038
230214338
986605430
1744255991
1084414314
1872062728
1483523683
66878942
1827245833
1086595672
1483870753
549736090
1212740363
347077748
130262036
1242794693
1967281998
2032977019
1925912363
1413454711
1574857091
2028587931
2044722836
883472022
1549012452
610790039
844768186
1621354211
1700282509
1670631064
2111130700
1443224790
221249642
356879613
156207361
1168082484
1790787965
151420955
300616586
824012471
702539403
715025174
1564247228
718989292
279168031
1174988335
1194265290
1197079069
1356114426
496243565
531007517
892410801
967931434
587831848
1311355055
1499443773
999763591
2145577958
1375502559
991582759
832381857
933875748
959726535
2067789670
188422782
314980692
292430087
147361141
976387777
656039878
552678182
1017044788
924032418
1055795084
1730487895
74831958
14149547
231394126
2003197377
1162525715
841628310
369611170
962634460
593829612
555103362
1491749019
1983470258
1724229028
2079821206
1716996613
1509049550
1075089050
2023913987
540723292
881705220
1128333555
1893602588
149135864
1318952549
35792288
829018777
985005669
285569134
1250625462
1323760087
850719218
265907753
677526438
102704886
1719953900
1013110811
1835946228
54580835
832856437
443737747
631769391
1707800063
2093374695
1364017092
134437150
1962967007
490614581
1351808625
549466133
987569338
1236206810
95883072
594807120
564383063
607500582
1185255514
136135452
977313271
1097953802
577115728
1337016318
2144755651
1055622219
950203223
162942534
1056009014
1786748912
220058865
1973049548
1022913119
797263000
70972026
1603755719
1452551080
1973124438
1374405453
571913343
166165186
1477961062
610417906
27527934
1133511854
473560086
940939672
1788952765
1267286124
258183406
1254204925
1829501391
1495949848
2109206723
254384128
734396517
597185746
1017231575
1401384211
1374776391
908377457
1407282107
11587428
34706383
1714619364
585440657
1880786347
398574534
39609956
2001367011
1392732215
2113060849
816583522
1686886109
87023494
1220545286
1944865623
1274684359
700377833
856553248
1981647731
1732467608
1489088109
356613643
5292015
1323815123
1885243589
1669521690
1983741473
1629391240
1281929814
1058804152
1041057467
482994980
997548673
665051643
854904771
2000530998
9928485
1573321785
458512316
1790384865
218812818
312452006
423100102
1988660634
1563936070
195902679
774973852
152650368
144223915
1956420893
832695192
1325034212
472488155
758260703
45316310
695371811
1126931357
2059835884
1297129688
436211906
304396877
568842944
1805471782
1064590525
2082818464
231621518
1132731209
342350042
310107712
1350036570
2048053377
1978172489
723567238
1868212174
1954484760
342078382
1782707527
498977854
1623980196
1340874326
1870180349
921485894
1714011595
605892956
256996416
2140364595
659058118
788311305
233808826
1857356666
1861657075
156993694
1068866600
2077197154
830817040
374808097
1224368088
819648642
59331513
582721434
1844822501
66492435
1085587960
606655026
2891339
1169568899
1537163852
586814352
1992464065
1042089291
829960621
1494394128
591714750
1669011259
1119518579
1389314269
1015377917
1803273326
1545314300
1719530895
627151855
1339495753
151946926
568150782
1699843857
1027008527
458467459
1547939295
1020174316
1140908329
690947547
1865426037
397896058
131474396
503135501
774195911
1543235590
330944976
1459659992
298817286
855240924
1710183500
1214213548
697820421
1880307477
935422893
1282133356
1239632773
522574562
2055407545
158281853
341915591
296779720
2084235270
1213297724
1659425310
1904929266
596313272
680864116
1283893664
1950098772
864337279
1413603073
1870375315
1108816828
221959033
813003572
1645106260
6767318
1845635044
91582056
657410125
773089891
913458554
993617393
1125256299
642380618
1465298931
226977030
251339682
617030782
383909085
81485931
849635809
329488959
2039722894
259174244
884520982
980427799
929166664
1207209778
1661456386
448604983
1188556243
1297132622
1714655523
1580179462
754584385
160216394
733443247
913142173
1776352980
1666839715
1816875399
1867156191
119309479
409727840
1942120756
935287161
2114909236
1688806266
1923595091
1313987441
1636997201
611225851
150512142
1236940357
1868156922
1312791978
1686026045
648795299
1788540461
1918550743
1013579464
399248482
1656295910
1691114213
653024596
1291799960
1304055626
1354265701
1018647054
55957468
662519512
833924186
962395391
788592964
331210295
304811894
1186294186
1960432787
1377527894
1943995765
1686709357
1898098479
678424073
1909277498
1692538474
1967900492
1089123710
2025833497
1082370396
1990505128
1451123526
1712246114
371930220
1543717974
1800661582
1915221955
2052698121
814283563
705905604
110379500
1418179271
2110781521
2079518713
2102798990
1640281215
803765427
1251950085
1234752254
333618133
1773137908
1445616847
801712286
1735299426
405434022
2086023735
2102532148
1909988589
1604837434
1202256959
508872610
1413974207
765302055
433961203
30791709
1858375352
1312648688
1180784349
1928900639
577653692
1559464012
1991093429
1744948938
681934003
1125348929
997407305
1173955770
2753127
941489205
983740552
971339523
810331596
1529370272
2072461672
247056779
628511835
84805930
1732425961
1361957155
828713924
1597387811
756833350
551185800
1151430585
450196375
1462997812
1074998246
1170885617
1488274528
2101827505
1242943824
2122060355
1772745725
677604899
1900604480
1823520282
201331972
593782297
1164079013
1654362324
709525269
560161157
1131369716
1042378190
1679414225
1413129856
1473594847
606986002
1363578285
1114895958
75976526
323410259
2090243698
1695657416
197565182
1272944645
44524729
1388555823
1374171684
2081147448
371565288
2134445333
515426304
1330906565
1652251938
1516211356
20417354
2056029454
1648211870
1686231871
1451294936
380578212
1052978248
425041253
1457710534
484035010
845894249
1697266778
305273490
414303222
792800098
747208301
1855689601
764271452
935393775
1203431617
189355232
1441225754
1739235310
817554975
1515484159
1404274566
518620317
56014622
1537024448
459688109
414909235
1413360568
474070290
444542914
1968988385
1291592230
2089676013
362919763
1554598709
1743179869
1079689927
2035929142
1681120712
406377111
335078546
1540207929
1266626972
530843066
2044575521
347998261
1831170548
1271866771
57458841
1012217339
1943174204
1397700289
1230346857
275194434
1981547644
181253587
1310755694
853679279
341853492
808226765
1335997144
1800543281
267662451
312009467
170682726
276251589
319439535
1805485585
310355188
2115022555
81436916
1315330474
830759203
2115798179
1303777027
663052249
387388215
1408128477
1523331470
1621793839
1194664756
580698011
26112145
1491057851
1460104801
929519718
381181372
49842531
1700975194
1406526511
623288860
554245436
880262541
1785843888
751138043
1020454251
1753860944
1545271643
838834667
708406021
833119573
588821492
708241176
300933581
209808758
2083005615
2045727494
934314291
1351020743
82369154
1165331448
1752081571
1874911662
1915269953
1156191347
974435256
516151662
1873807373
549055336
125751806
291890005
1850679632
330152221
1485002687
317345347
470676287
735610332
788140558
2122155988
2105483727
63895564
2127776601
2130312459
509037973
833624867
1752144606
51316361
311011153
1906879710
562658785
2097338679
139119684
1035596813
1377941333
1399357786
1987767094
346889922
134182973
1514333299
35139398
641476809
1148538772
1110297546
142243311
1922648404
222028702
625342052
1396263364
664660502
1381200038
933835743
1438459793
638198857
1744638696
596084091
1939671569
492685464
1157420292
1054755229
839466683
351529840
712346131
320236917
1571062124
86637848
1406102559
484353794
424436062
1400596141
1245349396
1018869882
2037509222
412790998
2021515878
115390624
1120117888
263270926
551847153
2065524493
436845273
1779320009
1614358943
731415713
1849005204
45024678
1977732625
2071082850
616929092
287808049
441188514
1683125152
331234526
60227073
1106966953
472084103
463040453
325999187
1151892314
38803542
1051537361
2029314882
2097772948
1845468857
1655340412
1435582147
384273071
1290204959
2079690489
83980860
1717575651
2087285013
968379471
30038312
1278903556
1692487537
1689260802
1766302576
1483057353
554265693
30917515
1877302061
214871458
1637933555
1831801883
1043067781
1474380039
1199685030
134229464
996662952
388152556
478394851
1092915400
987081664
796462753
631505000
753549423
1415294371
164522082
1057682564
358233956
1778002184
132298919
212403642
1656824909
2000357966
1312549604
1212385621
2004577589
1208624225
222687090
401251588
421887203
410973919
1154714659
1576079748
1148278383
1732311913
1381037119
496983073
1342337404
1884257662
1931028736
1576702260
231792263
1444280133
1098850738
1712875160
699708341
1926625485
339459022
1150893494
1457176624
613389734
219247429
1308702258
1963165927
565271395
211215201
466175795
831360281
83415052
775491069
404841189
1198248341
1124890628
1621519436
1216126881
1682552313
611869838
603178871
1394633408
1614614693
718686637
1877727211
705676052
1619497716
2013928669
1109044916
1472952927
755529009
1654405898
1413866692
545292263
1931438908
1515853579
19043301
73216879
1742856294
478572446
1715082942
770096749
916683959
1996623217
1594790003
2034726613
1743974239
2113276461
112213584
128928043
1884030198
531144191
34901661
1006578462
1558184444
1850046070
1855979945
202937595
536168536
1199739808
1836306905
1145701593
1300185877
908767178
1697670092
812746812
732928664
28716181
956137130
411979487
1382134003
1547405780
1556696258
479872004
794912327
2132829054
1540301606
1034203696
615392465
1259599905
395776553
1212607376
419116373
670840645
985611745
1588329945
969825058
1839093485
335543898
243559339
1505605793
233566919
1258014474
828305155
1148058477
234729952
562813118
1275020255
353489045
316962095
962246573
996931931
323723377
1671040344
515730935
1015827806
1433572331
1098545518
651989515
1028591071
1717297095
1557048657
6166578
1819509681
1877563713
1930551044
719382940
657286234
1925075608
1354391103
1656440301
838651015
1587265078
7270756
1804397221
473121392
1845795985
1706146985
89523106
1136574388
2062266145
1495904266
1021567752
687064093
424375604
416513330
830767702
539979549
531197905
2122520218
1460783478
1900716809
1688579734
1933489299
746954806
452406960
1540858669
2115790024
1416086966
977272730
1666793010
426450825
1971745002
75848893
2122404614
688940706
1200273602
1416505329
1768834148
19098430
806995196
6760763
1679947914
1676590165
1515439357
191455291
1259345198
983661736
1000452573
1054891704
236946463
202973611
98751820
1588177646
1447051030
1498200357
405478062
1850091998
752248007
251836269
342042237
1752600821
1062966288
681201137
1497052982
1486610706
1689751857
1875986832
1023528323
2002053279
1492201812
2039445665
118430847
1106365753
922259197
400595199
1251361148
2121703116
258705079
1969606354
1858946252
1007022393
374700705
1856479799
1568465383
564952763
1091264445
30508594
36247404
1135006239
1348800627
1434445333
2032369595
1096415524
716499615
1667873932
116945092
475545341
335459042
1137619312
768075006
183168396
1108263175
1790099459
2000366209
2126125319
2100458559
1611687266
1323850925
843804987
1970466721
407525039
303342406
1311841229
793976296
306560809
1189493565
417437532
1781661247
1152779941
1043809983
709993638
630339635
742596592
945448446
1183398364
1906833314
2018729578
2118260230
1351383932
44962373
1684133164
1033624364
957464607
228815374
1072315525
1469067047
1654495658
1211222754
2131976343
922237644
784197683
2090767996
1784747874
737826139
1178399636
2110216170
601276296
941510007
809864711
1716136241
1007896039
654997718
1922121416
1897631249
2047849526
1161465056
1054438297
1625985412
1145652936
2132885276
535083941
1456744798
1245711391
809872507
715721017
671539776
559089989
1796049573
1847327858
890754246
2288015
117776358
912930084
2095702264
532952095
1284899619
913223033
539505360
170527407
574465214
1281563602
1232408159
1095921404
812948915
1558338895
1905124469
853348801
110610747
695592941
1036365395
1473620169
1682187211
369575082
1112969829
815451445
1740010665
44995072
1093390336
15360374
48217334
896994856
283440191
1211924373
1040150559
1238542625
787699055
1857417271
2008315122
966106871
450025602
2132486026
2140531977
1433606676
2004810778
172805358
428131702
1762909617
325397855
2029438972
755437154
1358952412
1580557342
473618307
488512666
1991539639
2131887978
1044361122
36204625
2036220877
750786853
1202561021
1082156593
1070775379
479767307
1195491806
1000910725
1249883446
1411160606
1153478256
787976868
1512783040
1680577349
1219607931
30536414
1652326797
335503429
1718340350
1051140137
1164360923
1160542892
1578927589
687763719
2125407355
1627973887
412304925
1208459615
887547343
1794794123
1320708791
406780683
391260049
1649196045
582631480
2010531474
106238909
1901173635
1226338099
1186169440
1042279060
2125100227
467071464
469132449
426974325
280874337
306287427
1612030403
74738610
309905740
466154529
197459512
1571690456
1805516518
1151474322
1089807652
1299255034
100832050
1458669456
1818118763
166930474
1144692224
1533728036
455512432
279078476
492164830
1886248232
827670045
323371433
74287077
1724540690
853781719
833092213
2045037506
1869831732
1516049108
379253464
526127299
1703579739
1159595642
828248454
1719199008
1682830268
241487724
175057895
1975716851
1620014402
1199800014
487159892
636999844
1770016570
1420087239
749209551
89445347
79226467
1387581256
1074088291
494577474
1300640268
1277054226
1093702466
1269387825
396732498
657330901
1014150591
1379312976
1371059709
1645012298
1440388374
1698695063
1138277262
1566657699
1332399131
1404600845
181703828
667558934
1610700345
286528503
1489020178
1904407087
624050603
1257328544
262303719
144902537
678324707
1631731279
991999361
2072539419
1106196943
110463993
1111562713
1075811177
436237704
21036164
1650217540
64534646
593563021
2102273899
546430060
289162355
664008781
438991873
1596210239
86950110
1612321940
1580961266
675725848
1595255893
497947602
2107156784
134600956
1278088012
683371621
1749724750
2064833813
1736830955
1416188839
1603483478
140278177
86594170
800243892
1625031335
259821506
3428724
1445230022
135244038
774153203
1754972671
469373772
574396470
1523700972
1452718091
796078556
75716665
1932614037
382652069
1264157755
1517360910
12486468
1399142451
1020330488
34045328
1581473851
1396741710
1219172730
852675278
889498002
1644141294
1788209700
412039440
2021820915
1881698284
2057340714
956213715
467054311
2084890403
2074951927
1873779158
869858451
1522299777
797636594
26631647
357810809
2069686421
193885829
1165600287
1051753105
1487078075
1252316146
491998098
10882905
1307817921
536337796
2145805119
1636936160
655839091
2002618816
418093833
591595728
1416053467
1055617680
290774462
589651271
1279255929
1730631273
1615413032
13480586
1130812638
493724750
412758282
253221677
188166489
1044843621
2106785356
270198790
226794994
461773732
1159958536
475932199
189139163
1948638454
1283946895
1507304751
1949907834
1644331969
665472141
1331512612
1657811626
195370731
1521104214
760303018
14237626
377180621
939122541
1416858385
1450372901
670308244
1287823651
937424266
1174190714
974818526
2017980607
1868816096
1020624706
577225258
1110253555
1802676474
1775812674
1738839653
1050566679
1008927685
397126956
1708431460
1316884225
1086174243
436925205
1162015216
1289177920
1569120550
308958300
1944738211
1106694086
25881459
693569923
512822562
2141919273
1448593997
925755742
420598718
424463846
1739322158
936794171
996870109
2102426458
1766049533
1246953871
1934404150
222464177
2098104399
1712936922
670989230
1814986819
2083773060
1564531690
278339434
1519557229
1232258894
867905239
1117603057
1512083957
461589749
1223026794
155966267
2058141808
2051241222
1239890087
64113057
483164752
1503195706
1617317846
453620676
633660239
1360021166
307269121
356008510
327848607
1734505053
1283226724
1755018673
380903126
1160390938
454790286
1804763355
1398766273
1647415636
537633099
593603357
690735511
1692502443
1748590324
950516251
1703440995
1937471418
1449411342
46032055
179994001
585539012
1924498734
694078651
1629042641
2130311620
196787962
235077955
1461919649
1548462826
913661014
77433178
1210849468
1001316386
1615844289
1566569876
411428945
61427352
1323935407
1600748225
824441300
877211488
382413133
374772887
1138453170
2112145054
1127355253
986361463
1686134470
1265397909
508024908
137156427
1782684932
1561868501
1110624015
2146466572
935555826
5896276
1486025432
1826825502
2006638862
1176304423
790356778
1863862785
233443326
1350315942
219941906
1932270365
1996426082
1832377286
2128809556
901144314
99993449
844356621
420986900
1441158369
1971219402
912746762
120519780
6332162
584056
1179084439
223624312
1704473625
1001837911
634665272
2134177409
2096847365
1100254623
2043946151
171952018
141404231
918201768
1826828950
319316630
1638404562
555260514
2040635369
1252083999
1429731167
147443260
6935559
165432227
754336306
1106628025
1861672459
1837289895
233801025
1516034881
1149533218
532081184
1943415066
147964963
621914312
802038627
1580702752
604109873
2056172015
1394027427
835555016
286065122
1390401077
1713060137
1650734132
1233914782
1035824164
118241924
804162971
197851677
1704628275
657510164
461487012
2131990212
2061195810
2050950815
923818406
286004949
1220779210
934734462
350150382
273278724
1873226516
862833825
1640630712
190431574
1208264377
1738236298
530075843
1117653014
1582552647
601464506
45047388
109341278
1198556148
833119204
682004952
716427458
1101718312
1613097855
860850751
1240699198
782663501
231539265
1307424970
1840049001
1850782107
1881802671
1081473668
1191693526
56074098
110605900
1993292534
113499456
766165230
1446294585
1210916354
68080415
1336798971
1113778903
1421718252
1236864735
2129131853
239183754
2114137567
1279885497
286639368
1353941995
1347594827
2056377229
1252717224
1705055637
705754477
226746851
199822482
743007916
124149822
1932096014
1976974595
730936985
390240757
1807694360
8162505
39977341
547983903
1863592997
1610262733
1531564196
1164075831
862849871
1578053912
1873597307
1497449416
911492810
2045218341
2147073671
1399161485
1925324582
807096479
57799997
1357153996
2137068029
1088230877
859207822
914021326
579636814
579467039
2037031017
956056288
16773357
182485019
912104369
1918618897
1731184766
424160326
986429428
725941784
1282367946
816999904
1198027357
660534840
304323659
2008955872
1459769184
208839825
677643784
1105668122
1907456988
1791820119
747323363
1420361168
1151480861
2136363074
1163373095
262203326
992736477
2113366734
1935497318
1993678354
1527149525
218501615
1135234589
2053905851
781016847
412174585
1302200859
389833980
354674167
1183233968
605367356
264092510
1659439419
449451100
1697306681
84213430
1309520667
1148687935
1525662361
596867607
1094555468
464154498
714669324
1742914470
1202445398
155209766
1590090303
850797400
1752468081
1748168545
749019781
2103083144
1814283425
1782619748
717590430
2048776389
810797255
666690227
1270190404
1298611709
1517467582
1149376503
1299208600
1341676599
1809917337
2048727723
1911435523
1929480320
1857712706
1634466275
1009914538
1792104237
733473093
67678767
408326348
889764204
381659772
267972438
1144717442
1667015690
1624267149
2117850799
26341055
1276001703
1662687069
384752041
288480175
1566741718
1614364943
2078445469
849952747
1367531071
1704556842
1150851140
1647761417
1682848645
1749251941
1019446827
1382496507
1959135412
223682904
8507592
632859746
668840610
1738500599
2142031457
935744775
848762410
1358395991
1672787699
1419483883
1702126832
1726784075
1772269046
267443999
1802015861
397676499
2079970432
87193736
1787778188
356208620
911238301
609417315
1427475748
1903335051
2124009858
1317647824
1021011077
402640656
104526941
1765712415
1685638672
1319859276
1327578134
881092080
342728636
1593323832
1060497766
497140784
1801859331
141969502
1587957796
1967867788
1956479206
1552139463
328868383
1682847147
1199957040
692744771
135315569
814599207
1342258026
585932161
1690212052
1599325349
512864690
116497381
769883404
18161875
1141637750
119741554
1429414396
1978416859
1148471280
1579958135
2114485453
1093219655
416174405
158037797
2134722617
226064423
130711809
1082667053
1612612669
1380435092
1364734825
1685930254
1679229036
504714407
1095150576
1156129545
852028991
1621974229
960334953
1133834772
1215265643
724815597
578147088
188954014
478245830
993027954
2075942949
1073180589
1387129912
1222050009
1617364292
1141339825
1416360984
2012098749
1896159884
1718064214
1601589253
1976904483
1991548317
197291633
1739340821
1045032984
1847908174
621655898
552613387
867221062
1601145556
191669747
532533060
784191585
68266703
575747495
1028622230
1686266183
1013749831
1844260703
1313713928
16643981
978905346
488896797
1092571225
393542252
242464112
1531850292
1662395150
284003899
1911516848
390070360
1506706941
206813052
919682408
1243832044
1346142435
853919816
1017374697
701949909
1828638694
1453986951
533282804
396533548
1638986905
1204743516
364058991
87257166
1091915877
687203804
141346997
1995339184
1276135374
696999779
134096914
1003292811
193817448
1886084603
273753932
1746049578
1468508926
674538467
1851973810
424498086
1502449377
164304580
1068054520
120749556
725253117
1890216777
448135228
1711780447
1732115310
2009733551
1749068408
610915046
1571426109
1425250717
1340046258
392350297
442600198
596371128
1540967195
887034978
245331790
250694921
462997622
229903950
1957722757
1336835384
342510138
1300762333
1863797949
904128530
1011688404
537740889
1920282736
107504548
180454432
2015389576
1001354757
1061295964
1604049737
1450972998
1777010038
1798877112
403097953
1389503835
1310126197
56744753
637310083
1396411321
534711487
2024345082
1587619550
185612252
167745141
1584631515
2013631796
190290572
1712511691
1386334836
1459498299
1680015378
168946053
642707617
1507068730
256028786
937512796
1976555491
1018902840
434558937
291690656
1301424708
152458359
1138570968
1772444494
748476602
951106574
272407166
1709934906
747821130
1379419947
208608385
526567996
1379476982
1147110155
1605119000
1484988080
144773763
691108234
101932366
1597049189
204986320
1665138508
1874395663
1591378571
303854571
846563833
353733140
870838472
1128058360
1853066842
1869130485
1140468904
836444798
143025871
616648941
1955498520
1128052456
1331151251
477845103
331475664
509794088
715691694
438568203
1695275234
198121615
628860608
1775656233
99264734
1366550167
557416578
440411828
77177735
2031245179
1953959852
899729665
1292515575
375801854
69710598
1681058659
2121873935
228704184
371448419
1603394846
1310268250
165191128
806169934
533448106
1365917349
1176341620
1303984336
804363647
1694123552
53558740
376153683
555085145
1650683365
2126835687
2018048294
533419863
2055532064
7420143
898291035
1096017647
1326278204
329390966
1998507438
852633876
1351634376
1289315034
1685633494
233639057
1954508851
63457148
276927703
863472197
142699962
987847353
1068229437
768415064
1052657280
2341743
592879895
1102304146
148565153
1778422416
583514356
2109054307
1971117648
1851512399
707199308
1157678746
105826274
818501563
1006813964
67218958
1520381540
138876386
705087532
1913001545
349315637
1674959532
1705963870
2086356388
251590704
1618026242
1239307411
880275118
1160973541
1376204522
308536202
1541595131
1374850720
875742718
1855297938
1839693041
1940934463
1855355696
944452087
1313406345
1343594315
333190594
1486972519
407205681
202583799
1098363170
1208923355
1280945186
1439955353
158357742
1601351239
30844126
667629386
1452205501
1541983363
209325817
1513510748
108273892
122146990
1784309343
176947765
70725899
1800841615
764929462
1987126299
21843509
1306517821
2057518496
569179995
26983958
1877775432
487265745
2125809133
1253382279
714076008
568415519
1284193424
1700975434
130823637
1474900351
281207992
1136400063
1580879697
182388949
1294806612
1160436254
1111285449
1212874840
213791409
1021331171
1336402058
2037345718
1852339832
1314481865
1659228194
520357553
214316044
1723143727
1354979159
9361885
2068426139
1354514768
137003853
709627492
265127768
1553819804
1228309445
565537945
1367222770
1400663109
1093202188
1239068212
741682391
1914151271
1659476533
98276935
1904199729
1826827684
1071242033
1089786377
1051283281
186362733
1961130766
548446308
289583881
896603788
1943212744
1189888784
700451765
1745551361
152173296
780350884
1441082201
1321667314
2049688003
1452355399
1524250778
1840427017
2036673090
492562900
2028032019
383863373
1862447558
1561702990
1757818660
299854624
1088462387
298434947
1027663402
1076131531
1294374077
149118010
1084527240
889423969
1023391593
1474345742
961749236
649895510
677399668
417512139
1972312053
1366232580
1006758663
820663619
426011085
1540243747
786379562
750051521
1736527578
144292121
1419250251
239605950
536356868
2130271069
2118607629
912190926
369322180
922682861
594774653
1778917003
1208256848
514747324
2028076698
1307023097
320274756
1460418590
725077200
229349733
229656959
2010479678
1735358505
1197911629
719709757
463495725
860710666
933190864
34765310
222767644
1411111540
201763523
1957879621
1251896795
571960040
803628417
1853115194
798469505
722800647
1450717462
562853571
1123310
1862970876
2088132997
1804915403
766763554
1296247799
324508280
2101461208
576795803
1764168257
96876461
1903088993
114314862
1638052113
1174699362
907617134
1880964750
777178596
470716483
67144968
371862478
1371593400
1919628732
533274381
802412658
1343730444
1841060968
1100313168
1360686907
2111431638
742419504
1177753189
713004877
1111652324
529882762
923927497
1341837472
1427722203
204381873
1147147796
956635103
1340342023
1460580900
2126614073
2052903675
511455849
1802872936
1950325929
1296237925
1932828360
659903426
1311110200
1326632047
1591047963
1719421310
732455751
2134123233
215575064
1904781684
927561465
1619717701
1752443243
1188278059
1528505542
1185108513
386627426
1755777469
34766198
1039944982
1089191312
355269622
46622290
703700016
287386127
162284742
572087513
568715295
696145696
868274022
307380054
1248737505
2147055835
2019699629
1837113441
1583329842
917050027
27840054
1742676218
1455462314
2143893240
1365448884
1498173938
532519176
55725100
665528879
1121623804
199517870
63593379
567179067
532857021
1040485798
739895272
1324886602
520566485
221748157
5065371
1429162930
1430604386
1974569982
1598790307
576303728
206313537
2082110211
1538005763
169131001
271753964
5415681
1844654299
441764890
935718221
1470210156
580903161
1574737507
1749556333
628227431
1788008210
884813137
2056888800
1289357038
477623254
1613749046
839216819
2085808233
33251955
1480245698
1661545558
1075777650
2075342760
2125546281
2056421385
922803343
1522964421
1145123284
1279939769
2013433339
125527203
1499318408
1755786485
1865450846
1744008273
234449702
966753633
1917241268
981618418
270478996
1190465416
225626576
992245072
1251813586
1228040971
191530258
1942040283
974162357
479414441
54121385
50323453
667187851
858852428
1095177373
1973020823
1458882343
1475102469
808458259
36833751
1378176358
1772896730
2034258865
265966847
727660024
816680788
1801543424
1804705934
725939149
230205080
1384560456
1898023021
403574113
87655562
1219873807
803598836
1855696064
240211815
753619759
1009195997
485947078
404434911
1396630875
1775186862
111815898
1702673314
751165998
493122649
1485149156
838600795
349609098
877710305
1921066430
137579707
611110550
1033898662
1938556905
1285274471
1670403672
1484626094
1010486724
1032347034
1807694214
232436771
174423845
189396078
226226770
1590048829
551971118
831841307
1312883533
153020973
1137358533
1700930861
456840118
812208345
711315621
950288315
1481167753
682758633
1708688773
122244384
31909921
361093392
465369721
1461912134
1807753403
1730659619
1506304735
242074152
1019982133
2085576605
810779019
1120909257
620050534
1322719626
786100159
1690892401
1735477998
367285014
1319644764
833465911
939476945
808577192
1291091398
543377865
276395222
1967540811
1861647937
1798946159
255091355
1014896848
661362706
1801043604
500078896
2096385149
374221793
811667482
322014227
1634788285
1619626709
417715435
983881225
128391308
1721546464
783936092
620019234
1647058831
1849486165
736577930
1741489102
1487891893
1680403490
1400795842
1921577613
1243449033
1887313834
862969589
1725546173
7754607
822111663
1925806596
1858349465
1983905739
166061999
30483900
1486253468
27222311
517421633
1469399792
1419211483
289334546
720757740
1655456929
122702522
592250515
400111197
1895582240
1047590123
2130398539
1620254221
344178918
1970367307
2097599301
2129507088
1899761437
2049963491
1408455551
1446154486
1783580061
1760413624
1757527877
1206712035
1392106137
1646977671
353066555
1547153541
428960673
1275216771
663384683
675792256
1497991153
600266505
473524390
1661268535
1500480137
1539683696
626101492
1621157820
1056328867
2082743970
512903696
2067682332
390813649
1024192334
1750724379
1071166203
1770881059
324363206
1882783145
196994425
626982647
807060958
1489567995
537563718
346776622
1051879333
1118825184
230313676
1742379451
1001462063
752417614
1039961599
168422503
313908006
973876598
1067407859
621027266
1205853304
1714237105
1803604768
449939141
1290780125
1435163849
1595439472
1020864294
1094000113
1825065930
1028209651
783016793
1049194085
1208505538
449663316
749906985
2092502823
1948560280
1957484524
1561902082
2145104645
2094628215
206585471
1667946674
893193362
1995347692
98530216
629448034
1435943150
629609138
717152005
176475462
444376489
903909149
991633645
2057416114
1341932556
1290464415
1184143990
148269127
177251733
1178703112
356236869
1971484026
1286301666
204425191
1060055248
590614110
775166444
1552249435
709656551
620144457
595517165
506465414
1116019645
1067348511
1348164553
529465450
1653044922
229238815
1727851193
767432575
126772704
1869765717
1771902828
1897165029
340203777
260347497
1087988720
1531216106
333374182
85619768
2012042261
933598617
527026716
80647105
319406703
374334997
1022550008
432211613
1529510938
1456744541
1218929227
261360379
636167512
125284232
900571820
126865099
251421958
570299125
895006504
701249878
1274698346
1730763426
411693686
2094251519
981817276
909752234
137438137
750925405
60680021
1037418648
2130485059
1825227753
778377131
1206139100
1063915346
608156540
1065488398
704667207
1451821820
1112905227
160295914
273793183
350254894
1643768886
503767081
1756405129
1141354371
1496807394
1567336072
673171847
1084519768
1707089558
2017473127
2093292499
94283983
1649804186
1239198903
984180287
511363323
1324130894
1359460433
1906897595
1676426170
2004545735
696057488
522029451
1456496196
731351400
1285620450
1441464345
1659067866
1125637589
113459077
62344794
1268766406
436957221
2037352927
708259242
47857221
1082922686
846184016
2006466390
701042992
1358709956
1379841212
556906969
38456645
963403259
1942846573
1069850613
526037231
1124077445
43770197
750026369
818234344
1145877456
1799698126
63025974
1464706835
835304219
365063427
1961769530
60075187
697048862
1606577416
2119566494
2066921809
631626761
1486470293
1977865983
1016425268
849507369
1332374155
2129375115
458361570
1572436223
1464157027
533967815
331203534
141565508
1009077544
672442278
2109514738
1837290317
2126941238
1996155686
1943561323
1695540754
1283001981
2008088786
1959786917
1545350501
187777238
1329372097
2062609380
2108340956
2033617539
1161246359
2108389059
968922326
183579176
1613443245
250769957
684554648
544770391
43939131
119014028
1074964664
1604477072
234072301
1995968649
1707128261
1987364100
745201837
1633782215
832922216
1157301011
1672142759
164587810
157450454
1822356409
1968954728
2007139958
1296489873
105353239
1534907435
573386574
1963078230
1201524286
1513903986
318867265
1233985453
720946433
826143222
689156028
1539190753
1016207546
1783958415
140556376
1831133344
46378641
467556426
652957624
988001664
238004748
822136361
1358916341
2019709527
433303628
1782522690
1808612930
1238408456
1109947571
1289933872
781032785
882108596
1032752417
535409254
2139073334
1171728049
661229102
1631517273
456229629
496443843
1516924692
1311306147
698654607
514048098
95041217
770968982
1711213635
976178740
458616646
100966691
43670871
665112247
1858921052
983044899
2086760260
1469995005
1395793362
1604230387
495841260
318010392
1251098518
557224016
16166533
2097122239
1490979336
863118743
2084549544
440686844
1428045935
623956518
1885151712
182739023
509037208
1106585386
486137369
1514894343
1758405080
1656764049
879951542
464731706
1801782511
639337063
322504110
87413374
199652376
60453596
646438676
1497909405
1147074011
255611916
998681170
815161041
1518609001
87547081
553667090
475538494
629078255
1591295162
990231746
593144397
91454242
1027322446
1626029182
1242873887
1531416973
1724361082
456206116
675329062
1045051364
1753112955
403287958
76815897
1618735517
607918942
1917605048
156152253
156861812
825872422
801645126
1652103425
1244267098
1949790074
688240985
2026690147
233900872
953656549
1571430456
39726806
1783000077
1574315837
231430815
1279335392
494138522
1373736394
1235733095
1854031578
1901764145
788639709
105994070
233638318
1237317419
915638633
654139150
1698134732
2009388902
1208199955
1338666652
156073424
57039996
680537733
1072480545
982769365
1997155712
310064761
1582467412
387740724
1480001641
104264630
351338762
669272282
1538954561
1077162949
202064260
223661765
178094764
35420075
1340335144
2103515363
2020010638
241209646
1751804451
1471684084
1515191764
1227147734
1804954965
1252327817
1109981353
1773375639
406493038
1565943771
1993367378
62894291
274031567
845532885
1597866410
1876889625
1456318064
2006446353
876562423
1053226033
1173281958
1039085433
808470269
1794298396
1222722954
1598620711
989928392
1753129776
999670234
618626056
471470335
52282570
1907719245
338147805
179636651
775380350
105273923
497450846
141604660
55659298
987050864
1668530388
1224610822
655530580
1444336206
1799765596
82389170
759595917
521190532
1375741496
1956517881
1483272607
1123730217
2094383065
1407939303
962957517
690641573
1313283347
895669722
1079141239
1903737670
323343669
404278064
1057939933
380946855
788514443
560265514
852533145
1876018758
31973741
258184567
1640397269
262391466
582351345
1880695005
1981500939
1276835038
1043767845
1681484996
1069627330
51288074
1424231634
867362402
713971529
63497392
325121764
1027550142
1045700414
1503958300
755931819
1364846325
716843930
221071595
1846978903
1411314612
1891999579
1314106944
744639807
280021616
806751071
1533440361
1427584252
2078815546
1979767771
1570829656
240362616
992889850
685002556
1564529543
1124241345
528594957
1235940403
1546855679
1891679726
1674068426
1264103442
394957170
904655366
1621992228
622480504
1695492344
1746214456
259040612
332435083
458818224
1764662692
538936439
749720673
1879483999
66025241
384080728
2020424663
952122331
1308927738
1461999839
1175605306
14189424
1758032160
978156350
1086341357
1853658734
2002762831
1264358616
332111833
2139320141
1126265552
2134104040
213493531
923679107
1300491823
1158163348
851969973
1783261787
2024171676
289703714
935870383
1942397141
2112124735
275027867
1983346748
837504536
468028705
2120723006
1687940144
1447568769
1002603652
849142377
2119226869
814175521
1190801817
1185527064
503965216
1224181202
101579907
1523297512
645349802
1270719327
566199412
1484158724
429066125
1994353905
1191725192
932132543
1732337655
1920454003
2013551365
832971421
1208750590
864418659
1109990299
2041538337
1759683039
1189634451
1681979551
2111591694
15202201
590630578
1690647255
1817564174
578194558
1698393770
860804722
716775286
883171906
607127982
771180007
727173777
44957921
1467551024
1168272372
173804855
852933767
426171388
38436408
538072910
1046381674
1729750596
1384576721
1018768767
811530389
1460406940
1604816716
223890810
24348821
483245278
299647638
943725107
1513576680
296220566
100882185
317870032
1589752480
1593046031
1893101874
1783955561
1634334799
1343859240
1229958521
825284634
2067539105
1061558520
373277336
136030387
212259166
17454720
1630415952
1963998960
285983780
674523438
448552154
1209302590
2080114336
1951589987
719648730
359580821
117998403
980704249
2039485470
1561040755
1798319020
416514065
1914013250
1775540216
2031396802
1262561652
1583755992
718913094
1597934425
2134708034
1958045755
1129176869
769266744
332288685
345719115
1299674996
1265987797
1112329500
1992888288
1339473903
376016505
1114384899
2089340481
719456952
1521905505
351913730
1516280356
1356424804
339478837
1037982557
190002815
1750240050
693676736
1460955256
1347851697
222170726
1645603555
191132357
2042195066
994500369
1546460790
819462552
1448135515
126683753
474764907
1744070293
1718010236
786220981
556066355
1441681271
1451427381
547540076
82604623
1160191263
1346808910
369027409
1176077771
811926710
1572068192
1869999460
1078243724
2052519639
1834652308
48485251
842477923
1410683077
2080600657
913257853
1716525864
443569288
43093816
1012861179
780735738
989685920
83119130
2127799200
1703121545
2129928356
19020778
1233389456
170368168
1795952073
53873785
46167681
1400708829
950818448
1306949677
1276858338
1183366418
1172182893
1420968144
775500680
1746219859
915573438
926495154
40463987
410139272
1659763037
56305959
533180219
2136078286
325612211
1037446187
1757938199
705556949
1958038780
255623008
825103673
515674031
444755288
1966852580
328254728
715136880
1497389176
2119057247
816509040
446194453
876874362
1611584183
2044368098
1482664027
380868416
646541169
323957483
394028457
181310208
1291861187
159939113
1357930909
608387611
1186916285
149306813
1154375588
1466011975
1488254121
2099949666
352278555
1889899
581966485
2045765905
1285567745
1760385150
1496294549
204582545
1266751825
851615566
1995037824
405572666
359607885
341282000
389840199
770911818
1897003676
5848191
954281056
1245382071
306528221
1592896483
1516174681
1208038602
1073242433
677849916
936508114
1523106594
2109493773
1403098238
1807858086
1079188051
1028197171
881216864
1390408357
1943259478
2086898115
322702895
1420305680
197169650
2007848389
1988588163
418988267
243186677
1124503481
1351700970
1021466859
1900982827
608929567
1988615998
1190878425
536274441
2102843593
145461644
1841486905
1523514467
1716589828
830002336
949604259
1810645409
1366748720
1740603506
504785953
726689197
765390323
681122256
8846506
85688375
2095559875
1800329917
1268630660
870473083
957857707
1650492014
2086594958
610931156
660059692
1912401357
109668017
2133448320
1762672873
492664692
1490290157
521416186
668231625
160768006
863462013
1279807325
778139661
361004743
446559078
1684855679
417166050
1807972699
1752374682
831838398
43844504
1550959604
1621773817
196081607
937033056
973023803
695671814
2141658900
1977836128
1696374517
873427882
442908628
745533720
690427026
1760610277
489976285
2128362323
58531149
1514228912
1272666045
1950172117
1833980827
1355168081
876530551
1498457378
1084459454
1040716553
1109774957
1332952999
1447478023
2019426001
689297828
1609002835
63042470
599333764
692140588
718523041
759138467
1277748391
1940522277
1837328582
816298030
2100403287
1958352974
596684641
71146104
187546985
330398181
1925425443
2083457279
1377007136
7077208
1636623379
1202210834
1595353605
2015309546
203806629
1461482862
1355021310
2094106836
612356948
43237897
860053769
1382805115
88765498
1878028658
1017952886
795242895
8037331
1715184199
257292183
1848729013
1440423462
1814748772
238960816
798723384
1716486230
1160737668
1506519212
1167525137
1150475730
427856599
959768514
1759303915
878370719
1387346383
118496668
722556952
2095606445
2005066297
765434631
1244233925
741264695
382073438
1502983539
15908210
64648537
439952680
1210621921
733865975
1235234762
662192940
2003783144
391026370
408808871
103563688
102784461
323989699
397808331
1473033185
971770506
1756252502
737037364
1180971659
1909073529
526107812
1073409483
753435878
1001725187
236471512
1069537648
483889177
1533738381
33971312
816835658
166334414
1240304937
1659440231
320075225
1305286423
328884495
336398217
1449276883
586372967
2094268611
1895710380
791634501
649015840
2069172465
675984652
90322465
1743163303
1550222423
1572052183
2104657804
13729951
1582421843
1749924556
1335682459
928294251
361255328
808588119
873709257
547905290
739790982
578805218
592908209
1243465445
1680447782
1771094512
100374755
1911713586
1146729210
308304534
793418982
1749281608
1995524472
122159977
574826292
1096032204
722179846
1263529008
681957780
393173784
820565744
678852029
802439950
870659310
415547281
242144559
795655662
329594768
1302987887
779616701
296474134
1563447136
2078007607
1947002709
767309498
45089690
210676431
1364124612
1614684560
1948546463
516451026
1898679049
779054207
1924803280
660766914
1079948050
612173705
1199086313
1212501355
1636943941
1202129910
1419414029
2031543218
133786141
16798170
838936501
1236648994
1592938041
1437765202
1112733547
1492688547
339635763
365951569
1870102909
273423466
1302559417
1658552391
37800448
1323807483
1238079541
189821702
1379111618
1836219780
661218058
949144391
1467965952
1695621163
1287666635
1355869804
2052543422
1794486534
751950725
914357385
1341960422
2074782624
781332506
993765068
1324110096
527559327
1168277454
737316248
1623179556
590391638
1530189527
1349002902
426980597
394366880
2027469391
271920036
1088503387
564511470
1041376584
730828909
1147489893
137232527
79416530
373489859
330693920
1733607519
928361417
123922195
1562909204
522346279
1065408530
945748614
313230255
1469337574
436837855
440620370
435341590
1696618383
151053369
2014122745
123113672
1779223984
193321406
287077939
1143327249
1194780661
906029100
787322876
104047779
1224739795
1018229024
358653124
127160559
2067474679
2106315332
1828352961
2056882279
823335682
361967934
1789336671
1195367985
335746240
283021297
10908910
878565009
1998197165
196847985
1349292129
939902948
971133021
644224365
1700697499
1202422404
946197687
2079798542
1953834042
566149424
468251209
1615816348
1961706529
797663491
1511251617
2144961062
1649466211
1196450365
1315195798
388603353
1480567739
1134473166
467667147
1469585937
2088884684
372289570
1797369632
823784771
1410136798
831233425
586699286
548890901
734309152
1574675881
1743993380
1310838220
769633381
1251725967
22194072
839501554
284855205
1874508367
938908651
838252406
100716439
369948592
1577364683
360742406
641052448
670984841
1813896661
1944877431
583356315
949174116
52265744
944690275
1533512223
2146025540
662317914
493951533
1237138289
1636691183
897683993
165614296
1529944270
1779423907
1539873299
2140858166
1665470163
242080980
1531465580
1645841766
1146431408
1493398906
1656812025
675839221
1157167454
349048029
354158351
662547235
1145871201
1895330323
681997481
2136133467
529147458
62792563
253469396
1301081741
528267423
81223296
1016768106
877736159
745932260
213842104
1841197805
1678245088
1401908344
524484285
993137970
1164925950
1478464510
1156652452
1530525046
259892922
544052116
2014302924
667623802
131430742
1154130011
787833942
1508482779
1672212385
1683702577
1454219480
1764148552
975317374
586749766
503277542
540582237
942872218
1471549591
33749793
1036213650
1232505710
2074757444
580523278
1653454269
807050565
1423268118
2117782064
477720754
294929927
687616701
1369321753
263774896
1286099180
2022476341
2030293670
366638983
9277090
1504625612
1440408175
610485484
67719576
131033478
1690451658
1792124145
646394375
470362534
1559247164
1510004628
1951210133
653810916
1664296481
755412465
1510775818
211883209
266057229
365181854
1798474293
254849517
1073878241
1568838046
964026285
1703150169
1740034839
471105596
457632319
242935523
1540396229
504783196
1910488829
1245872926
1327991659
755296990
1993799451
1054798300
137344151
704907376
1412805419
1297974356
553837346
1313783500
1228007566
20482208
1963691956
1785271432
1624110251
1268094829
882995174
659359153
1186888153
1747413559
1879627628
451640608
303530739
1503410632
1214636058
1937397568
1818357890
1604428984
1448368553
321416209
1322921058
547822841
989168439
804299106
649668136
2108153557
962890195
1768228178
210278154
644181632
597873168
1214967795
1503891136
144416607
1462568928
1124150950
1243891605
483860604
2055861938
675886347
10502667
1605866719
642001290
1194088544
741583353
1988505735
551506922
873861358
1081934422
304733908
1450869082
1214006491
575281503
463597787
972033513
1343134199
1658275130
290477027
1180985038
1493553218
513927130
1014779786
1700041237
942416995
1408187232
177654674
240484086
538425693
138962641
1575558907
181739135
238029545
1531762988
360146233
1632519063
1639409817
811331322
1543462253
142625528
573666917
1740037450
35442724
609979326
1354741936
853272477
1069317535
863211461
439166326
1727781385
891720751
1021842350
1568784038
1267388284
1678356005
1003867911
1024931082
1108163733
487545039
914359514
1447530940
1197622408
111354340
612621163
1173284966
904680808
1840590398
8813926
1310265996
1528368082
23156656
518979845
1129607343
1642684397
1854133256
610081069
1581429980
1195055447
140796549
1001229550
673232150
62163729
1203831484
1954379956
1998472623
1381210196
1772171735
4019581
1367284521
2042691669
1534767648
1426377173
345879770
1101591274
1783683199
309871049
1728663169
1148841149
1452761862
1580289905
1259854779
420141807
2126632549
1245368972
426051828
1590265945
1183344024
961669564
1087850070
171069645
957046466
431794555
1675876873
1718754867
538845824
950508969
1223359045
473148462
1797431651
1562054956
363130858
750326963
1140744869
1253645800
1941520373
864199701
416420401
1100318092
112778880
1742992719
758945488
160977281
164915510
1124619843
1980936384
352074651
2110220353
1577546872
378806222
1184488830
93428288
248205313
1313296736
1842391446
1790395737
27818404
46438156
318679820
1071747528
145331589
1356457030
1016598133
987229233
414132228
881857899
1712288070
619409431
1873062415
1606073728
1994390234
722295138
640410942
1121680546
556416047
1693024193
2050988039
474078683
745855017
478009301
1869505150
359710207
1380054172
902299120
1953429832
250755485
2001367334
272746534
351183788
920855323
894429399
1510334732
1503329878
1721696620
1452702068
244672833
1468532800
135632316
355947554
1096262241
322139903
1802693170
631051717
1577885854
1116099243
31647662
1285220123
931923219
609606208
1650029766
2125423746
256426191
319074429
1365777175
1193561898
909303363
721768087
1028273749
2061239449
28332986
1428079107
997239280
62766876
226876774
1064612001
351674361
1590795799
631824509
1332978590
1401212559
943552149
957568029
1508023570
139904747
1702062765
1624421535
1970992062
857328443
1459833471
1420492238
126318410
1050651811
2023734449
415673419
959175825
2103718464
1460153676
1175242866
1461023223
1745979097
1219004353
148240634
880155473
474754733
1054848499
1339661310
88774304
976193266
1392371873
659286685
1124927546
1124322022
321628313
1648763426
303353449
64398061
143306099
2125576014
1157930653
1656699417
1761705678
504336199
113764627
364305570
1682103508
2140422984
1656784129
1578049232
2093084482
506620336
1441113517
1538165287
1650736907
1867245831
1253381452
1734136990
1306686863
1021530538
1559739033
596090294
1760093522
944128194
24798214
386446918
1613290083
675924429
821812491
764865903
1370206781
5368134
2091993437
1705666432
1658371041
998047411
2111949207
1136491502
1723785465
158093076
1631217632
1458772922
508761366
809668375
1637567450
860602249
1098157677
26309924
1564423755
1102175853
682083866
1578062829
1262372465
642181943
479805499
101563510
915211646
1098505066
26811441
1523198008
112769828
2022716812
1247833379
1053928389
1170344459
2120918702
1452366306
1909502207
1033294633
1164845434
511903078
373799124
919364472
396002323
1326071507
96347574
1432020629
167233062
1024457233
841748088
121316443
480423860
1642499988
292820902
870810691
1491211937
1584317743
1910920816
1524718190
583902640
1413324267
484784709
310082279
1009723980
957608546
1457881145
1598756560
577202872
572051718
438446960
666886141
20939935
1634182688
1534953839
377779582
1756353264
832777394
1059601065
292034553
1271225585
274605552
1556563475
28484983
183421756
1363860007
284307997
98819683
1813636871
1631740077
1543645163
1140781366
1730846771
559198181
1951079776
1990413946
359963390
926053936
2079852320
1985201639
1593853624
694270286
954405633
1802299903
813988917
449724265
1055058472
74169422
421372861
2053553878
858127160
2135269901
652960517
9950825
693423330
196255766
903730251
1570098741
424957985
124444392
605766580
143007398
245459509
1417181109
59209200
817480246
2019430018
215910386
1746237038
1732856941
1800012382
502697333
1588391345
813943532
889138459
1627720569
1754005377
1237413170
1374364680
363230732
187609414
290125133
765375555
903178029
484759496
589754256
254571635
1919621617
1918864941
1723708276
829382473
1109077954
1906258859
1986341703
1228043824
1275837514
1389031944
2063951102
559049469
441096481
2140851229
1260841340
2131907185
1736508262
236794635
1440472565
788291206
107380336
1136731591
521464745
1825022071
1351876852
1638782658
1410527288
1323029293
1031301459
865131027
1137079675
2016161159
961493375
1982585777
1343091287
289553532
253401936
722132492
971231967
1802618142
935439593
1391198173
2074953787
927903659
596907176
1350683357
972742953
1637742810
445898270
1633225119
741075610
2015014023
453418229
717956636
998610689
1770514513
753851114
1292242832
2020536223
178840825
1949223604
1179822375
1789037621
64489832
1647658153
753057829
709300948
689308839
1127615365
1703905788
486506804
1082781707
34494410
34712128
589577237
1636530614
1628875900
1499185652
1987438575
1617958526
222491491
954238129
1958414563
695483464
1544675677
1034770254
232352615
2134484144
871146036
2019718759
236737552
1198757542
297258309
1999741992
41449442
1786394940
1433838043
757882557
2109652248
1218309429
2063698577
1850383970
315540082
1781772325
586214133
1538464890
1761226912
1433634415
1392325278
602808467
1693045171
1600253085
473250235
1724634949
2037739775
1528648421
1619780994
1558655208
1358922945
1023975122
1079907521
382617262
554016048
493598106
1269945177
1073302015
515284128
4394489
1779422919
1306065479
880785709
1712802608
116933270
1667605179
1168196379
1809178302
1880339642
1974968756
2113680966
633582246
1969330452
1716680101
1634308758
1807932489
1120192238
1407931560
118258476
2068075874
359621571
1385449925
707796851
626966507
1590628627
273996690
2070047581
899886770
431644411
593050147
1637646046
1483274437
230721986
1526789664
610922317
90805168
2006744508
1832271331
1159712479
1436906640
216802034
1033282761
508853489
833289200
342684242
1142321299
904478428
1870161573
1394528588
1156018165
118923089
1162987820
1506686549
462182694
1728878442
1761874148
1302762738
1327607798
131563114
1227755321
428741184
2114270094
39502413
138971926
220954908
1797576050
961701788
1061575620
1234675198
392050499
1416385052
264604428
2061157346
1433907516
61494494
871005973
1081569312
794550312
811469466
69086453
1315155681
1063304208
976188834
1493717785
988894974
1350776372
1539270898
1111407361
491175560
748707612
1402386152
1078101031
321433420
2010453334
1932733243
176452996
2079761033
1414347583
1059277335
1749637303
836388233
1240167841
1480710315
1164401428
1229669810
290615777
2000825823
1911912738
1646814453
1777906653
1490962882
1713762339
1556534764
252701790
303543907
1906620508
1350098955
791205838
1629237233
1878198114
1881984033
2124194838
813634749
1901648589
484776055
350543508
664313289
1109756344
1022030991
1093331631
1274797806
1477992332
163317430
1652031585
1695846156
1877622297
1708422810
336507420
69048421
185681800
1855341264
647428728
1203859620
133665127
1705958499
1793446852
735394202
1023270394
947653567
1128879469
1925163185
1354981119
1527847872
1147296270
2000467994
4948003
1604145023
1723117156
2052005415
498776181
705994038
1714865893
1246793323
1350788422
1528542018
1833565832
1831977282
33270978
207111277
212098239
1226523777
1735747384
996580285
1238688578
465572718
1158746620
1205172379
975922561
1775433543
1386531141
866726905
804054508
1831841607
506481474
1694968710
1943895073
1768481022
1568080251
2060088992
1565049863
864800858
1517884139
1558372970
1456591622
587915390
77889378
209663408
2121512776
249551699
850870455
1461960084
322665755
1796670024
1198224733
1928208831
1264893330
269739574
891720370
828866682
2040640750
771819461
1258594119
1634063090
410509467
1811627978
1203270916
664639893
1723475347
866774912
1692011438
145018934
944340623
789903505
1734068826
373828227
2053452377
128548171
1073734312
758355956
720605622
41838960
1757852320
1863258123
642530852
654950858
1919889121
676374347
925694010
848805105
524440823
405072464
1084355755
871670541
1988273451
468615895
701152368
1205499538
1845011872
251536403
1736741187
265511935
490040343
1111735840
404970763
576846545
1749299122
1188690826
562177947
1549806862
765715573
1634534406
567547077
681973670
1166138370
1537051149
1203694426
69833558
105804118
195108444
1315447359
971475913
216316375
1367395351
1715304537
185082158
882786328
1953955279
1130500279
885952346
2110506499
973973778
1590237834
117825121
388763563
1136509625
791084750
45833060
1494856768
921762709
989992499
1110955964
1061747104
1852228698
1699473387
944288315
1343141342
1931319737
973860704
638166732
1716074896
1040292062
1220864856
2072012547
2099528280
1254185953
1180545704
813365915
1796273386
1330257359
1081513029
4318864
1802166117
2056005288
540294269
1406082828
1818428331
1883799530
313074340
190496334
1357506823
1321791715
690389304
1093567884
879867791
1719878342
601739763
215033097
1082218765
1791544568
1566299594
1052396657
1244767387
1170426167
897982963
31490731
936218538
1629483043
652490507
1234290421
485386527
535420200
1629298337
1864890404
227351281
1966390021
1471320574
1682572765
1587639597
1985525739
740468743
1670047690
1695055708
2124464481
918096817
307715759
1099617072
1970014602
829995558
339967113
1794899723
115593743
749160813
552137840
1837887428
579240317
2091038114
1118253823
1082352399
1508441781
1019918452
2109095627
566518174
1160730091
1399236262
1008558223
411550121
1641915517
378590834
2084475661
384872796
1942113485
1246793163
1690811352
741296104
1188721560
741046474
167422761
1460347354
1278329538
546809813
1566368934
1255080130
1792964397
1524045180
1912614617
1588492321
22721425
2145760631
1958013910
1776196985
2057051565
1363348022
1888958992
2092614544
90882608
1551909781
898095981
963525824
1805140172
10216699
2000807602
79439147
970473676
1381233503
14564996
1637758041
1612393727
79145930
565564245
143890554
762067075
2070004177
1169402261
764991365
158575195
266609924
2085071800
1843509961
283013605
1544441921
105595293
143540241
1091306351
114761524
1548267725
1404277762
713260095
567487601
2075542863
1362236755
819007087
423671905
718684383
1559322093
831305187
282204006
1208783937
674977141
57357439
1132439442
580607733
336546850
425350457
483020613
1205286739
2120621128
885619154
1173848955
553925443
1015043308
1969188454
1240454541
858581051
1182231538
998147542
1049168528
1264827238
107673669
1041759693
304396378
1593874962
1338176652
1668262717
816606272
1753940429
958400697
1603333743
722753936
253886695
1840438424
1381363601
1756204903
1867707967
148075047
436347510
699447165
1768954384
819038263
1318130583
1183472493
1788333498
1813447582
1559919446
529642587
985510898
366305864
13409080
485687212
1931907550
1704408446
1704845686
1857445532
1575482873
791585644
150394221
1894529914
538749360
1452929673
141904986
807942330
899606715
1838619289
1594483859
110339710
1849254304
247422910
793823939
704676205
1231027715
1277424748
405194188
1199962270
1050768114
1837409272
867928767
1901034387
908237005
1146717250
1216502140
795300199
764709898
168341632
1585570021
1952822812
1127650577
247532382
1520724827
185434393
563402861
1972570293
1959350722
1241469950
198496219
1417707704
1417198007
1993101269
327190781
1297910187
1530566713
1104237648
1306636124
376723971
582090416
677627292
807230299
1880765242
2008919711
1392040581
241281805
776688372
587134703
823161583
328606310
1271525027
440915620
617379345
1679807328
1847866643
1167157924
71153776
2137673342
1480677410
1429971137
244279905
1493588537
53321776
1047999747
794431095
189756538
1929282897
1306195141
176617274
1923684844
1606931038
1598377001
1330466269
1904531163
1891290713
759896436
955359305
310517420
296251234
1368705450
1880160146
924380441
1497339155
2058009771
794850723
2120232282
142625258
181531132
585792622
278981504
1643974184
1186593758
1894931279
25644056
1906518519
1910324406
935822780
65162294
1541605293
831810258
200364356
922962474
1831966212
1325292690
641481853
1726895533
1761325683
1929190668
2035399703
766265333
21273326
1051281335
1386451513
2100274168
1850239191
767339819
2056498166
912080606
1335595792
2140487440
2078378064
317304857
1449162712
1989231772
1384523167
1289521550
843837254
346412727
1044871295
397039683
1498539541
389063737
1433168305
737569763
66256605
1394998801
941251689
1479370688
507788488
903621543
1829059801
1028233947
2011805301
366282567
2084247054
405938011
727535369
705094152
1291071551
893764631
117078400
1833283640
527480608
1824701470
946340397
1720548751
873261244
1272714975
353952093
1175398727
1289013777
1466826986
415044968
33581856
922773361
576834454
345736535
491789945
1843501295
1123204526
284027489
92264310
820793799
119843681
192398127
2080620163
312636964
568153902
212946134
1252636080
374094161
1731303694
2130675312
296272772
1720058935
261574578
1234319970
1360644234
114090872
1590499334
1788940545
1723497123
508722622
1953025590
719366906
335260121
444699080
2031998227
103334649
1065077806
1807482173
1290544907
191125660
137286216
117131828
1334390271
1074061876
1737769883
589088205
1433625560
22120289
192717293
1489116808
1497479710
1879794438
1056905018
1607436915
2044709611
687852980
761292777
498103559
1535627582
1732358072
13381831
330020398
174811181
719510482
1507945037
2091929545
186389639
556167385
1546859865
237220955
1441043524
1363493952
251588261
1465554165
258209499
2063422644
410553409
663042070
1775992129
574964693
1697530147
838358798
935346990
1973213264
472148281
1557890308
1497476649
311658763
1399504306
1046879393
1402316388
641601129
1342951926
1223931643
167483138
91487468
928503504
106506387
1032271428
449734617
1990961116
117639480
702813547
1853917882
1240800867
1367785794
1248000445
373521357
810921766
728702987
197262240
162391833
1231310203
70089196
1816162423
695258983
78616519
523783983
1286576461
1041389992
1078021132
1384151440
2052135911
1289723437
1778648092
1250288325
1114915586
1609466784
1930180985
1165280046
769852967
1076404593
1659212274
450127710
1397742265
645408991
472216525
762347081
85281498
323999880
1789125161
289796288
2008569649
1239873166
1054580973
1063009857
1539218965
1587696061
152215806
630481904
1183403165
1581468831
2047587603
949373597
721802689
1301672003
102927713
1780858161
203781151
527893819
1657994278
105375457
2912397
1093351038
1439465944
2109888874
218772499
52444151
265494800
211589949
1527455349
1850805320
1959689060
2003647878
877995996
77993783
495465880
1247509285
1153452086
2093647853
247112462
417226347
247179278
1074761526
338737914
895643406
252745777
1259779505
1708676111
874441014
309613182
270284367
935831879
1283685087
1291420036
467296311
358032760
1355254508
1418891704
69140760
1787852813
2068055807
888522910
290183133
1716777225
1029749067
1817454037
572198433
1790256542
201205714
1031015161
2065742717
271571965
1499789728
1692445681
161640013
1400258482
82044393
1677674279
461225889
1555652134
73738661
1039869463
737602686
1785522894
1818527242
798582041
661157805
1218923301
1053738740
472220598
1844237688
1633610524
292802814
516406625
1731927155
1491458337
684996467
1756768594
672120995
1428466481
338910034
1372693077
2073711922
2100668916
737612041
1113552949
428431151
1914783100
192794269
1638983408
1802305365
2023543243
1001677285
1051285340
38411393
1187810027
1137979317
1949591373
1062598195
1747575036
970127485
484227659
955528766
1825508390
875374567
1037340944
254794591
545843701
718514897
719399490
822621109
1362108537
1697008855
1102703235
101375633
988449555
117677983
1015827747
97769193
68546147
655845365
1081449359
19695038
1237120297
347116853
904097341
1050860505
412578766
327663310
1709962367
244413613
1303835877
1476340369
1221526948
548520000
1025543579
1988451161
1727068077
795948446
599062882
1155737231
650133765
56790137
1424490354
1549685604
1595334613
1665400985
1139285351
2142879783
113806025
993237676
2063039670
540807479
1596893497
533365741
1255616115
419817070
10687171
1341677386
2001055635
2015402646
1023056077
2056760390
1689367877
1355712642
1563448759
1389637856
1315062049
449174062
1418904925
1755081775
1400176078
236903954
484681089
1215762438
875815491
1004463657
201039410
406160442
1751326516
1462283851
346206541
1008496532
1246253688
993741149
158233566
171658056
1766589334
914921685
563547463
801897535
842426419
55331390
752091207
781416017
2049470489
439115159
342997673
1046242633
479336818
864826256
2096164414
1757732967
1132924210
1482368056
346075144
1673012130
485655371
1397202045
1489265082
17650397
776695454
660587734
1542873287
2145665720
730460589
1766371241
1570275287
645483692
759110316
1951731574
1262699995
1229531089
1557129211
1961129127
306509544
1182649262
754226034
630461564
2019648731
45963918
2008885311
1693062843
136545876
513020753
1652317654
1967418407
1982978195
1775389792
857324619
1223961876
1110869653
207058244
1366034844
814644980
923556194
1910710595
39648400
429654869
1392603424
1084561766
28785175
1206898079
169919603
6649596
2057279704
336519511
1100179737
440255932
2111483290
1026635935
1414177765
2130455990
2015338434
1166365316
1715716582
208250395
1373193617
461326592
1154922340
936128324
1289127839
52195166
262179046
371070190
1670057554
1176795115
1723497284
278083668
1621177687
714154825
1611598864
1847943792
482232265
174421545
247312756
1493212917
1266287893
677213925
1956537016
684236107
2141875339
16741649
1192618092
13638617
306500169
1605883491
93058304
997939652
1580546743
1808297496
2029257832
707170703
1319960444
821320273
1358562505
1661565632
210352922
1542548135
881051271
749786337
714440190
2059931333
1079522441
281475353
125913589
225102954
400381115
1040479444
932894424
317603066
1493045225
591506340
660512414
65705193
1969799790
331514416
1260859833
1387245935
678925282
1324683162
391828290
370454083
2050201616
1945917531
664296854
1942750490
2097395321
998248477
1787063751
860172925
884497194
1213883475
1526192302
440722696
1522855613
2044513864
1181771452
1350349671
2090342038
1753542068
1539627030
126573174
1042529519
404384261
1010643344
149848959
1539695055
1884216769
206590003
328143515
1541616266
924371093
141018549
514915571
967076383
371361944
1831533707
674211545
795310585
650534327
301114528
672123468
680884599
372274066
1730504606
462415072
1202609869
761262914
559866898
1442852444
1450934009
1725963950
895611672
1707808346
1668929003
1043493242
1744253926
1614236544
1085085420
184732652
402186237
1317816601
221021468
73311715
267184050
1130523898
1809486577
1984448394
397301281
1325897431
114838380
1176440093
768015863
503401839
6652271
410365901
1127902418
81096105
1996409061
1158650198
195242078
409100348
1269446187
1138638062
1856188900
841996258
1719920362
1610054381
1724437377
1681987700
1186681339
1134430645
489206582
1745994735
1079140275
1519708346
1477324692
8794525
1661946497
370596454
1581450429
381176827
590497523
1340794656
1066350477
229242610
2107634520
1613686332
103959135
1627782797
1985057027
1938886955
741783916
523799621
2029782083
1305583030
1252048595
793257593
1358863377
1720016845
1469669039
385365313
516596434
875721743
1809234871
501092970
1712633474
67105297
1856156556
909221366
155248951
1783735896
855687760
71458164
1134209198
717804809
2140417952
832184812
1963552569
1816331225
772244126
1895183987
1460878211
663735376
97926591
878712245
2082328945
2109126122
830071717
382642342
1191166328
80091403
739984209
1591282978
1511143857
541329462
1225329653
1210311577
1377082801
611992349
2102700431
1834099975
2052253408
1375088719
1595304220
1013088849
77581518
683007985
1559880828
1401047435
819180862
681252302
64206664
2088686731
882994300
1323129736
1059158799
958300013
498181540
2119441121
1551174314
1925850643
1427522347
43106289
954994651
1678781248
1548117663
65594203
1660212712
984221341
1358186793
211057891
566323172
1020090923
1043192788
761011577
1055519511
1823576550
1046032195
1647128807
501183510
961743100
1925031258
222447962
535800593
1134344238
1516955577
965832782
180049874
457272502
460237088
1398440350
572505641
380470664
1584016786
667848022
1706324493
228211379
1840814592
1122583198
1696492490
1173056112
1584860491
750084317
1704551582
1319170124
585072628
357905142
507017855
1422164786
42429537
826806588
528424080
844962593
372457445
1569057691
236142483
261152861
168792484
489282458
795466211
1782489231
306258971
545570613
1651419152
947375742
719105155
1200675519
2101884992
509871752
1836540894
2011136743
746143659
1480007294
2074172965
674877345
1455437247
84064975
918203267
843929070
875968835
1867279695
984891486
1289611729
911096838
1148279636
1382917353
118843772
292910911
1677749229
1635806801
933924457
808855484
206831180
141196896
280479952
316510872
701769646
354946136
1799037156
499536015
1919580667
594441273
1666720137
461890456
1053839779
618188763
143968983
1064079746
1065397401
1651988182
862620527
1068403158
993429356
1716684546
61096954
773673119
2030093478
479401103
555896875
149713905
1343527549
1629463036
314415642
344753970
329746667
396443803
1562555272
1787783095
825874551
1493154069
496892194
1220069685
1541054441
847682362
2062662576
243009961
118379318
1745098313
275739461
2118667816
1075894471
592615869
1705834705
1126426144
617359534
2027830431
391039160
1782053036
1245475409
701951713
192957695
1930262551
1603979980
299921534
1725116289
1348230780
862413701
925962827
1952363707
778973630
51136499
19938990
1444420748
322228229
540124118
717605107
410848885
1867940945
2138870316
447415779
784927268
2123391415
813789833
1697557599
1796137704
1626335357
248694806
1476164967
934232332
629469702
808820524
295285794
767896793
307029400
740588604
1265057339
507617338
1278751647
1424609624
639286275
1099899151
491461307
1522203928
1975470486
62284884
1979364220
358404276
997133699
1226634966
1778861378
1492819362
806785698
303493303
1345643032
1190710531
2092099384
296005366
1466124969
2074868980
2040235380
500536934
1386617629
1308468904
260637760
1449712891
824065724
237456800
438931216
2019908804
225815745
1288516931
1966351814
327249467
2080271548
870424409
705406396
945015143
1033232739
1591316884
86153541
1013346788
1083006698
1742480613
795922641
1533323208
1610155423
196434811
1097581029
1253892652
484828934
1450540579
571650265
1194316193
471363980
1053164473
1707057056
971336314
101983601
1847393899
1166935878
1287714506
2119012425
806884034
826824639
600649946
1099403761
594015603
1793933095
1941529895
444393525
1255502214
201178151
1400937733
1058472770
84473613
1239741524
1903415513
1335042690
1037938893
1206572264
1107304847
471250871
1546199808
1111653263
1353325575
72618995
50352480
1592092193
299303555
939547619
899902862
1980525368
1847402288
1442563081
1230572756
758610340
1039408679
1663898769
1352787650
1289036359
247361691
1362195885
1330519027
1236985444
1346680140
1344373890
253559580
280973691
1943809231
1842130637
1487962148
1004984372
345059911
267114144
616358589
1974764026
1909374652
636239928
226380576
1884248077
1545335327
34849895
1620875831
2068684435
766027489
551505475
768009843
1813435458
109185948
1084006036
242186879
971864858
1181238445
174086212
657546154
1607575567
610146232
815355074
193484831
1267555386
1311481037
1319256165
950312130
1515955190
674036116
2144501321
1279448073
549158920
400958129
330257561
1888603072
2082444667
972334730
2013159658
776905568
843818408
2115534744
1754944767
1918927553
726716250
1647111678
806025767
341628771
540644753
1728731866
1124171239
259857393
1771483454
1617576306
1140459061
1739531591
1849534645
1795564053
56856020
1619589541
195702866
575306861
1540294798
1007234706
781406688
555143483
1489424152
724356751
862281318
1864608961
1779389358
1921239195
191997121
919058907
2083659410
17622291
214233832
2096421521
710152594
1472349458
1068883431
392580087
1551365284
610232289
1851511297
1125699456
141445855
1510586867
792718145
122019252
1926458612
1587849764
498636096
2134564837
949809015
330975518
1870722008
931492669
416763357
369192589
406655806
17674764
1767169701
111831160
817618883
1993836270
1479479514
230371436
1625810754
1900283469
387640994
82061911
410509396
1137430828
1286728443
1582721731
1938815676
1749778226
720368803
1665434878
1034221530
622530731
1363661810
1373036834
504498966
1229547869
734973264
847026899
384991696
1282724370
1344311026
1889658600
535835578
1977189246
1807508538
1526006392
1272429300
676280324
784118285
729982935
283341996
252626564
954842072
403902038
2026785009
691586009
1850257041
793800576
786381621
406203783
996668962
1868567954
389988995
522984533
952752359
246870484
1409739254
1876655539
1206803544
1611840240
1503606807
862312123
865956022
245404375
1964335149
865078829
271738374
662320487
1816377928
591150691
264874064
29535898
683049723
1123258443
961659659
382441561
727770079
7937236
1889578449
1070326092
1481819097
914282438
13525280
382802668
2126536638
1538621851
1630908931
1689538416
1523362248
1049666088
949777995
368795807
732394139
1563921022
824439053
615509338
1504729328
2134662947
46302914
1028964549
225411610
1892821787
824687063
558024631
22354536
492501167
1426812513
1758891864
1162911005
1229387130
1745450708
1274497858
477160601
1365089013
1833592846
2141217821
299762470
531227079
2019210595
53906656
1537073879
1952611264
2125534615
1754358451
515157401
860296747
260386361
901943697
693239234
470524837
12027949
2009301859
1021040200
780840683
1454099620
2035455602
180904733
2039985384
672548896
1365826164
341278935
896173741
2111682481
550590602
777850242
1354544135
844258466
1586159618
2137850161
30539215
437999911
2126339478
1742359869
2059718612
1281053791
271300765
1612285245
311411490
783115810
539703980
2067287808
174926034
2092649647
1296661673
1614453597
289774456
1515054841
1827265955
911123765
1158060549
433650240
138641641
753449778
869935532
1084440211
961074268
2046283528
1163427961
1959506255
404856367
1568919035
2112665360
1754084207
1979749468
1931919631
1019577159
21064859
306018667
1458681193
1724578441
1740896093
1253884873
1684958369
1731353532
1660343827
13487003
462345442
141091239
1414082223
130580685
8079582
1714330924
1765887775
1926474203
407935085
467294140
338360697
2069670293
1979635985
1474264374
556464141
32099732
530185627
667881075
1142487631
1460675701
1837971061
506239811
1184938092
175496241
1648499387
1703953770
223043462
1911171067
1508677392
1789839742
2100446897
1924902702
1464641387
16814732
1664870957
1402372794
458675717
1138807669
1491349678
2102565924
584352918
2015209911
1102116508
356246387
372046766
1477592903
1603527427
1132248355
749224983
2122589453
597328919
1148461337
2107426191
312229154
1265480209
333461472
924365001
1769295056
188824881
350651000
850931261
131604314
1995759771
304252583
1719228132
1222565703
340230035
1292109514
947844363
1817735709
2065541361
333823808
1238567840
1910823144
670852099
2053483823
1566189360
1810078721
670647422
1470618690
357070230
1600994396
209766032
441236776
1518970519
1420864982
544469892
1375994898
1588368378
1831721496
658394648
46468684
1241756173
728115774
27592161
1842729238
1288390539
297539854
1798337731
2028556283
1933995519
1549454863
506520122
1002347056
1239669257
1545518690
192909331
13193714
261843869
1587042405
1983712842
764197370
1775601235
425833751
720230400
326257717
1179464051
1025528426
880162593
436524922
1417543789
648795679
1620471937
127477402
1095680755
452122431
413677790
1703751110
617217383
341225745
176058431
426164552
1523919045
1717001351
1483220636
1278923744
1291303834
1585992523
108521621
501628089
73595151
266828164
508580571
1774257499
814451279
533663855
165080749
244662512
667278925
970698772
1884182230
1002596731
1148604963
1111444001
1886954161
966149790
1652957424
1947874246
1703091060
2063883183
636361915
1402157145
2073835449
50650687
474492415
965194410
875880499
1208234958
947428485
1087156430
420346843
1139538075
413147058
52042921
1079198707
1198427521
2074588616
1574498210
1797546163
1935552148
1154958740
1697475587
1930251478
1794674926
1762133336
1035362139
1779368617
1714424096
572763172
1268411639
1140420560
1125857774
1254189385
2140954592
385331590
299125140
1288807713
152012222
2085591306
1446027427
459901196
1436880877
1500870639
1591357637
1088376704
237731567
1555379230
426983846
529030338
695800801
1070703583
932038734
478813955
1020939085
1847276348
1214203172
156153405
1669160630
2057227915
523905445
1095656663
1819529107
1714296841
1995818922
385796018
2030237975
203547585
1049478792
1406719729
1394387592
668466036
1533157902
1015459127
100190660
1141713676
1906356323
996808906
686357823
139760904
1803628752
147649420
1453284910
1074613964
69001557
1630290670
2034316062
559367180
181050683
388964539
1706996089
1235772512
1745388364
268069592
923322609
415438458
622601216
2108832717
1943925971
166655142
1404188742
1964649250
1208424033
1718931837
853991083
1214600488
2080200621
729744217
1396662964
1650928575
1544688912
1084160324
1128172124
846597653
1783746526
593041197
2052877498
309373283
75180096
2000148870
1212862548
1836523782
428007593
2030518898
42930425
1325989533
540927533
653888755
43683408
1733880280
988439617
110504494
1118478845
2059872749
1366351483
1282671893
131669482
529788160
1851150996
1222643382
199643778
502945832
1350066997
1605440185
23436538
1006985356
1842121090
2024395586
420838753
932145851
293294202
1089105404
1598829943
771601263
1372624259
1158809283
1552018909
845709298
1352258669
1590803934
1545692510
1476466136
313227432
668068500
417867439
2141617048
963000261
518693013
1312769736
1153040611
188052393
1808825193
1377151779
1986301569
2116003026
813085560
1659164735
530431768
1637993715
512194926
1101612754
962969266
1395585089
309566220
2142716889
1069741020
1523357969
1153068946
477451536
53767971
1667588330
892013317
656746611
896148452
1015710502
1258273733
352586137
1496573977
1904048009
1070910963
1546379375
1790459119
58364929
1251710902
666744774
1176755912
2069739320
583716273
570346208
136519121
1356462772
1529683833
1563499496
1553333675
1402826031
1053760330
1410372236
1829772948
349820055
1236097733
1325244874
1641376888
1170962589
165934790
855537283
757372973
435614886
759186480
1541385649
566253465
2046235350
976607071
584946196
583560497
903064796
1918357914
392094594
202602781
1811584870
530019200
929702987
1197117632
68392011
346618812
564031476
1537712079
1795705885
1947191472
1251530970
563580778
800674031
1618134718
869224238
673265630
905521306
200942405
2047479559
984749819
1871077007
865552840
1304729122
1653723711
1759354549
1849173794
132063908
714964451
2044516154
1460057883
287947118
1569435012
273703580
2096486197
997307280
1812614194
1419983534
687629357
1994053075
556219657
1460351567
2004852049
2121067940
1217708783
95041393
1888342393
719255636
1803202887
1648205325
1034572434
315150581
1302684713
1209299396
1393275560
2072274485
1577287716
287690878
1565345608
1579645309
1518566204
188763180
62191249
1746855048
2021780575
1953191365
307120812
1729390542
2014946339
531869463
1715195647
2078802126
566660494
1908139229
29340507
1084606510
1257002225
378130772
2090645767
1098995776
519166275
673850949
412116689
1090501435
264397804
2011365255
415728865
999874785
2040899950
1238269214
374202838
2134482314
863998238
349594864
1788501500
1865363515
1973994863
1059704352
1819820065
891637774
917572861
1499845237
581882462
738182136
1450994094
147474639
988300534
1098416008
759955875
586385262
41474979
1602964062
1432604597
1941057059
1372021253
651685175
1260264066
1069152490
1379395278
1598286175
1214101049
1426102692
1100595425
71611910
225446828
1539676835
1429855052
911968079
445638924
559696119
567953857
594254747
844765816
1072735799
1961895003
599003771
1453640017
1419797361
1453894683
1498827504
1313514818
1734402788
2069280670
343001451
597349561
1045119731
1040803473
369010145
1883155466
268922654
1429020275
128942769
881209018
1731148651
1295503027
524552741
1697404717
178423402
1954643230
1742009606
1271146352
1692754709
1183455626
331520336
1260355785
784419596
202218239
101646191
304137355
260200870
1348952840
1913422188
1149778930
2001308980
2078665377
74051807
577652843
772608426
1439675953
12928135
1010523235
1811911478
1744474561
453890049
1242479354
1312266139
955651410
337576145
1252327384
479191396
283799860
1159505085
519008445
467261878
7111112
1295628416
1823282258
295371418
665332894
28491279
729191343
749629644
1197605882
266639926
1556996502
943935295
1953575722
1971911524
283290394
1423009713
1500689254
188827696
2128384015
1824306731
1234618148
1505301688
547103472
947979017
42581752
1372135744
1862513024
1751024820
1519977892
1143202133
217633982
1872792067
995456109
489982034
1685047580
2008493460
806612768
1979294021
1911656152
796724728
2060273882
2059676713
942527097
2099384821
285110108
2095334583
373922979
257176019
357163014
1013731304
12307146
1683966310
1505453208
324252531
1705529092
471659264
833557925
727847613
1389049998
1269655872
1501341889
1282151907
1143243737
269644119
2099774391
411744218
1471525661
1189432611
1853364455
940973169
2076323303
578860593
1710558150
122482369
170093204
1092083423
963550446
1269909352
610393425
72580438
1170988689
1329863411
157528341
556654072
1627729961
2078814111
111298397
1038548181
71926667
827694128
334987525
1980344451
2104486075
338087343
439602722
1117432938
1509319102
2091390503
1506674272
246088352
1693384673
2016592538
1612581212
782634647
2086422283
2147268850
1991452234
47505074
832428654
476421898
2037861703
1135572826
464416954
602572899
91227809
1354048725
2031357972
554249320
2064528335
1487197471
981701329
712746198
1545443047
1410235236
1314419537
492155855
512041945
290879658
136437925
